%!PS-Adobe-2.0 EPSF-2.0
%%BoundingBox:  0 0 567 384
%%Title: rpol_minus.eps: c1_n2
%%Creator: ROOT Version 5.34/22
%%CreationDate: Fri Aug 26 21:19:59 2016
%%EndComments
%%BeginProlog
80 dict begin
/s {stroke} def /l {lineto} def /m {moveto} def /t {translate} def
/r {rotate} def /rl {roll}  def /R {repeat} def
/d {rlineto} def /rm {rmoveto} def /gr {grestore} def /f {eofill} def
/c {setrgbcolor} def /black {0 setgray} def /sd {setdash} def
/cl {closepath} def /sf {scalefont setfont} def /lw {setlinewidth} def
/box {m dup 0 exch d exch 0 d 0 exch neg d cl} def
/NC{systemdict begin initclip end}def/C{NC box clip newpath}def
/bl {box s} def /bf {box f} def /Y { 0 exch d} def /X { 0 d} def 
/K {{pop pop 0 moveto} exch kshow} bind def
/ita {/ang 15 def gsave [1 0 ang dup sin exch cos div 1 0 0] concat} def 
/mp {newpath /y exch def /x exch def} def
/side {[w .77 mul w .23 mul] .385 w mul sd w 0 l currentpoint t -144 r} def
/mr {mp x y w2 0 360 arc} def /m24 {mr s} def /m20 {mr f} def
/mb {mp x y w2 add m w2 neg 0 d 0 w neg d w 0 d 0 w d cl} def
/mt {mp x y w2 add m w2 neg w neg d w 0 d cl} def
/m21 {mb f} def /m25 {mb s} def /m22 {mt f} def /m26{mt s} def
/m23 {mp x y w2 sub m w2 w d w neg 0 d cl f} def
/m27 {mp x y w2 add m w3 neg w2 neg d w3 w2 neg d w3 w2 d cl s} def
/m28 {mp x w2 sub y w2 sub w3 add m w3 0 d  0 w3 neg d w3 0 d 0 w3 d w3 0 d  0 w3 d w3 neg 0 d 0 w3 d w3 neg 0 d 0 w3 neg d w3 neg 0 d cl s } def
/m29 {mp gsave x w2 sub y w2 add w3 sub m currentpoint t 4 {side} repeat cl fill gr} def
/m30 {mp gsave x w2 sub y w2 add w3 sub m currentpoint t 4 {side} repeat cl s gr} def
/m31 {mp x y w2 sub m 0 w d x w2 sub y m w 0 d x w2 sub y w2 add m w w neg d x w2 sub y w2 sub m w w d s} def
/m32 {mp x y w2 sub m w2 w d w neg 0 d cl s} def
/m33 {mp x y w2 add m w3 neg w2 neg d w3 w2 neg d w3 w2 d cl f} def
/m34 {mp x w2 sub y w2 sub w3 add m w3 0 d  0 w3 neg d w3 0 d 0 w3 d w3 0 d  0 w3 d w3 neg 0 d 0 w3 d w3 neg 0 d 0 w3 neg d w3 neg 0 d cl f } def
/m2 {mp x y w2 sub m 0 w d x w2 sub y m w 0 d s} def
/m5 {mp x w2 sub y w2 sub m w w d x w2 sub y w2 add m w w neg d s} def
/reEncode {exch findfont dup length dict begin {1 index /FID eq  {pop pop} {def} ifelse } forall /Encoding exch def currentdict end dup /FontName get exch definefont pop } def [/Times-Bold /Times-Italic /Times-BoldItalic /Helvetica /Helvetica-Oblique
 /Helvetica-Bold /Helvetica-BoldOblique /Courier /Courier-Oblique /Courier-Bold /Courier-BoldOblique /Times-Roman /AvantGarde-Book /AvantGarde-BookOblique /AvantGarde-Demi /AvantGarde-DemiOblique /Bookman-Demi /Bookman-DemiItalic /Bookman-Light
 /Bookman-LightItalic /Helvetica-Narrow /Helvetica-Narrow-Bold /Helvetica-Narrow-BoldOblique /Helvetica-Narrow-Oblique /NewCenturySchlbk-Roman /NewCenturySchlbk-Bold /NewCenturySchlbk-BoldItalic /NewCenturySchlbk-Italic /Palatino-Bold
 /Palatino-BoldItalic /Palatino-Italic /Palatino-Roman ] {ISOLatin1Encoding reEncode } forall
%%EndProlog
%%BeginSetup
%%EndSetup
newpath  gsave  .25 .25 scale  gsave  0 0 t black[  ] 0 sd 3 lw 1 1 1 c 2268 1538 0 0 bf black 1 1 1 c 1814 1230 227 154 bf black 1814 1230 227 154 bl 1 1 1 c 1814 1230 227 154 bf black 1814 1230 227 154 bl 1 1 1 c black 454 702 m 25 Y s 454 727 m 26
 Y s 227 727 m 227 X s 454 727 m 226 X s /w 2 def /w2 {w 2 div} def /w3 {w 3 div} def 454 727 m20 907 681 m 25 Y s 907 706 m 25 Y s 680 706 m 227 X s 907 706 m 227 X s 907 706 m20 1361 796 m 25 Y s 1361 821 m 25 Y s 1134 821 m 227 X s 1361 821 m 226
 X s 1361 821 m20 1814 796 m 25 Y s 1814 821 m 25 Y s 1587 821 m 227 X s 1814 821 m 227 X s 1814 821 m20 227 154 m 1814 X s
 gsave  2268 1538 0 0 C 1707.3 48.8732 t 0 r /Helvetica findfont 48.8732 sf 0 0 m (R Polarization \255) show NC gr  227 191 m -37 Y s 272 172 m -18 Y s 317 172 m -18 Y s 363 172 m -18 Y s 408 191 m -37 Y s 454 172 m -18 Y s 499 172 m -18 Y s 544 172
 m -18 Y s 590 191 m -37 Y s 635 172 m -18 Y s 680 172 m -18 Y s 726 172 m -18 Y s 771 191 m -37 Y s 816 172 m -18 Y s 862 172 m -18 Y s 907 172 m -18 Y s 952 191 m -37 Y s 998 172 m -18 Y s 1043 172 m -18 Y s 1089 172 m -18 Y s 1134 191 m -37 Y s
 1179 172 m -18 Y s 1225 172 m -18 Y s 1270 172 m -18 Y s 1315 191 m -37 Y s 1361 172 m -18 Y s 1406 172 m -18 Y s 1451 172 m -18 Y s 1497 191 m -37 Y s 1542 172 m -18 Y s 1587 172 m -18 Y s 1633 172 m -18 Y s 1678 191 m -37 Y s 1723 172 m -18 Y s
 1769 172 m -18 Y s 1814 172 m -18 Y s 1860 191 m -37 Y s 1905 172 m -18 Y s 1950 172 m -18 Y s 1996 172 m -18 Y s 2041 191 m -37 Y s 227 191 m -37 Y s
 gsave  2268 1538 0 0 C 228.075 104.263 t 0 r /Helvetica findfont 48.8732 sf 0 0 m (1) show NC gr 
 gsave  2268 1538 0 0 C 198.751 104.263 t 0 r /Symbol findfont 48.8732 sf 0 0 m (-) show NC gr 
 gsave  2268 1538 0 0 C 384.469 104.263 t 0 r /Helvetica findfont 48.8732 sf 0 0 m (0.8) show NC gr 
 gsave  2268 1538 0 0 C 358.403 104.263 t 0 r /Symbol findfont 48.8732 sf 0 0 m (-) show NC gr 
 gsave  2268 1538 0 0 C 563.671 104.263 t 0 r /Helvetica findfont 48.8732 sf 0 0 m (0.6) show NC gr 
 gsave  2268 1538 0 0 C 537.605 104.263 t 0 r /Symbol findfont 48.8732 sf 0 0 m (-) show NC gr 
 gsave  2268 1538 0 0 C 746.131 104.263 t 0 r /Helvetica findfont 48.8732 sf 0 0 m (0.4) show NC gr 
 gsave  2268 1538 0 0 C 720.065 104.263 t 0 r /Symbol findfont 48.8732 sf 0 0 m (-) show NC gr 
 gsave  2268 1538 0 0 C 928.591 104.263 t 0 r /Helvetica findfont 48.8732 sf 0 0 m (0.2) show NC gr 
 gsave  2268 1538 0 0 C 902.525 104.263 t 0 r /Symbol findfont 48.8732 sf 0 0 m (-) show NC gr 
 gsave  2268 1538 0 0 C 1120.83 104.263 t 0 r /Helvetica findfont 48.8732 sf 0 0 m (0) show NC gr 
 gsave  2268 1538 0 0 C 1277.22 104.263 t 0 r /Helvetica findfont 48.8732 sf 0 0 m (0.2) show NC gr 
 gsave  2268 1538 0 0 C 1459.68 104.263 t 0 r /Helvetica findfont 48.8732 sf 0 0 m (0.4) show NC gr 
 gsave  2268 1538 0 0 C 1642.14 104.263 t 0 r /Helvetica findfont 48.8732 sf 0 0 m (0.6) show NC gr 
 gsave  2268 1538 0 0 C 1821.34 104.263 t 0 r /Helvetica findfont 48.8732 sf 0 0 m (0.8) show NC gr 
 gsave  2268 1538 0 0 C 2029.87 104.263 t 0 r /Helvetica findfont 48.8732 sf 0 0 m (1) show NC gr  227 154 m 1230 Y s
 gsave  2268 1538 0 0 C 114.037 974.206 t 90 r /Helvetica findfont 48.8732 sf 0 0 m (Normalized Events) show NC gr  281 154 m -54 X s 254 178 m -27 X s 254 203 m -27 X s 254 228 m -27 X s 254 252 m -27 X s 281 277 m -54 X s 254 301 m -27 X s 254 326
 m -27 X s 254 351 m -27 X s 254 375 m -27 X s 281 400 m -54 X s 254 424 m -27 X s 254 449 m -27 X s 254 474 m -27 X s 254 498 m -27 X s 281 523 m -54 X s 254 547 m -27 X s 254 572 m -27 X s 254 597 m -27 X s 254 621 m -27 X s 281 646 m -54 X s 254
 671 m -27 X s 254 695 m -27 X s 254 720 m -27 X s 254 744 m -27 X s 281 769 m -54 X s 254 794 m -27 X s 254 818 m -27 X s 254 843 m -27 X s 254 867 m -27 X s 281 892 m -54 X s 254 917 m -27 X s 254 941 m -27 X s 254 966 m -27 X s 254 990 m -27 X s
 281 1015 m -54 X s 254 1040 m -27 X s 254 1064 m -27 X s 254 1089 m -27 X s 254 1113 m -27 X s 281 1138 m -54 X s 254 1163 m -27 X s 254 1187 m -27 X s 254 1212 m -27 X s 254 1236 m -27 X s 281 1261 m -54 X s 254 1286 m -27 X s 254 1310 m -27 X s
 254 1335 m -27 X s 254 1359 m -27 X s 281 1384 m -54 X s
 gsave  2268 1538 0 0 C 94.4882 136.845 t 0 r /Helvetica findfont 48.8732 sf 0 0 m (0.245) show NC gr 
 gsave  2268 1538 0 0 C 94.4882 257.399 t 0 r /Helvetica findfont 48.8732 sf 0 0 m (0.246) show NC gr 
 gsave  2268 1538 0 0 C 94.4882 381.211 t 0 r /Helvetica findfont 48.8732 sf 0 0 m (0.247) show NC gr 
 gsave  2268 1538 0 0 C 94.4882 505.023 t 0 r /Helvetica findfont 48.8732 sf 0 0 m (0.248) show NC gr 
 gsave  2268 1538 0 0 C 94.4882 628.835 t 0 r /Helvetica findfont 48.8732 sf 0 0 m (0.249) show NC gr 
 gsave  2268 1538 0 0 C 120.554 749.389 t 0 r /Helvetica findfont 48.8732 sf 0 0 m (0.25) show NC gr 
 gsave  2268 1538 0 0 C 101.005 873.201 t 0 r /Helvetica findfont 48.8732 sf 0 0 m (0.251) show NC gr 
 gsave  2268 1538 0 0 C 94.4882 997.013 t 0 r /Helvetica findfont 48.8732 sf 0 0 m (0.252) show NC gr 
 gsave  2268 1538 0 0 C 94.4882 1120.83 t 0 r /Helvetica findfont 48.8732 sf 0 0 m (0.253) show NC gr 
 gsave  2268 1538 0 0 C 94.4882 1244.64 t 0 r /Helvetica findfont 48.8732 sf 0 0 m (0.254) show NC gr 
 gsave  2268 1538 0 0 C 94.4882 1365.19 t 0 r /Helvetica findfont 48.8732 sf 0 0 m (0.255) show NC gr  0 0 1 c 1 1 1 c black 0 0 1 c 454 693 m 46 Y s 454 739 m 46 Y s 227 739 m 227 X s 454 739 m 226 X s black 454 739 m20 0 0 1 c 907 662 m 45 Y s 907
 707 m 46 Y s 680 707 m 227 X s 907 707 m 227 X s black 907 707 m20 0 0 1 c 1361 690 m 46 Y s 1361 736 m 46 Y s 1134 736 m 227 X s 1361 736 m 226 X s black 1361 736 m20 0 0 1 c 1814 847 m 46 Y s 1814 893 m 46 Y s 1587 893 m 227 X s 1814 893 m 227 X s
 black 1814 893 m20 1 0 0 c 1 1 1 c black 1 0 0 c 454 658 m 46 Y s 454 704 m 46 Y s 227 704 m 227 X s 454 704 m 226 X s black 454 704 m20 1 0 0 c 907 713 m 46 Y s 907 759 m 46 Y s 680 759 m 227 X s 907 759 m 227 X s black 907 759 m20 1 0 0 c 1361 753
 m 46 Y s 1361 799 m 46 Y s 1134 799 m 227 X s 1361 799 m 226 X s black 1361 799 m20 1 0 0 c 1814 768 m 46 Y s 1814 814 m 46 Y s 1587 814 m 227 X s 1814 814 m 227 X s black 1814 814 m20 1 1 1 c 635 230 1361 1077 bf black
 gsave  2268 1538 0 0 C 1518.33 1254.41 t 0 r /Helvetica-Bold findfont 48.8732 sf 0 0 m (nominal) show NC gr  1384 1269 m 112 X s
 gsave  2268 1538 0 0 C 1518.33 1176.21 t 0 r /Helvetica-Bold findfont 48.8732 sf 0 0 m (radhi) show NC gr  0 0 1 c 1384 1192 m 112 X s black
 gsave  2268 1538 0 0 C 1518.33 1098.02 t 0 r /Helvetica-Bold findfont 48.8732 sf 0 0 m (radlo) show NC gr  1 0 0 c 1384 1115 m 112 X s
 gr  gr showpage
end
%%EOF
