%!PS-Adobe-2.0 EPSF-2.0
%%BoundingBox:  0 0 567 384
%%Title: tests/rpol_plus_mod.eps: c1
%%Creator: ROOT Version 5.34/22
%%CreationDate: Fri Aug 26 15:57:57 2016
%%EndComments
%%BeginProlog
80 dict begin
/s {stroke} def /l {lineto} def /m {moveto} def /t {translate} def
/r {rotate} def /rl {roll}  def /R {repeat} def
/d {rlineto} def /rm {rmoveto} def /gr {grestore} def /f {eofill} def
/c {setrgbcolor} def /black {0 setgray} def /sd {setdash} def
/cl {closepath} def /sf {scalefont setfont} def /lw {setlinewidth} def
/box {m dup 0 exch d exch 0 d 0 exch neg d cl} def
/NC{systemdict begin initclip end}def/C{NC box clip newpath}def
/bl {box s} def /bf {box f} def /Y { 0 exch d} def /X { 0 d} def 
/K {{pop pop 0 moveto} exch kshow} bind def
/ita {/ang 15 def gsave [1 0 ang dup sin exch cos div 1 0 0] concat} def 
/mp {newpath /y exch def /x exch def} def
/side {[w .77 mul w .23 mul] .385 w mul sd w 0 l currentpoint t -144 r} def
/mr {mp x y w2 0 360 arc} def /m24 {mr s} def /m20 {mr f} def
/mb {mp x y w2 add m w2 neg 0 d 0 w neg d w 0 d 0 w d cl} def
/mt {mp x y w2 add m w2 neg w neg d w 0 d cl} def
/m21 {mb f} def /m25 {mb s} def /m22 {mt f} def /m26{mt s} def
/m23 {mp x y w2 sub m w2 w d w neg 0 d cl f} def
/m27 {mp x y w2 add m w3 neg w2 neg d w3 w2 neg d w3 w2 d cl s} def
/m28 {mp x w2 sub y w2 sub w3 add m w3 0 d  0 w3 neg d w3 0 d 0 w3 d w3 0 d  0 w3 d w3 neg 0 d 0 w3 d w3 neg 0 d 0 w3 neg d w3 neg 0 d cl s } def
/m29 {mp gsave x w2 sub y w2 add w3 sub m currentpoint t 4 {side} repeat cl fill gr} def
/m30 {mp gsave x w2 sub y w2 add w3 sub m currentpoint t 4 {side} repeat cl s gr} def
/m31 {mp x y w2 sub m 0 w d x w2 sub y m w 0 d x w2 sub y w2 add m w w neg d x w2 sub y w2 sub m w w d s} def
/m32 {mp x y w2 sub m w2 w d w neg 0 d cl s} def
/m33 {mp x y w2 add m w3 neg w2 neg d w3 w2 neg d w3 w2 d cl f} def
/m34 {mp x w2 sub y w2 sub w3 add m w3 0 d  0 w3 neg d w3 0 d 0 w3 d w3 0 d  0 w3 d w3 neg 0 d 0 w3 d w3 neg 0 d 0 w3 neg d w3 neg 0 d cl f } def
/m2 {mp x y w2 sub m 0 w d x w2 sub y m w 0 d s} def
/m5 {mp x w2 sub y w2 sub m w w d x w2 sub y w2 add m w w neg d s} def
/reEncode {exch findfont dup length dict begin {1 index /FID eq  {pop pop} {def} ifelse } forall /Encoding exch def currentdict end dup /FontName get exch definefont pop } def [/Times-Bold /Times-Italic /Times-BoldItalic /Helvetica /Helvetica-Oblique
 /Helvetica-Bold /Helvetica-BoldOblique /Courier /Courier-Oblique /Courier-Bold /Courier-BoldOblique /Times-Roman /AvantGarde-Book /AvantGarde-BookOblique /AvantGarde-Demi /AvantGarde-DemiOblique /Bookman-Demi /Bookman-DemiItalic /Bookman-Light
 /Bookman-LightItalic /Helvetica-Narrow /Helvetica-Narrow-Bold /Helvetica-Narrow-BoldOblique /Helvetica-Narrow-Oblique /NewCenturySchlbk-Roman /NewCenturySchlbk-Bold /NewCenturySchlbk-BoldItalic /NewCenturySchlbk-Italic /Palatino-Bold
 /Palatino-BoldItalic /Palatino-Italic /Palatino-Roman ] {ISOLatin1Encoding reEncode } forall
%%EndProlog
%%BeginSetup
%%EndSetup
newpath  gsave  .25 .25 scale  gsave  0 0 t black[  ] 0 sd 3 lw 1 1 1 c 2268 1538 0 0 bf black 1 1 1 c 1814 1230 227 154 bf black 1814 1230 227 154 bl 1 1 1 c 1814 1230 227 154 bf black 1814 1230 227 154 bl 1 1 1 c black 454 715 m 40 Y s 454 755 m 39
 Y s 227 755 m 227 X s 454 755 m 226 X s /w 2 def /w2 {w 2 div} def /w3 {w 3 div} def 454 755 m20 907 670 m 75 Y s 907 745 m 76 Y s 680 745 m 227 X s 907 745 m 227 X s 907 745 m20 1361 712 m 64 Y s 1361 776 m 64 Y s 1134 776 m 227 X s 1361 776 m 226
 X s 1361 776 m20 1814 730 m 28 Y s 1814 758 m 28 Y s 1587 758 m 227 X s 1814 758 m 227 X s 1814 758 m20 227 154 m 1814 X s 227 191 m -37 Y s 272 172 m -18 Y s 317 172 m -18 Y s 363 172 m -18 Y s 408 191 m -37 Y s 454 172 m -18 Y s 499 172 m -18 Y s
 544 172 m -18 Y s 590 191 m -37 Y s 635 172 m -18 Y s 680 172 m -18 Y s 726 172 m -18 Y s 771 191 m -37 Y s 816 172 m -18 Y s 862 172 m -18 Y s 907 172 m -18 Y s 952 191 m -37 Y s 998 172 m -18 Y s 1043 172 m -18 Y s 1089 172 m -18 Y s 1134 191 m
 -37 Y s 1179 172 m -18 Y s 1225 172 m -18 Y s 1270 172 m -18 Y s 1315 191 m -37 Y s 1361 172 m -18 Y s 1406 172 m -18 Y s 1451 172 m -18 Y s 1497 191 m -37 Y s 1542 172 m -18 Y s 1587 172 m -18 Y s 1633 172 m -18 Y s 1678 191 m -37 Y s 1723 172 m
 -18 Y s 1769 172 m -18 Y s 1814 172 m -18 Y s 1860 191 m -37 Y s 1905 172 m -18 Y s 1950 172 m -18 Y s 1996 172 m -18 Y s 2041 191 m -37 Y s 227 191 m -37 Y s
 gsave  2268 1538 0 0 C 228.075 104.263 t 0 r /Helvetica findfont 48.8732 sf 0 0 m (1) show NC gr 
 gsave  2268 1538 0 0 C 198.751 104.263 t 0 r /Symbol findfont 48.8732 sf 0 0 m (-) show NC gr 
 gsave  2268 1538 0 0 C 384.469 104.263 t 0 r /Helvetica findfont 48.8732 sf 0 0 m (0.8) show NC gr 
 gsave  2268 1538 0 0 C 358.403 104.263 t 0 r /Symbol findfont 48.8732 sf 0 0 m (-) show NC gr 
 gsave  2268 1538 0 0 C 563.671 104.263 t 0 r /Helvetica findfont 48.8732 sf 0 0 m (0.6) show NC gr 
 gsave  2268 1538 0 0 C 537.605 104.263 t 0 r /Symbol findfont 48.8732 sf 0 0 m (-) show NC gr 
 gsave  2268 1538 0 0 C 746.131 104.263 t 0 r /Helvetica findfont 48.8732 sf 0 0 m (0.4) show NC gr 
 gsave  2268 1538 0 0 C 720.065 104.263 t 0 r /Symbol findfont 48.8732 sf 0 0 m (-) show NC gr 
 gsave  2268 1538 0 0 C 928.591 104.263 t 0 r /Helvetica findfont 48.8732 sf 0 0 m (0.2) show NC gr 
 gsave  2268 1538 0 0 C 902.525 104.263 t 0 r /Symbol findfont 48.8732 sf 0 0 m (-) show NC gr 
 gsave  2268 1538 0 0 C 1120.83 104.263 t 0 r /Helvetica findfont 48.8732 sf 0 0 m (0) show NC gr 
 gsave  2268 1538 0 0 C 1277.22 104.263 t 0 r /Helvetica findfont 48.8732 sf 0 0 m (0.2) show NC gr 
 gsave  2268 1538 0 0 C 1459.68 104.263 t 0 r /Helvetica findfont 48.8732 sf 0 0 m (0.4) show NC gr 
 gsave  2268 1538 0 0 C 1642.14 104.263 t 0 r /Helvetica findfont 48.8732 sf 0 0 m (0.6) show NC gr 
 gsave  2268 1538 0 0 C 1821.34 104.263 t 0 r /Helvetica findfont 48.8732 sf 0 0 m (0.8) show NC gr 
 gsave  2268 1538 0 0 C 2029.87 104.263 t 0 r /Helvetica findfont 48.8732 sf 0 0 m (1) show NC gr  227 154 m 1230 Y s 281 154 m -54 X s 254 214 m -27 X s 254 275 m -27 X s 254 335 m -27 X s 281 396 m -54 X s 254 456 m -27 X s 254 517 m -27 X s 254
 577 m -27 X s 281 638 m -54 X s 254 698 m -27 X s 254 758 m -27 X s 254 819 m -27 X s 281 879 m -54 X s 254 940 m -27 X s 254 1000 m -27 X s 254 1061 m -27 X s 281 1121 m -54 X s 254 1182 m -27 X s 254 1242 m -27 X s 254 1303 m -27 X s 281 1363 m
 -54 X s 281 1363 m -54 X s
 gsave  2268 1538 0 0 C 146.62 136.845 t 0 r /Helvetica findfont 48.8732 sf 0 0 m (0.2) show NC gr 
 gsave  2268 1538 0 0 C 120.554 377.953 t 0 r /Helvetica findfont 48.8732 sf 0 0 m (0.22) show NC gr 
 gsave  2268 1538 0 0 C 120.554 619.061 t 0 r /Helvetica findfont 48.8732 sf 0 0 m (0.24) show NC gr 
 gsave  2268 1538 0 0 C 120.554 860.168 t 0 r /Helvetica findfont 48.8732 sf 0 0 m (0.26) show NC gr 
 gsave  2268 1538 0 0 C 120.554 1104.53 t 0 r /Helvetica findfont 48.8732 sf 0 0 m (0.28) show NC gr 
 gsave  2268 1538 0 0 C 146.62 1345.64 t 0 r /Helvetica findfont 48.8732 sf 0 0 m (0.3) show NC gr  1 0 0 c 1 1 1 c black 1 0 0 c 227 736 m 453 X 84 Y 454 X -111 Y 453 X 60 Y 454 X s 0 1 0 c 1 1 1 c black 0 1 0 c 227 768 m 453 X 37 Y 454 X -72 Y 453
 X -6 Y 454 X s black 1 1 1 c 861 231 1361 1230 bf black
 gsave  2268 1538 0 0 C 1381.48 1420.58 t 0 r /Helvetica findfont 45.615 sf 0 0 m (rpol_plus) show NC gr 
 gsave  2268 1538 0 0 C 1573.72 1361.93 t 0 r /Helvetica-Bold findfont 45.615 sf 0 0 m (nominal) show NC gr  1393 1374 m 151 X s
 gsave  2268 1538 0 0 C 1573.72 1306.54 t 0 r /Helvetica-Bold findfont 45.615 sf 0 0 m (radhi) show NC gr  1 0 0 c 1393 1317 m 151 X s black
 gsave  2268 1538 0 0 C 1573.72 1247.9 t 0 r /Helvetica-Bold findfont 45.615 sf 0 0 m (radlo) show NC gr  0 1 0 c 1393 1259 m 151 X s
 gr  gr showpage
end
%%EOF
