%!PS-Adobe-3.0 EPSF-3.0
%%Title: /nfs/dust/atlas/user/naranjo/TopPolarization/results_parton/helpol_plus/nominal/ALL/optimization/_ALL_obsneg2_4Bin2_rpZero_helpol_plus_posterior.eps
%%Creator: matplotlib version 1.5.1, http://matplotlib.org/
%%CreationDate: Fri May  6 11:55:17 2016
%%Orientation: portrait
%%BoundingBox: 18 180 594 612
%%EndComments
%%BeginProlog
/mpldict 8 dict def
mpldict begin
/m { moveto } bind def
/l { lineto } bind def
/r { rlineto } bind def
/c { curveto } bind def
/cl { closepath } bind def
/box {
m
1 index 0 r
0 exch r
neg 0 r
cl
} bind def
/clipbox {
box
clip
newpath
} bind def
%!PS-Adobe-3.0 Resource-Font
%%Title: Bitstream Vera Sans
%%Copyright: Copyright (c) 2003 by Bitstream, Inc. All Rights Reserved.
%%Creator: Converted from TrueType to type 3 by PPR
25 dict begin
/_d{bind def}bind def
/_m{moveto}_d
/_l{lineto}_d
/_cl{closepath eofill}_d
/_c{curveto}_d
/_sc{7 -1 roll{setcachedevice}{pop pop pop pop pop pop}ifelse}_d
/_e{exec}_d
/FontName /BitstreamVeraSans-Roman def
/PaintType 0 def
/FontMatrix[.001 0 0 .001 0 0]def
/FontBBox[-183 -236 1287 928]def
/FontType 3 def
/Encoding [ /space /parenleft /parenright /plus /hyphen /period /slash /zero /one /two /five /six /seven /eight /nine /colon /equal /A /C /U /a /b /c /d /e /f /h /i /k /l /n /o /p /r /t /u /y /minus ] def
/FontInfo 10 dict dup begin
/FamilyName (Bitstream Vera Sans) def
/FullName (Bitstream Vera Sans) def
/Notice (Copyright (c) 2003 by Bitstream, Inc. All Rights Reserved. Bitstream Vera is a trademark of Bitstream, Inc.) def
/Weight (Roman) def
/Version (Release 1.10) def
/ItalicAngle 0.0 def
/isFixedPitch false def
/UnderlinePosition -213 def
/UnderlineThickness 143 def
end readonly def
/CharStrings 38 dict dup begin
/space{318 0 0 0 0 0 _sc
}_d
/parenleft{390 0 86 -131 310 759 _sc
310 759 _m
266 683 234 609 213 536 _c
191 463 181 389 181 314 _c
181 238 191 164 213 91 _c
234 17 266 -56 310 -131 _c
232 -131 _l
183 -54 146 20 122 94 _c
98 168 86 241 86 314 _c
86 386 98 459 122 533 _c
146 607 182 682 232 759 _c
310 759 _l
_cl}_d
/parenright{390 0 80 -131 304 759 _sc
80 759 _m
158 759 _l
206 682 243 607 267 533 _c
291 459 304 386 304 314 _c
304 241 291 168 267 94 _c
243 20 206 -54 158 -131 _c
80 -131 _l
123 -56 155 17 177 91 _c
198 164 209 238 209 314 _c
209 389 198 463 177 536 _c
155 609 123 683 80 759 _c
_cl}_d
/plus{838 0 106 0 732 627 _sc
460 627 _m
460 355 _l
732 355 _l
732 272 _l
460 272 _l
460 0 _l
378 0 _l
378 272 _l
106 272 _l
106 355 _l
378 355 _l
378 627 _l
460 627 _l
_cl}_d
/hyphen{361 0 49 234 312 314 _sc
49 314 _m
312 314 _l
312 234 _l
49 234 _l
49 314 _l
_cl}_d
/period{318 0 107 0 210 124 _sc
107 124 _m
210 124 _l
210 0 _l
107 0 _l
107 124 _l
_cl}_d
/slash{337 0 0 -92 337 729 _sc
254 729 _m
337 729 _l
83 -92 _l
0 -92 _l
254 729 _l
_cl}_d
/zero{636 0 66 -13 570 742 _sc
318 664 _m
267 664 229 639 203 589 _c
177 539 165 464 165 364 _c
165 264 177 189 203 139 _c
229 89 267 64 318 64 _c
369 64 407 89 433 139 _c
458 189 471 264 471 364 _c
471 464 458 539 433 589 _c
407 639 369 664 318 664 _c
318 742 _m
399 742 461 709 505 645 _c
548 580 570 486 570 364 _c
570 241 548 147 505 83 _c
461 19 399 -13 318 -13 _c
236 -13 173 19 130 83 _c
87 147 66 241 66 364 _c
66 486 87 580 130 645 _c
173 709 236 742 318 742 _c
_cl}_d
/one{636 0 110 0 544 729 _sc
124 83 _m
285 83 _l
285 639 _l
110 604 _l
110 694 _l
284 729 _l
383 729 _l
383 83 _l
544 83 _l
544 0 _l
124 0 _l
124 83 _l
_cl}_d
/two{{636 0 73 0 536 742 _sc
192 83 _m
536 83 _l
536 0 _l
73 0 _l
73 83 _l
110 121 161 173 226 239 _c
290 304 331 346 348 365 _c
380 400 402 430 414 455 _c
426 479 433 504 433 528 _c
433 566 419 598 392 622 _c
365 646 330 659 286 659 _c
255 659 222 653 188 643 _c
154 632 117 616 78 594 _c
78 694 _l
118 710 155 722 189 730 _c
223 738 255 742 284 742 _c
}_e{359 742 419 723 464 685 _c
509 647 532 597 532 534 _c
532 504 526 475 515 449 _c
504 422 484 390 454 354 _c
446 344 420 317 376 272 _c
332 227 271 164 192 83 _c
_cl}_e}_d
/five{{636 0 77 -13 549 729 _sc
108 729 _m
495 729 _l
495 646 _l
198 646 _l
198 467 _l
212 472 227 476 241 478 _c
255 480 270 482 284 482 _c
365 482 429 459 477 415 _c
525 370 549 310 549 234 _c
549 155 524 94 475 51 _c
426 8 357 -13 269 -13 _c
238 -13 207 -10 175 -6 _c
143 -1 111 6 77 17 _c
77 116 _l
106 100 136 88 168 80 _c
199 72 232 69 267 69 _c
}_e{323 69 368 83 401 113 _c
433 143 450 183 450 234 _c
450 284 433 324 401 354 _c
368 384 323 399 267 399 _c
241 399 214 396 188 390 _c
162 384 135 375 108 363 _c
108 729 _l
_cl}_e}_d
/six{{636 0 70 -13 573 742 _sc
330 404 _m
286 404 251 388 225 358 _c
199 328 186 286 186 234 _c
186 181 199 139 225 109 _c
251 79 286 64 330 64 _c
374 64 409 79 435 109 _c
461 139 474 181 474 234 _c
474 286 461 328 435 358 _c
409 388 374 404 330 404 _c
526 713 _m
526 623 _l
501 635 476 644 451 650 _c
425 656 400 659 376 659 _c
310 659 260 637 226 593 _c
}_e{192 549 172 482 168 394 _c
187 422 211 444 240 459 _c
269 474 301 482 336 482 _c
409 482 467 459 509 415 _c
551 371 573 310 573 234 _c
573 159 550 99 506 54 _c
462 9 403 -13 330 -13 _c
246 -13 181 19 137 83 _c
92 147 70 241 70 364 _c
70 479 97 571 152 639 _c
206 707 280 742 372 742 _c
396 742 421 739 447 735 _c
472 730 498 723 526 713 _c
_cl}_e}_d
/seven{636 0 82 0 551 729 _sc
82 729 _m
551 729 _l
551 687 _l
286 0 _l
183 0 _l
432 646 _l
82 646 _l
82 729 _l
_cl}_d
/eight{{636 0 68 -13 568 742 _sc
318 346 _m
271 346 234 333 207 308 _c
180 283 167 249 167 205 _c
167 161 180 126 207 101 _c
234 76 271 64 318 64 _c
364 64 401 76 428 102 _c
455 127 469 161 469 205 _c
469 249 455 283 429 308 _c
402 333 365 346 318 346 _c
219 388 _m
177 398 144 418 120 447 _c
96 476 85 511 85 553 _c
85 611 105 657 147 691 _c
188 725 245 742 318 742 _c
}_e{390 742 447 725 489 691 _c
530 657 551 611 551 553 _c
551 511 539 476 515 447 _c
491 418 459 398 417 388 _c
464 377 501 355 528 323 _c
554 291 568 251 568 205 _c
568 134 546 80 503 43 _c
459 5 398 -13 318 -13 _c
237 -13 175 5 132 43 _c
89 80 68 134 68 205 _c
68 251 81 291 108 323 _c
134 355 171 377 219 388 _c
183 544 _m
183 506 194 476 218 455 _c
}_e{242 434 275 424 318 424 _c
360 424 393 434 417 455 _c
441 476 453 506 453 544 _c
453 582 441 611 417 632 _c
393 653 360 664 318 664 _c
275 664 242 653 218 632 _c
194 611 183 582 183 544 _c
_cl}_e}_d
/nine{{636 0 63 -13 566 742 _sc
110 15 _m
110 105 _l
134 93 159 84 185 78 _c
210 72 235 69 260 69 _c
324 69 374 90 408 134 _c
442 178 462 244 468 334 _c
448 306 424 284 396 269 _c
367 254 335 247 300 247 _c
226 247 168 269 126 313 _c
84 357 63 417 63 494 _c
63 568 85 628 129 674 _c
173 719 232 742 306 742 _c
390 742 455 709 499 645 _c
543 580 566 486 566 364 _c
}_e{566 248 538 157 484 89 _c
429 21 356 -13 264 -13 _c
239 -13 214 -10 189 -6 _c
163 -2 137 5 110 15 _c
306 324 _m
350 324 385 339 411 369 _c
437 399 450 441 450 494 _c
450 546 437 588 411 618 _c
385 648 350 664 306 664 _c
262 664 227 648 201 618 _c
175 588 162 546 162 494 _c
162 441 175 399 201 369 _c
227 339 262 324 306 324 _c
_cl}_e}_d
/colon{337 0 117 0 220 517 _sc
117 124 _m
220 124 _l
220 0 _l
117 0 _l
117 124 _l
117 517 _m
220 517 _l
220 393 _l
117 393 _l
117 517 _l
_cl}_d
/equal{838 0 106 172 732 454 _sc
106 454 _m
732 454 _l
732 372 _l
106 372 _l
106 454 _l
106 255 _m
732 255 _l
732 172 _l
106 172 _l
106 255 _l
_cl}_d
/A{684 0 8 0 676 729 _sc
342 632 _m
208 269 _l
476 269 _l
342 632 _l
286 729 _m
398 729 _l
676 0 _l
573 0 _l
507 187 _l
178 187 _l
112 0 _l
8 0 _l
286 729 _l
_cl}_d
/C{{698 0 56 -13 644 742 _sc
644 673 _m
644 569 _l
610 599 575 622 537 638 _c
499 653 460 661 418 661 _c
334 661 270 635 226 584 _c
182 533 160 460 160 364 _c
160 268 182 194 226 143 _c
270 92 334 67 418 67 _c
460 67 499 74 537 90 _c
575 105 610 128 644 159 _c
644 56 _l
609 32 572 15 534 4 _c
496 -7 455 -13 412 -13 _c
302 -13 215 20 151 87 _c
}_e{87 154 56 246 56 364 _c
56 481 87 573 151 641 _c
215 708 302 742 412 742 _c
456 742 497 736 535 725 _c
573 713 610 696 644 673 _c
_cl}_e}_d
/U{732 0 87 -13 645 729 _sc
87 729 _m
186 729 _l
186 286 _l
186 208 200 151 228 117 _c
256 83 302 66 366 66 _c
429 66 475 83 503 117 _c
531 151 546 208 546 286 _c
546 729 _l
645 729 _l
645 274 _l
645 178 621 107 574 59 _c
527 11 458 -13 366 -13 _c
274 -13 204 11 157 59 _c
110 107 87 178 87 274 _c
87 729 _l
_cl}_d
/a{{613 0 60 -13 522 560 _sc
343 275 _m
270 275 220 266 192 250 _c
164 233 150 205 150 165 _c
150 133 160 107 181 89 _c
202 70 231 61 267 61 _c
317 61 357 78 387 114 _c
417 149 432 196 432 255 _c
432 275 _l
343 275 _l
522 312 _m
522 0 _l
432 0 _l
432 83 _l
411 49 385 25 355 10 _c
325 -5 287 -13 243 -13 _c
187 -13 142 2 109 33 _c
76 64 60 106 60 159 _c
}_e{60 220 80 266 122 298 _c
163 329 224 345 306 345 _c
432 345 _l
432 354 _l
432 395 418 427 391 450 _c
364 472 326 484 277 484 _c
245 484 215 480 185 472 _c
155 464 127 453 100 439 _c
100 522 _l
132 534 164 544 195 550 _c
226 556 256 560 286 560 _c
365 560 424 539 463 498 _c
502 457 522 395 522 312 _c
_cl}_e}_d
/b{{635 0 91 -13 580 760 _sc
487 273 _m
487 339 473 390 446 428 _c
418 466 381 485 334 485 _c
286 485 249 466 222 428 _c
194 390 181 339 181 273 _c
181 207 194 155 222 117 _c
249 79 286 61 334 61 _c
381 61 418 79 446 117 _c
473 155 487 207 487 273 _c
181 464 _m
199 496 223 520 252 536 _c
281 552 316 560 356 560 _c
422 560 476 533 518 481 _c
559 428 580 359 580 273 _c
}_e{580 187 559 117 518 65 _c
476 13 422 -13 356 -13 _c
316 -13 281 -5 252 10 _c
223 25 199 49 181 82 _c
181 0 _l
91 0 _l
91 760 _l
181 760 _l
181 464 _l
_cl}_e}_d
/c{{550 0 55 -13 488 560 _sc
488 526 _m
488 442 _l
462 456 437 466 411 473 _c
385 480 360 484 334 484 _c
276 484 230 465 198 428 _c
166 391 150 339 150 273 _c
150 206 166 154 198 117 _c
230 80 276 62 334 62 _c
360 62 385 65 411 72 _c
437 79 462 90 488 104 _c
488 21 _l
462 9 436 0 410 -5 _c
383 -10 354 -13 324 -13 _c
242 -13 176 12 128 64 _c
}_e{79 115 55 185 55 273 _c
55 362 79 432 128 483 _c
177 534 244 560 330 560 _c
358 560 385 557 411 551 _c
437 545 463 537 488 526 _c
_cl}_e}_d
/d{{635 0 55 -13 544 760 _sc
454 464 _m
454 760 _l
544 760 _l
544 0 _l
454 0 _l
454 82 _l
435 49 411 25 382 10 _c
353 -5 319 -13 279 -13 _c
213 -13 159 13 117 65 _c
75 117 55 187 55 273 _c
55 359 75 428 117 481 _c
159 533 213 560 279 560 _c
319 560 353 552 382 536 _c
411 520 435 496 454 464 _c
148 273 _m
148 207 161 155 188 117 _c
215 79 253 61 301 61 _c
}_e{348 61 385 79 413 117 _c
440 155 454 207 454 273 _c
454 339 440 390 413 428 _c
385 466 348 485 301 485 _c
253 485 215 466 188 428 _c
161 390 148 339 148 273 _c
_cl}_e}_d
/e{{615 0 55 -13 562 560 _sc
562 296 _m
562 252 _l
149 252 _l
153 190 171 142 205 110 _c
238 78 284 62 344 62 _c
378 62 412 66 444 74 _c
476 82 509 95 541 113 _c
541 28 _l
509 14 476 3 442 -3 _c
408 -9 373 -13 339 -13 _c
251 -13 182 12 131 62 _c
80 112 55 181 55 268 _c
55 357 79 428 127 481 _c
175 533 241 560 323 560 _c
397 560 455 536 498 489 _c
}_e{540 441 562 377 562 296 _c
472 322 _m
471 371 457 410 431 440 _c
404 469 368 484 324 484 _c
274 484 234 469 204 441 _c
174 413 156 373 152 322 _c
472 322 _l
_cl}_e}_d
/f{352 0 23 0 371 760 _sc
371 760 _m
371 685 _l
285 685 _l
253 685 230 678 218 665 _c
205 652 199 629 199 595 _c
199 547 _l
347 547 _l
347 477 _l
199 477 _l
199 0 _l
109 0 _l
109 477 _l
23 477 _l
23 547 _l
109 547 _l
109 585 _l
109 645 123 690 151 718 _c
179 746 224 760 286 760 _c
371 760 _l
_cl}_d
/h{634 0 91 0 549 760 _sc
549 330 _m
549 0 _l
459 0 _l
459 327 _l
459 379 448 417 428 443 _c
408 469 378 482 338 482 _c
289 482 251 466 223 435 _c
195 404 181 362 181 309 _c
181 0 _l
91 0 _l
91 760 _l
181 760 _l
181 462 _l
202 494 227 519 257 535 _c
286 551 320 560 358 560 _c
420 560 468 540 500 501 _c
532 462 549 405 549 330 _c
_cl}_d
/i{278 0 94 0 184 760 _sc
94 547 _m
184 547 _l
184 0 _l
94 0 _l
94 547 _l
94 760 _m
184 760 _l
184 646 _l
94 646 _l
94 760 _l
_cl}_d
/k{579 0 91 0 576 760 _sc
91 760 _m
181 760 _l
181 311 _l
449 547 _l
564 547 _l
274 291 _l
576 0 _l
459 0 _l
181 267 _l
181 0 _l
91 0 _l
91 760 _l
_cl}_d
/l{278 0 94 0 184 760 _sc
94 760 _m
184 760 _l
184 0 _l
94 0 _l
94 760 _l
_cl}_d
/n{634 0 91 0 549 560 _sc
549 330 _m
549 0 _l
459 0 _l
459 327 _l
459 379 448 417 428 443 _c
408 469 378 482 338 482 _c
289 482 251 466 223 435 _c
195 404 181 362 181 309 _c
181 0 _l
91 0 _l
91 547 _l
181 547 _l
181 462 _l
202 494 227 519 257 535 _c
286 551 320 560 358 560 _c
420 560 468 540 500 501 _c
532 462 549 405 549 330 _c
_cl}_d
/o{612 0 55 -13 557 560 _sc
306 484 _m
258 484 220 465 192 427 _c
164 389 150 338 150 273 _c
150 207 163 156 191 118 _c
219 80 257 62 306 62 _c
354 62 392 80 420 118 _c
448 156 462 207 462 273 _c
462 337 448 389 420 427 _c
392 465 354 484 306 484 _c
306 560 _m
384 560 445 534 490 484 _c
534 433 557 363 557 273 _c
557 183 534 113 490 63 _c
445 12 384 -13 306 -13 _c
227 -13 165 12 121 63 _c
77 113 55 183 55 273 _c
55 363 77 433 121 484 _c
165 534 227 560 306 560 _c
_cl}_d
/p{{635 0 91 -207 580 560 _sc
181 82 _m
181 -207 _l
91 -207 _l
91 547 _l
181 547 _l
181 464 _l
199 496 223 520 252 536 _c
281 552 316 560 356 560 _c
422 560 476 533 518 481 _c
559 428 580 359 580 273 _c
580 187 559 117 518 65 _c
476 13 422 -13 356 -13 _c
316 -13 281 -5 252 10 _c
223 25 199 49 181 82 _c
487 273 _m
487 339 473 390 446 428 _c
418 466 381 485 334 485 _c
}_e{286 485 249 466 222 428 _c
194 390 181 339 181 273 _c
181 207 194 155 222 117 _c
249 79 286 61 334 61 _c
381 61 418 79 446 117 _c
473 155 487 207 487 273 _c
_cl}_e}_d
/r{411 0 91 0 411 560 _sc
411 463 _m
401 469 390 473 378 476 _c
366 478 353 480 339 480 _c
288 480 249 463 222 430 _c
194 397 181 350 181 288 _c
181 0 _l
91 0 _l
91 547 _l
181 547 _l
181 462 _l
199 495 224 520 254 536 _c
284 552 321 560 365 560 _c
371 560 378 559 386 559 _c
393 558 401 557 411 555 _c
411 463 _l
_cl}_d
/t{392 0 27 0 368 702 _sc
183 702 _m
183 547 _l
368 547 _l
368 477 _l
183 477 _l
183 180 _l
183 135 189 106 201 94 _c
213 81 238 75 276 75 _c
368 75 _l
368 0 _l
276 0 _l
206 0 158 13 132 39 _c
106 65 93 112 93 180 _c
93 477 _l
27 477 _l
27 547 _l
93 547 _l
93 702 _l
183 702 _l
_cl}_d
/u{634 0 85 -13 543 547 _sc
85 216 _m
85 547 _l
175 547 _l
175 219 _l
175 167 185 129 205 103 _c
225 77 255 64 296 64 _c
344 64 383 79 411 110 _c
439 141 453 183 453 237 _c
453 547 _l
543 547 _l
543 0 _l
453 0 _l
453 84 _l
431 50 405 26 377 10 _c
348 -5 315 -13 277 -13 _c
214 -13 166 6 134 45 _c
101 83 85 140 85 216 _c
_cl}_d
/y{592 0 30 -207 562 547 _sc
322 -50 _m
296 -114 271 -157 247 -177 _c
223 -197 191 -207 151 -207 _c
79 -207 _l
79 -132 _l
132 -132 _l
156 -132 175 -126 189 -114 _c
203 -102 218 -75 235 -31 _c
251 9 _l
30 547 _l
125 547 _l
296 119 _l
467 547 _l
562 547 _l
322 -50 _l
_cl}_d
/minus{838 0 106 272 732 355 _sc
106 355 _m
732 355 _l
732 272 _l
106 272 _l
106 355 _l
_cl}_d
end readonly def

/BuildGlyph
 {exch begin
 CharStrings exch
 2 copy known not{pop /.notdef}if
 true 3 1 roll get exec
 end}_d

/BuildChar {
 1 index /Encoding get exch get
 1 index /BuildGlyph get exec
}_d

FontName currentdict end definefont pop
end
%%EndProlog
mpldict begin
18 180 translate
576 432 0 0 clipbox
100000 setmiterlimit
gsave
0 0 m
576 0 l
576 432 l
0 432 l
cl
1.000 setgray
fill
grestore
gsave
72 43.2 m
518.4 43.2 l
518.4 388.8 l
72 388.8 l
cl
1.000 setgray
fill
grestore
1.000 setlinewidth
0 setlinejoin
0 setlinecap
[] 0 setdash
0.000 setgray
gsave
446.4 345.6 72 43.2 clipbox
215.635351 43.2 m
215.635351 43.291746 l
220.617735 43.291746 l
220.617735 43.796349 l
225.60012 43.796349 l
225.60012 43.566984 l
230.582505 43.566984 l
230.582505 43.475238 l
235.564889 43.475238 l
235.564889 44.209205 l
240.547274 44.209205 l
240.547274 43.65873 l
245.529658 43.65873 l
245.529658 44.43857 l
250.512043 44.43857 l
250.512043 46.181743 l
255.494428 46.181743 l
255.494428 47.328568 l
260.476812 47.328568 l
260.476812 50.035073 l
265.459197 50.035073 l
265.459197 53.659038 l
270.441581 53.659038 l
270.441581 62.099665 l
275.423966 62.099665 l
275.423966 70.540293 l
280.406351 70.540293 l
280.406351 82.696631 l
285.388735 82.696631 l
285.388735 96.87138 l
290.37112 96.87138 l
290.37112 117.101361 l
295.353504 117.101361 l
295.353504 142.652608 l
300.335889 142.652608 l
300.335889 166.506554 l
305.318274 166.506554 l
305.318274 209.306039 l
310.300658 209.306039 l
310.300658 215.774129 l
315.283043 215.774129 l
315.283043 267.748208 l
320.265428 267.748208 l
320.265428 297.611514 l
325.247812 297.611514 l
325.247812 311.189915 l
330.230197 311.189915 l
330.230197 336.236559 l
335.212581 336.236559 l
335.212581 333.621799 l
340.194966 333.621799 l
340.194966 338.805445 l
345.177351 338.805445 l
345.177351 302.107066 l
350.159735 302.107066 l
350.159735 316.006577 l
355.14212 316.006577 l
355.14212 292.840725 l
360.124504 292.840725 l
360.124504 240.040932 l
365.106889 240.040932 l
365.106889 230.086496 l
370.089274 230.086496 l
370.089274 185.681458 l
375.071658 185.681458 l
375.071658 150.86387 l
380.054043 150.86387 l
380.054043 126.275956 l
385.036427 126.275956 l
385.036427 103.844072 l
390.018812 103.844072 l
390.018812 93.522653 l
395.001197 93.522653 l
395.001197 77.650604 l
399.983581 77.650604 l
399.983581 63.429982 l
404.965966 63.429982 l
404.965966 57.925225 l
409.94835 57.925225 l
409.94835 53.704911 l
414.930735 53.704911 l
414.930735 47.51206 l
419.91312 47.51206 l
419.91312 45.218411 l
424.895504 45.218411 l
424.895504 44.484443 l
429.877889 44.484443 l
429.877889 44.209205 l
434.860273 44.209205 l
434.860273 43.933968 l
439.842658 43.933968 l
439.842658 43.475238 l
444.825043 43.475238 l
444.825043 43.2 l
449.807427 43.2 l
449.807427 43.245873 l
454.789812 43.245873 l
454.789812 43.2 l
459.772197 43.2 l
459.772197 43.704603 l
464.754581 43.704603 l
464.754581 43.2 l
459.772197 43.2 l
459.772197 43.2 l
454.789812 43.2 l
454.789812 43.2 l
449.807427 43.2 l
449.807427 43.2 l
444.825043 43.2 l
444.825043 43.2 l
439.842658 43.2 l
439.842658 43.2 l
434.860273 43.2 l
434.860273 43.2 l
429.877889 43.2 l
429.877889 43.2 l
424.895504 43.2 l
424.895504 43.2 l
419.91312 43.2 l
419.91312 43.2 l
414.930735 43.2 l
414.930735 43.2 l
409.94835 43.2 l
409.94835 43.2 l
404.965966 43.2 l
404.965966 43.2 l
399.983581 43.2 l
399.983581 43.2 l
395.001197 43.2 l
395.001197 43.2 l
390.018812 43.2 l
390.018812 43.2 l
385.036427 43.2 l
385.036427 43.2 l
380.054043 43.2 l
380.054043 43.2 l
375.071658 43.2 l
375.071658 43.2 l
370.089274 43.2 l
370.089274 43.2 l
365.106889 43.2 l
365.106889 43.2 l
360.124504 43.2 l
360.124504 43.2 l
355.14212 43.2 l
355.14212 43.2 l
350.159735 43.2 l
350.159735 43.2 l
345.177351 43.2 l
345.177351 43.2 l
340.194966 43.2 l
340.194966 43.2 l
335.212581 43.2 l
335.212581 43.2 l
330.230197 43.2 l
330.230197 43.2 l
325.247812 43.2 l
325.247812 43.2 l
320.265428 43.2 l
320.265428 43.2 l
315.283043 43.2 l
315.283043 43.2 l
310.300658 43.2 l
310.300658 43.2 l
305.318274 43.2 l
305.318274 43.2 l
300.335889 43.2 l
300.335889 43.2 l
295.353504 43.2 l
295.353504 43.2 l
290.37112 43.2 l
290.37112 43.2 l
285.388735 43.2 l
285.388735 43.2 l
280.406351 43.2 l
280.406351 43.2 l
275.423966 43.2 l
275.423966 43.2 l
270.441581 43.2 l
270.441581 43.2 l
265.459197 43.2 l
265.459197 43.2 l
260.476812 43.2 l
260.476812 43.2 l
255.494428 43.2 l
255.494428 43.2 l
250.512043 43.2 l
250.512043 43.2 l
245.529658 43.2 l
245.529658 43.2 l
240.547274 43.2 l
240.547274 43.2 l
235.564889 43.2 l
235.564889 43.2 l
230.582505 43.2 l
230.582505 43.2 l
225.60012 43.2 l
225.60012 43.2 l
220.617735 43.2 l
220.617735 43.2 l
cl
gsave
0.000 0.000 1.000 setrgbcolor
fill
grestore
stroke
grestore
1 setlinejoin
1.000 0.000 0.000 setrgbcolor
gsave
446.4 345.6 72 43.2 clipbox
378.351809 43.2 m
378.351809 338.805445 l
stroke
grestore
0.000 setgray
gsave
446.4 345.6 72 43.2 clipbox
338.970433 43.2 m
338.970433 338.805445 l
stroke
grestore
2.000 setlinewidth
2 setlinecap
gsave
446.4 345.6 72 43.2 clipbox
146.4 43.2 m
150.157576 43.2 l
153.915152 43.2 l
157.672727 43.2 l
161.430303 43.2 l
165.187879 43.200001 l
168.945455 43.200002 l
172.70303 43.200005 l
176.460606 43.200012 l
180.218182 43.200025 l
183.975758 43.200054 l
187.733333 43.200114 l
191.490909 43.200235 l
195.248485 43.200476 l
199.006061 43.200947 l
202.763636 43.201852 l
206.521212 43.203553 l
210.278788 43.206695 l
214.036364 43.212388 l
217.793939 43.222506 l
221.551515 43.240151 l
225.309091 43.270335 l
229.066667 43.320984 l
232.824242 43.404345 l
236.581818 43.538909 l
240.339394 43.75193 l
244.09697 44.082606 l
247.854545 44.585898 l
251.612121 45.336867 l
255.369697 46.435233 l
259.127273 48.009672 l
262.884848 50.221131 l
266.642424 53.264229 l
270.4 57.365624 l
274.157576 62.778198 l
277.915152 69.769997 l
281.672727 78.607242 l
285.430303 89.531298 l
289.187879 102.730377 l
292.945455 118.307721 l
296.70303 136.249133 l
300.460606 156.393598 l
304.218182 178.411362 l
307.975758 201.793836 l
311.733333 225.859056 l
315.490909 249.775068 l
319.248485 272.601572 l
323.006061 293.347787 l
326.763636 311.042032 l
330.521212 324.806444 l
334.278788 333.92892 l
338.036364 337.924116 l
341.793939 336.576215 l
345.551515 329.958248 l
349.309091 318.425537 l
353.066667 302.584085 l
356.824242 283.237843 l
360.581818 261.321208 l
364.339394 237.824659 l
368.09697 213.721688 l
371.854545 189.904412 l
375.612121 167.133443 l
379.369697 146.005333 l
383.127273 126.938382 l
386.884848 110.175394 l
390.642424 95.800247 l
394.4 83.764121 l
398.157576 73.916955 l
401.915152 66.039996 l
405.672727 59.876146 l
409.430303 55.155759 l
413.187879 51.616672 l
416.945455 49.018157 l
420.70303 47.149228 l
424.460606 45.832212 l
428.218182 44.922706 l
431.975758 44.307091 l
435.733333 43.898614 l
439.490909 43.632886 l
443.248485 43.463385 l
447.006061 43.357358 l
450.763636 43.292315 l
454.521212 43.253178 l
458.278788 43.23008 l
462.036364 43.216707 l
465.793939 43.209112 l
469.551515 43.20488 l
473.309091 43.202566 l
477.066667 43.201325 l
480.824242 43.200672 l
484.581818 43.200334 l
488.339394 43.200164 l
492.09697 43.200078 l
495.854545 43.200037 l
499.612121 43.200017 l
503.369697 43.200008 l
507.127273 43.200003 l
510.884848 43.200002 l
514.642424 43.200001 l
518.4 43.2 l
stroke
grestore
1.000 setlinewidth
0 setlinejoin
gsave
72 388.8 m
518.4 388.8 l
stroke
grestore
gsave
518.4 43.2 m
518.4 388.8 l
stroke
grestore
gsave
72 43.2 m
518.4 43.2 l
stroke
grestore
gsave
72 43.2 m
72 388.8 l
stroke
grestore
0.500 setlinewidth
1 setlinejoin
0 setlinecap
gsave
/o {
gsave
newpath
translate
0.5 setlinewidth
1 setlinejoin
0 setlinecap
0 0 m
0 4 l

gsave
0.000 setgray
fill
grestore
stroke
grestore
} bind def
72 43.2 o
grestore
gsave
/o {
gsave
newpath
translate
0.5 setlinewidth
1 setlinejoin
0 setlinecap
0 0 m
0 -4 l

gsave
0.000 setgray
fill
grestore
stroke
grestore
} bind def
72 388.8 o
grestore
/BitstreamVeraSans-Roman findfont
12.000 scalefont
setfont
gsave
53.601562 30.075000 translate
0.000000 rotate
0.000000 0.000000 m /minus glyphshow
10.054688 0.000000 m /zero glyphshow
17.689453 0.000000 m /period glyphshow
21.503906 0.000000 m /two glyphshow
29.138672 0.000000 m /zero glyphshow
grestore
gsave
/o {
gsave
newpath
translate
0.5 setlinewidth
1 setlinejoin
0 setlinecap
0 0 m
0 4 l

gsave
0.000 setgray
fill
grestore
stroke
grestore
} bind def
146.4 43.2 o
grestore
gsave
/o {
gsave
newpath
translate
0.5 setlinewidth
1 setlinejoin
0 setlinecap
0 0 m
0 -4 l

gsave
0.000 setgray
fill
grestore
stroke
grestore
} bind def
146.4 388.8 o
grestore
gsave
128.001562 30.075000 translate
0.000000 rotate
0.000000 0.000000 m /minus glyphshow
10.054688 0.000000 m /zero glyphshow
17.689453 0.000000 m /period glyphshow
21.503906 0.000000 m /one glyphshow
29.138672 0.000000 m /five glyphshow
grestore
gsave
/o {
gsave
newpath
translate
0.5 setlinewidth
1 setlinejoin
0 setlinecap
0 0 m
0 4 l

gsave
0.000 setgray
fill
grestore
stroke
grestore
} bind def
220.8 43.2 o
grestore
gsave
/o {
gsave
newpath
translate
0.5 setlinewidth
1 setlinejoin
0 setlinecap
0 0 m
0 -4 l

gsave
0.000 setgray
fill
grestore
stroke
grestore
} bind def
220.8 388.8 o
grestore
gsave
202.401562 30.075000 translate
0.000000 rotate
0.000000 0.000000 m /minus glyphshow
10.054688 0.000000 m /zero glyphshow
17.689453 0.000000 m /period glyphshow
21.503906 0.000000 m /one glyphshow
29.138672 0.000000 m /zero glyphshow
grestore
gsave
/o {
gsave
newpath
translate
0.5 setlinewidth
1 setlinejoin
0 setlinecap
0 0 m
0 4 l

gsave
0.000 setgray
fill
grestore
stroke
grestore
} bind def
295.2 43.2 o
grestore
gsave
/o {
gsave
newpath
translate
0.5 setlinewidth
1 setlinejoin
0 setlinecap
0 0 m
0 -4 l

gsave
0.000 setgray
fill
grestore
stroke
grestore
} bind def
295.2 388.8 o
grestore
gsave
276.801562 30.075000 translate
0.000000 rotate
0.000000 0.000000 m /minus glyphshow
10.054688 0.000000 m /zero glyphshow
17.689453 0.000000 m /period glyphshow
21.503906 0.000000 m /zero glyphshow
29.138672 0.000000 m /five glyphshow
grestore
gsave
/o {
gsave
newpath
translate
0.5 setlinewidth
1 setlinejoin
0 setlinecap
0 0 m
0 4 l

gsave
0.000 setgray
fill
grestore
stroke
grestore
} bind def
369.6 43.2 o
grestore
gsave
/o {
gsave
newpath
translate
0.5 setlinewidth
1 setlinejoin
0 setlinecap
0 0 m
0 -4 l

gsave
0.000 setgray
fill
grestore
stroke
grestore
} bind def
369.6 388.8 o
grestore
gsave
356.232812 30.075000 translate
0.000000 rotate
0.000000 0.000000 m /zero glyphshow
7.634766 0.000000 m /period glyphshow
11.449219 0.000000 m /zero glyphshow
19.083984 0.000000 m /zero glyphshow
grestore
gsave
/o {
gsave
newpath
translate
0.5 setlinewidth
1 setlinejoin
0 setlinecap
0 0 m
0 4 l

gsave
0.000 setgray
fill
grestore
stroke
grestore
} bind def
444 43.2 o
grestore
gsave
/o {
gsave
newpath
translate
0.5 setlinewidth
1 setlinejoin
0 setlinecap
0 0 m
0 -4 l

gsave
0.000 setgray
fill
grestore
stroke
grestore
} bind def
444 388.8 o
grestore
gsave
430.632812 30.075000 translate
0.000000 rotate
0.000000 0.000000 m /zero glyphshow
7.634766 0.000000 m /period glyphshow
11.449219 0.000000 m /zero glyphshow
19.083984 0.000000 m /five glyphshow
grestore
gsave
/o {
gsave
newpath
translate
0.5 setlinewidth
1 setlinejoin
0 setlinecap
0 0 m
0 4 l

gsave
0.000 setgray
fill
grestore
stroke
grestore
} bind def
518.4 43.2 o
grestore
gsave
/o {
gsave
newpath
translate
0.5 setlinewidth
1 setlinejoin
0 setlinecap
0 0 m
0 -4 l

gsave
0.000 setgray
fill
grestore
stroke
grestore
} bind def
518.4 388.8 o
grestore
gsave
505.032812 30.075000 translate
0.000000 rotate
0.000000 0.000000 m /zero glyphshow
7.634766 0.000000 m /period glyphshow
11.449219 0.000000 m /one glyphshow
19.083984 0.000000 m /zero glyphshow
grestore
gsave
/o {
gsave
newpath
translate
0.5 setlinewidth
1 setlinejoin
0 setlinecap
0 0 m
4 0 l

gsave
0.000 setgray
fill
grestore
stroke
grestore
} bind def
72 43.2 o
grestore
gsave
/o {
gsave
newpath
translate
0.5 setlinewidth
1 setlinejoin
0 setlinecap
0 0 m
-4 0 l

gsave
0.000 setgray
fill
grestore
stroke
grestore
} bind def
518.4 43.2 o
grestore
gsave
60.359375 39.887500 translate
0.000000 rotate
0.000000 0.000000 m /zero glyphshow
grestore
gsave
/o {
gsave
newpath
translate
0.5 setlinewidth
1 setlinejoin
0 setlinecap
0 0 m
4 0 l

gsave
0.000 setgray
fill
grestore
stroke
grestore
} bind def
72 112.32 o
grestore
gsave
/o {
gsave
newpath
translate
0.5 setlinewidth
1 setlinejoin
0 setlinecap
0 0 m
-4 0 l

gsave
0.000 setgray
fill
grestore
stroke
grestore
} bind def
518.4 112.32 o
grestore
gsave
60.359375 109.007500 translate
0.000000 rotate
0.000000 0.000000 m /five glyphshow
grestore
gsave
/o {
gsave
newpath
translate
0.5 setlinewidth
1 setlinejoin
0 setlinecap
0 0 m
4 0 l

gsave
0.000 setgray
fill
grestore
stroke
grestore
} bind def
72 181.44 o
grestore
gsave
/o {
gsave
newpath
translate
0.5 setlinewidth
1 setlinejoin
0 setlinecap
0 0 m
-4 0 l

gsave
0.000 setgray
fill
grestore
stroke
grestore
} bind def
518.4 181.44 o
grestore
gsave
52.718750 178.127500 translate
0.000000 rotate
0.000000 0.000000 m /one glyphshow
7.634766 0.000000 m /zero glyphshow
grestore
gsave
/o {
gsave
newpath
translate
0.5 setlinewidth
1 setlinejoin
0 setlinecap
0 0 m
4 0 l

gsave
0.000 setgray
fill
grestore
stroke
grestore
} bind def
72 250.56 o
grestore
gsave
/o {
gsave
newpath
translate
0.5 setlinewidth
1 setlinejoin
0 setlinecap
0 0 m
-4 0 l

gsave
0.000 setgray
fill
grestore
stroke
grestore
} bind def
518.4 250.56 o
grestore
gsave
52.718750 247.247500 translate
0.000000 rotate
0.000000 0.000000 m /one glyphshow
7.634766 0.000000 m /five glyphshow
grestore
gsave
/o {
gsave
newpath
translate
0.5 setlinewidth
1 setlinejoin
0 setlinecap
0 0 m
4 0 l

gsave
0.000 setgray
fill
grestore
stroke
grestore
} bind def
72 319.68 o
grestore
gsave
/o {
gsave
newpath
translate
0.5 setlinewidth
1 setlinejoin
0 setlinecap
0 0 m
-4 0 l

gsave
0.000 setgray
fill
grestore
stroke
grestore
} bind def
518.4 319.68 o
grestore
gsave
52.718750 316.367500 translate
0.000000 rotate
0.000000 0.000000 m /two glyphshow
7.634766 0.000000 m /zero glyphshow
grestore
gsave
/o {
gsave
newpath
translate
0.5 setlinewidth
1 setlinejoin
0 setlinecap
0 0 m
4 0 l

gsave
0.000 setgray
fill
grestore
stroke
grestore
} bind def
72 388.8 o
grestore
gsave
/o {
gsave
newpath
translate
0.5 setlinewidth
1 setlinejoin
0 setlinecap
0 0 m
-4 0 l

gsave
0.000 setgray
fill
grestore
stroke
grestore
} bind def
518.4 388.8 o
grestore
gsave
52.718750 385.487500 translate
0.000000 rotate
0.000000 0.000000 m /two glyphshow
7.634766 0.000000 m /five glyphshow
grestore
gsave
45.218750 161.437500 translate
90.000000 rotate
0.000000 0.000000 m /U glyphshow
8.783203 0.000000 m /n glyphshow
16.388672 0.000000 m /f glyphshow
20.613281 0.000000 m /space glyphshow
24.427734 0.000000 m /A glyphshow
32.636719 0.000000 m /C glyphshow
41.015625 0.000000 m /space glyphshow
44.830078 0.000000 m /p glyphshow
52.447266 0.000000 m /r glyphshow
57.380859 0.000000 m /o glyphshow
64.722656 0.000000 m /b glyphshow
72.339844 0.000000 m /a glyphshow
79.693359 0.000000 m /b glyphshow
87.310547 0.000000 m /i glyphshow
90.644531 0.000000 m /l glyphshow
93.978516 0.000000 m /i glyphshow
97.312500 0.000000 m /t glyphshow
102.017578 0.000000 m /y glyphshow
grestore
gsave
17.280000 8.640000 translate
0.000000 rotate
0.000000 0.000000 m /b glyphshow
7.617188 0.000000 m /l glyphshow
10.951172 0.000000 m /a glyphshow
18.304688 0.000000 m /c glyphshow
24.902344 0.000000 m /k glyphshow
31.851562 0.000000 m /colon glyphshow
35.894531 0.000000 m /space glyphshow
39.708984 0.000000 m /A glyphshow
47.917969 0.000000 m /C glyphshow
56.296875 0.000000 m /parenleft glyphshow
60.978516 0.000000 m /u glyphshow
68.583984 0.000000 m /n glyphshow
76.189453 0.000000 m /f glyphshow
80.414062 0.000000 m /parenright glyphshow
85.095703 0.000000 m /space glyphshow
88.910156 0.000000 m /equal glyphshow
98.964844 0.000000 m /space glyphshow
102.779297 0.000000 m /hyphen glyphshow
107.109375 0.000000 m /zero glyphshow
114.744141 0.000000 m /period glyphshow
118.558594 0.000000 m /zero glyphshow
126.193359 0.000000 m /two glyphshow
133.828125 0.000000 m /zero glyphshow
141.462891 0.000000 m /six glyphshow
149.097656 0.000000 m /space glyphshow
152.912109 0.000000 m /plus glyphshow
162.966797 0.000000 m /slash glyphshow
167.009766 0.000000 m /hyphen glyphshow
171.339844 0.000000 m /space glyphshow
175.154297 0.000000 m /zero glyphshow
182.789062 0.000000 m /period glyphshow
186.603516 0.000000 m /zero glyphshow
194.238281 0.000000 m /one glyphshow
201.873047 0.000000 m /eight glyphshow
209.507812 0.000000 m /seven glyphshow
grestore
gsave
17.280000 410.400000 translate
0.000000 rotate
0.000000 0.000000 m /r glyphshow
4.933594 0.000000 m /e glyphshow
12.316406 0.000000 m /d glyphshow
19.933594 0.000000 m /colon glyphshow
23.976562 0.000000 m /space glyphshow
27.791016 0.000000 m /A glyphshow
36.000000 0.000000 m /C glyphshow
44.378906 0.000000 m /parenleft glyphshow
49.060547 0.000000 m /t glyphshow
53.765625 0.000000 m /r glyphshow
58.699219 0.000000 m /u glyphshow
66.304688 0.000000 m /t glyphshow
71.009766 0.000000 m /h glyphshow
78.615234 0.000000 m /parenright glyphshow
83.296875 0.000000 m /space glyphshow
87.111328 0.000000 m /equal glyphshow
97.166016 0.000000 m /space glyphshow
100.980469 0.000000 m /zero glyphshow
108.615234 0.000000 m /period glyphshow
112.429688 0.000000 m /zero glyphshow
120.064453 0.000000 m /zero glyphshow
127.699219 0.000000 m /five glyphshow
135.333984 0.000000 m /nine glyphshow
grestore

end
showpage
