%!PS-Adobe-3.0 EPSF-3.0
%%Title: /nfs/dust/atlas/user/naranjo/TopPolarization/results_parton/helpol_plus/nominal/ALL/optimization/_ALL_obsneg10_4Bin3_rpZero_helpol_plus_posterior.eps
%%Creator: matplotlib version 1.5.1, http://matplotlib.org/
%%CreationDate: Fri May  6 11:55:45 2016
%%Orientation: portrait
%%BoundingBox: 18 180 594 612
%%EndComments
%%BeginProlog
/mpldict 8 dict def
mpldict begin
/m { moveto } bind def
/l { lineto } bind def
/r { rlineto } bind def
/c { curveto } bind def
/cl { closepath } bind def
/box {
m
1 index 0 r
0 exch r
neg 0 r
cl
} bind def
/clipbox {
box
clip
newpath
} bind def
%!PS-Adobe-3.0 Resource-Font
%%Title: Bitstream Vera Sans
%%Copyright: Copyright (c) 2003 by Bitstream, Inc. All Rights Reserved.
%%Creator: Converted from TrueType to type 3 by PPR
25 dict begin
/_d{bind def}bind def
/_m{moveto}_d
/_l{lineto}_d
/_cl{closepath eofill}_d
/_c{curveto}_d
/_sc{7 -1 roll{setcachedevice}{pop pop pop pop pop pop}ifelse}_d
/_e{exec}_d
/FontName /BitstreamVeraSans-Roman def
/PaintType 0 def
/FontMatrix[.001 0 0 .001 0 0]def
/FontBBox[-183 -236 1287 928]def
/FontType 3 def
/Encoding [ /space /parenleft /parenright /plus /hyphen /period /slash /zero /one /two /five /six /colon /equal /A /C /U /a /b /c /d /e /f /h /i /k /l /n /o /p /r /t /u /y /minus ] def
/FontInfo 10 dict dup begin
/FamilyName (Bitstream Vera Sans) def
/FullName (Bitstream Vera Sans) def
/Notice (Copyright (c) 2003 by Bitstream, Inc. All Rights Reserved. Bitstream Vera is a trademark of Bitstream, Inc.) def
/Weight (Roman) def
/Version (Release 1.10) def
/ItalicAngle 0.0 def
/isFixedPitch false def
/UnderlinePosition -213 def
/UnderlineThickness 143 def
end readonly def
/CharStrings 35 dict dup begin
/space{318 0 0 0 0 0 _sc
}_d
/parenleft{390 0 86 -131 310 759 _sc
310 759 _m
266 683 234 609 213 536 _c
191 463 181 389 181 314 _c
181 238 191 164 213 91 _c
234 17 266 -56 310 -131 _c
232 -131 _l
183 -54 146 20 122 94 _c
98 168 86 241 86 314 _c
86 386 98 459 122 533 _c
146 607 182 682 232 759 _c
310 759 _l
_cl}_d
/parenright{390 0 80 -131 304 759 _sc
80 759 _m
158 759 _l
206 682 243 607 267 533 _c
291 459 304 386 304 314 _c
304 241 291 168 267 94 _c
243 20 206 -54 158 -131 _c
80 -131 _l
123 -56 155 17 177 91 _c
198 164 209 238 209 314 _c
209 389 198 463 177 536 _c
155 609 123 683 80 759 _c
_cl}_d
/plus{838 0 106 0 732 627 _sc
460 627 _m
460 355 _l
732 355 _l
732 272 _l
460 272 _l
460 0 _l
378 0 _l
378 272 _l
106 272 _l
106 355 _l
378 355 _l
378 627 _l
460 627 _l
_cl}_d
/hyphen{361 0 49 234 312 314 _sc
49 314 _m
312 314 _l
312 234 _l
49 234 _l
49 314 _l
_cl}_d
/period{318 0 107 0 210 124 _sc
107 124 _m
210 124 _l
210 0 _l
107 0 _l
107 124 _l
_cl}_d
/slash{337 0 0 -92 337 729 _sc
254 729 _m
337 729 _l
83 -92 _l
0 -92 _l
254 729 _l
_cl}_d
/zero{636 0 66 -13 570 742 _sc
318 664 _m
267 664 229 639 203 589 _c
177 539 165 464 165 364 _c
165 264 177 189 203 139 _c
229 89 267 64 318 64 _c
369 64 407 89 433 139 _c
458 189 471 264 471 364 _c
471 464 458 539 433 589 _c
407 639 369 664 318 664 _c
318 742 _m
399 742 461 709 505 645 _c
548 580 570 486 570 364 _c
570 241 548 147 505 83 _c
461 19 399 -13 318 -13 _c
236 -13 173 19 130 83 _c
87 147 66 241 66 364 _c
66 486 87 580 130 645 _c
173 709 236 742 318 742 _c
_cl}_d
/one{636 0 110 0 544 729 _sc
124 83 _m
285 83 _l
285 639 _l
110 604 _l
110 694 _l
284 729 _l
383 729 _l
383 83 _l
544 83 _l
544 0 _l
124 0 _l
124 83 _l
_cl}_d
/two{{636 0 73 0 536 742 _sc
192 83 _m
536 83 _l
536 0 _l
73 0 _l
73 83 _l
110 121 161 173 226 239 _c
290 304 331 346 348 365 _c
380 400 402 430 414 455 _c
426 479 433 504 433 528 _c
433 566 419 598 392 622 _c
365 646 330 659 286 659 _c
255 659 222 653 188 643 _c
154 632 117 616 78 594 _c
78 694 _l
118 710 155 722 189 730 _c
223 738 255 742 284 742 _c
}_e{359 742 419 723 464 685 _c
509 647 532 597 532 534 _c
532 504 526 475 515 449 _c
504 422 484 390 454 354 _c
446 344 420 317 376 272 _c
332 227 271 164 192 83 _c
_cl}_e}_d
/five{{636 0 77 -13 549 729 _sc
108 729 _m
495 729 _l
495 646 _l
198 646 _l
198 467 _l
212 472 227 476 241 478 _c
255 480 270 482 284 482 _c
365 482 429 459 477 415 _c
525 370 549 310 549 234 _c
549 155 524 94 475 51 _c
426 8 357 -13 269 -13 _c
238 -13 207 -10 175 -6 _c
143 -1 111 6 77 17 _c
77 116 _l
106 100 136 88 168 80 _c
199 72 232 69 267 69 _c
}_e{323 69 368 83 401 113 _c
433 143 450 183 450 234 _c
450 284 433 324 401 354 _c
368 384 323 399 267 399 _c
241 399 214 396 188 390 _c
162 384 135 375 108 363 _c
108 729 _l
_cl}_e}_d
/six{{636 0 70 -13 573 742 _sc
330 404 _m
286 404 251 388 225 358 _c
199 328 186 286 186 234 _c
186 181 199 139 225 109 _c
251 79 286 64 330 64 _c
374 64 409 79 435 109 _c
461 139 474 181 474 234 _c
474 286 461 328 435 358 _c
409 388 374 404 330 404 _c
526 713 _m
526 623 _l
501 635 476 644 451 650 _c
425 656 400 659 376 659 _c
310 659 260 637 226 593 _c
}_e{192 549 172 482 168 394 _c
187 422 211 444 240 459 _c
269 474 301 482 336 482 _c
409 482 467 459 509 415 _c
551 371 573 310 573 234 _c
573 159 550 99 506 54 _c
462 9 403 -13 330 -13 _c
246 -13 181 19 137 83 _c
92 147 70 241 70 364 _c
70 479 97 571 152 639 _c
206 707 280 742 372 742 _c
396 742 421 739 447 735 _c
472 730 498 723 526 713 _c
_cl}_e}_d
/colon{337 0 117 0 220 517 _sc
117 124 _m
220 124 _l
220 0 _l
117 0 _l
117 124 _l
117 517 _m
220 517 _l
220 393 _l
117 393 _l
117 517 _l
_cl}_d
/equal{838 0 106 172 732 454 _sc
106 454 _m
732 454 _l
732 372 _l
106 372 _l
106 454 _l
106 255 _m
732 255 _l
732 172 _l
106 172 _l
106 255 _l
_cl}_d
/A{684 0 8 0 676 729 _sc
342 632 _m
208 269 _l
476 269 _l
342 632 _l
286 729 _m
398 729 _l
676 0 _l
573 0 _l
507 187 _l
178 187 _l
112 0 _l
8 0 _l
286 729 _l
_cl}_d
/C{{698 0 56 -13 644 742 _sc
644 673 _m
644 569 _l
610 599 575 622 537 638 _c
499 653 460 661 418 661 _c
334 661 270 635 226 584 _c
182 533 160 460 160 364 _c
160 268 182 194 226 143 _c
270 92 334 67 418 67 _c
460 67 499 74 537 90 _c
575 105 610 128 644 159 _c
644 56 _l
609 32 572 15 534 4 _c
496 -7 455 -13 412 -13 _c
302 -13 215 20 151 87 _c
}_e{87 154 56 246 56 364 _c
56 481 87 573 151 641 _c
215 708 302 742 412 742 _c
456 742 497 736 535 725 _c
573 713 610 696 644 673 _c
_cl}_e}_d
/U{732 0 87 -13 645 729 _sc
87 729 _m
186 729 _l
186 286 _l
186 208 200 151 228 117 _c
256 83 302 66 366 66 _c
429 66 475 83 503 117 _c
531 151 546 208 546 286 _c
546 729 _l
645 729 _l
645 274 _l
645 178 621 107 574 59 _c
527 11 458 -13 366 -13 _c
274 -13 204 11 157 59 _c
110 107 87 178 87 274 _c
87 729 _l
_cl}_d
/a{{613 0 60 -13 522 560 _sc
343 275 _m
270 275 220 266 192 250 _c
164 233 150 205 150 165 _c
150 133 160 107 181 89 _c
202 70 231 61 267 61 _c
317 61 357 78 387 114 _c
417 149 432 196 432 255 _c
432 275 _l
343 275 _l
522 312 _m
522 0 _l
432 0 _l
432 83 _l
411 49 385 25 355 10 _c
325 -5 287 -13 243 -13 _c
187 -13 142 2 109 33 _c
76 64 60 106 60 159 _c
}_e{60 220 80 266 122 298 _c
163 329 224 345 306 345 _c
432 345 _l
432 354 _l
432 395 418 427 391 450 _c
364 472 326 484 277 484 _c
245 484 215 480 185 472 _c
155 464 127 453 100 439 _c
100 522 _l
132 534 164 544 195 550 _c
226 556 256 560 286 560 _c
365 560 424 539 463 498 _c
502 457 522 395 522 312 _c
_cl}_e}_d
/b{{635 0 91 -13 580 760 _sc
487 273 _m
487 339 473 390 446 428 _c
418 466 381 485 334 485 _c
286 485 249 466 222 428 _c
194 390 181 339 181 273 _c
181 207 194 155 222 117 _c
249 79 286 61 334 61 _c
381 61 418 79 446 117 _c
473 155 487 207 487 273 _c
181 464 _m
199 496 223 520 252 536 _c
281 552 316 560 356 560 _c
422 560 476 533 518 481 _c
559 428 580 359 580 273 _c
}_e{580 187 559 117 518 65 _c
476 13 422 -13 356 -13 _c
316 -13 281 -5 252 10 _c
223 25 199 49 181 82 _c
181 0 _l
91 0 _l
91 760 _l
181 760 _l
181 464 _l
_cl}_e}_d
/c{{550 0 55 -13 488 560 _sc
488 526 _m
488 442 _l
462 456 437 466 411 473 _c
385 480 360 484 334 484 _c
276 484 230 465 198 428 _c
166 391 150 339 150 273 _c
150 206 166 154 198 117 _c
230 80 276 62 334 62 _c
360 62 385 65 411 72 _c
437 79 462 90 488 104 _c
488 21 _l
462 9 436 0 410 -5 _c
383 -10 354 -13 324 -13 _c
242 -13 176 12 128 64 _c
}_e{79 115 55 185 55 273 _c
55 362 79 432 128 483 _c
177 534 244 560 330 560 _c
358 560 385 557 411 551 _c
437 545 463 537 488 526 _c
_cl}_e}_d
/d{{635 0 55 -13 544 760 _sc
454 464 _m
454 760 _l
544 760 _l
544 0 _l
454 0 _l
454 82 _l
435 49 411 25 382 10 _c
353 -5 319 -13 279 -13 _c
213 -13 159 13 117 65 _c
75 117 55 187 55 273 _c
55 359 75 428 117 481 _c
159 533 213 560 279 560 _c
319 560 353 552 382 536 _c
411 520 435 496 454 464 _c
148 273 _m
148 207 161 155 188 117 _c
215 79 253 61 301 61 _c
}_e{348 61 385 79 413 117 _c
440 155 454 207 454 273 _c
454 339 440 390 413 428 _c
385 466 348 485 301 485 _c
253 485 215 466 188 428 _c
161 390 148 339 148 273 _c
_cl}_e}_d
/e{{615 0 55 -13 562 560 _sc
562 296 _m
562 252 _l
149 252 _l
153 190 171 142 205 110 _c
238 78 284 62 344 62 _c
378 62 412 66 444 74 _c
476 82 509 95 541 113 _c
541 28 _l
509 14 476 3 442 -3 _c
408 -9 373 -13 339 -13 _c
251 -13 182 12 131 62 _c
80 112 55 181 55 268 _c
55 357 79 428 127 481 _c
175 533 241 560 323 560 _c
397 560 455 536 498 489 _c
}_e{540 441 562 377 562 296 _c
472 322 _m
471 371 457 410 431 440 _c
404 469 368 484 324 484 _c
274 484 234 469 204 441 _c
174 413 156 373 152 322 _c
472 322 _l
_cl}_e}_d
/f{352 0 23 0 371 760 _sc
371 760 _m
371 685 _l
285 685 _l
253 685 230 678 218 665 _c
205 652 199 629 199 595 _c
199 547 _l
347 547 _l
347 477 _l
199 477 _l
199 0 _l
109 0 _l
109 477 _l
23 477 _l
23 547 _l
109 547 _l
109 585 _l
109 645 123 690 151 718 _c
179 746 224 760 286 760 _c
371 760 _l
_cl}_d
/h{634 0 91 0 549 760 _sc
549 330 _m
549 0 _l
459 0 _l
459 327 _l
459 379 448 417 428 443 _c
408 469 378 482 338 482 _c
289 482 251 466 223 435 _c
195 404 181 362 181 309 _c
181 0 _l
91 0 _l
91 760 _l
181 760 _l
181 462 _l
202 494 227 519 257 535 _c
286 551 320 560 358 560 _c
420 560 468 540 500 501 _c
532 462 549 405 549 330 _c
_cl}_d
/i{278 0 94 0 184 760 _sc
94 547 _m
184 547 _l
184 0 _l
94 0 _l
94 547 _l
94 760 _m
184 760 _l
184 646 _l
94 646 _l
94 760 _l
_cl}_d
/k{579 0 91 0 576 760 _sc
91 760 _m
181 760 _l
181 311 _l
449 547 _l
564 547 _l
274 291 _l
576 0 _l
459 0 _l
181 267 _l
181 0 _l
91 0 _l
91 760 _l
_cl}_d
/l{278 0 94 0 184 760 _sc
94 760 _m
184 760 _l
184 0 _l
94 0 _l
94 760 _l
_cl}_d
/n{634 0 91 0 549 560 _sc
549 330 _m
549 0 _l
459 0 _l
459 327 _l
459 379 448 417 428 443 _c
408 469 378 482 338 482 _c
289 482 251 466 223 435 _c
195 404 181 362 181 309 _c
181 0 _l
91 0 _l
91 547 _l
181 547 _l
181 462 _l
202 494 227 519 257 535 _c
286 551 320 560 358 560 _c
420 560 468 540 500 501 _c
532 462 549 405 549 330 _c
_cl}_d
/o{612 0 55 -13 557 560 _sc
306 484 _m
258 484 220 465 192 427 _c
164 389 150 338 150 273 _c
150 207 163 156 191 118 _c
219 80 257 62 306 62 _c
354 62 392 80 420 118 _c
448 156 462 207 462 273 _c
462 337 448 389 420 427 _c
392 465 354 484 306 484 _c
306 560 _m
384 560 445 534 490 484 _c
534 433 557 363 557 273 _c
557 183 534 113 490 63 _c
445 12 384 -13 306 -13 _c
227 -13 165 12 121 63 _c
77 113 55 183 55 273 _c
55 363 77 433 121 484 _c
165 534 227 560 306 560 _c
_cl}_d
/p{{635 0 91 -207 580 560 _sc
181 82 _m
181 -207 _l
91 -207 _l
91 547 _l
181 547 _l
181 464 _l
199 496 223 520 252 536 _c
281 552 316 560 356 560 _c
422 560 476 533 518 481 _c
559 428 580 359 580 273 _c
580 187 559 117 518 65 _c
476 13 422 -13 356 -13 _c
316 -13 281 -5 252 10 _c
223 25 199 49 181 82 _c
487 273 _m
487 339 473 390 446 428 _c
418 466 381 485 334 485 _c
}_e{286 485 249 466 222 428 _c
194 390 181 339 181 273 _c
181 207 194 155 222 117 _c
249 79 286 61 334 61 _c
381 61 418 79 446 117 _c
473 155 487 207 487 273 _c
_cl}_e}_d
/r{411 0 91 0 411 560 _sc
411 463 _m
401 469 390 473 378 476 _c
366 478 353 480 339 480 _c
288 480 249 463 222 430 _c
194 397 181 350 181 288 _c
181 0 _l
91 0 _l
91 547 _l
181 547 _l
181 462 _l
199 495 224 520 254 536 _c
284 552 321 560 365 560 _c
371 560 378 559 386 559 _c
393 558 401 557 411 555 _c
411 463 _l
_cl}_d
/t{392 0 27 0 368 702 _sc
183 702 _m
183 547 _l
368 547 _l
368 477 _l
183 477 _l
183 180 _l
183 135 189 106 201 94 _c
213 81 238 75 276 75 _c
368 75 _l
368 0 _l
276 0 _l
206 0 158 13 132 39 _c
106 65 93 112 93 180 _c
93 477 _l
27 477 _l
27 547 _l
93 547 _l
93 702 _l
183 702 _l
_cl}_d
/u{634 0 85 -13 543 547 _sc
85 216 _m
85 547 _l
175 547 _l
175 219 _l
175 167 185 129 205 103 _c
225 77 255 64 296 64 _c
344 64 383 79 411 110 _c
439 141 453 183 453 237 _c
453 547 _l
543 547 _l
543 0 _l
453 0 _l
453 84 _l
431 50 405 26 377 10 _c
348 -5 315 -13 277 -13 _c
214 -13 166 6 134 45 _c
101 83 85 140 85 216 _c
_cl}_d
/y{592 0 30 -207 562 547 _sc
322 -50 _m
296 -114 271 -157 247 -177 _c
223 -197 191 -207 151 -207 _c
79 -207 _l
79 -132 _l
132 -132 _l
156 -132 175 -126 189 -114 _c
203 -102 218 -75 235 -31 _c
251 9 _l
30 547 _l
125 547 _l
296 119 _l
467 547 _l
562 547 _l
322 -50 _l
_cl}_d
/minus{838 0 106 272 732 355 _sc
106 355 _m
732 355 _l
732 272 _l
106 272 _l
106 355 _l
_cl}_d
end readonly def

/BuildGlyph
 {exch begin
 CharStrings exch
 2 copy known not{pop /.notdef}if
 true 3 1 roll get exec
 end}_d

/BuildChar {
 1 index /Encoding get exch get
 1 index /BuildGlyph get exec
}_d

FontName currentdict end definefont pop
end
%%EndProlog
mpldict begin
18 180 translate
576 432 0 0 clipbox
100000 setmiterlimit
gsave
0 0 m
576 0 l
576 432 l
0 432 l
cl
1.000 setgray
fill
grestore
gsave
72 43.2 m
518.4 43.2 l
518.4 388.8 l
72 388.8 l
cl
1.000 setgray
fill
grestore
1.000 setlinewidth
0 setlinejoin
0 setlinecap
[] 0 setdash
0.000 setgray
gsave
446.4 345.6 72 43.2 clipbox
97.573105 43.2 m
97.573105 43.494047 l
103.402702 43.494047 l
103.402702 43.729285 l
109.232299 43.729285 l
109.232299 43.670475 l
115.061896 43.670475 l
115.061896 43.729285 l
120.891493 43.729285 l
120.891493 43.494047 l
126.72109 43.494047 l
126.72109 44.964283 l
132.550687 44.964283 l
132.550687 45.669996 l
138.380284 45.669996 l
138.380284 48.669276 l
144.209881 48.669276 l
144.209881 49.25737 l
150.039478 49.25737 l
150.039478 52.021413 l
155.869075 52.021413 l
155.869075 60.019493 l
161.698672 60.019493 l
161.698672 62.607108 l
167.528269 62.607108 l
167.528269 71.898996 l
173.357866 71.898996 l
173.357866 85.072305 l
179.187463 85.072305 l
179.187463 101.127276 l
185.01706 101.127276 l
185.01706 122.827951 l
190.846657 122.827951 l
190.846657 141.529346 l
196.676254 141.529346 l
196.676254 177.991184 l
202.505851 177.991184 l
202.505851 198.692099 l
208.335448 198.692099 l
208.335448 234.97751 l
214.165045 234.97751 l
214.165045 262.323889 l
219.994641 262.323889 l
219.994641 287.259082 l
225.824238 287.259082 l
225.824238 341.128508 l
231.653835 341.128508 l
231.653835 336.070898 l
237.483432 336.070898 l
237.483432 387.646757 l
243.313029 387.646757 l
243.313029 386.411759 l
249.142626 386.411759 l
249.142626 381.824625 l
254.972223 381.824625 l
254.972223 380.824865 l
260.80182 380.824865 l
260.80182 380.472008 l
266.631417 380.472008 l
266.631417 345.362786 l
272.461014 345.362786 l
272.461014 314.370223 l
278.290611 314.370223 l
278.290611 282.201472 l
284.120208 282.201472 l
284.120208 237.859171 l
289.949805 237.859171 l
289.949805 217.099447 l
295.779402 217.099447 l
295.779402 171.34572 l
301.608999 171.34572 l
301.608999 151.468137 l
307.438596 151.468137 l
307.438596 124.356996 l
313.268193 124.356996 l
313.268193 98.069186 l
319.09779 98.069186 l
319.09779 87.071825 l
324.927387 87.071825 l
324.927387 72.839946 l
330.756984 72.839946 l
330.756984 65.135913 l
336.586581 65.135913 l
336.586581 59.607827 l
342.416178 59.607827 l
342.416178 51.609747 l
348.245774 51.609747 l
348.245774 49.022132 l
354.075371 49.022132 l
354.075371 46.316899 l
359.904968 46.316899 l
359.904968 44.611426 l
365.734565 44.611426 l
365.734565 44.376188 l
371.564162 44.376188 l
371.564162 43.435238 l
377.393759 43.435238 l
377.393759 43.846904 l
383.223356 43.846904 l
383.223356 43.435238 l
389.052953 43.435238 l
389.052953 43.2 l
383.223356 43.2 l
383.223356 43.2 l
377.393759 43.2 l
377.393759 43.2 l
371.564162 43.2 l
371.564162 43.2 l
365.734565 43.2 l
365.734565 43.2 l
359.904968 43.2 l
359.904968 43.2 l
354.075371 43.2 l
354.075371 43.2 l
348.245774 43.2 l
348.245774 43.2 l
342.416178 43.2 l
342.416178 43.2 l
336.586581 43.2 l
336.586581 43.2 l
330.756984 43.2 l
330.756984 43.2 l
324.927387 43.2 l
324.927387 43.2 l
319.09779 43.2 l
319.09779 43.2 l
313.268193 43.2 l
313.268193 43.2 l
307.438596 43.2 l
307.438596 43.2 l
301.608999 43.2 l
301.608999 43.2 l
295.779402 43.2 l
295.779402 43.2 l
289.949805 43.2 l
289.949805 43.2 l
284.120208 43.2 l
284.120208 43.2 l
278.290611 43.2 l
278.290611 43.2 l
272.461014 43.2 l
272.461014 43.2 l
266.631417 43.2 l
266.631417 43.2 l
260.80182 43.2 l
260.80182 43.2 l
254.972223 43.2 l
254.972223 43.2 l
249.142626 43.2 l
249.142626 43.2 l
243.313029 43.2 l
243.313029 43.2 l
237.483432 43.2 l
237.483432 43.2 l
231.653835 43.2 l
231.653835 43.2 l
225.824238 43.2 l
225.824238 43.2 l
219.994641 43.2 l
219.994641 43.2 l
214.165045 43.2 l
214.165045 43.2 l
208.335448 43.2 l
208.335448 43.2 l
202.505851 43.2 l
202.505851 43.2 l
196.676254 43.2 l
196.676254 43.2 l
190.846657 43.2 l
190.846657 43.2 l
185.01706 43.2 l
185.01706 43.2 l
179.187463 43.2 l
179.187463 43.2 l
173.357866 43.2 l
173.357866 43.2 l
167.528269 43.2 l
167.528269 43.2 l
161.698672 43.2 l
161.698672 43.2 l
155.869075 43.2 l
155.869075 43.2 l
150.039478 43.2 l
150.039478 43.2 l
144.209881 43.2 l
144.209881 43.2 l
138.380284 43.2 l
138.380284 43.2 l
132.550687 43.2 l
132.550687 43.2 l
126.72109 43.2 l
126.72109 43.2 l
120.891493 43.2 l
120.891493 43.2 l
115.061896 43.2 l
115.061896 43.2 l
109.232299 43.2 l
109.232299 43.2 l
103.402702 43.2 l
103.402702 43.2 l
cl
gsave
0.000 0.000 1.000 setrgbcolor
fill
grestore
stroke
grestore
1 setlinejoin
1.000 0.000 0.000 setrgbcolor
gsave
446.4 345.6 72 43.2 clipbox
439.947249 43.2 m
439.947249 387.646757 l
stroke
grestore
0.000 setgray
gsave
446.4 345.6 72 43.2 clipbox
249.660251 43.2 m
249.660251 387.646757 l
stroke
grestore
2.000 setlinewidth
2 setlinecap
gsave
446.4 345.6 72 43.2 clipbox
72 43.20143 m
75.246545 43.20224 l
78.493091 43.20348 l
81.739636 43.205362 l
84.986182 43.208193 l
88.232727 43.212416 l
91.479273 43.21866 l
94.725818 43.227814 l
97.972364 43.241117 l
101.218909 43.260281 l
104.465455 43.287649 l
107.712 43.326391 l
110.958545 43.380756 l
114.205091 43.456374 l
117.451636 43.56063 l
120.698182 43.703099 l
123.944727 43.896066 l
127.191273 44.15511 l
130.437818 44.499753 l
133.684364 44.954179 l
136.930909 45.547968 l
140.177455 46.316848 l
143.424 47.303404 l
146.670545 48.557697 l
149.917091 50.137728 l
153.163636 52.109669 l
156.410182 54.547786 l
159.656727 57.533952 l
162.903273 61.156677 l
166.149818 65.509571 l
169.396364 70.689174 l
172.642909 76.792118 l
175.889455 83.911614 l
179.136 92.133296 l
182.382545 101.53052 l
185.629091 112.159238 l
188.875636 124.052655 l
192.122182 137.215907 l
195.368727 151.621054 l
198.615273 167.202698 l
201.861818 183.854578 l
205.108364 201.427452 l
208.354909 219.728578 l
211.601455 238.523023 l
214.848 257.536966 l
218.094545 276.463048 l
221.341091 294.967716 l
224.587636 312.700367 l
227.834182 329.303985 l
231.080727 344.426849 l
234.327273 357.734782 l
237.573818 368.923358 l
240.820364 377.729449 l
244.066909 383.941501 l
247.313455 387.407981 l
250.56 388.043517 l
253.806545 385.832396 l
257.053091 380.829204 l
260.299636 373.156596 l
263.546182 363.000287 l
266.792727 350.601591 l
270.039273 336.24789 l
273.285818 320.261584 l
276.532364 302.9881 l
279.778909 284.783584 l
283.025455 266.002886 l
286.272 246.988387 l
289.518545 228.06014 l
292.765091 209.507697 l
296.011636 191.583854 l
299.258182 174.500437 l
302.504727 158.426115 l
305.751273 143.486136 l
308.997818 129.763758 l
312.244364 117.303126 l
315.490909 106.113259 l
318.737455 96.172817 l
321.984 87.43532 l
325.230545 79.83452 l
328.477091 73.289645 l
331.723636 67.710313 l
334.970182 63.000943 l
338.216727 59.064563 l
341.463273 55.80595 l
344.709818 53.134094 l
347.956364 50.964012 l
351.202909 49.21796 l
354.449455 47.826129 l
357.696 46.726885 l
360.942545 45.866675 l
364.189091 45.199651 l
367.435636 44.687111 l
370.682182 44.296827 l
373.928727 44.002302 l
377.175273 43.782026 l
380.421818 43.618748 l
383.668364 43.498791 l
386.914909 43.411441 l
390.161455 43.348393 l
393.408 43.303287 l
stroke
grestore
1.000 setlinewidth
0 setlinejoin
gsave
72 388.8 m
518.4 388.8 l
stroke
grestore
gsave
518.4 43.2 m
518.4 388.8 l
stroke
grestore
gsave
72 43.2 m
518.4 43.2 l
stroke
grestore
gsave
72 43.2 m
72 388.8 l
stroke
grestore
0.500 setlinewidth
1 setlinejoin
0 setlinecap
gsave
/o {
gsave
newpath
translate
0.5 setlinewidth
1 setlinejoin
0 setlinecap
0 0 m
0 4 l

gsave
0.000 setgray
fill
grestore
stroke
grestore
} bind def
72 43.2 o
grestore
gsave
/o {
gsave
newpath
translate
0.5 setlinewidth
1 setlinejoin
0 setlinecap
0 0 m
0 -4 l

gsave
0.000 setgray
fill
grestore
stroke
grestore
} bind def
72 388.8 o
grestore
/BitstreamVeraSans-Roman findfont
12.000 scalefont
setfont
gsave
53.601562 30.075000 translate
0.000000 rotate
0.000000 0.000000 m /minus glyphshow
10.054688 0.000000 m /zero glyphshow
17.689453 0.000000 m /period glyphshow
21.503906 0.000000 m /two glyphshow
29.138672 0.000000 m /zero glyphshow
grestore
gsave
/o {
gsave
newpath
translate
0.5 setlinewidth
1 setlinejoin
0 setlinecap
0 0 m
0 4 l

gsave
0.000 setgray
fill
grestore
stroke
grestore
} bind def
161.28 43.2 o
grestore
gsave
/o {
gsave
newpath
translate
0.5 setlinewidth
1 setlinejoin
0 setlinecap
0 0 m
0 -4 l

gsave
0.000 setgray
fill
grestore
stroke
grestore
} bind def
161.28 388.8 o
grestore
gsave
142.881562 30.075000 translate
0.000000 rotate
0.000000 0.000000 m /minus glyphshow
10.054688 0.000000 m /zero glyphshow
17.689453 0.000000 m /period glyphshow
21.503906 0.000000 m /one glyphshow
29.138672 0.000000 m /five glyphshow
grestore
gsave
/o {
gsave
newpath
translate
0.5 setlinewidth
1 setlinejoin
0 setlinecap
0 0 m
0 4 l

gsave
0.000 setgray
fill
grestore
stroke
grestore
} bind def
250.56 43.2 o
grestore
gsave
/o {
gsave
newpath
translate
0.5 setlinewidth
1 setlinejoin
0 setlinecap
0 0 m
0 -4 l

gsave
0.000 setgray
fill
grestore
stroke
grestore
} bind def
250.56 388.8 o
grestore
gsave
232.161563 30.075000 translate
0.000000 rotate
0.000000 0.000000 m /minus glyphshow
10.054688 0.000000 m /zero glyphshow
17.689453 0.000000 m /period glyphshow
21.503906 0.000000 m /one glyphshow
29.138672 0.000000 m /zero glyphshow
grestore
gsave
/o {
gsave
newpath
translate
0.5 setlinewidth
1 setlinejoin
0 setlinecap
0 0 m
0 4 l

gsave
0.000 setgray
fill
grestore
stroke
grestore
} bind def
339.84 43.2 o
grestore
gsave
/o {
gsave
newpath
translate
0.5 setlinewidth
1 setlinejoin
0 setlinecap
0 0 m
0 -4 l

gsave
0.000 setgray
fill
grestore
stroke
grestore
} bind def
339.84 388.8 o
grestore
gsave
321.441563 30.075000 translate
0.000000 rotate
0.000000 0.000000 m /minus glyphshow
10.054688 0.000000 m /zero glyphshow
17.689453 0.000000 m /period glyphshow
21.503906 0.000000 m /zero glyphshow
29.138672 0.000000 m /five glyphshow
grestore
gsave
/o {
gsave
newpath
translate
0.5 setlinewidth
1 setlinejoin
0 setlinecap
0 0 m
0 4 l

gsave
0.000 setgray
fill
grestore
stroke
grestore
} bind def
429.12 43.2 o
grestore
gsave
/o {
gsave
newpath
translate
0.5 setlinewidth
1 setlinejoin
0 setlinecap
0 0 m
0 -4 l

gsave
0.000 setgray
fill
grestore
stroke
grestore
} bind def
429.12 388.8 o
grestore
gsave
415.752813 30.075000 translate
0.000000 rotate
0.000000 0.000000 m /zero glyphshow
7.634766 0.000000 m /period glyphshow
11.449219 0.000000 m /zero glyphshow
19.083984 0.000000 m /zero glyphshow
grestore
gsave
/o {
gsave
newpath
translate
0.5 setlinewidth
1 setlinejoin
0 setlinecap
0 0 m
0 4 l

gsave
0.000 setgray
fill
grestore
stroke
grestore
} bind def
518.4 43.2 o
grestore
gsave
/o {
gsave
newpath
translate
0.5 setlinewidth
1 setlinejoin
0 setlinecap
0 0 m
0 -4 l

gsave
0.000 setgray
fill
grestore
stroke
grestore
} bind def
518.4 388.8 o
grestore
gsave
505.032812 30.075000 translate
0.000000 rotate
0.000000 0.000000 m /zero glyphshow
7.634766 0.000000 m /period glyphshow
11.449219 0.000000 m /zero glyphshow
19.083984 0.000000 m /five glyphshow
grestore
gsave
/o {
gsave
newpath
translate
0.5 setlinewidth
1 setlinejoin
0 setlinecap
0 0 m
4 0 l

gsave
0.000 setgray
fill
grestore
stroke
grestore
} bind def
72 43.2 o
grestore
gsave
/o {
gsave
newpath
translate
0.5 setlinewidth
1 setlinejoin
0 setlinecap
0 0 m
-4 0 l

gsave
0.000 setgray
fill
grestore
stroke
grestore
} bind def
518.4 43.2 o
grestore
gsave
60.359375 39.887500 translate
0.000000 rotate
0.000000 0.000000 m /zero glyphshow
grestore
gsave
/o {
gsave
newpath
translate
0.5 setlinewidth
1 setlinejoin
0 setlinecap
0 0 m
4 0 l

gsave
0.000 setgray
fill
grestore
stroke
grestore
} bind def
72 129.6 o
grestore
gsave
/o {
gsave
newpath
translate
0.5 setlinewidth
1 setlinejoin
0 setlinecap
0 0 m
-4 0 l

gsave
0.000 setgray
fill
grestore
stroke
grestore
} bind def
518.4 129.6 o
grestore
gsave
60.359375 126.287500 translate
0.000000 rotate
0.000000 0.000000 m /five glyphshow
grestore
gsave
/o {
gsave
newpath
translate
0.5 setlinewidth
1 setlinejoin
0 setlinecap
0 0 m
4 0 l

gsave
0.000 setgray
fill
grestore
stroke
grestore
} bind def
72 216 o
grestore
gsave
/o {
gsave
newpath
translate
0.5 setlinewidth
1 setlinejoin
0 setlinecap
0 0 m
-4 0 l

gsave
0.000 setgray
fill
grestore
stroke
grestore
} bind def
518.4 216 o
grestore
gsave
52.718750 212.687500 translate
0.000000 rotate
0.000000 0.000000 m /one glyphshow
7.634766 0.000000 m /zero glyphshow
grestore
gsave
/o {
gsave
newpath
translate
0.5 setlinewidth
1 setlinejoin
0 setlinecap
0 0 m
4 0 l

gsave
0.000 setgray
fill
grestore
stroke
grestore
} bind def
72 302.4 o
grestore
gsave
/o {
gsave
newpath
translate
0.5 setlinewidth
1 setlinejoin
0 setlinecap
0 0 m
-4 0 l

gsave
0.000 setgray
fill
grestore
stroke
grestore
} bind def
518.4 302.4 o
grestore
gsave
52.718750 299.087500 translate
0.000000 rotate
0.000000 0.000000 m /one glyphshow
7.634766 0.000000 m /five glyphshow
grestore
gsave
/o {
gsave
newpath
translate
0.5 setlinewidth
1 setlinejoin
0 setlinecap
0 0 m
4 0 l

gsave
0.000 setgray
fill
grestore
stroke
grestore
} bind def
72 388.8 o
grestore
gsave
/o {
gsave
newpath
translate
0.5 setlinewidth
1 setlinejoin
0 setlinecap
0 0 m
-4 0 l

gsave
0.000 setgray
fill
grestore
stroke
grestore
} bind def
518.4 388.8 o
grestore
gsave
52.718750 385.487500 translate
0.000000 rotate
0.000000 0.000000 m /two glyphshow
7.634766 0.000000 m /zero glyphshow
grestore
gsave
45.218750 161.437500 translate
90.000000 rotate
0.000000 0.000000 m /U glyphshow
8.783203 0.000000 m /n glyphshow
16.388672 0.000000 m /f glyphshow
20.613281 0.000000 m /space glyphshow
24.427734 0.000000 m /A glyphshow
32.636719 0.000000 m /C glyphshow
41.015625 0.000000 m /space glyphshow
44.830078 0.000000 m /p glyphshow
52.447266 0.000000 m /r glyphshow
57.380859 0.000000 m /o glyphshow
64.722656 0.000000 m /b glyphshow
72.339844 0.000000 m /a glyphshow
79.693359 0.000000 m /b glyphshow
87.310547 0.000000 m /i glyphshow
90.644531 0.000000 m /l glyphshow
93.978516 0.000000 m /i glyphshow
97.312500 0.000000 m /t glyphshow
102.017578 0.000000 m /y glyphshow
grestore
gsave
17.280000 8.640000 translate
0.000000 rotate
0.000000 0.000000 m /b glyphshow
7.617188 0.000000 m /l glyphshow
10.951172 0.000000 m /a glyphshow
18.304688 0.000000 m /c glyphshow
24.902344 0.000000 m /k glyphshow
31.851562 0.000000 m /colon glyphshow
35.894531 0.000000 m /space glyphshow
39.708984 0.000000 m /A glyphshow
47.917969 0.000000 m /C glyphshow
56.296875 0.000000 m /parenleft glyphshow
60.978516 0.000000 m /u glyphshow
68.583984 0.000000 m /n glyphshow
76.189453 0.000000 m /f glyphshow
80.414062 0.000000 m /parenright glyphshow
85.095703 0.000000 m /space glyphshow
88.910156 0.000000 m /equal glyphshow
98.964844 0.000000 m /space glyphshow
102.779297 0.000000 m /hyphen glyphshow
107.109375 0.000000 m /zero glyphshow
114.744141 0.000000 m /period glyphshow
118.558594 0.000000 m /one glyphshow
126.193359 0.000000 m /zero glyphshow
133.828125 0.000000 m /zero glyphshow
141.462891 0.000000 m /five glyphshow
149.097656 0.000000 m /space glyphshow
152.912109 0.000000 m /plus glyphshow
162.966797 0.000000 m /slash glyphshow
167.009766 0.000000 m /hyphen glyphshow
171.339844 0.000000 m /space glyphshow
175.154297 0.000000 m /zero glyphshow
182.789062 0.000000 m /period glyphshow
186.603516 0.000000 m /zero glyphshow
194.238281 0.000000 m /two glyphshow
201.873047 0.000000 m /zero glyphshow
209.507812 0.000000 m /zero glyphshow
grestore
gsave
17.280000 410.400000 translate
0.000000 rotate
0.000000 0.000000 m /r glyphshow
4.933594 0.000000 m /e glyphshow
12.316406 0.000000 m /d glyphshow
19.933594 0.000000 m /colon glyphshow
23.976562 0.000000 m /space glyphshow
27.791016 0.000000 m /A glyphshow
36.000000 0.000000 m /C glyphshow
44.378906 0.000000 m /parenleft glyphshow
49.060547 0.000000 m /t glyphshow
53.765625 0.000000 m /r glyphshow
58.699219 0.000000 m /u glyphshow
66.304688 0.000000 m /t glyphshow
71.009766 0.000000 m /h glyphshow
78.615234 0.000000 m /parenright glyphshow
83.296875 0.000000 m /space glyphshow
87.111328 0.000000 m /equal glyphshow
97.166016 0.000000 m /space glyphshow
100.980469 0.000000 m /zero glyphshow
108.615234 0.000000 m /period glyphshow
112.429688 0.000000 m /zero glyphshow
120.064453 0.000000 m /zero glyphshow
127.699219 0.000000 m /six glyphshow
135.333984 0.000000 m /one glyphshow
grestore

end
showpage
