%!PS-Adobe-3.0 EPSF-3.0
%%Title: /nfs/dust/atlas/user/naranjo/TopPolarization/results_parton/helpol_plus/nominal/ALL/optimization/_ALL_obsneg4_4Bin2_rpZero_helpol_plus_posterior.eps
%%Creator: matplotlib version 1.5.1, http://matplotlib.org/
%%CreationDate: Fri May  6 11:55:25 2016
%%Orientation: portrait
%%BoundingBox: 18 180 594 612
%%EndComments
%%BeginProlog
/mpldict 8 dict def
mpldict begin
/m { moveto } bind def
/l { lineto } bind def
/r { rlineto } bind def
/c { curveto } bind def
/cl { closepath } bind def
/box {
m
1 index 0 r
0 exch r
neg 0 r
cl
} bind def
/clipbox {
box
clip
newpath
} bind def
%!PS-Adobe-3.0 Resource-Font
%%Title: Bitstream Vera Sans
%%Copyright: Copyright (c) 2003 by Bitstream, Inc. All Rights Reserved.
%%Creator: Converted from TrueType to type 3 by PPR
25 dict begin
/_d{bind def}bind def
/_m{moveto}_d
/_l{lineto}_d
/_cl{closepath eofill}_d
/_c{curveto}_d
/_sc{7 -1 roll{setcachedevice}{pop pop pop pop pop pop}ifelse}_d
/_e{exec}_d
/FontName /BitstreamVeraSans-Roman def
/PaintType 0 def
/FontMatrix[.001 0 0 .001 0 0]def
/FontBBox[-183 -236 1287 928]def
/FontType 3 def
/Encoding [ /space /parenleft /parenright /plus /hyphen /period /slash /zero /one /two /four /five /nine /colon /equal /A /C /U /a /b /c /d /e /f /h /i /k /l /n /o /p /r /t /u /y /minus ] def
/FontInfo 10 dict dup begin
/FamilyName (Bitstream Vera Sans) def
/FullName (Bitstream Vera Sans) def
/Notice (Copyright (c) 2003 by Bitstream, Inc. All Rights Reserved. Bitstream Vera is a trademark of Bitstream, Inc.) def
/Weight (Roman) def
/Version (Release 1.10) def
/ItalicAngle 0.0 def
/isFixedPitch false def
/UnderlinePosition -213 def
/UnderlineThickness 143 def
end readonly def
/CharStrings 36 dict dup begin
/space{318 0 0 0 0 0 _sc
}_d
/parenleft{390 0 86 -131 310 759 _sc
310 759 _m
266 683 234 609 213 536 _c
191 463 181 389 181 314 _c
181 238 191 164 213 91 _c
234 17 266 -56 310 -131 _c
232 -131 _l
183 -54 146 20 122 94 _c
98 168 86 241 86 314 _c
86 386 98 459 122 533 _c
146 607 182 682 232 759 _c
310 759 _l
_cl}_d
/parenright{390 0 80 -131 304 759 _sc
80 759 _m
158 759 _l
206 682 243 607 267 533 _c
291 459 304 386 304 314 _c
304 241 291 168 267 94 _c
243 20 206 -54 158 -131 _c
80 -131 _l
123 -56 155 17 177 91 _c
198 164 209 238 209 314 _c
209 389 198 463 177 536 _c
155 609 123 683 80 759 _c
_cl}_d
/plus{838 0 106 0 732 627 _sc
460 627 _m
460 355 _l
732 355 _l
732 272 _l
460 272 _l
460 0 _l
378 0 _l
378 272 _l
106 272 _l
106 355 _l
378 355 _l
378 627 _l
460 627 _l
_cl}_d
/hyphen{361 0 49 234 312 314 _sc
49 314 _m
312 314 _l
312 234 _l
49 234 _l
49 314 _l
_cl}_d
/period{318 0 107 0 210 124 _sc
107 124 _m
210 124 _l
210 0 _l
107 0 _l
107 124 _l
_cl}_d
/slash{337 0 0 -92 337 729 _sc
254 729 _m
337 729 _l
83 -92 _l
0 -92 _l
254 729 _l
_cl}_d
/zero{636 0 66 -13 570 742 _sc
318 664 _m
267 664 229 639 203 589 _c
177 539 165 464 165 364 _c
165 264 177 189 203 139 _c
229 89 267 64 318 64 _c
369 64 407 89 433 139 _c
458 189 471 264 471 364 _c
471 464 458 539 433 589 _c
407 639 369 664 318 664 _c
318 742 _m
399 742 461 709 505 645 _c
548 580 570 486 570 364 _c
570 241 548 147 505 83 _c
461 19 399 -13 318 -13 _c
236 -13 173 19 130 83 _c
87 147 66 241 66 364 _c
66 486 87 580 130 645 _c
173 709 236 742 318 742 _c
_cl}_d
/one{636 0 110 0 544 729 _sc
124 83 _m
285 83 _l
285 639 _l
110 604 _l
110 694 _l
284 729 _l
383 729 _l
383 83 _l
544 83 _l
544 0 _l
124 0 _l
124 83 _l
_cl}_d
/two{{636 0 73 0 536 742 _sc
192 83 _m
536 83 _l
536 0 _l
73 0 _l
73 83 _l
110 121 161 173 226 239 _c
290 304 331 346 348 365 _c
380 400 402 430 414 455 _c
426 479 433 504 433 528 _c
433 566 419 598 392 622 _c
365 646 330 659 286 659 _c
255 659 222 653 188 643 _c
154 632 117 616 78 594 _c
78 694 _l
118 710 155 722 189 730 _c
223 738 255 742 284 742 _c
}_e{359 742 419 723 464 685 _c
509 647 532 597 532 534 _c
532 504 526 475 515 449 _c
504 422 484 390 454 354 _c
446 344 420 317 376 272 _c
332 227 271 164 192 83 _c
_cl}_e}_d
/four{636 0 49 0 580 729 _sc
378 643 _m
129 254 _l
378 254 _l
378 643 _l
352 729 _m
476 729 _l
476 254 _l
580 254 _l
580 172 _l
476 172 _l
476 0 _l
378 0 _l
378 172 _l
49 172 _l
49 267 _l
352 729 _l
_cl}_d
/five{{636 0 77 -13 549 729 _sc
108 729 _m
495 729 _l
495 646 _l
198 646 _l
198 467 _l
212 472 227 476 241 478 _c
255 480 270 482 284 482 _c
365 482 429 459 477 415 _c
525 370 549 310 549 234 _c
549 155 524 94 475 51 _c
426 8 357 -13 269 -13 _c
238 -13 207 -10 175 -6 _c
143 -1 111 6 77 17 _c
77 116 _l
106 100 136 88 168 80 _c
199 72 232 69 267 69 _c
}_e{323 69 368 83 401 113 _c
433 143 450 183 450 234 _c
450 284 433 324 401 354 _c
368 384 323 399 267 399 _c
241 399 214 396 188 390 _c
162 384 135 375 108 363 _c
108 729 _l
_cl}_e}_d
/nine{{636 0 63 -13 566 742 _sc
110 15 _m
110 105 _l
134 93 159 84 185 78 _c
210 72 235 69 260 69 _c
324 69 374 90 408 134 _c
442 178 462 244 468 334 _c
448 306 424 284 396 269 _c
367 254 335 247 300 247 _c
226 247 168 269 126 313 _c
84 357 63 417 63 494 _c
63 568 85 628 129 674 _c
173 719 232 742 306 742 _c
390 742 455 709 499 645 _c
543 580 566 486 566 364 _c
}_e{566 248 538 157 484 89 _c
429 21 356 -13 264 -13 _c
239 -13 214 -10 189 -6 _c
163 -2 137 5 110 15 _c
306 324 _m
350 324 385 339 411 369 _c
437 399 450 441 450 494 _c
450 546 437 588 411 618 _c
385 648 350 664 306 664 _c
262 664 227 648 201 618 _c
175 588 162 546 162 494 _c
162 441 175 399 201 369 _c
227 339 262 324 306 324 _c
_cl}_e}_d
/colon{337 0 117 0 220 517 _sc
117 124 _m
220 124 _l
220 0 _l
117 0 _l
117 124 _l
117 517 _m
220 517 _l
220 393 _l
117 393 _l
117 517 _l
_cl}_d
/equal{838 0 106 172 732 454 _sc
106 454 _m
732 454 _l
732 372 _l
106 372 _l
106 454 _l
106 255 _m
732 255 _l
732 172 _l
106 172 _l
106 255 _l
_cl}_d
/A{684 0 8 0 676 729 _sc
342 632 _m
208 269 _l
476 269 _l
342 632 _l
286 729 _m
398 729 _l
676 0 _l
573 0 _l
507 187 _l
178 187 _l
112 0 _l
8 0 _l
286 729 _l
_cl}_d
/C{{698 0 56 -13 644 742 _sc
644 673 _m
644 569 _l
610 599 575 622 537 638 _c
499 653 460 661 418 661 _c
334 661 270 635 226 584 _c
182 533 160 460 160 364 _c
160 268 182 194 226 143 _c
270 92 334 67 418 67 _c
460 67 499 74 537 90 _c
575 105 610 128 644 159 _c
644 56 _l
609 32 572 15 534 4 _c
496 -7 455 -13 412 -13 _c
302 -13 215 20 151 87 _c
}_e{87 154 56 246 56 364 _c
56 481 87 573 151 641 _c
215 708 302 742 412 742 _c
456 742 497 736 535 725 _c
573 713 610 696 644 673 _c
_cl}_e}_d
/U{732 0 87 -13 645 729 _sc
87 729 _m
186 729 _l
186 286 _l
186 208 200 151 228 117 _c
256 83 302 66 366 66 _c
429 66 475 83 503 117 _c
531 151 546 208 546 286 _c
546 729 _l
645 729 _l
645 274 _l
645 178 621 107 574 59 _c
527 11 458 -13 366 -13 _c
274 -13 204 11 157 59 _c
110 107 87 178 87 274 _c
87 729 _l
_cl}_d
/a{{613 0 60 -13 522 560 _sc
343 275 _m
270 275 220 266 192 250 _c
164 233 150 205 150 165 _c
150 133 160 107 181 89 _c
202 70 231 61 267 61 _c
317 61 357 78 387 114 _c
417 149 432 196 432 255 _c
432 275 _l
343 275 _l
522 312 _m
522 0 _l
432 0 _l
432 83 _l
411 49 385 25 355 10 _c
325 -5 287 -13 243 -13 _c
187 -13 142 2 109 33 _c
76 64 60 106 60 159 _c
}_e{60 220 80 266 122 298 _c
163 329 224 345 306 345 _c
432 345 _l
432 354 _l
432 395 418 427 391 450 _c
364 472 326 484 277 484 _c
245 484 215 480 185 472 _c
155 464 127 453 100 439 _c
100 522 _l
132 534 164 544 195 550 _c
226 556 256 560 286 560 _c
365 560 424 539 463 498 _c
502 457 522 395 522 312 _c
_cl}_e}_d
/b{{635 0 91 -13 580 760 _sc
487 273 _m
487 339 473 390 446 428 _c
418 466 381 485 334 485 _c
286 485 249 466 222 428 _c
194 390 181 339 181 273 _c
181 207 194 155 222 117 _c
249 79 286 61 334 61 _c
381 61 418 79 446 117 _c
473 155 487 207 487 273 _c
181 464 _m
199 496 223 520 252 536 _c
281 552 316 560 356 560 _c
422 560 476 533 518 481 _c
559 428 580 359 580 273 _c
}_e{580 187 559 117 518 65 _c
476 13 422 -13 356 -13 _c
316 -13 281 -5 252 10 _c
223 25 199 49 181 82 _c
181 0 _l
91 0 _l
91 760 _l
181 760 _l
181 464 _l
_cl}_e}_d
/c{{550 0 55 -13 488 560 _sc
488 526 _m
488 442 _l
462 456 437 466 411 473 _c
385 480 360 484 334 484 _c
276 484 230 465 198 428 _c
166 391 150 339 150 273 _c
150 206 166 154 198 117 _c
230 80 276 62 334 62 _c
360 62 385 65 411 72 _c
437 79 462 90 488 104 _c
488 21 _l
462 9 436 0 410 -5 _c
383 -10 354 -13 324 -13 _c
242 -13 176 12 128 64 _c
}_e{79 115 55 185 55 273 _c
55 362 79 432 128 483 _c
177 534 244 560 330 560 _c
358 560 385 557 411 551 _c
437 545 463 537 488 526 _c
_cl}_e}_d
/d{{635 0 55 -13 544 760 _sc
454 464 _m
454 760 _l
544 760 _l
544 0 _l
454 0 _l
454 82 _l
435 49 411 25 382 10 _c
353 -5 319 -13 279 -13 _c
213 -13 159 13 117 65 _c
75 117 55 187 55 273 _c
55 359 75 428 117 481 _c
159 533 213 560 279 560 _c
319 560 353 552 382 536 _c
411 520 435 496 454 464 _c
148 273 _m
148 207 161 155 188 117 _c
215 79 253 61 301 61 _c
}_e{348 61 385 79 413 117 _c
440 155 454 207 454 273 _c
454 339 440 390 413 428 _c
385 466 348 485 301 485 _c
253 485 215 466 188 428 _c
161 390 148 339 148 273 _c
_cl}_e}_d
/e{{615 0 55 -13 562 560 _sc
562 296 _m
562 252 _l
149 252 _l
153 190 171 142 205 110 _c
238 78 284 62 344 62 _c
378 62 412 66 444 74 _c
476 82 509 95 541 113 _c
541 28 _l
509 14 476 3 442 -3 _c
408 -9 373 -13 339 -13 _c
251 -13 182 12 131 62 _c
80 112 55 181 55 268 _c
55 357 79 428 127 481 _c
175 533 241 560 323 560 _c
397 560 455 536 498 489 _c
}_e{540 441 562 377 562 296 _c
472 322 _m
471 371 457 410 431 440 _c
404 469 368 484 324 484 _c
274 484 234 469 204 441 _c
174 413 156 373 152 322 _c
472 322 _l
_cl}_e}_d
/f{352 0 23 0 371 760 _sc
371 760 _m
371 685 _l
285 685 _l
253 685 230 678 218 665 _c
205 652 199 629 199 595 _c
199 547 _l
347 547 _l
347 477 _l
199 477 _l
199 0 _l
109 0 _l
109 477 _l
23 477 _l
23 547 _l
109 547 _l
109 585 _l
109 645 123 690 151 718 _c
179 746 224 760 286 760 _c
371 760 _l
_cl}_d
/h{634 0 91 0 549 760 _sc
549 330 _m
549 0 _l
459 0 _l
459 327 _l
459 379 448 417 428 443 _c
408 469 378 482 338 482 _c
289 482 251 466 223 435 _c
195 404 181 362 181 309 _c
181 0 _l
91 0 _l
91 760 _l
181 760 _l
181 462 _l
202 494 227 519 257 535 _c
286 551 320 560 358 560 _c
420 560 468 540 500 501 _c
532 462 549 405 549 330 _c
_cl}_d
/i{278 0 94 0 184 760 _sc
94 547 _m
184 547 _l
184 0 _l
94 0 _l
94 547 _l
94 760 _m
184 760 _l
184 646 _l
94 646 _l
94 760 _l
_cl}_d
/k{579 0 91 0 576 760 _sc
91 760 _m
181 760 _l
181 311 _l
449 547 _l
564 547 _l
274 291 _l
576 0 _l
459 0 _l
181 267 _l
181 0 _l
91 0 _l
91 760 _l
_cl}_d
/l{278 0 94 0 184 760 _sc
94 760 _m
184 760 _l
184 0 _l
94 0 _l
94 760 _l
_cl}_d
/n{634 0 91 0 549 560 _sc
549 330 _m
549 0 _l
459 0 _l
459 327 _l
459 379 448 417 428 443 _c
408 469 378 482 338 482 _c
289 482 251 466 223 435 _c
195 404 181 362 181 309 _c
181 0 _l
91 0 _l
91 547 _l
181 547 _l
181 462 _l
202 494 227 519 257 535 _c
286 551 320 560 358 560 _c
420 560 468 540 500 501 _c
532 462 549 405 549 330 _c
_cl}_d
/o{612 0 55 -13 557 560 _sc
306 484 _m
258 484 220 465 192 427 _c
164 389 150 338 150 273 _c
150 207 163 156 191 118 _c
219 80 257 62 306 62 _c
354 62 392 80 420 118 _c
448 156 462 207 462 273 _c
462 337 448 389 420 427 _c
392 465 354 484 306 484 _c
306 560 _m
384 560 445 534 490 484 _c
534 433 557 363 557 273 _c
557 183 534 113 490 63 _c
445 12 384 -13 306 -13 _c
227 -13 165 12 121 63 _c
77 113 55 183 55 273 _c
55 363 77 433 121 484 _c
165 534 227 560 306 560 _c
_cl}_d
/p{{635 0 91 -207 580 560 _sc
181 82 _m
181 -207 _l
91 -207 _l
91 547 _l
181 547 _l
181 464 _l
199 496 223 520 252 536 _c
281 552 316 560 356 560 _c
422 560 476 533 518 481 _c
559 428 580 359 580 273 _c
580 187 559 117 518 65 _c
476 13 422 -13 356 -13 _c
316 -13 281 -5 252 10 _c
223 25 199 49 181 82 _c
487 273 _m
487 339 473 390 446 428 _c
418 466 381 485 334 485 _c
}_e{286 485 249 466 222 428 _c
194 390 181 339 181 273 _c
181 207 194 155 222 117 _c
249 79 286 61 334 61 _c
381 61 418 79 446 117 _c
473 155 487 207 487 273 _c
_cl}_e}_d
/r{411 0 91 0 411 560 _sc
411 463 _m
401 469 390 473 378 476 _c
366 478 353 480 339 480 _c
288 480 249 463 222 430 _c
194 397 181 350 181 288 _c
181 0 _l
91 0 _l
91 547 _l
181 547 _l
181 462 _l
199 495 224 520 254 536 _c
284 552 321 560 365 560 _c
371 560 378 559 386 559 _c
393 558 401 557 411 555 _c
411 463 _l
_cl}_d
/t{392 0 27 0 368 702 _sc
183 702 _m
183 547 _l
368 547 _l
368 477 _l
183 477 _l
183 180 _l
183 135 189 106 201 94 _c
213 81 238 75 276 75 _c
368 75 _l
368 0 _l
276 0 _l
206 0 158 13 132 39 _c
106 65 93 112 93 180 _c
93 477 _l
27 477 _l
27 547 _l
93 547 _l
93 702 _l
183 702 _l
_cl}_d
/u{634 0 85 -13 543 547 _sc
85 216 _m
85 547 _l
175 547 _l
175 219 _l
175 167 185 129 205 103 _c
225 77 255 64 296 64 _c
344 64 383 79 411 110 _c
439 141 453 183 453 237 _c
453 547 _l
543 547 _l
543 0 _l
453 0 _l
453 84 _l
431 50 405 26 377 10 _c
348 -5 315 -13 277 -13 _c
214 -13 166 6 134 45 _c
101 83 85 140 85 216 _c
_cl}_d
/y{592 0 30 -207 562 547 _sc
322 -50 _m
296 -114 271 -157 247 -177 _c
223 -197 191 -207 151 -207 _c
79 -207 _l
79 -132 _l
132 -132 _l
156 -132 175 -126 189 -114 _c
203 -102 218 -75 235 -31 _c
251 9 _l
30 547 _l
125 547 _l
296 119 _l
467 547 _l
562 547 _l
322 -50 _l
_cl}_d
/minus{838 0 106 272 732 355 _sc
106 355 _m
732 355 _l
732 272 _l
106 272 _l
106 355 _l
_cl}_d
end readonly def

/BuildGlyph
 {exch begin
 CharStrings exch
 2 copy known not{pop /.notdef}if
 true 3 1 roll get exec
 end}_d

/BuildChar {
 1 index /Encoding get exch get
 1 index /BuildGlyph get exec
}_d

FontName currentdict end definefont pop
end
%%EndProlog
mpldict begin
18 180 translate
576 432 0 0 clipbox
100000 setmiterlimit
gsave
0 0 m
576 0 l
576 432 l
0 432 l
cl
1.000 setgray
fill
grestore
gsave
72 43.2 m
518.4 43.2 l
518.4 388.8 l
72 388.8 l
cl
1.000 setgray
fill
grestore
1.000 setlinewidth
0 setlinejoin
0 setlinecap
[] 0 setdash
0.000 setgray
gsave
446.4 345.6 72 43.2 clipbox
133.100834 43.2 m
133.100834 43.296635 l
140.196289 43.296635 l
140.196289 43.2 l
147.291744 43.2 l
147.291744 43.2 l
154.387199 43.2 l
154.387199 43.586541 l
161.482654 43.586541 l
161.482654 44.504575 l
168.578109 44.504575 l
168.578109 44.746162 l
175.673564 44.746162 l
175.673564 44.842798 l
182.769019 44.842798 l
182.769019 47.451947 l
189.864474 47.451947 l
189.864474 47.500264 l
196.959929 47.500264 l
196.959929 51.848846 l
204.055384 51.848846 l
204.055384 55.424347 l
211.15084 55.424347 l
211.15084 62.237125 l
218.246295 62.237125 l
218.246295 73.011945 l
225.34175 73.011945 l
225.34175 83.786765 l
232.437205 83.786765 l
232.437205 92.000753 l
239.53266 92.000753 l
239.53266 114.178521 l
246.628115 114.178521 l
246.628115 133.070694 l
253.72357 133.070694 l
253.72357 160.27349 l
260.819025 160.27349 l
260.819025 181.629859 l
267.91448 181.629859 l
267.91448 218.496171 l
275.009935 218.496171 l
275.009935 221.057002 l
282.10539 221.057002 l
282.10539 249.129515 l
289.200845 249.129515 l
289.200845 281.502292 l
296.296301 281.502292 l
296.296301 303.245201 l
303.391756 303.245201 l
303.391756 324.456618 l
310.487211 324.456618 l
310.487211 338.855256 l
317.582666 338.855256 l
317.582666 347.020926 l
324.678121 347.020926 l
324.678121 315.324596 l
331.773576 315.324596 l
331.773576 324.504935 l
338.869031 324.504935 l
338.869031 283.966488 l
345.964486 283.966488 l
345.964486 254.251178 l
353.059941 254.251178 l
353.059941 234.344336 l
360.155396 234.344336 l
360.155396 200.666985 l
367.250851 200.666985 l
367.250851 172.981013 l
374.346307 172.981013 l
374.346307 135.776478 l
381.441762 135.776478 l
381.441762 114.99992 l
388.537217 114.99992 l
388.537217 99.828201 l
395.632672 99.828201 l
395.632672 86.347597 l
402.728127 86.347597 l
402.728127 69.146539 l
409.823582 69.146539 l
409.823582 59.821247 l
416.919037 59.821247 l
416.919037 54.651266 l
424.014492 54.651266 l
424.014492 50.592589 l
431.109947 50.592589 l
431.109947 47.645217 l
438.205402 47.645217 l
438.205402 46.727183 l
445.300857 46.727183 l
445.300857 44.359622 l
452.396312 44.359622 l
452.396312 43.924764 l
459.491768 43.924764 l
459.491768 43.779811 l
466.587223 43.779811 l
466.587223 44.697845 l
473.682678 44.697845 l
473.682678 43.441588 l
480.778133 43.441588 l
480.778133 43.248318 l
487.873588 43.248318 l
487.873588 43.2 l
480.778133 43.2 l
480.778133 43.2 l
473.682678 43.2 l
473.682678 43.2 l
466.587223 43.2 l
466.587223 43.2 l
459.491768 43.2 l
459.491768 43.2 l
452.396312 43.2 l
452.396312 43.2 l
445.300857 43.2 l
445.300857 43.2 l
438.205402 43.2 l
438.205402 43.2 l
431.109947 43.2 l
431.109947 43.2 l
424.014492 43.2 l
424.014492 43.2 l
416.919037 43.2 l
416.919037 43.2 l
409.823582 43.2 l
409.823582 43.2 l
402.728127 43.2 l
402.728127 43.2 l
395.632672 43.2 l
395.632672 43.2 l
388.537217 43.2 l
388.537217 43.2 l
381.441762 43.2 l
381.441762 43.2 l
374.346307 43.2 l
374.346307 43.2 l
367.250851 43.2 l
367.250851 43.2 l
360.155396 43.2 l
360.155396 43.2 l
353.059941 43.2 l
353.059941 43.2 l
345.964486 43.2 l
345.964486 43.2 l
338.869031 43.2 l
338.869031 43.2 l
331.773576 43.2 l
331.773576 43.2 l
324.678121 43.2 l
324.678121 43.2 l
317.582666 43.2 l
317.582666 43.2 l
310.487211 43.2 l
310.487211 43.2 l
303.391756 43.2 l
303.391756 43.2 l
296.296301 43.2 l
296.296301 43.2 l
289.200845 43.2 l
289.200845 43.2 l
282.10539 43.2 l
282.10539 43.2 l
275.009935 43.2 l
275.009935 43.2 l
267.91448 43.2 l
267.91448 43.2 l
260.819025 43.2 l
260.819025 43.2 l
253.72357 43.2 l
253.72357 43.2 l
246.628115 43.2 l
246.628115 43.2 l
239.53266 43.2 l
239.53266 43.2 l
232.437205 43.2 l
232.437205 43.2 l
225.34175 43.2 l
225.34175 43.2 l
218.246295 43.2 l
218.246295 43.2 l
211.15084 43.2 l
211.15084 43.2 l
204.055384 43.2 l
204.055384 43.2 l
196.959929 43.2 l
196.959929 43.2 l
189.864474 43.2 l
189.864474 43.2 l
182.769019 43.2 l
182.769019 43.2 l
175.673564 43.2 l
175.673564 43.2 l
168.578109 43.2 l
168.578109 43.2 l
161.482654 43.2 l
161.482654 43.2 l
154.387199 43.2 l
154.387199 43.2 l
147.291744 43.2 l
147.291744 43.2 l
140.196289 43.2 l
140.196289 43.2 l
cl
gsave
0.000 0.000 1.000 setrgbcolor
fill
grestore
stroke
grestore
1 setlinejoin
1.000 0.000 0.000 setrgbcolor
gsave
446.4 345.6 72 43.2 clipbox
419.927713 43.2 m
419.927713 347.020926 l
stroke
grestore
0.000 setgray
gsave
446.4 345.6 72 43.2 clipbox
315.387223 43.2 m
315.387223 347.020926 l
stroke
grestore
2.000 setlinewidth
2 setlinecap
gsave
446.4 345.6 72 43.2 clipbox
94.32 43.200379 m
98.378182 43.20062 l
102.436364 43.201006 l
106.494545 43.201616 l
110.552727 43.202575 l
114.610909 43.204063 l
118.669091 43.206355 l
122.727273 43.209848 l
126.785455 43.215122 l
130.843636 43.223011 l
134.901818 43.234696 l
138.96 43.25184 l
143.018182 43.276751 l
147.076364 43.312599 l
151.134545 43.363689 l
155.192727 43.435799 l
159.250909 43.536586 l
163.309091 43.676087 l
167.367273 43.867283 l
171.425455 44.126763 l
175.483636 44.475445 l
179.541818 44.939359 l
183.6 45.55045 l
187.658182 46.347367 l
191.716364 47.376169 l
195.774545 48.690897 l
199.832727 50.353902 l
203.890909 52.435854 l
207.949091 55.015324 l
212.007273 58.177821 l
216.065455 62.014215 l
220.123636 66.618442 l
224.181818 72.084467 l
228.24 78.502476 l
232.298182 85.954361 l
236.356364 94.508595 l
240.414545 104.214671 l
244.472727 115.097349 l
248.530909 127.15101 l
252.589091 140.334481 l
256.647273 154.566706 l
260.705455 169.723667 l
264.763636 185.636933 l
268.821818 202.09415 l
272.88 218.841708 l
276.938182 235.589711 l
280.996364 252.019227 l
285.054545 267.791633 l
289.112727 282.559744 l
293.170909 295.980227 l
297.229091 307.726713 l
301.287273 317.502914 l
305.345455 325.055008 l
309.403636 330.182582 l
313.461818 332.747468 l
317.52 332.679925 l
321.578182 329.981797 l
325.636364 324.726422 l
329.694545 317.055324 l
333.752727 307.17188 l
337.810909 295.332361 l
341.869091 281.834903 l
345.927273 267.007063 l
349.985455 251.192685 l
354.043636 234.738809 l
358.101818 217.983307 l
362.16 201.243839 l
366.218182 184.808603 l
370.276364 168.929201 l
374.334545 153.815789 l
378.392727 139.634523 l
382.450909 126.507173 l
386.509091 114.512672 l
390.567273 103.690263 l
394.625455 94.04388 l
398.683636 85.54736 l
402.741818 78.150102 l
406.8 71.782816 l
410.858182 66.363064 l
414.916364 61.800365 l
418.974545 58.00067 l
423.032727 54.870131 l
427.090909 52.318104 l
431.149091 50.2594 l
435.207273 48.615836 l
439.265455 47.317159 l
443.323636 46.301446 l
447.381818 45.515076 l
451.44 44.912382 l
455.498182 44.455078 l
459.556364 44.111539 l
463.614545 43.856015 l
467.672727 43.667829 l
471.730909 43.530594 l
475.789091 43.431493 l
479.847273 43.360625 l
483.905455 43.31044 l
487.963636 43.275244 l
492.021818 43.250798 l
496.08 43.233983 l
stroke
grestore
1.000 setlinewidth
0 setlinejoin
gsave
72 388.8 m
518.4 388.8 l
stroke
grestore
gsave
518.4 43.2 m
518.4 388.8 l
stroke
grestore
gsave
72 43.2 m
518.4 43.2 l
stroke
grestore
gsave
72 43.2 m
72 388.8 l
stroke
grestore
0.500 setlinewidth
1 setlinejoin
0 setlinecap
gsave
/o {
gsave
newpath
translate
0.5 setlinewidth
1 setlinejoin
0 setlinecap
0 0 m
0 4 l

gsave
0.000 setgray
fill
grestore
stroke
grestore
} bind def
72 43.2 o
grestore
gsave
/o {
gsave
newpath
translate
0.5 setlinewidth
1 setlinejoin
0 setlinecap
0 0 m
0 -4 l

gsave
0.000 setgray
fill
grestore
stroke
grestore
} bind def
72 388.8 o
grestore
/BitstreamVeraSans-Roman findfont
12.000 scalefont
setfont
gsave
53.601562 30.075000 translate
0.000000 rotate
0.000000 0.000000 m /minus glyphshow
10.054688 0.000000 m /zero glyphshow
17.689453 0.000000 m /period glyphshow
21.503906 0.000000 m /one glyphshow
29.138672 0.000000 m /five glyphshow
grestore
gsave
/o {
gsave
newpath
translate
0.5 setlinewidth
1 setlinejoin
0 setlinecap
0 0 m
0 4 l

gsave
0.000 setgray
fill
grestore
stroke
grestore
} bind def
183.6 43.2 o
grestore
gsave
/o {
gsave
newpath
translate
0.5 setlinewidth
1 setlinejoin
0 setlinecap
0 0 m
0 -4 l

gsave
0.000 setgray
fill
grestore
stroke
grestore
} bind def
183.6 388.8 o
grestore
gsave
165.201562 30.075000 translate
0.000000 rotate
0.000000 0.000000 m /minus glyphshow
10.054688 0.000000 m /zero glyphshow
17.689453 0.000000 m /period glyphshow
21.503906 0.000000 m /one glyphshow
29.138672 0.000000 m /zero glyphshow
grestore
gsave
/o {
gsave
newpath
translate
0.5 setlinewidth
1 setlinejoin
0 setlinecap
0 0 m
0 4 l

gsave
0.000 setgray
fill
grestore
stroke
grestore
} bind def
295.2 43.2 o
grestore
gsave
/o {
gsave
newpath
translate
0.5 setlinewidth
1 setlinejoin
0 setlinecap
0 0 m
0 -4 l

gsave
0.000 setgray
fill
grestore
stroke
grestore
} bind def
295.2 388.8 o
grestore
gsave
276.801563 30.075000 translate
0.000000 rotate
0.000000 0.000000 m /minus glyphshow
10.054688 0.000000 m /zero glyphshow
17.689453 0.000000 m /period glyphshow
21.503906 0.000000 m /zero glyphshow
29.138672 0.000000 m /five glyphshow
grestore
gsave
/o {
gsave
newpath
translate
0.5 setlinewidth
1 setlinejoin
0 setlinecap
0 0 m
0 4 l

gsave
0.000 setgray
fill
grestore
stroke
grestore
} bind def
406.8 43.2 o
grestore
gsave
/o {
gsave
newpath
translate
0.5 setlinewidth
1 setlinejoin
0 setlinecap
0 0 m
0 -4 l

gsave
0.000 setgray
fill
grestore
stroke
grestore
} bind def
406.8 388.8 o
grestore
gsave
393.432813 30.075000 translate
0.000000 rotate
0.000000 0.000000 m /zero glyphshow
7.634766 0.000000 m /period glyphshow
11.449219 0.000000 m /zero glyphshow
19.083984 0.000000 m /zero glyphshow
grestore
gsave
/o {
gsave
newpath
translate
0.5 setlinewidth
1 setlinejoin
0 setlinecap
0 0 m
0 4 l

gsave
0.000 setgray
fill
grestore
stroke
grestore
} bind def
518.4 43.2 o
grestore
gsave
/o {
gsave
newpath
translate
0.5 setlinewidth
1 setlinejoin
0 setlinecap
0 0 m
0 -4 l

gsave
0.000 setgray
fill
grestore
stroke
grestore
} bind def
518.4 388.8 o
grestore
gsave
505.032812 30.075000 translate
0.000000 rotate
0.000000 0.000000 m /zero glyphshow
7.634766 0.000000 m /period glyphshow
11.449219 0.000000 m /zero glyphshow
19.083984 0.000000 m /five glyphshow
grestore
gsave
/o {
gsave
newpath
translate
0.5 setlinewidth
1 setlinejoin
0 setlinecap
0 0 m
4 0 l

gsave
0.000 setgray
fill
grestore
stroke
grestore
} bind def
72 43.2 o
grestore
gsave
/o {
gsave
newpath
translate
0.5 setlinewidth
1 setlinejoin
0 setlinecap
0 0 m
-4 0 l

gsave
0.000 setgray
fill
grestore
stroke
grestore
} bind def
518.4 43.2 o
grestore
gsave
60.359375 39.887500 translate
0.000000 rotate
0.000000 0.000000 m /zero glyphshow
grestore
gsave
/o {
gsave
newpath
translate
0.5 setlinewidth
1 setlinejoin
0 setlinecap
0 0 m
4 0 l

gsave
0.000 setgray
fill
grestore
stroke
grestore
} bind def
72 112.32 o
grestore
gsave
/o {
gsave
newpath
translate
0.5 setlinewidth
1 setlinejoin
0 setlinecap
0 0 m
-4 0 l

gsave
0.000 setgray
fill
grestore
stroke
grestore
} bind def
518.4 112.32 o
grestore
gsave
60.359375 109.007500 translate
0.000000 rotate
0.000000 0.000000 m /five glyphshow
grestore
gsave
/o {
gsave
newpath
translate
0.5 setlinewidth
1 setlinejoin
0 setlinecap
0 0 m
4 0 l

gsave
0.000 setgray
fill
grestore
stroke
grestore
} bind def
72 181.44 o
grestore
gsave
/o {
gsave
newpath
translate
0.5 setlinewidth
1 setlinejoin
0 setlinecap
0 0 m
-4 0 l

gsave
0.000 setgray
fill
grestore
stroke
grestore
} bind def
518.4 181.44 o
grestore
gsave
52.718750 178.127500 translate
0.000000 rotate
0.000000 0.000000 m /one glyphshow
7.634766 0.000000 m /zero glyphshow
grestore
gsave
/o {
gsave
newpath
translate
0.5 setlinewidth
1 setlinejoin
0 setlinecap
0 0 m
4 0 l

gsave
0.000 setgray
fill
grestore
stroke
grestore
} bind def
72 250.56 o
grestore
gsave
/o {
gsave
newpath
translate
0.5 setlinewidth
1 setlinejoin
0 setlinecap
0 0 m
-4 0 l

gsave
0.000 setgray
fill
grestore
stroke
grestore
} bind def
518.4 250.56 o
grestore
gsave
52.718750 247.247500 translate
0.000000 rotate
0.000000 0.000000 m /one glyphshow
7.634766 0.000000 m /five glyphshow
grestore
gsave
/o {
gsave
newpath
translate
0.5 setlinewidth
1 setlinejoin
0 setlinecap
0 0 m
4 0 l

gsave
0.000 setgray
fill
grestore
stroke
grestore
} bind def
72 319.68 o
grestore
gsave
/o {
gsave
newpath
translate
0.5 setlinewidth
1 setlinejoin
0 setlinecap
0 0 m
-4 0 l

gsave
0.000 setgray
fill
grestore
stroke
grestore
} bind def
518.4 319.68 o
grestore
gsave
52.718750 316.367500 translate
0.000000 rotate
0.000000 0.000000 m /two glyphshow
7.634766 0.000000 m /zero glyphshow
grestore
gsave
/o {
gsave
newpath
translate
0.5 setlinewidth
1 setlinejoin
0 setlinecap
0 0 m
4 0 l

gsave
0.000 setgray
fill
grestore
stroke
grestore
} bind def
72 388.8 o
grestore
gsave
/o {
gsave
newpath
translate
0.5 setlinewidth
1 setlinejoin
0 setlinecap
0 0 m
-4 0 l

gsave
0.000 setgray
fill
grestore
stroke
grestore
} bind def
518.4 388.8 o
grestore
gsave
52.718750 385.487500 translate
0.000000 rotate
0.000000 0.000000 m /two glyphshow
7.634766 0.000000 m /five glyphshow
grestore
gsave
45.218750 161.437500 translate
90.000000 rotate
0.000000 0.000000 m /U glyphshow
8.783203 0.000000 m /n glyphshow
16.388672 0.000000 m /f glyphshow
20.613281 0.000000 m /space glyphshow
24.427734 0.000000 m /A glyphshow
32.636719 0.000000 m /C glyphshow
41.015625 0.000000 m /space glyphshow
44.830078 0.000000 m /p glyphshow
52.447266 0.000000 m /r glyphshow
57.380859 0.000000 m /o glyphshow
64.722656 0.000000 m /b glyphshow
72.339844 0.000000 m /a glyphshow
79.693359 0.000000 m /b glyphshow
87.310547 0.000000 m /i glyphshow
90.644531 0.000000 m /l glyphshow
93.978516 0.000000 m /i glyphshow
97.312500 0.000000 m /t glyphshow
102.017578 0.000000 m /y glyphshow
grestore
gsave
17.280000 8.640000 translate
0.000000 rotate
0.000000 0.000000 m /b glyphshow
7.617188 0.000000 m /l glyphshow
10.951172 0.000000 m /a glyphshow
18.304688 0.000000 m /c glyphshow
24.902344 0.000000 m /k glyphshow
31.851562 0.000000 m /colon glyphshow
35.894531 0.000000 m /space glyphshow
39.708984 0.000000 m /A glyphshow
47.917969 0.000000 m /C glyphshow
56.296875 0.000000 m /parenleft glyphshow
60.978516 0.000000 m /u glyphshow
68.583984 0.000000 m /n glyphshow
76.189453 0.000000 m /f glyphshow
80.414062 0.000000 m /parenright glyphshow
85.095703 0.000000 m /space glyphshow
88.910156 0.000000 m /equal glyphshow
98.964844 0.000000 m /space glyphshow
102.779297 0.000000 m /hyphen glyphshow
107.109375 0.000000 m /zero glyphshow
114.744141 0.000000 m /period glyphshow
118.558594 0.000000 m /zero glyphshow
126.193359 0.000000 m /four glyphshow
133.828125 0.000000 m /one glyphshow
141.462891 0.000000 m /zero glyphshow
149.097656 0.000000 m /space glyphshow
152.912109 0.000000 m /plus glyphshow
162.966797 0.000000 m /slash glyphshow
167.009766 0.000000 m /hyphen glyphshow
171.339844 0.000000 m /space glyphshow
175.154297 0.000000 m /zero glyphshow
182.789062 0.000000 m /period glyphshow
186.603516 0.000000 m /zero glyphshow
194.238281 0.000000 m /one glyphshow
201.873047 0.000000 m /nine glyphshow
209.507812 0.000000 m /zero glyphshow
grestore
gsave
17.280000 410.400000 translate
0.000000 rotate
0.000000 0.000000 m /r glyphshow
4.933594 0.000000 m /e glyphshow
12.316406 0.000000 m /d glyphshow
19.933594 0.000000 m /colon glyphshow
23.976562 0.000000 m /space glyphshow
27.791016 0.000000 m /A glyphshow
36.000000 0.000000 m /C glyphshow
44.378906 0.000000 m /parenleft glyphshow
49.060547 0.000000 m /t glyphshow
53.765625 0.000000 m /r glyphshow
58.699219 0.000000 m /u glyphshow
66.304688 0.000000 m /t glyphshow
71.009766 0.000000 m /h glyphshow
78.615234 0.000000 m /parenright glyphshow
83.296875 0.000000 m /space glyphshow
87.111328 0.000000 m /equal glyphshow
97.166016 0.000000 m /space glyphshow
100.980469 0.000000 m /zero glyphshow
108.615234 0.000000 m /period glyphshow
112.429688 0.000000 m /zero glyphshow
120.064453 0.000000 m /zero glyphshow
127.699219 0.000000 m /five glyphshow
135.333984 0.000000 m /nine glyphshow
grestore

end
showpage
