%!PS-Adobe-2.0 EPSF-2.0
%%BoundingBox:  0 0 567 383
%%Title: : calib
%%Creator: ROOT Version 5.34/22
%%CreationDate: Fri May  6 12:08:43 2016
%%EndComments
%%BeginProlog
80 dict begin
/s {stroke} def /l {lineto} def /m {moveto} def /t {translate} def
/r {rotate} def /rl {roll}  def /R {repeat} def
/d {rlineto} def /rm {rmoveto} def /gr {grestore} def /f {eofill} def
/c {setrgbcolor} def /black {0 setgray} def /sd {setdash} def
/cl {closepath} def /sf {scalefont setfont} def /lw {setlinewidth} def
/box {m dup 0 exch d exch 0 d 0 exch neg d cl} def
/NC{systemdict begin initclip end}def/C{NC box clip newpath}def
/bl {box s} def /bf {box f} def /Y { 0 exch d} def /X { 0 d} def 
/K {{pop pop 0 moveto} exch kshow} bind def
/ita {/ang 15 def gsave [1 0 ang dup sin exch cos div 1 0 0] concat} def 
/mp {newpath /y exch def /x exch def} def
/side {[w .77 mul w .23 mul] .385 w mul sd w 0 l currentpoint t -144 r} def
/mr {mp x y w2 0 360 arc} def /m24 {mr s} def /m20 {mr f} def
/mb {mp x y w2 add m w2 neg 0 d 0 w neg d w 0 d 0 w d cl} def
/mt {mp x y w2 add m w2 neg w neg d w 0 d cl} def
/m21 {mb f} def /m25 {mb s} def /m22 {mt f} def /m26{mt s} def
/m23 {mp x y w2 sub m w2 w d w neg 0 d cl f} def
/m27 {mp x y w2 add m w3 neg w2 neg d w3 w2 neg d w3 w2 d cl s} def
/m28 {mp x w2 sub y w2 sub w3 add m w3 0 d  0 w3 neg d w3 0 d 0 w3 d w3 0 d  0 w3 d w3 neg 0 d 0 w3 d w3 neg 0 d 0 w3 neg d w3 neg 0 d cl s } def
/m29 {mp gsave x w2 sub y w2 add w3 sub m currentpoint t 4 {side} repeat cl fill gr} def
/m30 {mp gsave x w2 sub y w2 add w3 sub m currentpoint t 4 {side} repeat cl s gr} def
/m31 {mp x y w2 sub m 0 w d x w2 sub y m w 0 d x w2 sub y w2 add m w w neg d x w2 sub y w2 sub m w w d s} def
/m32 {mp x y w2 sub m w2 w d w neg 0 d cl s} def
/m33 {mp x y w2 add m w3 neg w2 neg d w3 w2 neg d w3 w2 d cl f} def
/m34 {mp x w2 sub y w2 sub w3 add m w3 0 d  0 w3 neg d w3 0 d 0 w3 d w3 0 d  0 w3 d w3 neg 0 d 0 w3 d w3 neg 0 d 0 w3 neg d w3 neg 0 d cl f } def
/m2 {mp x y w2 sub m 0 w d x w2 sub y m w 0 d s} def
/m5 {mp x w2 sub y w2 sub m w w d x w2 sub y w2 add m w w neg d s} def
/reEncode {exch findfont dup length dict begin {1 index /FID eq  {pop pop} {def} ifelse } forall /Encoding exch def currentdict end dup /FontName get exch definefont pop } def [/Times-Bold /Times-Italic /Times-BoldItalic /Helvetica /Helvetica-Oblique
 /Helvetica-Bold /Helvetica-BoldOblique /Courier /Courier-Oblique /Courier-Bold /Courier-BoldOblique /Times-Roman /AvantGarde-Book /AvantGarde-BookOblique /AvantGarde-Demi /AvantGarde-DemiOblique /Bookman-Demi /Bookman-DemiItalic /Bookman-Light
 /Bookman-LightItalic /Helvetica-Narrow /Helvetica-Narrow-Bold /Helvetica-Narrow-BoldOblique /Helvetica-Narrow-Oblique /NewCenturySchlbk-Roman /NewCenturySchlbk-Bold /NewCenturySchlbk-BoldItalic /NewCenturySchlbk-Italic /Palatino-Bold
 /Palatino-BoldItalic /Palatino-Italic /Palatino-Roman ] {ISOLatin1Encoding reEncode } forall
%%EndProlog
%%BeginSetup
%%EndSetup
newpath  gsave  .25 .25 scale  gsave  0 0 t black[  ] 0 sd 3 lw 1 1 1 c 2268 1530 0 0 bf black 1 1 1 c 1814 1224 227 153 bf black 1814 1224 227 153 bl 1 1 1 c 1814 1224 227 153 bf black 1814 1224 227 153 bl 227 153 m 1814 X s
 gsave  2268 1530 0 0 C 1671.19 47.8133 t 0 r /Helvetica findfont 50.0901 sf 0 0 m (Generated value) show NC gr  343 190 m -37 Y s 388 171 m -18 Y s 432 171 m -18 Y s 476 171 m -18 Y s 521 190 m -37 Y s 565 171 m -18 Y s 610 171 m -18 Y s 654 171 m
 -18 Y s 699 190 m -37 Y s 743 171 m -18 Y s 788 171 m -18 Y s 832 171 m -18 Y s 877 190 m -37 Y s 921 171 m -18 Y s 966 171 m -18 Y s 1010 171 m -18 Y s 1054 190 m -37 Y s 1099 171 m -18 Y s 1143 171 m -18 Y s 1188 171 m -18 Y s 1232 190 m -37 Y s
 1277 171 m -18 Y s 1321 171 m -18 Y s 1366 171 m -18 Y s 1410 190 m -37 Y s 1455 171 m -18 Y s 1499 171 m -18 Y s 1544 171 m -18 Y s 1588 190 m -37 Y s 1633 171 m -18 Y s 1677 171 m -18 Y s 1721 171 m -18 Y s 1766 190 m -37 Y s 1810 171 m -18 Y s
 1855 171 m -18 Y s 1899 171 m -18 Y s 1944 190 m -37 Y s 343 190 m -37 Y s 299 171 m -18 Y s 254 171 m -18 Y s 1944 190 m -37 Y s 1988 171 m -18 Y s 2033 171 m -18 Y s
 gsave  2268 1530 0 0 C 305.094 104.734 t 0 r /Helvetica findfont 50.0901 sf 0 0 m (0.08) show NC gr 
 gsave  2268 1530 0 0 C 280.049 104.734 t 0 r /Symbol findfont 50.0901 sf 0 0 m (-) show NC gr 
 gsave  2268 1530 0 0 C 482.687 104.734 t 0 r /Helvetica findfont 50.0901 sf 0 0 m (0.06) show NC gr 
 gsave  2268 1530 0 0 C 457.642 104.734 t 0 r /Symbol findfont 50.0901 sf 0 0 m (-) show NC gr 
 gsave  2268 1530 0 0 C 660.279 104.734 t 0 r /Helvetica findfont 50.0901 sf 0 0 m (0.04) show NC gr 
 gsave  2268 1530 0 0 C 632.957 104.734 t 0 r /Symbol findfont 50.0901 sf 0 0 m (-) show NC gr 
 gsave  2268 1530 0 0 C 840.148 104.734 t 0 r /Helvetica findfont 50.0901 sf 0 0 m (0.02) show NC gr 
 gsave  2268 1530 0 0 C 815.103 104.734 t 0 r /Symbol findfont 50.0901 sf 0 0 m (-) show NC gr 
 gsave  2268 1530 0 0 C 1040.51 104.734 t 0 r /Helvetica findfont 50.0901 sf 0 0 m (0) show NC gr 
 gsave  2268 1530 0 0 C 1183.95 104.734 t 0 r /Helvetica findfont 50.0901 sf 0 0 m (0.02) show NC gr 
 gsave  2268 1530 0 0 C 1359.26 104.734 t 0 r /Helvetica findfont 50.0901 sf 0 0 m (0.04) show NC gr 
 gsave  2268 1530 0 0 C 1539.13 104.734 t 0 r /Helvetica findfont 50.0901 sf 0 0 m (0.06) show NC gr 
 gsave  2268 1530 0 0 C 1716.73 104.734 t 0 r /Helvetica findfont 50.0901 sf 0 0 m (0.08) show NC gr 
 gsave  2268 1530 0 0 C 1912.53 104.734 t 0 r /Helvetica findfont 50.0901 sf 0 0 m (0.1) show NC gr  227 153 m 1224 Y s
 gsave  2268 1530 0 0 C 116.118 1045.06 t 90 r /Helvetica findfont 50.0901 sf 0 0 m (Unfolded value) show NC gr  281 201 m -54 X s 254 232 m -27 X s 254 262 m -27 X s 254 293 m -27 X s 281 323 m -54 X s 254 353 m -27 X s 254 384 m -27 X s 254 414 m
 -27 X s 281 444 m -54 X s 254 475 m -27 X s 254 505 m -27 X s 254 536 m -27 X s 281 566 m -54 X s 254 596 m -27 X s 254 627 m -27 X s 254 657 m -27 X s 281 687 m -54 X s 254 718 m -27 X s 254 748 m -27 X s 254 779 m -27 X s 281 809 m -54 X s 254 839
 m -27 X s 254 870 m -27 X s 254 900 m -27 X s 281 930 m -54 X s 254 961 m -27 X s 254 991 m -27 X s 254 1021 m -27 X s 281 1052 m -54 X s 254 1082 m -27 X s 254 1113 m -27 X s 254 1143 m -27 X s 281 1173 m -54 X s 254 1204 m -27 X s 254 1234 m -27 X
 s 254 1264 m -27 X s 281 1295 m -54 X s 281 201 m -54 X s 254 171 m -27 X s 281 1295 m -54 X s 254 1325 m -27 X s 254 1356 m -27 X s
 gsave  2268 1530 0 0 C 154.824 184.423 t 0 r /Helvetica findfont 50.0901 sf 0 0 m (0.1) show NC gr 
 gsave  2268 1530 0 0 C 127.502 184.423 t 0 r /Symbol findfont 50.0901 sf 0 0 m (-) show NC gr 
 gsave  2268 1530 0 0 C 118.395 305.094 t 0 r /Helvetica findfont 50.0901 sf 0 0 m (0.08) show NC gr 
 gsave  2268 1530 0 0 C 91.073 305.094 t 0 r /Symbol findfont 50.0901 sf 0 0 m (-) show NC gr 
 gsave  2268 1530 0 0 C 118.395 428.043 t 0 r /Helvetica findfont 50.0901 sf 0 0 m (0.06) show NC gr 
 gsave  2268 1530 0 0 C 91.073 428.043 t 0 r /Symbol findfont 50.0901 sf 0 0 m (-) show NC gr 
 gsave  2268 1530 0 0 C 116.118 548.715 t 0 r /Helvetica findfont 50.0901 sf 0 0 m (0.04) show NC gr 
 gsave  2268 1530 0 0 C 88.7961 548.715 t 0 r /Symbol findfont 50.0901 sf 0 0 m (-) show NC gr 
 gsave  2268 1530 0 0 C 118.395 669.386 t 0 r /Helvetica findfont 50.0901 sf 0 0 m (0.02) show NC gr 
 gsave  2268 1530 0 0 C 91.073 669.386 t 0 r /Symbol findfont 50.0901 sf 0 0 m (-) show NC gr 
 gsave  2268 1530 0 0 C 186.7 792.335 t 0 r /Helvetica findfont 50.0901 sf 0 0 m (0) show NC gr 
 gsave  2268 1530 0 0 C 118.395 913.006 t 0 r /Helvetica findfont 50.0901 sf 0 0 m (0.02) show NC gr 
 gsave  2268 1530 0 0 C 116.118 1033.68 t 0 r /Helvetica findfont 50.0901 sf 0 0 m (0.04) show NC gr 
 gsave  2268 1530 0 0 C 118.395 1156.63 t 0 r /Helvetica findfont 50.0901 sf 0 0 m (0.06) show NC gr 
 gsave  2268 1530 0 0 C 118.395 1277.3 t 0 r /Helvetica findfont 50.0901 sf 0 0 m (0.08) show NC gr  0 0.453333 1 c 6 lw black 0 0.453333 1 c 3 lw /w 18 def /w2 {w 2 div} def /w3 {w 3 div} def 1178 793 1356 914 1623 1099 1000 674 1890 1275 823 556
 645 433 378 255 8 { m21} R 6 lw 0.95 0.95 0.95 c black 0 0.453333 1 c 236 158 m 18 12 d 18 12 d 18 13 d 18 12 d 19 12 d 18 12 d 18 13 d 18 12 d 18 12 d 18 12 d 18 13 d 19 12 d 18 12 d 18 13 d 18 12 d 18 12 d 18 12 d 18 13 d 19 12 d 18 12 d 18 12 d
 18 13 d 18 12 d 18 12 d 18 12 d 19 13 d 18 12 d 18 12 d 18 12 d 18 13 d 18 12 d 18 12 d 19 13 d 18 12 d 18 12 d 18 12 d 18 13 d 18 12 d 18 12 d 19 12 d 18 13 d 18 12 d 18 12 d 18 12 d 18 13 d 18 12 d 19 12 d 18 13 d 18 12 d s 1125 759 m 18 12 d 18
 12 d 18 13 d 18 12 d 18 12 d 19 12 d 18 13 d 18 12 d 18 12 d 18 12 d 18 13 d 18 12 d 19 12 d 18 13 d 18 12 d 18 12 d 18 12 d 18 13 d 18 12 d 19 12 d 18 12 d 18 13 d 18 12 d 18 12 d 18 12 d 18 13 d 19 12 d 18 12 d 18 12 d 18 13 d 18 12 d 18 12 d 18
 13 d 19 12 d 18 12 d 18 12 d 18 13 d 18 12 d 18 12 d 18 12 d 19 13 d 18 12 d 18 12 d 18 12 d 18 13 d 18 12 d 18 12 d 19 13 d 18 12 d s 2014 1360 m 18 12 d s 3 lw 1178 793 m 159 Y s 1174 952 m 9 X s 1178 793 m -159 Y s 1174 634 m 9 X s 1356 914 m 165
 Y s 1352 1079 m 9 X s 1356 914 m -164 Y s 1352 750 m 9 X s 1623 1099 m 164 Y s 1618 1263 m 10 X s 1623 1099 m -164 Y s 1618 935 m 10 X s 1000 674 m 168 Y s 996 842 m 9 X s 1000 674 m -167 Y s 996 507 m 9 X s 1890 1275 m 102 Y s 1885 1377 m 9 X s
 1890 1275 m -171 Y s 1885 1104 m 9 X s 823 556 m 166 Y s 818 722 m 9 X s 823 556 m -167 Y s 818 389 m 9 X s 645 433 m 166 Y s 640 599 m 9 X s 645 433 m -166 Y s 640 267 m 9 X s 378 255 m 162 Y s 373 417 m 10 X s 378 255 m -102 Y s 373 153 m 10 X s
 /w 2 def /w2 {w 2 div} def /w3 {w 3 div} def 1178 793 1356 914 1623 1099 1000 674 1890 1275 823 556 645 433 378 255 8 { m20} R 1 0 0 c[ 12 12] 0 sd 6 lw 0.95 0.95 0.95 c black 1 0 0 c 236 250 m 18 12 d 18 13 d 18 12 d 18 12 d 19 13 d 18 12 d 18 12 d
 18 13 d 18 12 d 18 13 d 18 12 d 19 12 d 18 13 d 18 12 d 18 13 d 18 12 d 18 12 d 18 13 d 19 12 d 18 13 d 18 12 d 18 12 d 18 13 d 18 12 d 18 13 d 19 12 d 18 12 d 18 13 d 18 12 d 18 12 d 18 13 d 18 12 d 19 13 d 18 12 d 18 12 d 18 13 d 18 12 d 18 13 d
 18 12 d 19 12 d 18 13 d 18 12 d 18 13 d 18 12 d 18 12 d 18 13 d 19 12 d 18 13 d 18 12 d s 1125 857 m 18 12 d 18 13 d 18 12 d 18 12 d 18 13 d 19 12 d 18 13 d 18 12 d 18 12 d 18 13 d 18 12 d 18 13 d 19 12 d 18 12 d 18 13 d 18 12 d 18 13 d 18 12 d 18
 12 d 19 13 d 18 12 d 18 13 d 18 12 d 18 12 d 18 13 d 18 12 d 19 12 d 18 13 d 18 12 d 18 13 d 18 12 d 18 12 d 18 13 d 19 12 d 18 13 d 18 12 d 18 12 d 18 13 d 18 12 d 18 13 d 19 12 d 18 12 d s black
 gsave  2268 1530 0 0 C 514.562 1070.11 t 0 r /Helvetica findfont 70.5815 sf 0 0 m (y = 0.9899x+\2550.0161) show NC gr  0 0.453333 1 c[  ] 0 sd 309 1086 m 170 X s 1 1 1 c black
 gsave  2268 1530 0 0 C 1122.47 1479.94 t 0 r /Helvetica findfont 66.0279 sf 0 0 m ( ) show NC gr 
 gsave  2268 1530 0 0 C 512.285 1286.41 t 0 r /Helvetica-Bold findfont 70.5815 sf 0 0 m ( Internal Simulation) show NC gr 
 gsave  2268 1530 0 0 C 270.942 1286.41 t 0 r /Helvetica-BoldOblique findfont 70.5815 sf 0 0 m (ATLAS) show NC gr 
 gsave  2268 1530 0 0 C 705.815 1197.61 t 0 r /Symbol findfont 70.5815 sf 0 0 m (m) show NC gr 
 gsave  2268 1530 0 0 C 377.953 1197.61 t 0 r /Helvetica-Bold findfont 70.5815 sf 0 0 m ( = 8 TeV e) show NC gr 
 gsave  2268 1530 0 0 C 339.247 1197.61 t 0 r /Helvetica-Bold findfont 70.5815 sf 0 0 m (s) show NC gr  316 1239 m 10 -44 d s 0 lw 326 1195 m 6 64 d s 332 1259 m 46 X s
 gsave  2268 1530 0 0 C 270.942 1197.61 t 0 r /Helvetica-Bold findfont 70.5815 sf 0 0 m ( ) show NC gr 
 gr  gr showpage
end
%%EOF
