%!PS-Adobe-2.0 EPSF-2.0
%%BoundingBox:  0 0 567 383
%%Title: : calib
%%Creator: ROOT Version 5.34/22
%%CreationDate: Fri May  6 12:08:43 2016
%%EndComments
%%BeginProlog
80 dict begin
/s {stroke} def /l {lineto} def /m {moveto} def /t {translate} def
/r {rotate} def /rl {roll}  def /R {repeat} def
/d {rlineto} def /rm {rmoveto} def /gr {grestore} def /f {eofill} def
/c {setrgbcolor} def /black {0 setgray} def /sd {setdash} def
/cl {closepath} def /sf {scalefont setfont} def /lw {setlinewidth} def
/box {m dup 0 exch d exch 0 d 0 exch neg d cl} def
/NC{systemdict begin initclip end}def/C{NC box clip newpath}def
/bl {box s} def /bf {box f} def /Y { 0 exch d} def /X { 0 d} def 
/K {{pop pop 0 moveto} exch kshow} bind def
/ita {/ang 15 def gsave [1 0 ang dup sin exch cos div 1 0 0] concat} def 
/mp {newpath /y exch def /x exch def} def
/side {[w .77 mul w .23 mul] .385 w mul sd w 0 l currentpoint t -144 r} def
/mr {mp x y w2 0 360 arc} def /m24 {mr s} def /m20 {mr f} def
/mb {mp x y w2 add m w2 neg 0 d 0 w neg d w 0 d 0 w d cl} def
/mt {mp x y w2 add m w2 neg w neg d w 0 d cl} def
/m21 {mb f} def /m25 {mb s} def /m22 {mt f} def /m26{mt s} def
/m23 {mp x y w2 sub m w2 w d w neg 0 d cl f} def
/m27 {mp x y w2 add m w3 neg w2 neg d w3 w2 neg d w3 w2 d cl s} def
/m28 {mp x w2 sub y w2 sub w3 add m w3 0 d  0 w3 neg d w3 0 d 0 w3 d w3 0 d  0 w3 d w3 neg 0 d 0 w3 d w3 neg 0 d 0 w3 neg d w3 neg 0 d cl s } def
/m29 {mp gsave x w2 sub y w2 add w3 sub m currentpoint t 4 {side} repeat cl fill gr} def
/m30 {mp gsave x w2 sub y w2 add w3 sub m currentpoint t 4 {side} repeat cl s gr} def
/m31 {mp x y w2 sub m 0 w d x w2 sub y m w 0 d x w2 sub y w2 add m w w neg d x w2 sub y w2 sub m w w d s} def
/m32 {mp x y w2 sub m w2 w d w neg 0 d cl s} def
/m33 {mp x y w2 add m w3 neg w2 neg d w3 w2 neg d w3 w2 d cl f} def
/m34 {mp x w2 sub y w2 sub w3 add m w3 0 d  0 w3 neg d w3 0 d 0 w3 d w3 0 d  0 w3 d w3 neg 0 d 0 w3 d w3 neg 0 d 0 w3 neg d w3 neg 0 d cl f } def
/m2 {mp x y w2 sub m 0 w d x w2 sub y m w 0 d s} def
/m5 {mp x w2 sub y w2 sub m w w d x w2 sub y w2 add m w w neg d s} def
/reEncode {exch findfont dup length dict begin {1 index /FID eq  {pop pop} {def} ifelse } forall /Encoding exch def currentdict end dup /FontName get exch definefont pop } def [/Times-Bold /Times-Italic /Times-BoldItalic /Helvetica /Helvetica-Oblique
 /Helvetica-Bold /Helvetica-BoldOblique /Courier /Courier-Oblique /Courier-Bold /Courier-BoldOblique /Times-Roman /AvantGarde-Book /AvantGarde-BookOblique /AvantGarde-Demi /AvantGarde-DemiOblique /Bookman-Demi /Bookman-DemiItalic /Bookman-Light
 /Bookman-LightItalic /Helvetica-Narrow /Helvetica-Narrow-Bold /Helvetica-Narrow-BoldOblique /Helvetica-Narrow-Oblique /NewCenturySchlbk-Roman /NewCenturySchlbk-Bold /NewCenturySchlbk-BoldItalic /NewCenturySchlbk-Italic /Palatino-Bold
 /Palatino-BoldItalic /Palatino-Italic /Palatino-Roman ] {ISOLatin1Encoding reEncode } forall
%%EndProlog
%%BeginSetup
%%EndSetup
newpath  gsave  .25 .25 scale  gsave  0 0 t black[  ] 0 sd 3 lw 1 1 1 c 2268 1530 0 0 bf black 1 1 1 c 1814 1224 227 153 bf black 1814 1224 227 153 bl 1 1 1 c 1814 1224 227 153 bf black 1814 1224 227 153 bl 227 153 m 1814 X s
 gsave  2268 1530 0 0 C 1671.19 47.8133 t 0 r /Helvetica findfont 50.0901 sf 0 0 m (Generated value) show NC gr  254 190 m -37 Y s 298 171 m -18 Y s 343 171 m -18 Y s 387 171 m -18 Y s 432 190 m -37 Y s 476 171 m -18 Y s 521 171 m -18 Y s 565 171 m
 -18 Y s 610 190 m -37 Y s 654 171 m -18 Y s 699 171 m -18 Y s 743 171 m -18 Y s 788 190 m -37 Y s 832 171 m -18 Y s 876 171 m -18 Y s 921 171 m -18 Y s 965 190 m -37 Y s 1010 171 m -18 Y s 1054 171 m -18 Y s 1099 171 m -18 Y s 1143 190 m -37 Y s
 1188 171 m -18 Y s 1232 171 m -18 Y s 1277 171 m -18 Y s 1321 190 m -37 Y s 1366 171 m -18 Y s 1410 171 m -18 Y s 1455 171 m -18 Y s 1499 190 m -37 Y s 1544 171 m -18 Y s 1588 171 m -18 Y s 1633 171 m -18 Y s 1677 190 m -37 Y s 1722 171 m -18 Y s
 1766 171 m -18 Y s 1810 171 m -18 Y s 1855 190 m -37 Y s 1899 171 m -18 Y s 1944 171 m -18 Y s 1988 171 m -18 Y s 2033 190 m -37 Y s 254 190 m -37 Y s 2033 190 m -37 Y s
 gsave  2268 1530 0 0 C 216.298 104.734 t 0 r /Helvetica findfont 50.0901 sf 0 0 m (0.12) show NC gr 
 gsave  2268 1530 0 0 C 191.253 104.734 t 0 r /Symbol findfont 50.0901 sf 0 0 m (-) show NC gr 
 gsave  2268 1530 0 0 C 412.105 104.734 t 0 r /Helvetica findfont 50.0901 sf 0 0 m (0.1) show NC gr 
 gsave  2268 1530 0 0 C 387.06 104.734 t 0 r /Symbol findfont 50.0901 sf 0 0 m (-) show NC gr 
 gsave  2268 1530 0 0 C 571.483 104.734 t 0 r /Helvetica findfont 50.0901 sf 0 0 m (0.08) show NC gr 
 gsave  2268 1530 0 0 C 546.438 104.734 t 0 r /Symbol findfont 50.0901 sf 0 0 m (-) show NC gr 
 gsave  2268 1530 0 0 C 749.075 104.734 t 0 r /Helvetica findfont 50.0901 sf 0 0 m (0.06) show NC gr 
 gsave  2268 1530 0 0 C 724.03 104.734 t 0 r /Symbol findfont 50.0901 sf 0 0 m (-) show NC gr 
 gsave  2268 1530 0 0 C 928.944 104.734 t 0 r /Helvetica findfont 50.0901 sf 0 0 m (0.04) show NC gr 
 gsave  2268 1530 0 0 C 901.622 104.734 t 0 r /Symbol findfont 50.0901 sf 0 0 m (-) show NC gr 
 gsave  2268 1530 0 0 C 1106.54 104.734 t 0 r /Helvetica findfont 50.0901 sf 0 0 m (0.02) show NC gr 
 gsave  2268 1530 0 0 C 1081.49 104.734 t 0 r /Symbol findfont 50.0901 sf 0 0 m (-) show NC gr 
 gsave  2268 1530 0 0 C 1306.9 104.734 t 0 r /Helvetica findfont 50.0901 sf 0 0 m (0) show NC gr 
 gsave  2268 1530 0 0 C 1450.34 104.734 t 0 r /Helvetica findfont 50.0901 sf 0 0 m (0.02) show NC gr 
 gsave  2268 1530 0 0 C 1625.65 104.734 t 0 r /Helvetica findfont 50.0901 sf 0 0 m (0.04) show NC gr 
 gsave  2268 1530 0 0 C 1805.52 104.734 t 0 r /Helvetica findfont 50.0901 sf 0 0 m (0.06) show NC gr 
 gsave  2268 1530 0 0 C 1983.11 104.734 t 0 r /Helvetica findfont 50.0901 sf 0 0 m (0.08) show NC gr  227 153 m 1224 Y s
 gsave  2268 1530 0 0 C 116.118 1045.06 t 90 r /Helvetica findfont 50.0901 sf 0 0 m (Unfolded value) show NC gr  281 176 m -54 X s 254 206 m -27 X s 254 236 m -27 X s 254 266 m -27 X s 281 295 m -54 X s 254 325 m -27 X s 254 355 m -27 X s 254 385 m
 -27 X s 281 415 m -54 X s 254 445 m -27 X s 254 475 m -27 X s 254 505 m -27 X s 281 535 m -54 X s 254 565 m -27 X s 254 595 m -27 X s 254 625 m -27 X s 281 655 m -54 X s 254 685 m -27 X s 254 715 m -27 X s 254 745 m -27 X s 281 775 m -54 X s 254 805
 m -27 X s 254 835 m -27 X s 254 865 m -27 X s 281 895 m -54 X s 254 925 m -27 X s 254 955 m -27 X s 254 984 m -27 X s 281 1014 m -54 X s 254 1044 m -27 X s 254 1074 m -27 X s 254 1104 m -27 X s 281 1134 m -54 X s 254 1164 m -27 X s 254 1194 m -27 X
 s 254 1224 m -27 X s 281 1254 m -54 X s 254 1284 m -27 X s 254 1314 m -27 X s 254 1344 m -27 X s 281 1374 m -54 X s 281 176 m -54 X s 281 1374 m -54 X s
 gsave  2268 1530 0 0 C 118.395 159.378 t 0 r /Helvetica findfont 50.0901 sf 0 0 m (0.12) show NC gr 
 gsave  2268 1530 0 0 C 91.073 159.378 t 0 r /Symbol findfont 50.0901 sf 0 0 m (-) show NC gr 
 gsave  2268 1530 0 0 C 154.824 277.772 t 0 r /Helvetica findfont 50.0901 sf 0 0 m (0.1) show NC gr 
 gsave  2268 1530 0 0 C 127.502 277.772 t 0 r /Symbol findfont 50.0901 sf 0 0 m (-) show NC gr 
 gsave  2268 1530 0 0 C 118.395 398.444 t 0 r /Helvetica findfont 50.0901 sf 0 0 m (0.08) show NC gr 
 gsave  2268 1530 0 0 C 91.073 398.444 t 0 r /Symbol findfont 50.0901 sf 0 0 m (-) show NC gr 
 gsave  2268 1530 0 0 C 118.395 519.116 t 0 r /Helvetica findfont 50.0901 sf 0 0 m (0.06) show NC gr 
 gsave  2268 1530 0 0 C 91.073 519.116 t 0 r /Symbol findfont 50.0901 sf 0 0 m (-) show NC gr 
 gsave  2268 1530 0 0 C 116.118 637.511 t 0 r /Helvetica findfont 50.0901 sf 0 0 m (0.04) show NC gr 
 gsave  2268 1530 0 0 C 88.7961 637.511 t 0 r /Symbol findfont 50.0901 sf 0 0 m (-) show NC gr 
 gsave  2268 1530 0 0 C 118.395 758.182 t 0 r /Helvetica findfont 50.0901 sf 0 0 m (0.02) show NC gr 
 gsave  2268 1530 0 0 C 91.073 758.182 t 0 r /Symbol findfont 50.0901 sf 0 0 m (-) show NC gr 
 gsave  2268 1530 0 0 C 186.7 876.577 t 0 r /Helvetica findfont 50.0901 sf 0 0 m (0) show NC gr 
 gsave  2268 1530 0 0 C 118.395 997.249 t 0 r /Helvetica findfont 50.0901 sf 0 0 m (0.02) show NC gr 
 gsave  2268 1530 0 0 C 116.118 1117.92 t 0 r /Helvetica findfont 50.0901 sf 0 0 m (0.04) show NC gr 
 gsave  2268 1530 0 0 C 118.395 1236.32 t 0 r /Helvetica findfont 50.0901 sf 0 0 m (0.06) show NC gr 
 gsave  2268 1530 0 0 C 118.395 1356.99 t 0 r /Helvetica findfont 50.0901 sf 0 0 m (0.08) show NC gr  0 0.453333 1 c 6 lw black 0 0.453333 1 c 3 lw /w 18 def /w2 {w 2 div} def /w3 {w 3 div} def 1267 854 1445 972 1890 1275 1623 1093 1089 734 912 615
 645 439 378 255 8 { m21} R 6 lw 0.95 0.95 0.95 c black 0 0.453333 1 c 236 161 m 18 12 d 18 12 d 18 12 d 18 13 d 19 12 d 18 12 d 18 12 d 18 12 d 18 13 d 18 12 d 18 12 d 19 12 d 18 12 d 18 13 d 18 12 d 18 12 d 18 12 d 18 12 d 19 13 d 18 12 d 18 12 d
 18 12 d 18 12 d 18 13 d 18 12 d 19 12 d 18 12 d 18 12 d 18 13 d 18 12 d 18 12 d 18 12 d 19 12 d 18 13 d 18 12 d 18 12 d 18 12 d 18 12 d 18 13 d 19 12 d 18 12 d 18 12 d 18 12 d 18 13 d 18 12 d 18 12 d 19 12 d 18 12 d 18 13 d s 1125 759 m 18 12 d 18
 12 d 18 12 d 18 12 d 18 13 d 19 12 d 18 12 d 18 12 d 18 12 d 18 13 d 18 12 d 18 12 d 19 12 d 18 12 d 18 12 d 18 13 d 18 12 d 18 12 d 18 12 d 19 12 d 18 13 d 18 12 d 18 12 d 18 12 d 18 12 d 18 13 d 19 12 d 18 12 d 18 12 d 18 12 d 18 13 d 18 12 d 18
 12 d 19 12 d 18 12 d 18 13 d 18 12 d 18 12 d 18 12 d 18 12 d 19 13 d 18 12 d 18 12 d 18 12 d 18 12 d 18 13 d 18 12 d 19 12 d 18 12 d s 2014 1356 m 18 12 d s 3 lw 1267 854 m 76 Y s 1263 930 m 9 X s 1267 854 m -77 Y s 1263 777 m 9 X s 1445 972 m 76 Y
 s 1440 1048 m 10 X s 1445 972 m -76 Y s 1440 896 m 10 X s 1890 1275 m 76 Y s 1885 1351 m 9 X s 1890 1275 m -76 Y s 1885 1199 m 9 X s 1623 1093 m 75 Y s 1618 1168 m 10 X s 1623 1093 m -76 Y s 1618 1017 m 10 X s 1089 734 m 78 Y s 1085 812 m 9 X s 1089
 734 m -78 Y s 1085 656 m 9 X s 912 615 m 77 Y s 907 692 m 9 X s 912 615 m -77 Y s 907 538 m 9 X s 645 439 m 79 Y s 640 518 m 9 X s 645 439 m -79 Y s 640 360 m 9 X s 378 255 m 81 Y s 373 336 m 10 X s 378 255 m -81 Y s 373 174 m 10 X s /w 2 def /w2 {w
 2 div} def /w3 {w 3 div} def 1267 854 1445 972 1890 1275 1623 1093 1089 734 912 615 645 439 378 255 8 { m20} R 1 0 0 c[ 12 12] 0 sd 6 lw 0.95 0.95 0.95 c black 1 0 0 c 236 164 m 18 12 d 18 12 d 18 12 d 18 12 d 19 13 d 18 12 d 18 12 d 18 12 d 18 12 d
 18 13 d 18 12 d 19 12 d 18 12 d 18 13 d 18 12 d 18 12 d 18 12 d 18 12 d 19 13 d 18 12 d 18 12 d 18 12 d 18 13 d 18 12 d 18 12 d 19 12 d 18 12 d 18 13 d 18 12 d 18 12 d 18 12 d 18 13 d 19 12 d 18 12 d 18 12 d 18 12 d 18 13 d 18 12 d 18 12 d 19 12 d
 18 13 d 18 12 d 18 12 d 18 12 d 18 12 d 18 13 d 19 12 d 18 12 d 18 12 d s 1125 762 m 18 12 d 18 13 d 18 12 d 18 12 d 18 12 d 19 13 d 18 12 d 18 12 d 18 12 d 18 12 d 18 13 d 18 12 d 19 12 d 18 12 d 18 13 d 18 12 d 18 12 d 18 12 d 18 12 d 19 13 d 18
 12 d 18 12 d 18 12 d 18 13 d 18 12 d 18 12 d 19 12 d 18 12 d 18 13 d 18 12 d 18 12 d 18 12 d 18 13 d 19 12 d 18 12 d 18 12 d 18 12 d 18 13 d 18 12 d 18 12 d 19 12 d 18 12 d 18 13 d 18 12 d 18 12 d 18 12 d 18 13 d 19 12 d 18 12 d s 2014 1361 m 18 12
 d s black
 gsave  2268 1530 0 0 C 514.562 1070.11 t 0 r /Helvetica findfont 68.3047 sf 0 0 m (y = 0.9982x+\2550.0007) show NC gr  0 0.453333 1 c[  ] 0 sd 309 1086 m 170 X s 1 1 1 c black
 gsave  2268 1530 0 0 C 1122.47 1479.94 t 0 r /Helvetica findfont 66.0279 sf 0 0 m ( ) show NC gr 
 gsave  2268 1530 0 0 C 512.285 1286.41 t 0 r /Helvetica-Bold findfont 70.5815 sf 0 0 m ( Internal Simulation) show NC gr 
 gsave  2268 1530 0 0 C 270.942 1286.41 t 0 r /Helvetica-BoldOblique findfont 70.5815 sf 0 0 m (ATLAS) show NC gr 
 gsave  2268 1530 0 0 C 705.815 1197.61 t 0 r /Symbol findfont 70.5815 sf 0 0 m (m) show NC gr 
 gsave  2268 1530 0 0 C 377.953 1197.61 t 0 r /Helvetica-Bold findfont 70.5815 sf 0 0 m ( = 8 TeV e) show NC gr 
 gsave  2268 1530 0 0 C 339.247 1197.61 t 0 r /Helvetica-Bold findfont 70.5815 sf 0 0 m (s) show NC gr  316 1239 m 10 -44 d s 0 lw 326 1195 m 6 64 d s 332 1259 m 46 X s
 gsave  2268 1530 0 0 C 270.942 1197.61 t 0 r /Helvetica-Bold findfont 70.5815 sf 0 0 m ( ) show NC gr 
 gr  gr showpage
end
%%EOF
