%!PS-Adobe-2.0 EPSF-2.0
%%BoundingBox:  0 0 567 383
%%Title: : calib
%%Creator: ROOT Version 5.34/22
%%CreationDate: Fri May  6 12:08:43 2016
%%EndComments
%%BeginProlog
80 dict begin
/s {stroke} def /l {lineto} def /m {moveto} def /t {translate} def
/r {rotate} def /rl {roll}  def /R {repeat} def
/d {rlineto} def /rm {rmoveto} def /gr {grestore} def /f {eofill} def
/c {setrgbcolor} def /black {0 setgray} def /sd {setdash} def
/cl {closepath} def /sf {scalefont setfont} def /lw {setlinewidth} def
/box {m dup 0 exch d exch 0 d 0 exch neg d cl} def
/NC{systemdict begin initclip end}def/C{NC box clip newpath}def
/bl {box s} def /bf {box f} def /Y { 0 exch d} def /X { 0 d} def 
/K {{pop pop 0 moveto} exch kshow} bind def
/ita {/ang 15 def gsave [1 0 ang dup sin exch cos div 1 0 0] concat} def 
/mp {newpath /y exch def /x exch def} def
/side {[w .77 mul w .23 mul] .385 w mul sd w 0 l currentpoint t -144 r} def
/mr {mp x y w2 0 360 arc} def /m24 {mr s} def /m20 {mr f} def
/mb {mp x y w2 add m w2 neg 0 d 0 w neg d w 0 d 0 w d cl} def
/mt {mp x y w2 add m w2 neg w neg d w 0 d cl} def
/m21 {mb f} def /m25 {mb s} def /m22 {mt f} def /m26{mt s} def
/m23 {mp x y w2 sub m w2 w d w neg 0 d cl f} def
/m27 {mp x y w2 add m w3 neg w2 neg d w3 w2 neg d w3 w2 d cl s} def
/m28 {mp x w2 sub y w2 sub w3 add m w3 0 d  0 w3 neg d w3 0 d 0 w3 d w3 0 d  0 w3 d w3 neg 0 d 0 w3 d w3 neg 0 d 0 w3 neg d w3 neg 0 d cl s } def
/m29 {mp gsave x w2 sub y w2 add w3 sub m currentpoint t 4 {side} repeat cl fill gr} def
/m30 {mp gsave x w2 sub y w2 add w3 sub m currentpoint t 4 {side} repeat cl s gr} def
/m31 {mp x y w2 sub m 0 w d x w2 sub y m w 0 d x w2 sub y w2 add m w w neg d x w2 sub y w2 sub m w w d s} def
/m32 {mp x y w2 sub m w2 w d w neg 0 d cl s} def
/m33 {mp x y w2 add m w3 neg w2 neg d w3 w2 neg d w3 w2 d cl f} def
/m34 {mp x w2 sub y w2 sub w3 add m w3 0 d  0 w3 neg d w3 0 d 0 w3 d w3 0 d  0 w3 d w3 neg 0 d 0 w3 d w3 neg 0 d 0 w3 neg d w3 neg 0 d cl f } def
/m2 {mp x y w2 sub m 0 w d x w2 sub y m w 0 d s} def
/m5 {mp x w2 sub y w2 sub m w w d x w2 sub y w2 add m w w neg d s} def
/reEncode {exch findfont dup length dict begin {1 index /FID eq  {pop pop} {def} ifelse } forall /Encoding exch def currentdict end dup /FontName get exch definefont pop } def [/Times-Bold /Times-Italic /Times-BoldItalic /Helvetica /Helvetica-Oblique
 /Helvetica-Bold /Helvetica-BoldOblique /Courier /Courier-Oblique /Courier-Bold /Courier-BoldOblique /Times-Roman /AvantGarde-Book /AvantGarde-BookOblique /AvantGarde-Demi /AvantGarde-DemiOblique /Bookman-Demi /Bookman-DemiItalic /Bookman-Light
 /Bookman-LightItalic /Helvetica-Narrow /Helvetica-Narrow-Bold /Helvetica-Narrow-BoldOblique /Helvetica-Narrow-Oblique /NewCenturySchlbk-Roman /NewCenturySchlbk-Bold /NewCenturySchlbk-BoldItalic /NewCenturySchlbk-Italic /Palatino-Bold
 /Palatino-BoldItalic /Palatino-Italic /Palatino-Roman ] {ISOLatin1Encoding reEncode } forall
%%EndProlog
%%BeginSetup
%%EndSetup
newpath  gsave  .25 .25 scale  gsave  0 0 t black[  ] 0 sd 3 lw 1 1 1 c 2268 1530 0 0 bf black 1 1 1 c 1814 1224 227 153 bf black 1814 1224 227 153 bl 1 1 1 c 1814 1224 227 153 bf black 1814 1224 227 153 bl 227 153 m 1814 X s
 gsave  2268 1530 0 0 C 1671.19 47.8133 t 0 r /Helvetica findfont 50.0901 sf 0 0 m (Generated value) show NC gr  424 190 m -37 Y s 500 171 m -18 Y s 575 171 m -18 Y s 651 171 m -18 Y s 726 171 m -18 Y s 802 190 m -37 Y s 877 171 m -18 Y s 953 171 m
 -18 Y s 1029 171 m -18 Y s 1104 171 m -18 Y s 1180 190 m -37 Y s 1255 171 m -18 Y s 1331 171 m -18 Y s 1407 171 m -18 Y s 1482 171 m -18 Y s 1558 190 m -37 Y s 1633 171 m -18 Y s 1709 171 m -18 Y s 1784 171 m -18 Y s 1860 171 m -18 Y s 1936 190 m
 -37 Y s 424 190 m -37 Y s 348 171 m -18 Y s 273 171 m -18 Y s 1936 190 m -37 Y s 2011 171 m -18 Y s
 gsave  2268 1530 0 0 C 405.275 104.734 t 0 r /Helvetica findfont 50.0901 sf 0 0 m (0.1) show NC gr 
 gsave  2268 1530 0 0 C 380.23 104.734 t 0 r /Symbol findfont 50.0901 sf 0 0 m (-) show NC gr 
 gsave  2268 1530 0 0 C 765.013 104.734 t 0 r /Helvetica findfont 50.0901 sf 0 0 m (0.05) show NC gr 
 gsave  2268 1530 0 0 C 739.968 104.734 t 0 r /Symbol findfont 50.0901 sf 0 0 m (-) show NC gr 
 gsave  2268 1530 0 0 C 1165.73 104.734 t 0 r /Helvetica findfont 50.0901 sf 0 0 m (0) show NC gr 
 gsave  2268 1530 0 0 C 1509.53 104.734 t 0 r /Helvetica findfont 50.0901 sf 0 0 m (0.05) show NC gr 
 gsave  2268 1530 0 0 C 1905.7 104.734 t 0 r /Helvetica findfont 50.0901 sf 0 0 m (0.1) show NC gr  227 153 m 1224 Y s
 gsave  2268 1530 0 0 C 116.118 1045.06 t 90 r /Helvetica findfont 50.0901 sf 0 0 m (Unfolded value) show NC gr  281 154 m -54 X s 254 179 m -27 X s 254 205 m -27 X s 254 230 m -27 X s 281 256 m -54 X s 254 282 m -27 X s 254 307 m -27 X s 254 333 m
 -27 X s 281 358 m -54 X s 254 384 m -27 X s 254 410 m -27 X s 254 435 m -27 X s 281 461 m -54 X s 254 486 m -27 X s 254 512 m -27 X s 254 538 m -27 X s 281 563 m -54 X s 254 589 m -27 X s 254 614 m -27 X s 254 640 m -27 X s 281 666 m -54 X s 254 691
 m -27 X s 254 717 m -27 X s 254 742 m -27 X s 281 768 m -54 X s 254 794 m -27 X s 254 819 m -27 X s 254 845 m -27 X s 281 870 m -54 X s 254 896 m -27 X s 254 922 m -27 X s 254 947 m -27 X s 281 973 m -54 X s 254 998 m -27 X s 254 1024 m -27 X s 254
 1050 m -27 X s 281 1075 m -54 X s 254 1101 m -27 X s 254 1126 m -27 X s 254 1152 m -27 X s 281 1178 m -54 X s 254 1203 m -27 X s 254 1229 m -27 X s 254 1254 m -27 X s 281 1280 m -54 X s 281 154 m -54 X s 281 1280 m -54 X s 254 1306 m -27 X s 254
 1331 m -27 X s 254 1357 m -27 X s
 gsave  2268 1530 0 0 C 116.118 136.609 t 0 r /Helvetica findfont 50.0901 sf 0 0 m (0.14) show NC gr 
 gsave  2268 1530 0 0 C 88.7961 136.609 t 0 r /Symbol findfont 50.0901 sf 0 0 m (-) show NC gr 
 gsave  2268 1530 0 0 C 118.395 239.066 t 0 r /Helvetica findfont 50.0901 sf 0 0 m (0.12) show NC gr 
 gsave  2268 1530 0 0 C 91.073 239.066 t 0 r /Symbol findfont 50.0901 sf 0 0 m (-) show NC gr 
 gsave  2268 1530 0 0 C 154.824 341.524 t 0 r /Helvetica findfont 50.0901 sf 0 0 m (0.1) show NC gr 
 gsave  2268 1530 0 0 C 127.502 341.524 t 0 r /Symbol findfont 50.0901 sf 0 0 m (-) show NC gr 
 gsave  2268 1530 0 0 C 118.395 443.981 t 0 r /Helvetica findfont 50.0901 sf 0 0 m (0.08) show NC gr 
 gsave  2268 1530 0 0 C 91.073 443.981 t 0 r /Symbol findfont 50.0901 sf 0 0 m (-) show NC gr 
 gsave  2268 1530 0 0 C 118.395 546.438 t 0 r /Helvetica findfont 50.0901 sf 0 0 m (0.06) show NC gr 
 gsave  2268 1530 0 0 C 91.073 546.438 t 0 r /Symbol findfont 50.0901 sf 0 0 m (-) show NC gr 
 gsave  2268 1530 0 0 C 116.118 648.895 t 0 r /Helvetica findfont 50.0901 sf 0 0 m (0.04) show NC gr 
 gsave  2268 1530 0 0 C 88.7961 648.895 t 0 r /Symbol findfont 50.0901 sf 0 0 m (-) show NC gr 
 gsave  2268 1530 0 0 C 118.395 751.352 t 0 r /Helvetica findfont 50.0901 sf 0 0 m (0.02) show NC gr 
 gsave  2268 1530 0 0 C 91.073 751.352 t 0 r /Symbol findfont 50.0901 sf 0 0 m (-) show NC gr 
 gsave  2268 1530 0 0 C 186.7 853.809 t 0 r /Helvetica findfont 50.0901 sf 0 0 m (0) show NC gr 
 gsave  2268 1530 0 0 C 118.395 956.266 t 0 r /Helvetica findfont 50.0901 sf 0 0 m (0.02) show NC gr 
 gsave  2268 1530 0 0 C 116.118 1058.72 t 0 r /Helvetica findfont 50.0901 sf 0 0 m (0.04) show NC gr 
 gsave  2268 1530 0 0 C 118.395 1161.18 t 0 r /Helvetica findfont 50.0901 sf 0 0 m (0.06) show NC gr 
 gsave  2268 1530 0 0 C 118.395 1263.64 t 0 r /Helvetica findfont 50.0901 sf 0 0 m (0.08) show NC gr  0 0.453333 1 c 6 lw black 0 0.453333 1 c 3 lw /w 18 def /w2 {w 2 div} def /w3 {w 3 div} def 1134 766 1436 967 1285 864 1663 1121 1890 1275 605 407
 831 559 983 658 378 255 9 { m21} R 6 lw 0.95 0.95 0.95 c black 0 0.453333 1 c 236 158 m 18 12 d 18 12 d 18 13 d 18 12 d 19 12 d 18 12 d 18 12 d 18 13 d 18 12 d 18 12 d 18 12 d 19 13 d 18 12 d 18 12 d 18 12 d 18 13 d 18 12 d 18 12 d 19 12 d 18 13 d
 18 12 d 18 12 d 18 12 d 18 13 d 18 12 d 19 12 d 18 12 d 18 12 d 18 13 d 18 12 d 18 12 d 18 12 d 19 13 d 18 12 d 18 12 d 18 12 d 18 13 d 18 12 d 18 12 d 19 12 d 18 13 d 18 12 d 18 12 d 18 12 d 18 13 d 18 12 d 19 12 d 18 12 d 18 13 d s 1125 758 m 18
 12 d 18 12 d 18 12 d 18 12 d 18 13 d 19 12 d 18 12 d 18 12 d 18 13 d 18 12 d 18 12 d 18 12 d 19 13 d 18 12 d 18 12 d 18 12 d 18 13 d 18 12 d 18 12 d 19 12 d 18 13 d 18 12 d 18 12 d 18 12 d 18 12 d 18 13 d 19 12 d 18 12 d 18 12 d 18 13 d 18 12 d 18
 12 d 18 12 d 19 13 d 18 12 d 18 12 d 18 12 d 18 13 d 18 12 d 18 12 d 19 12 d 18 13 d 18 12 d 18 12 d 18 12 d 18 12 d 18 13 d 19 12 d 18 12 d s 2014 1357 m 18 12 d s 3 lw 1134 766 m 124 Y s 1129 890 m 9 X s 1134 766 m -124 Y s 1129 642 m 9 X s 1436
 967 m 123 Y s 1432 1090 m 9 X s 1436 967 m -122 Y s 1432 845 m 9 X s 1285 864 m 123 Y s 1280 987 m 10 X s 1285 864 m -124 Y s 1280 740 m 10 X s 1663 1121 m 120 Y s 1658 1241 m 10 X s 1663 1121 m -120 Y s 1658 1001 m 10 X s 1890 1275 m 102 Y s 1885
 1377 m 9 X s 1890 1275 m -121 Y s 1885 1154 m 9 X s 605 407 m 126 Y s 600 533 m 9 X s 605 407 m -125 Y s 600 282 m 9 X s 831 559 m 123 Y s 827 682 m 9 X s 831 559 m -123 Y s 827 436 m 9 X s 983 658 m 130 Y s 978 788 m 9 X s 983 658 m -129 Y s 978
 529 m 9 X s 378 255 m 124 Y s 373 379 m 10 X s 378 255 m -102 Y s 373 153 m 10 X s /w 2 def /w2 {w 2 div} def /w3 {w 3 div} def 1134 766 1436 967 1285 864 1663 1121 1890 1275 605 407 831 559 983 658 378 255 9 { m20} R 1 0 0 c[ 12 12] 0 sd 6 lw 0.95
 0.95 0.95 c black 1 0 0 c 236 231 m 18 12 d 18 12 d 18 13 d 18 12 d 19 12 d 18 13 d 18 12 d 18 12 d 18 12 d 18 13 d 18 12 d 19 12 d 18 13 d 18 12 d 18 12 d 18 13 d 18 12 d 18 12 d 19 12 d 18 13 d 18 12 d 18 12 d 18 13 d 18 12 d 18 12 d 19 12 d 18 13
 d 18 12 d 18 12 d 18 13 d 18 12 d 18 12 d 19 12 d 18 13 d 18 12 d 18 12 d 18 13 d 18 12 d 18 12 d 19 12 d 18 13 d 18 12 d 18 12 d 18 13 d 18 12 d 18 12 d 19 12 d 18 13 d 18 12 d s 1125 833 m 18 12 d 18 13 d 18 12 d 18 12 d 18 13 d 19 12 d 18 12 d 18
 12 d 18 13 d 18 12 d 18 12 d 18 13 d 19 12 d 18 12 d 18 12 d 18 13 d 18 12 d 18 12 d 18 13 d 19 12 d 18 12 d 18 12 d 18 13 d 18 12 d 18 12 d 18 13 d 19 12 d 18 12 d 18 12 d 18 13 d 18 12 d 18 12 d 18 13 d 19 12 d 18 12 d 18 13 d 18 12 d 18 12 d 18
 12 d 18 13 d 19 12 d 18 12 d 18 13 d 18 12 d 18 3 d s black
 gsave  2268 1530 0 0 C 514.562 1070.11 t 0 r /Helvetica findfont 68.3047 sf 0 0 m (y = 0.9958x+\2550.0148) show NC gr  0 0.453333 1 c[  ] 0 sd 309 1086 m 170 X s 1 1 1 c black
 gsave  2268 1530 0 0 C 1122.47 1479.94 t 0 r /Helvetica findfont 66.0279 sf 0 0 m ( ) show NC gr 
 gsave  2268 1530 0 0 C 512.285 1286.41 t 0 r /Helvetica-Bold findfont 70.5815 sf 0 0 m ( Internal Simulation) show NC gr 
 gsave  2268 1530 0 0 C 270.942 1286.41 t 0 r /Helvetica-BoldOblique findfont 70.5815 sf 0 0 m (ATLAS) show NC gr 
 gsave  2268 1530 0 0 C 705.815 1197.61 t 0 r /Symbol findfont 70.5815 sf 0 0 m (m) show NC gr 
 gsave  2268 1530 0 0 C 377.953 1197.61 t 0 r /Helvetica-Bold findfont 70.5815 sf 0 0 m ( = 8 TeV e) show NC gr 
 gsave  2268 1530 0 0 C 339.247 1197.61 t 0 r /Helvetica-Bold findfont 70.5815 sf 0 0 m (s) show NC gr  316 1239 m 10 -44 d s 0 lw 326 1195 m 6 64 d s 332 1259 m 46 X s
 gsave  2268 1530 0 0 C 270.942 1197.61 t 0 r /Helvetica-Bold findfont 70.5815 sf 0 0 m ( ) show NC gr 
 gr  gr showpage
end
%%EOF
