%!PS-Adobe-2.0 EPSF-2.0
%%BoundingBox:  0 0 567 383
%%Title: : calib
%%Creator: ROOT Version 5.34/22
%%CreationDate: Fri May  6 12:08:43 2016
%%EndComments
%%BeginProlog
80 dict begin
/s {stroke} def /l {lineto} def /m {moveto} def /t {translate} def
/r {rotate} def /rl {roll}  def /R {repeat} def
/d {rlineto} def /rm {rmoveto} def /gr {grestore} def /f {eofill} def
/c {setrgbcolor} def /black {0 setgray} def /sd {setdash} def
/cl {closepath} def /sf {scalefont setfont} def /lw {setlinewidth} def
/box {m dup 0 exch d exch 0 d 0 exch neg d cl} def
/NC{systemdict begin initclip end}def/C{NC box clip newpath}def
/bl {box s} def /bf {box f} def /Y { 0 exch d} def /X { 0 d} def 
/K {{pop pop 0 moveto} exch kshow} bind def
/ita {/ang 15 def gsave [1 0 ang dup sin exch cos div 1 0 0] concat} def 
/mp {newpath /y exch def /x exch def} def
/side {[w .77 mul w .23 mul] .385 w mul sd w 0 l currentpoint t -144 r} def
/mr {mp x y w2 0 360 arc} def /m24 {mr s} def /m20 {mr f} def
/mb {mp x y w2 add m w2 neg 0 d 0 w neg d w 0 d 0 w d cl} def
/mt {mp x y w2 add m w2 neg w neg d w 0 d cl} def
/m21 {mb f} def /m25 {mb s} def /m22 {mt f} def /m26{mt s} def
/m23 {mp x y w2 sub m w2 w d w neg 0 d cl f} def
/m27 {mp x y w2 add m w3 neg w2 neg d w3 w2 neg d w3 w2 d cl s} def
/m28 {mp x w2 sub y w2 sub w3 add m w3 0 d  0 w3 neg d w3 0 d 0 w3 d w3 0 d  0 w3 d w3 neg 0 d 0 w3 d w3 neg 0 d 0 w3 neg d w3 neg 0 d cl s } def
/m29 {mp gsave x w2 sub y w2 add w3 sub m currentpoint t 4 {side} repeat cl fill gr} def
/m30 {mp gsave x w2 sub y w2 add w3 sub m currentpoint t 4 {side} repeat cl s gr} def
/m31 {mp x y w2 sub m 0 w d x w2 sub y m w 0 d x w2 sub y w2 add m w w neg d x w2 sub y w2 sub m w w d s} def
/m32 {mp x y w2 sub m w2 w d w neg 0 d cl s} def
/m33 {mp x y w2 add m w3 neg w2 neg d w3 w2 neg d w3 w2 d cl f} def
/m34 {mp x w2 sub y w2 sub w3 add m w3 0 d  0 w3 neg d w3 0 d 0 w3 d w3 0 d  0 w3 d w3 neg 0 d 0 w3 d w3 neg 0 d 0 w3 neg d w3 neg 0 d cl f } def
/m2 {mp x y w2 sub m 0 w d x w2 sub y m w 0 d s} def
/m5 {mp x w2 sub y w2 sub m w w d x w2 sub y w2 add m w w neg d s} def
/reEncode {exch findfont dup length dict begin {1 index /FID eq  {pop pop} {def} ifelse } forall /Encoding exch def currentdict end dup /FontName get exch definefont pop } def [/Times-Bold /Times-Italic /Times-BoldItalic /Helvetica /Helvetica-Oblique
 /Helvetica-Bold /Helvetica-BoldOblique /Courier /Courier-Oblique /Courier-Bold /Courier-BoldOblique /Times-Roman /AvantGarde-Book /AvantGarde-BookOblique /AvantGarde-Demi /AvantGarde-DemiOblique /Bookman-Demi /Bookman-DemiItalic /Bookman-Light
 /Bookman-LightItalic /Helvetica-Narrow /Helvetica-Narrow-Bold /Helvetica-Narrow-BoldOblique /Helvetica-Narrow-Oblique /NewCenturySchlbk-Roman /NewCenturySchlbk-Bold /NewCenturySchlbk-BoldItalic /NewCenturySchlbk-Italic /Palatino-Bold
 /Palatino-BoldItalic /Palatino-Italic /Palatino-Roman ] {ISOLatin1Encoding reEncode } forall
%%EndProlog
%%BeginSetup
%%EndSetup
newpath  gsave  .25 .25 scale  gsave  0 0 t black[  ] 0 sd 3 lw 1 1 1 c 2268 1530 0 0 bf black 1 1 1 c 1814 1224 227 153 bf black 1814 1224 227 153 bl 1 1 1 c 1814 1224 227 153 bf black 1814 1224 227 153 bl 227 153 m 1814 X s
 gsave  2268 1530 0 0 C 1671.19 47.8133 t 0 r /Helvetica findfont 50.0901 sf 0 0 m (Generated value) show NC gr  254 190 m -37 Y s 299 171 m -18 Y s 343 171 m -18 Y s 388 171 m -18 Y s 432 190 m -37 Y s 477 171 m -18 Y s 521 171 m -18 Y s 565 171 m
 -18 Y s 610 190 m -37 Y s 654 171 m -18 Y s 699 171 m -18 Y s 743 171 m -18 Y s 788 190 m -37 Y s 832 171 m -18 Y s 877 171 m -18 Y s 921 171 m -18 Y s 966 190 m -37 Y s 1010 171 m -18 Y s 1055 171 m -18 Y s 1099 171 m -18 Y s 1143 190 m -37 Y s
 1188 171 m -18 Y s 1232 171 m -18 Y s 1277 171 m -18 Y s 1321 190 m -37 Y s 1366 171 m -18 Y s 1410 171 m -18 Y s 1455 171 m -18 Y s 1499 190 m -37 Y s 1544 171 m -18 Y s 1588 171 m -18 Y s 1632 171 m -18 Y s 1677 190 m -37 Y s 1721 171 m -18 Y s
 1766 171 m -18 Y s 1810 171 m -18 Y s 1855 190 m -37 Y s 1899 171 m -18 Y s 1944 171 m -18 Y s 1988 171 m -18 Y s 2033 190 m -37 Y s 254 190 m -37 Y s 2033 190 m -37 Y s
 gsave  2268 1530 0 0 C 216.298 104.734 t 0 r /Helvetica findfont 50.0901 sf 0 0 m (0.12) show NC gr 
 gsave  2268 1530 0 0 C 191.253 104.734 t 0 r /Symbol findfont 50.0901 sf 0 0 m (-) show NC gr 
 gsave  2268 1530 0 0 C 412.105 104.734 t 0 r /Helvetica findfont 50.0901 sf 0 0 m (0.1) show NC gr 
 gsave  2268 1530 0 0 C 387.06 104.734 t 0 r /Symbol findfont 50.0901 sf 0 0 m (-) show NC gr 
 gsave  2268 1530 0 0 C 571.483 104.734 t 0 r /Helvetica findfont 50.0901 sf 0 0 m (0.08) show NC gr 
 gsave  2268 1530 0 0 C 546.438 104.734 t 0 r /Symbol findfont 50.0901 sf 0 0 m (-) show NC gr 
 gsave  2268 1530 0 0 C 751.352 104.734 t 0 r /Helvetica findfont 50.0901 sf 0 0 m (0.06) show NC gr 
 gsave  2268 1530 0 0 C 726.307 104.734 t 0 r /Symbol findfont 50.0901 sf 0 0 m (-) show NC gr 
 gsave  2268 1530 0 0 C 928.944 104.734 t 0 r /Helvetica findfont 50.0901 sf 0 0 m (0.04) show NC gr 
 gsave  2268 1530 0 0 C 901.622 104.734 t 0 r /Symbol findfont 50.0901 sf 0 0 m (-) show NC gr 
 gsave  2268 1530 0 0 C 1106.54 104.734 t 0 r /Helvetica findfont 50.0901 sf 0 0 m (0.02) show NC gr 
 gsave  2268 1530 0 0 C 1081.49 104.734 t 0 r /Symbol findfont 50.0901 sf 0 0 m (-) show NC gr 
 gsave  2268 1530 0 0 C 1306.9 104.734 t 0 r /Helvetica findfont 50.0901 sf 0 0 m (0) show NC gr 
 gsave  2268 1530 0 0 C 1450.34 104.734 t 0 r /Helvetica findfont 50.0901 sf 0 0 m (0.02) show NC gr 
 gsave  2268 1530 0 0 C 1625.65 104.734 t 0 r /Helvetica findfont 50.0901 sf 0 0 m (0.04) show NC gr 
 gsave  2268 1530 0 0 C 1805.52 104.734 t 0 r /Helvetica findfont 50.0901 sf 0 0 m (0.06) show NC gr 
 gsave  2268 1530 0 0 C 1983.11 104.734 t 0 r /Helvetica findfont 50.0901 sf 0 0 m (0.08) show NC gr  227 153 m 1224 Y s
 gsave  2268 1530 0 0 C 116.118 1045.06 t 90 r /Helvetica findfont 50.0901 sf 0 0 m (Unfolded value) show NC gr  281 174 m -54 X s 254 204 m -27 X s 254 234 m -27 X s 254 264 m -27 X s 281 295 m -54 X s 254 325 m -27 X s 254 355 m -27 X s 254 385 m
 -27 X s 281 415 m -54 X s 254 445 m -27 X s 254 475 m -27 X s 254 505 m -27 X s 281 536 m -54 X s 254 566 m -27 X s 254 596 m -27 X s 254 626 m -27 X s 281 656 m -54 X s 254 686 m -27 X s 254 716 m -27 X s 254 746 m -27 X s 281 777 m -54 X s 254 807
 m -27 X s 254 837 m -27 X s 254 867 m -27 X s 281 897 m -54 X s 254 927 m -27 X s 254 957 m -27 X s 254 987 m -27 X s 281 1018 m -54 X s 254 1048 m -27 X s 254 1078 m -27 X s 254 1108 m -27 X s 281 1138 m -54 X s 254 1168 m -27 X s 254 1198 m -27 X
 s 254 1229 m -27 X s 281 1259 m -54 X s 281 174 m -54 X s 281 1259 m -54 X s 254 1289 m -27 X s 254 1319 m -27 X s 254 1349 m -27 X s
 gsave  2268 1530 0 0 C 118.395 157.101 t 0 r /Helvetica findfont 50.0901 sf 0 0 m (0.12) show NC gr 
 gsave  2268 1530 0 0 C 91.073 157.101 t 0 r /Symbol findfont 50.0901 sf 0 0 m (-) show NC gr 
 gsave  2268 1530 0 0 C 154.824 277.772 t 0 r /Helvetica findfont 50.0901 sf 0 0 m (0.1) show NC gr 
 gsave  2268 1530 0 0 C 127.502 277.772 t 0 r /Symbol findfont 50.0901 sf 0 0 m (-) show NC gr 
 gsave  2268 1530 0 0 C 118.395 398.444 t 0 r /Helvetica findfont 50.0901 sf 0 0 m (0.08) show NC gr 
 gsave  2268 1530 0 0 C 91.073 398.444 t 0 r /Symbol findfont 50.0901 sf 0 0 m (-) show NC gr 
 gsave  2268 1530 0 0 C 118.395 519.116 t 0 r /Helvetica findfont 50.0901 sf 0 0 m (0.06) show NC gr 
 gsave  2268 1530 0 0 C 91.073 519.116 t 0 r /Symbol findfont 50.0901 sf 0 0 m (-) show NC gr 
 gsave  2268 1530 0 0 C 116.118 639.787 t 0 r /Helvetica findfont 50.0901 sf 0 0 m (0.04) show NC gr 
 gsave  2268 1530 0 0 C 88.7961 639.787 t 0 r /Symbol findfont 50.0901 sf 0 0 m (-) show NC gr 
 gsave  2268 1530 0 0 C 118.395 760.459 t 0 r /Helvetica findfont 50.0901 sf 0 0 m (0.02) show NC gr 
 gsave  2268 1530 0 0 C 91.073 760.459 t 0 r /Symbol findfont 50.0901 sf 0 0 m (-) show NC gr 
 gsave  2268 1530 0 0 C 186.7 881.131 t 0 r /Helvetica findfont 50.0901 sf 0 0 m (0) show NC gr 
 gsave  2268 1530 0 0 C 118.395 999.526 t 0 r /Helvetica findfont 50.0901 sf 0 0 m (0.02) show NC gr 
 gsave  2268 1530 0 0 C 116.118 1120.2 t 0 r /Helvetica findfont 50.0901 sf 0 0 m (0.04) show NC gr 
 gsave  2268 1530 0 0 C 118.395 1240.87 t 0 r /Helvetica findfont 50.0901 sf 0 0 m (0.06) show NC gr  0 0.453333 1 c 6 lw black 0 0.453333 1 c 3 lw /w 18 def /w2 {w 2 div} def /w3 {w 3 div} def 1267 858 1445 977 1623 1098 1890 1275 1089 738 912 615
 645 435 378 255 8 { m21} R 6 lw 0.95 0.95 0.95 c black 0 0.453333 1 c 236 160 m 18 12 d 18 12 d 18 12 d 18 13 d 19 12 d 18 12 d 18 12 d 18 13 d 18 12 d 18 12 d 18 12 d 19 13 d 18 12 d 18 12 d 18 12 d 18 13 d 18 12 d 18 12 d 19 12 d 18 13 d 18 12 d
 18 12 d 18 12 d 18 13 d 18 12 d 19 12 d 18 13 d 18 12 d 18 12 d 18 12 d 18 13 d 18 12 d 19 12 d 18 12 d 18 13 d 18 12 d 18 12 d 18 12 d 18 13 d 19 12 d 18 12 d 18 12 d 18 13 d 18 12 d 18 12 d 18 12 d 19 13 d 18 12 d 18 12 d s 1125 760 m 18 12 d 18
 13 d 18 12 d 18 12 d 18 13 d 19 12 d 18 12 d 18 12 d 18 13 d 18 12 d 18 12 d 18 12 d 19 13 d 18 12 d 18 12 d 18 12 d 18 13 d 18 12 d 18 12 d 19 12 d 18 13 d 18 12 d 18 12 d 18 12 d 18 13 d 18 12 d 19 12 d 18 12 d 18 13 d 18 12 d 18 12 d 18 13 d 18
 12 d 19 12 d 18 12 d 18 13 d 18 12 d 18 12 d 18 12 d 18 13 d 19 12 d 18 12 d 18 12 d 18 13 d 18 12 d 18 12 d 18 12 d 19 13 d 18 12 d s 2014 1361 m 18 12 d s 3 lw 1267 858 m 80 Y s 1263 938 m 9 X s 1267 858 m -79 Y s 1263 779 m 9 X s 1445 977 m 77 Y
 s 1440 1054 m 10 X s 1445 977 m -78 Y s 1440 899 m 10 X s 1623 1098 m 76 Y s 1618 1174 m 10 X s 1623 1098 m -76 Y s 1618 1022 m 10 X s 1890 1275 m 78 Y s 1885 1353 m 9 X s 1890 1275 m -78 Y s 1885 1197 m 9 X s 1089 738 m 77 Y s 1085 815 m 9 X s 1089
 738 m -78 Y s 1085 660 m 9 X s 912 615 m 79 Y s 907 694 m 9 X s 912 615 m -79 Y s 907 536 m 9 X s 645 435 m 78 Y s 640 513 m 9 X s 645 435 m -78 Y s 640 357 m 9 X s 378 255 m 78 Y s 373 333 m 10 X s 378 255 m -78 Y s 373 177 m 10 X s /w 2 def /w2 {w
 2 div} def /w3 {w 3 div} def 1267 858 1445 977 1623 1098 1890 1275 1089 738 912 615 645 435 378 255 8 { m20} R 1 0 0 c[ 12 12] 0 sd 6 lw 0.95 0.95 0.95 c black 1 0 0 c 236 162 m 18 12 d 18 12 d 18 12 d 18 13 d 19 12 d 18 12 d 18 13 d 18 12 d 18 12 d
 18 12 d 18 13 d 19 12 d 18 12 d 18 13 d 18 12 d 18 12 d 18 13 d 18 12 d 19 12 d 18 12 d 18 13 d 18 12 d 18 12 d 18 13 d 18 12 d 19 12 d 18 12 d 18 13 d 18 12 d 18 12 d 18 13 d 18 12 d 19 12 d 18 13 d 18 12 d 18 12 d 18 12 d 18 13 d 18 12 d 19 12 d
 18 13 d 18 12 d 18 12 d 18 12 d 18 13 d 18 12 d 19 12 d 18 13 d 18 12 d s 1125 764 m 18 12 d 18 13 d 18 12 d 18 12 d 18 12 d 19 13 d 18 12 d 18 12 d 18 13 d 18 12 d 18 12 d 18 12 d 19 13 d 18 12 d 18 12 d 18 13 d 18 12 d 18 12 d 18 13 d 19 12 d 18
 12 d 18 12 d 18 13 d 18 12 d 18 12 d 18 13 d 19 12 d 18 12 d 18 12 d 18 13 d 18 12 d 18 12 d 18 13 d 19 12 d 18 12 d 18 13 d 18 12 d 18 12 d 18 12 d 18 13 d 19 12 d 18 12 d 18 13 d 18 12 d 18 12 d 18 12 d 18 13 d 19 12 d 18 12 d s black
 gsave  2268 1530 0 0 C 514.562 1070.11 t 0 r /Helvetica findfont 68.3047 sf 0 0 m (y = 0.9972x+\2550.0007) show NC gr  0 0.453333 1 c[  ] 0 sd 309 1086 m 170 X s 1 1 1 c black
 gsave  2268 1530 0 0 C 1122.47 1479.94 t 0 r /Helvetica findfont 66.0279 sf 0 0 m ( ) show NC gr 
 gsave  2268 1530 0 0 C 512.285 1286.41 t 0 r /Helvetica-Bold findfont 70.5815 sf 0 0 m ( Internal Simulation) show NC gr 
 gsave  2268 1530 0 0 C 270.942 1286.41 t 0 r /Helvetica-BoldOblique findfont 70.5815 sf 0 0 m (ATLAS) show NC gr 
 gsave  2268 1530 0 0 C 705.815 1197.61 t 0 r /Symbol findfont 70.5815 sf 0 0 m (m) show NC gr 
 gsave  2268 1530 0 0 C 377.953 1197.61 t 0 r /Helvetica-Bold findfont 70.5815 sf 0 0 m ( = 8 TeV e) show NC gr 
 gsave  2268 1530 0 0 C 339.247 1197.61 t 0 r /Helvetica-Bold findfont 70.5815 sf 0 0 m (s) show NC gr  316 1239 m 10 -44 d s 0 lw 326 1195 m 6 64 d s 332 1259 m 46 X s
 gsave  2268 1530 0 0 C 270.942 1197.61 t 0 r /Helvetica-Bold findfont 70.5815 sf 0 0 m ( ) show NC gr 
 gr  gr showpage
end
%%EOF
