%!PS-Adobe-3.0 EPSF-3.0
%%Pages: (atend)
%%BoundingBox: 0 0 1008 432
%%HiResBoundingBox: 0.000000 0.000000 1007.999969 431.999987
%.......................................
%%Creator: GPL Ghostscript 870 (pswrite)
%%CreationDate: 2016/05/17 10:10:45
%%DocumentData: Clean7Bit
%%LanguageLevel: 2
%%EndComments
%%BeginProlog
save
countdictstack
mark
newpath
/showpage {} def
/setpagedevice {pop} def
%%EndProlog
%%Page 1 1
%%BeginProlog
% This copyright applies to everything between here and the %%EndProlog:
% Copyright (C) 2009 Artifex Software, Inc.  All rights reserved.
%%BeginResource: procset GS_pswrite_2_0_1001 1.001 0
/GS_pswrite_2_0_1001 80 dict dup begin
/PageSize 2 array def/setpagesize{ PageSize aload pop 3 index eq exch
4 index eq and{ pop pop pop}{ PageSize dup  1
5 -1 roll put 0 4 -1 roll put dup null eq {false} {dup where} ifelse{ exch get exec}
{ pop/setpagedevice where
{ pop 1 dict dup /PageSize PageSize put setpagedevice}
{ /setpage where{ pop PageSize aload pop pageparams 3 {exch pop} repeat
setpage}if}ifelse}ifelse}ifelse} bind def
/!{bind def}bind def/#{load def}!/N/counttomark #
/rG{3{3 -1 roll 255 div}repeat setrgbcolor}!/G{255 div setgray}!/K{0 G}!
/r6{dup 3 -1 roll rG}!/r5{dup 3 1 roll rG}!/r3{dup rG}!
/w/setlinewidth #/J/setlinecap #
/j/setlinejoin #/M/setmiterlimit #/d/setdash #/i/setflat #
/m/moveto #/l/lineto #/c/rcurveto #
/p{N 2 idiv{N -2 roll rlineto}repeat}!
/P{N 0 gt{N -2 roll moveto p}if}!
/h{p closepath}!/H{P closepath}!
/lx{0 rlineto}!/ly{0 exch rlineto}!/v{0 0 6 2 roll c}!/y{2 copy c}!
/re{4 -2 roll m exch dup lx exch ly neg lx h}!
/^{3 index neg 3 index neg}!
/f{P fill}!/f*{P eofill}!/s{H stroke}!/S{P stroke}!
/q/gsave #/Q/grestore #/rf{re fill}!
/Y{P clip newpath}!/Y*{P eoclip newpath}!/rY{re Y}!
/|={pop exch 4 1 roll 1 array astore cvx 3 array astore cvx exch 1 index def exec}!
/|{exch string readstring |=}!
/+{dup type/nametype eq{2 index 7 add -3 bitshift 2 index mul}if}!
/@/currentfile #/${+ @ |}!
/B{{2 copy string{readstring pop}aload pop 4 array astore cvx
3 1 roll}repeat pop pop true}!
/Ix{[1 0 0 1 11 -2 roll exch neg exch neg]exch}!
/,{true exch Ix imagemask}!/If{false exch Ix imagemask}!/I{exch Ix image}!
/Ic{exch Ix false 3 colorimage}!
/F{/Columns counttomark 3 add -2 roll/Rows exch/K -1/BlackIs1 true>>
/CCITTFaxDecode filter}!/FX{<</EndOfBlock false F}!
/X{/ASCII85Decode filter}!/@X{@ X}!/&2{2 index 2 index}!
/@F{@ &2<<F}!/@C{@X &2 FX}!
/$X{+ @X |}!/&4{4 index 4 index}!/$F{+ @ &4<<F |}!/$C{+ @X &4 FX |}!
/IC{3 1 roll 10 dict begin 1{/ImageType/Interpolate/Decode/DataSource
/ImageMatrix/BitsPerComponent/Height/Width}{exch def}forall
currentdict end image}!
/~{@ read {pop} if}!
end def
%%EndResource
/pagesave null def
%%EndProlog
%%Page: 1 1
%%BeginPageSetup
GS_pswrite_2_0_1001 begin
1008 432 null setpagesize
/pagesave save store 197 dict begin
0.012 0.012 scale
%%EndPageSetup
gsave mark
Q q
0 0 84000 0 0 36000 ^ Y
255 G
0 0 84000 36000 re
f
10500 3600 65100 28800 re
f
Q q
10500 3600 65100 28800 re
Y
83.3333 w
100000 M
255 0 r6
10500 3600 0 9043.2 3255 0 0 1641.6 3255 0 0 -2822.4 3255 0 0 -1324.8 
3255 0 0 -1843.2 3255 0 0 -1555.2 3255 0 0 -345.6 3255 0 0 -806.4 
3255 0 0 -518.4 3255 0 0 -403.2 3255 0 0 -172.8 3255 0 0 -86.4 
3255 0 0 -201.6 3255 0 0 -201.6 3255 0 0 86.4 3255 0 0 -345.6 
3255 0 0 -28.8 3255 0 ^ 3255 0 ^ 3255 0 0 -115.2 S
Q q
10500 3600 65100 28800 re
Y
83.3333 w
100000 M
127 0 r5
10500 3600 0 9216 3255 0 0 1843.2 3255 0 0 -3513.6 3255 0 0 -489.6 
3255 0 0 -2937.6 3255 0 0 -1036.8 3255 0 0 -489.6 3255 0 0 -691.2 
3255 0 0 -230.4 3255 0 0 -316.8 3255 0 0 -806.4 3255 0 0 432 
3255 0 0 -460.8 3255 0 0 28.8 3255 0 ^ 3255 0 0 -172.8 
3255 0 0 -288 3255 0 0 144 3255 0 0 -115.2 3255 0 0 -86.4 S
Q q
10500 3600 65100 28800 re
Y
83.3333 w
100000 M
255 0 r3
10500 3600 0 9043.2 3255 0 0 1324.8 3255 0 0 -2275.2 3255 0 0 -1814.4 
3255 0 0 -1843.2 3255 0 0 -1756.8 3255 0 0 -144 3255 0 0 -432 
3255 0 0 -604.8 3255 0 0 -172.8 3255 0 0 -547.2 3255 0 0 -57.6 
3255 0 0 -86.4 3255 0 0 -57.6 3255 0 0 -201.6 3255 0 0 -28.8 
3255 0 0 -115.2 3255 0 0 -86.4 3255 0 0 -28.8 3255 0 0 -115.2 S
Q q
10500 3600 65100 28800 re
Y
83.3333 w
100000 M
0 191 r3
10500 3600 0 9072 3255 0 0 1094.4 3255 0 0 -2880 3255 0 0 -662.4 
3255 0 0 -2707.2 3255 0 0 -748.8 3255 0 0 -547.2 3255 0 0 -662.4 
3255 0 0 -489.6 3255 0 0 -144 3255 0 0 -691.2 3255 0 0 0 
3255 0 0 -86.4 3255 0 0 -57.6 3255 0 0 -201.6 3255 0 0 -28.8 
3255 0 0 -172.8 3255 0 0 57.6 3255 0 0 28.8 3255 0 0 -172.8 S
Q q
10500 3600 65100 28800 re
Y
83.3333 w
100000 M
0 191 r5
10500 3600 0 27907.2 3255 0 0 -18345.6 3255 0 0 -4176 3255 0 0 -2678.4 
3255 0 0 -979.2 3255 0 0 -316.8 3255 0 0 -547.2 3255 0 0 -115.2 
3255 0 0 -28.8 3255 0 0 -316.8 3255 0 0 0 3255 0 0 -201.6 
3255 0 0 -86.4 3255 0 0 0 3255 0 0 -115.2 3255 0 ^ 
3255 0 ^ 3255 0 0 28.8 3255 0 ^ 3255 0 0 0 S
Q q
0 0 84000 0 0 36000 ^ Y
83.3333 w
100000 M
2 J
K
10500 32400 65100 0 S
75600 3600 0 28800 S
10500 3600 65100 0 S
10500 3600 0 28800 S
10500 3600 0 333.33 f
41.6667 w
0 J
1 j
10500 3600 0 333.33 S
10500 32400 0 -333.33 f
10500 32400 0 -333.33 S
26775 3600 0 333.33 f
26775 3600 0 333.33 S
26775 32400 0 -333.33 f
26775 32400 0 -333.33 S
43050 3600 0 333.33 f
43050 3600 0 333.33 S
43050 32400 0 -333.33 f
43050 32400 0 -333.33 S
59325 3600 0 333.33 f
59325 3600 0 333.33 S
59325 32400 0 -333.33 f
59325 32400 0 -333.33 S
75600 3600 0 333.33 f
75600 3600 0 333.33 S
75600 32400 0 -333.33 f
75600 32400 0 -333.33 S
10500 3600 333.33 0 f
10500 3600 333.33 0 S
75600 3600 -333.34 0 f
75600 3600 -333.34 0 S
10500 9360 333.33 0 f
10500 9360 333.33 0 S
75600 9360 -333.34 0 f
75600 9360 -333.34 0 S
10500 15120 333.33 0 f
10500 15120 333.33 0 S
75600 15120 -333.34 0 f
75600 15120 -333.34 0 S
10500 20880 333.33 0 f
10500 20880 333.33 0 S
75600 20880 -333.34 0 f
75600 20880 -333.34 0 S
10500 26640 333.33 0 f
10500 26640 333.33 0 S
75600 26640 -333.34 0 f
75600 26640 -333.34 0 S
10500 32400 333.33 0 f
10500 32400 333.33 0 S
75600 32400 -333.34 0 f
75600 32400 -333.34 0 S
255 G
61291.4 16523.9 13708.6 15276.1 re
f
83.3333 w
0 j
K
61291.4 16523.9 13708.6 15276.1 re
S
255 0 r6
61771.4 29702.5 2400 840 re
S
127 0 r5
61771.4 26719.3 2400 840.004 re
S
255 0 r3
61771.4 23736 2400 840.004 re
S
0 191 r3
61771.4 20752.8 2400 840 re
S
0 191 r5
61771.4 17769.6 2400 840 re
S
Q q
Y
0.83022 i
K
-7784.11 25177 93.82 0 P
74.72 0 113.74 5.79 146.95 21.52 c
58.95 28.15 92.21 81.13 92.21 146.52 c
0 62.91 -29.11 110.93 -83.9 138.24 c
-32.38 16.55 -83.85 25.74 -141.14 25.74 c
-290.58 0 0 -38.96 14.96 0 p
67.31 0 74.8 -4.25 74.8 -39.09 c
0 -443.02 p
0 -34.84 -7.48 -38.99 -74.8 -38.99 c
-14.96 0 0 -38.96 278.95 0 ^ -21.59 0 p
-67.25 0 -74.72 4.16 -74.72 39.1 c
0 24.13 h
-7784.11 25215.9 0 211.86 P
0 38.07 4.98 42.25 50.7 42.25 c
53.2 0 p
86.45 0 127.18 -40.59 127.18 -128.32 c
0 -85.24 -42.4 -125.79 -130.51 -125.79 c
h
f
-6986.79 25514.5 -30.74 0 -33.23 -49.83 P
-39.05 37.37 -92.22 57.35 -151.21 57.35 c
-108.84 0 -181.95 -69.74 -181.95 -173.49 c
0 -90.47 44.86 -135.29 167 -166.83 c
78.93 -19.92 p
61.48 -15.77 67.29 -17.43 84.74 -30.71 c
24.93 -19.09 38.27 -46.48 38.27 -78.85 c
0 -33.2 -12.49 -60.59 -37.39 -83 c
-27.39 -24.07 -54.78 -33.2 -100.43 -33.2 c
-61.42 0 -105.41 19.07 -144.42 62.19 c
-34.86 38.97 -52.29 77.95 -64.74 141.81 c
-35.69 0 3.32 -236.16 32.39 0 37.37 56.34 p
55.64 -45.57 102.14 -62.14 174.39 -62.14 c
122.07 0 200.14 71.32 200.14 182.47 c
0 51.42 -17.5 95.38 -49.9 126.89 c
-22.44 21.57 -54.84 35.67 -121.3 52.26 c
-88.9 22.39 p
-73.95 19.08 -108.84 51.42 -108.84 102.02 c
0 58.06 47.35 97.97 117.95 97.97 c
58.14 0 105.49 -24.91 138.71 -72.23 c
24.09 -34.04 39.04 -68.91 49.84 -111.25 c
35.76 0 h
f
-6753.07 25297 0 47.38 P
0 41.56 2.49 68.99 9.14 85.62 c
13.3 36.57 42.39 59.03 75.64 59.03 c
17.46 0 28.29 -5 28.29 -14.17 c
0 -2.5 -0.85 -4.16 -5.07 -10.83 c
-5.07 -8.33 -7.59 -17.5 -7.59 -26.66 c
0 -25 20.01 -44.16 45.86 -44.16 c
27.52 0 46.71 20.77 46.71 50.68 c
0 48.19 -41.58 78.11 -108.87 78.11 c
-57.32 0 -98.87 -19.93 -128.78 -61.44 c
-24.93 -34.87 -33.23 -70.57 -33.23 -137.82 c
0 -25.74 -73.24 0 0 -35.96 ^ 0 -282.07 p
0 -33.19 -9.16 -38.99 -62.44 -38.99 c
-3.33 0 0 -29.96 221.67 0 ^ -14.94 0 p
-53.93 0 -63.05 5.8 -63.05 38.99 c
0 282.07 91.27 0 0 35.96 h
f
-6475.62 25297 -146.95 -9.03 0 -35.96 34.04 0 P
30.72 0 35.7 -5.84 35.7 -41.52 c
0 -231.52 p
0 -33.19 -9.13 -39 -63.09 -39 c
-3.32 0 0 -29.96 221.67 0 ^ -15.78 0 p
-53.13 0 -62.27 5.8 -62.27 38.97 c
0 41.46 p
0 62.2 11.63 125.21 32.38 172.48 c
19.93 46.44 48.15 72.14 83.02 76.29 c
-11.62 -13.27 -14.95 -21.55 -14.95 -37.31 c
0 -26.54 19.09 -45.61 45.66 -45.61 c
29.89 0 50.64 22.39 50.64 56.38 c
0 39.8 -28.23 66.4 -72.23 66.4 c
-52.3 0 -97.97 -42.24 -124.54 -115.09 c
h
f
-5895.03 25177 m
0 52.29 -9.17 78.85 -33.22 98.77 c
-27.36 21.58 -67.99 33.22 -121.06 33.22 c
-92.87 0 -161.7 -43.94 -161.7 -103.58 c
0 -31.48 19.08 -51.36 48.12 -51.36 c
25.72 0 44.82 17.34 44.82 42.13 c
0 10.74 -4.1 22.3 -12.29 33.87 c
-4.91 5.79 -5.73 8.26 -5.73 10.74 c
0 17.35 33.95 32.24 73.69 32.24 c
25.67 0 54.65 -8.34 67.89 -20.76 c
15.73 -13.24 21.57 -33.11 21.57 -70.36 c
0 -32.28 p
-87.26 -14.9 -113.86 -21.52 -154.57 -37.25 c
-71.47 -26.49 -106.37 -65.39 -106.37 -117.54 c
0 -58.77 47.45 -96.85 120.7 -96.85 c
57.44 0 109.05 23.07 144.85 65.12 c
13.32 -42.49 34.13 -59.15 73.31 -59.15 c
37.09 0 75.84 24.47 75.84 48.95 c
0 4.98 -4.18 9.13 -8.34 9.13 c
-3.33 0 -6.66 -0.83 -12.5 -3.32 c
-13.33 -4.98 -16.66 -5.81 -23.33 -5.81 c
-23.33 0 -31.66 15.77 -31.66 57.27 c
h
-5972.94 25076.1 m
0 -49.69 -2.53 -61.29 -16.66 -82.82 c
-20.77 -30.64 -59 -51.35 -94.74 -51.35 c
-37.39 0 -65.65 27.33 -65.65 64.6 c
0 34.79 17.45 59.63 54.02 77.02 c
25.76 11.6 58.17 19.88 123.03 30.65 c
h
f
-5647 24970.9 m
-45.65 0.83 -48.14 1.66 -58.1 7.48 c
-5.81 3.32 -9.96 12.46 -9.96 21.61 c
0 24.93 22.35 35.73 77.81 37.4 c
78.64 1.66 91.06 3.32 118.38 15.79 c
49.67 22.44 77.85 65.65 77.85 120.5 c
0 33.24 -7.36 54.02 -30.25 81.44 c
14.11 14.96 21.59 19.95 28.23 19.95 c
4.15 0 6.64 -2.48 8.3 -11.56 c
3.32 -19.81 16.61 -30.54 37.36 -30.54 c
20.76 0 37.36 17.44 37.36 39.87 c
0 28.24 -22.42 48.19 -54.8 48.19 c
-26.57 0 -41.51 -8.56 -79.7 -43.54 c
-34.87 23.25 -61.44 31.55 -102.95 31.55 c
-98.8 0 -163.55 -54.83 -163.55 -137.87 c
0 -49 26.57 -91.35 69.74 -111.28 c
-55.52 -12.45 -78.71 -37.37 -78.71 -83.04 c
0 -36.54 16.39 -58.13 54.94 -71.41 c
-51.13 -18.27 -75.86 -44.84 -75.86 -78.89 c
0 -54.81 63.96 -85.53 175.26 -85.53 c
138.71 0 208.57 43.98 208.57 131.11 c
0 41.49 -19.12 74.68 -49.84 87.13 c
-21.58 8.3 -48.14 11.67 -105.41 11.67 c
h
-5598.12 25273.1 m
52.19 0 81.19 -36.45 81.19 -100.19 c
0 -64.57 -31.48 -103.47 -84.5 -103.47 c
-51.36 0 -83.67 38.9 -83.67 100.99 c
0 65.39 31.48 102.68 86.98 102.68 c
h
-5605.57 24900 m
69.02 0 74.02 0 86.49 -1.67 c
33.27 -3.34 54.06 -21.67 54.06 -48.34 c
0 -47.51 -54.06 -75.01 -147.2 -75.01 c
-69.86 0 -109.77 20.84 -109.77 58.34 c
0 27.5 14.96 45.84 54.88 66.68 c
h
f
-4965.62 25297 -146.95 -9.03 0 -35.96 34.04 0 P
30.72 0 35.7 -5.84 35.7 -41.52 c
0 -231.52 p
0 -33.19 -9.13 -39 -63.09 -39 c
-3.32 0 0 -29.96 221.67 0 ^ -15.78 0 p
-53.13 0 -62.27 5.8 -62.27 38.97 c
0 41.46 p
0 62.2 11.63 125.21 32.38 172.48 c
19.93 46.44 48.15 72.14 83.02 76.29 c
-11.62 -13.27 -14.95 -21.55 -14.95 -37.31 c
0 -26.54 19.09 -45.61 45.66 -45.61 c
29.89 0 50.64 22.39 50.64 56.38 c
0 39.8 -28.23 66.4 -72.23 66.4 c
-52.3 0 -97.97 -42.24 -124.54 -115.09 c
h
f
-4373.95 25097 m
0.83 124.23 -69.74 212.02 -171.02 212.02 c
-106.27 0 -185.97 -92 -185.97 -216.29 c
0 -116 75.55 -194.72 187.63 -194.72 c
78.87 0 135.32 38.87 169.36 117.45 c
-29.05 15.74 p
-34.04 -63.51 -68.91 -88.25 -124.54 -88.25 c
-42.34 0 -73.06 18.22 -94.64 54.66 c
-14.95 24.85 -21.59 53.84 -20.75 99.39 c
h
-4642.11 25133 m
0 25.54 3.32 43.67 11.63 66.74 c
17.43 49.43 44 73.36 83.85 73.36 c
50.64 0 83.85 -43.7 83.85 -109.62 c
0 -23.89 -7.47 -30.48 -34.04 -30.48 c
h
f
-4173.07 25297 -143.68 -9.03 0 -35.96 29.96 0 P
30.8 0 35.8 -5.83 35.8 -41.54 c
0 -399.44 p
0 -33.21 -9.16 -39.02 -62.44 -39.02 c
-3.33 0 0 -29.97 215.86 0 ^ -9.13 0 p
-53.93 0 -63.05 5.81 -63.05 39.04 c
0 153.75 p
27.37 -47.82 58.89 -66.78 109.48 -66.78 c
96.21 0 167.59 88.66 167.59 207.15 c
0 114.34 -71.38 203.86 -162.62 203.86 c
-51.42 0 -85.43 -21.5 -114.46 -71.09 c
h
-4073.04 25264.1 m
57.05 0 90.13 -57.11 90.13 -153.94 c
0 -106.76 -33.91 -167.17 -92.61 -167.17 c
-58.7 0 -97.56 61.24 -97.56 156.41 c
0 102.62 37.2 164.7 100.04 164.7 c
h
f
-3691.02 25522 -153.2 -8.98 0 -35.96 40.53 0 P
29.78 0 34.76 -5.86 34.76 -41.55 c
0 -456.51 p
0 -33.2 -9.11 -39.01 -62.03 -39.01 c
-5.79 0 0 -29.96 215.03 0 ^ -5.85 0 p
-54.27 0 -63.45 5.81 -63.45 39.02 c
0 33.21 h
f
-3225.03 25177 m
0 52.29 -9.17 78.85 -33.22 98.77 c
-27.36 21.58 -67.99 33.22 -121.06 33.22 c
-92.87 0 -161.7 -43.94 -161.7 -103.58 c
0 -31.48 19.08 -51.36 48.12 -51.36 c
25.72 0 44.82 17.34 44.82 42.13 c
0 10.74 -4.1 22.3 -12.29 33.87 c
-4.91 5.79 -5.73 8.26 -5.73 10.74 c
0 17.35 33.95 32.24 73.69 32.24 c
25.67 0 54.65 -8.34 67.89 -20.76 c
15.73 -13.24 21.57 -33.11 21.57 -70.36 c
0 -32.28 p
-87.26 -14.9 -113.86 -21.52 -154.57 -37.25 c
-71.47 -26.49 -106.37 -65.39 -106.37 -117.54 c
0 -58.77 47.45 -96.85 120.7 -96.85 c
57.44 0 109.05 23.07 144.85 65.12 c
13.32 -42.49 34.13 -59.15 73.31 -59.15 c
37.09 0 75.84 24.47 75.84 48.95 c
0 4.98 -4.18 9.13 -8.34 9.13 c
-3.33 0 -6.66 -0.83 -12.5 -3.32 c
-13.33 -4.98 -16.66 -5.81 -23.33 -5.81 c
-23.33 0 -31.66 15.77 -31.66 57.27 c
h
-3302.94 25076.1 m
0 -49.69 -2.53 -61.29 -16.66 -82.82 c
-20.77 -30.64 -59 -51.35 -94.74 -51.35 c
-37.39 0 -65.65 27.33 -65.65 64.6 c
0 34.79 17.45 59.63 54.02 77.02 c
25.76 11.6 58.17 19.88 123.03 30.65 c
h
f
-2818.78 25032 m
-26.61 -59.23 -54.87 -83.09 -98.11 -83.09 c
-66.52 0 -108.09 60.35 -108.09 157.09 c
0 100.04 40.78 167.02 102.36 167.02 c
24.97 0 46.62 -11.58 46.62 -24.8 c
0 -2.48 -1.66 -4.96 -4.98 -9.91 c
-13.28 -15.7 -16.6 -23.96 -16.6 -38 c
0 -27.27 20.76 -46.27 49.82 -46.27 c
29.07 0 50.67 23.19 50.67 56.33 c
0 55.5 -55.7 98.61 -129.61 98.61 c
-107.95 0 -185.18 -88.69 -185.18 -212.14 c
0 -117.66 70.58 -198.86 173.56 -198.86 c
73.9 0 116.25 33.91 151.99 121.59 c
h
f
-2383.95 25097 m
0.83 124.23 -69.74 212.02 -171.02 212.02 c
-106.27 0 -185.97 -92 -185.97 -216.29 c
0 -116 75.55 -194.72 187.63 -194.72 c
78.87 0 135.32 38.87 169.36 117.45 c
-29.05 15.74 p
-34.04 -63.51 -68.91 -88.25 -124.54 -88.25 c
-42.34 0 -73.06 18.22 -94.64 54.66 c
-14.95 24.85 -21.59 53.84 -20.75 99.39 c
h
-2652.11 25133 m
0 25.54 3.32 43.67 11.63 66.74 c
17.43 49.43 44 73.36 83.85 73.36 c
50.64 0 83.85 -43.7 83.85 -109.62 c
0 -23.89 -7.47 -30.48 -34.04 -30.48 c
h
f
-2183.07 25297 -147.83 -9.03 0 -35.96 34.12 0 P
30.79 0 35.8 -5.84 35.8 -41.52 c
0 -230.69 p
0 -34.02 -9.16 -39.83 -62.44 -39.83 c
-3.33 0 0 -29.96 209.21 0 ^ -3.33 0 p
-53.08 0 -62.2 5.8 -62.2 39.77 c
0 149.94 p
0 73.73 40.68 128.41 94.64 128.41 c
21.59 0 44.83 -11.61 54.8 -27.35 c
11.62 -15.74 16.63 -39.76 16.63 -73.73 c
0 -178.11 p
0 -33.13 -9.16 -38.93 -63.17 -38.93 c
-3.32 0 0 -29.96 210.05 0 ^ -3.33 0 p
-53.17 0 -62.31 5.8 -62.31 38.93 c
0 143.31 p
0 82.84 37.39 135.87 95.54 135.87 c
27.42 0 49.85 -15.75 60.65 -41.43 c
7.48 -18.23 9.98 -36.45 9.98 -68.76 c
0 -168.99 p
0 -33.13 -9.16 -38.93 -63.17 -38.93 c
-3.32 0 0 -29.96 210.04 0 ^ -3.32 0 p
-53.18 0 -62.31 5.8 -62.31 39.8 c
0 184.91 p
0 51.41 -5 68.82 -26.58 97.02 c
-24.07 30.68 -58.1 47.33 -97.94 47.33 c
-53.95 0 -93.79 -25.65 -129.48 -82.71 c
-14.11 49.62 -58.93 82.71 -114.54 82.71 c
-49.8 0 -87.16 -23.98 -119.52 -76.07 c
h
f
-1223.95 25097 m
0.83 124.23 -69.74 212.02 -171.02 212.02 c
-106.27 0 -185.97 -92 -185.97 -216.29 c
0 -116 75.55 -194.72 187.63 -194.72 c
78.87 0 135.32 38.87 169.36 117.45 c
-29.05 15.74 p
-34.04 -63.51 -68.91 -88.25 -124.54 -88.25 c
-42.34 0 -73.06 18.22 -94.64 54.66 c
-14.95 24.85 -21.59 53.84 -20.75 99.39 c
h
-1492.11 25133 m
0 25.54 3.32 43.67 11.63 66.74 c
17.43 49.43 44 73.36 83.85 73.36 c
50.64 0 83.85 -43.7 83.85 -109.62 c
0 -23.89 -7.47 -30.48 -34.04 -30.48 c
h
f
-1024.01 25297 -143.58 -9.03 0 -35.96 29.92 0 P
30.75 0 35.75 -5.84 35.75 -41.52 c
0 -231.52 p
0 -33.19 -9.16 -39 -62.34 -39 c
-3.32 0 0 -29.96 210.05 0 ^ -3.33 0 p
-54 0 -63.14 5.8 -63.14 38.93 c
0 119.29 p
0 40.59 5.82 77.87 14.96 96.92 c
17.47 37.28 54.89 62.97 90.65 62.97 c
21.62 0 46.57 -12.44 59.05 -29.01 c
12.47 -17.4 18.32 -43.08 18.32 -82.84 c
0 -167.34 p
0 -33.13 -9.18 -38.93 -63.37 -38.93 c
-3.34 0 0 -29.96 210.05 0 ^ -3.32 0 p
-53 0 -62.12 5.8 -62.12 38.97 c
0 163.35 p
0 59.7 -2.51 74.63 -17.46 102.82 c
-20.77 39.8 -63.14 63.91 -112.16 63.91 c
-53.18 0 -94.71 -24.81 -131.27 -79.39 c
h
f
-518.99 25297 0 164.28 -34.04 0 P
-8.3 -108.02 -44.81 -162.85 -112.02 -167.84 c
0 -32.4 68.16 0 0 -211.38 p
0 -58 1.66 -78.71 9.95 -97.77 c
13.28 -34.8 46.47 -53.86 94.6 -53.86 c
32.36 0 60.57 9.93 79.66 28.14 c
27.39 26.49 43.19 70.36 43.19 115.89 c
0 4.97 0 10.76 -0.85 19.05 c
-34.88 0 p
-2.49 -74.22 -24.08 -112.14 -64.77 -112.14 c
-19.1 0 -35.71 9.93 -41.52 24 c
-4.98 11.59 -7.47 32.28 -7.47 62.07 c
0 226 122.09 0 0 35.96 h
f
-36.21 25306 -29.1 0 -24.09 -29.89 P
-29.89 23.02 -59.79 32.9 -101.31 32.9 c
-73.08 0 -121.24 -48.08 -121.24 -120.09 c
0 -32.28 10.79 -59.6 29.05 -76.16 c
19.1 -17.39 38.19 -25.66 88 -37.25 c
44 -9.93 p
65.59 -15.73 88.88 -32.28 88.88 -65.39 c
0 -38.91 -34.04 -66.22 -83.01 -66.22 c
-69.72 0 -119.52 44.57 -139.45 127.13 c
-33.2 0 0 -156.46 29.09 0 29.09 33.94 p
34.08 -27.32 72.32 -40.56 113.88 -40.56 c
81.46 0 135.54 50.46 135.54 127.41 c
0 36.4 -11.7 64.54 -35.01 83.56 c
-19.98 17.38 -36.63 24 -87.41 34.75 c
-41.62 9.1 p
-45.79 9.93 -45.79 9.93 -60.77 18.21 c
-18.32 8.27 -29.14 25.65 -29.14 43.85 c
0 33.09 31.59 57.17 77.3 57.17 c
31.59 0 57.36 -10.77 80.63 -33.1 c
18.29 -18.2 27.43 -34.74 40.73 -72.79 c
29.13 0 h
f
q[8000 0 0 -40 -7991 24609]concat
1 1 false[1 0 0 -1 0 0]@X
imagemask
!!~>
Q
Q q
0 0 84000 0 0 36000 ^ Y
0.996264 i
K
10496.9 3264.98 m
-65.71 0 -125.44 -29 -162.27 -78.01 c
-45.8 -61.73 -68.69 -156.29 -68.69 -286.67 c
0 -237.87 79.64 -364.27 230.96 -364.27 c
149.33 0 231.05 126.4 231.05 358.3 c
0 137.35 -21.99 228.91 -68.79 292.64 c
-36.83 50.01 -95.57 78.01 -162.27 78.01 c
h
10497 3186.96 m
94.32 0 141.01 -95.57 141.01 -284.54 c
0 -199.91 -45.7 -293.39 -142.99 -293.39 c
-92.34 0 -139 97.46 -139 290.41 c
0 192.95 46.66 287.52 140.98 287.52 c
h
f
26972.1 3264.98 -364.54 0 -52.79 -384.18 80.6 0 P
40.8 48.4 74.63 65.2 129.36 65.2 c
94.53 0 154.27 -64.62 154.27 -168.97 c
0 -101.37 -58.77 -162.99 -154.29 -162.99 c
-76.62 0 -123.39 38.77 -144.29 118.32 c
-87.56 0 p
11.95 -57.82 21.91 -85.72 42.82 -111.62 c
39.84 -53.82 111.55 -84.7 191.24 -84.7 c
142.43 0 242.09 103.56 242.09 252.93 c
0 139.41 -92.68 235.06 -228.14 235.06 c
-49.8 0 -89.64 -12.88 -130.47 -42.59 c
27.89 196.55 293.82 0 h
f
42754 3061.86 0 -502.86 88.02 0 0 706.11 -57.89 0 P
-30.91 -108.64 -50.86 -123.58 -186.48 -140.51 c
0 -62.74 h
f
43319.9 3264.98 m
-65.71 0 -125.44 -29 -162.27 -78.01 c
-45.8 -61.73 -68.69 -156.29 -68.69 -286.67 c
0 -237.87 79.64 -364.27 230.96 -364.27 c
149.33 0 231.05 126.4 231.05 358.3 c
0 137.35 -21.99 228.91 -68.79 292.64 c
-36.83 50.01 -95.57 78.01 -162.27 78.01 c
h
43320 3186.96 m
94.32 0 141.01 -95.57 141.01 -284.54 c
0 -199.91 -45.7 -293.39 -142.99 -293.39 c
-92.34 0 -139 97.46 -139 290.41 c
0 192.95 46.66 287.52 140.98 287.52 c
h
f
59029 3061.86 0 -502.86 88.02 0 0 706.11 -57.89 0 P
-30.91 -108.64 -50.86 -123.58 -186.48 -140.51 c
0 -62.74 h
f
59795.1 3264.98 -364.54 0 -52.79 -384.18 80.6 0 P
40.8 48.4 74.63 65.2 129.36 65.2 c
94.53 0 154.27 -64.62 154.27 -168.97 c
0 -101.37 -58.77 -162.99 -154.29 -162.99 c
-76.62 0 -123.39 38.77 -144.29 118.32 c
-87.56 0 p
11.95 -57.82 21.91 -85.72 42.82 -111.62 c
39.84 -53.82 111.55 -84.7 191.24 -84.7 c
142.43 0 242.09 103.56 242.09 252.93 c
0 139.41 -92.68 235.06 -228.14 235.06 c
-49.8 0 -89.64 -12.88 -130.47 -42.59 c
27.89 196.55 293.82 0 h
f
75550 2646.02 -371.52 0 P
8.96 57.71 40.84 94.53 127.49 145.27 c
99.6 53.73 p
98.61 53.73 149.46 126.37 149.46 212.94 c
0 58.71 -23.96 113.44 -65.79 151.25 c
-41.84 37.81 -93.62 55.77 -160.36 55.77 c
-89.64 0 -156.37 -31.87 -195.22 -91.55 c
-24.9 -37.79 -35.86 -81.55 -37.85 -153.16 c
87.56 0 p
2.98 47.63 8.96 76.39 20.89 99.21 c
22.89 42.66 68.66 68.48 121.4 68.48 c
79.6 0 139.35 -56.81 139.35 -132.43 c
0 -55.73 -32.9 -103.49 -95.58 -139.31 c
-91.55 -51.74 p
-147.26 -83.59 -190.05 -150.25 -198.01 -305.48 c
470.12 0 h
f
75869.9 3264.98 m
-65.71 0 -125.43 -29.01 -162.27 -78.02 c
-45.8 -61.73 -68.69 -156.29 -68.69 -286.67 c
0 -237.87 79.64 -364.27 230.96 -364.27 c
149.33 0 231.05 126.4 231.05 358.3 c
0 137.35 -21.99 228.92 -68.79 292.64 c
-36.83 50.01 -95.57 78.02 -162.27 78.02 c
h
75870 3186.96 m
94.32 0 141.01 -95.57 141.01 -284.54 c
0 -199.91 -45.69 -293.39 -142.99 -293.39 c
-92.34 0 -139 97.46 -139 290.41 c
0 192.95 46.66 287.52 140.98 287.52 c
h
f
42685.5 1721.12 m
-28.99 159.21 -120.6 236.86 -279.93 236.86 c
-97.59 0 -176.25 -31.05 -230.03 -90.8 c
-65.72 -71.7 -101.57 -175.26 -101.57 -292.76 c
0 -119.5 36.84 -222.06 105.55 -292.76 c
55.76 -57.76 127.46 -84.64 222.05 -84.64 c
177.25 0 276.83 95.64 298.86 287.98 c
-95.63 0 p
-7.96 -49.79 -17.91 -83.61 -32.84 -112.46 c
-29.85 -59.69 -91.54 -93.51 -169.16 -93.51 c
-144.28 0 -235.82 115.4 -235.82 296.45 c
0 186.03 87.56 300.48 227.86 300.48 c
58.71 0 113.43 -17.87 143.29 -45.66 c
26.87 -24.81 41.79 -55.59 52.74 -109.18 c
h
f
42816 1946.03 0 -726.03 83.01 0 0 288.34 P
0 106.76 55.55 176.64 140.85 176.64 c
26.78 0 53.56 -9.02 73.4 -23.98 c
23.81 -16.96 33.74 -41.9 33.74 -78.82 c
0 -362.17 83.01 0 0 394.52 p
0 87.67 -62.66 142.46 -164.03 142.46 c
-73.55 0 -118.27 -22.91 -166.96 -86.67 c
0 275.71 h
f
43446 1741.98 -84.01 0 0 -521.98 ^ H
43446 1946.03 -84.01 0 0 -104.36 ^ H
f
44020 1307.01 -371.52 0 P
8.96 57.71 40.84 94.53 127.49 145.28 c
99.61 53.73 p
98.61 53.73 149.46 126.37 149.46 212.94 c
0 58.71 -23.96 113.44 -65.79 151.25 c
-41.83 37.81 -93.62 55.77 -160.36 55.77 c
-89.64 0 -156.37 -31.87 -195.22 -91.55 c
-24.9 -37.79 -35.86 -81.55 -37.85 -153.16 c
87.56 0 p
2.98 47.62 8.96 76.39 20.89 99.21 c
22.89 42.66 68.66 68.48 121.39 68.48 c
79.61 0 139.35 -56.81 139.35 -132.44 c
0 -55.72 -32.9 -103.48 -95.59 -139.31 c
-91.55 -51.74 p
-147.26 -83.59 -190.05 -150.25 -198.01 -305.48 c
470.12 0 h
f
9886.93 4058.98 m
-65.71 0 -125.44 -29 -162.27 -78.01 c
-45.8 -61.73 -68.69 -156.29 -68.69 -286.67 c
0 -237.87 79.64 -364.27 230.96 -364.27 c
149.33 0 231.05 126.4 231.05 358.3 c
0 137.35 -21.99 228.91 -68.79 292.64 c
-36.83 50.01 -95.57 78.01 -162.27 78.01 c
h
9886.96 3980.96 m
94.32 0 141.01 -95.57 141.01 -284.54 c
0 -199.91 -45.7 -293.39 -142.99 -293.39 c
-92.34 0 -139 97.46 -139 290.41 c
0 192.95 46.66 287.52 140.98 287.52 c
h
f
9008.99 9200.01 -371.52 0 P
8.96 57.71 40.84 94.53 127.49 145.28 c
99.61 53.73 p
98.61 53.73 149.46 126.37 149.46 212.94 c
0 58.71 -23.96 113.44 -65.79 151.25 c
-41.83 37.81 -93.62 55.77 -160.36 55.77 c
-89.64 0 -156.37 -31.87 -195.22 -91.55 c
-24.9 -37.79 -35.86 -81.55 -37.85 -153.16 c
87.56 0 p
2.98 47.62 8.96 76.39 20.89 99.21 c
22.89 42.66 68.66 68.48 121.39 68.48 c
79.61 0 139.35 -56.81 139.35 -132.44 c
0 -55.72 -32.9 -103.48 -95.59 -139.31 c
-91.55 -51.74 p
-147.26 -83.59 -190.05 -150.25 -198.01 -305.48 c
470.12 0 h
f
9328.93 9818.98 m
-65.71 0 -125.44 -29 -162.27 -78.01 c
-45.8 -61.73 -68.69 -156.29 -68.69 -286.67 c
0 -237.87 79.64 -364.27 230.96 -364.27 c
149.33 0 231.05 126.4 231.05 358.3 c
0 137.35 -21.99 228.91 -68.79 292.64 c
-36.83 50.01 -95.57 78.01 -162.27 78.01 c
h
9328.96 9740.96 m
94.32 0 141.01 -95.57 141.01 -284.54 c
0 -199.91 -45.7 -293.39 -142.99 -293.39 c
-92.34 0 -139 97.46 -139 290.41 c
0 192.95 46.66 287.52 140.98 287.52 c
h
f
9878.93 9818.98 m
-65.71 0 -125.44 -29 -162.27 -78.01 c
-45.8 -61.73 -68.69 -156.29 -68.69 -286.67 c
0 -237.87 79.64 -364.27 230.96 -364.27 c
149.33 0 231.05 126.4 231.05 358.3 c
0 137.35 -21.99 228.91 -68.79 292.64 c
-36.83 50.01 -95.57 78.01 -162.27 78.01 c
h
9878.96 9740.96 m
94.32 0 141.01 -95.57 141.01 -284.54 c
0 -199.91 -45.7 -293.39 -142.99 -293.39 c
-92.34 0 -139 97.46 -139 290.41 c
0 192.95 46.66 287.52 140.98 287.52 c
h
f
8831.03 15042 0 -169 88.01 0 ^ 104.02 0 0 79.01 ^ 0 457.97 
-64.88 0 -321.27 -444.35 0 -92.63 H
8831.03 15121 -221.42 0 221.42 308.9 H
f
9328.93 15579 m
-65.71 0 -125.44 -29 -162.27 -78.01 c
-45.8 -61.73 -68.69 -156.29 -68.69 -286.67 c
0 -237.87 79.64 -364.27 230.96 -364.27 c
149.33 0 231.05 126.4 231.05 358.3 c
0 137.35 -21.99 228.91 -68.79 292.64 c
-36.83 50.01 -95.57 78.01 -162.27 78.01 c
h
9328.96 15501 m
94.32 0 141.01 -95.57 141.01 -284.54 c
0 -199.91 -45.7 -293.39 -142.99 -293.39 c
-92.34 0 -139 97.46 -139 290.41 c
0 192.95 46.66 287.52 140.98 287.52 c
h
f
9878.93 15579 m
-65.71 0 -125.44 -29 -162.27 -78.01 c
-45.8 -61.73 -68.69 -156.29 -68.69 -286.67 c
0 -237.87 79.64 -364.27 230.96 -364.27 c
149.33 0 231.05 126.4 231.05 358.3 c
0 137.35 -21.99 228.91 -68.79 292.64 c
-36.83 50.01 -95.57 78.01 -162.27 78.01 c
h
9878.96 15501 m
94.32 0 141.01 -95.57 141.01 -284.54 c
0 -199.91 -45.7 -293.39 -142.99 -293.39 c
-92.34 0 -139 97.46 -139 290.41 c
0 192.95 46.66 287.52 140.98 287.52 c
h
f
9001.14 21155 m
-16.96 115.37 -92.48 184 -199.79 184 c
-77.5 0 -147.05 -37.88 -188.78 -100.62 c
-43.72 -68.71 -63.59 -155.34 -63.59 -283.8 c
0 -118.5 17.88 -194.17 59.61 -256.91 c
37.75 -56.76 99.36 -87.63 176.86 -87.63 c
134.13 0 230.56 99.55 230.56 237.93 c
0 131.41 -89.6 224.02 -215.91 224.02 c
-69.62 0 -124.32 -26.68 -162.11 -78.02 c
0.99 171.68 56.7 267 157.18 267 c
61.68 0 104.46 -38.64 118.39 -105.98 c
h
8788.72 20994 m
84.56 0 137.29 -58.65 137.29 -153 c
0 -88.38 -59.7 -152.93 -140.27 -152.93 c
-81.57 0 -143.25 67.53 -143.25 157.9 c
0 87.39 59.69 148.03 146.23 148.03 c
h
f
9328.93 21339 m
-65.71 0 -125.44 -29 -162.27 -78.01 c
-45.8 -61.73 -68.69 -156.29 -68.69 -286.67 c
0 -237.87 79.64 -364.27 230.96 -364.27 c
149.33 0 231.05 126.4 231.05 358.3 c
0 137.35 -21.99 228.91 -68.79 292.64 c
-36.83 50.01 -95.57 78.01 -162.27 78.01 c
h
9328.96 21261 m
94.32 0 141.01 -95.57 141.01 -284.54 c
0 -199.91 -45.7 -293.39 -142.99 -293.39 c
-92.34 0 -139 97.46 -139 290.41 c
0 192.95 46.66 287.52 140.98 287.52 c
h
f
9878.93 21339 m
-65.71 0 -125.44 -29 -162.27 -78.01 c
-45.8 -61.73 -68.69 -156.29 -68.69 -286.67 c
0 -237.87 79.64 -364.27 230.96 -364.27 c
149.33 0 231.05 126.4 231.05 358.3 c
0 137.35 -21.99 228.91 -68.79 292.64 c
-36.83 50.01 -95.57 78.01 -162.27 78.01 c
h
9878.96 21261 m
94.32 0 141.01 -95.57 141.01 -284.54 c
0 -199.91 -45.7 -293.39 -142.99 -293.39 c
-92.34 0 -139 97.46 -139 290.41 c
0 192.95 46.66 287.52 140.98 287.52 c
h
f
8894.54 26764.3 m
72.58 43.82 96.45 79.66 96.45 146.38 c
0 110.53 -86.65 188.25 -212.03 188.25 c
-124.38 0 -211.95 -77.71 -211.95 -188.25 c
0 -65.72 23.85 -101.57 95.39 -146.38 c
-80.62 -38.83 -120.43 -97.59 -120.43 -175.25 c
0 -129.45 97.59 -219.07 237 -219.07 c
139.41 0 237.04 89.62 237.04 218.07 c
0 78.66 -39.85 137.42 -121.48 176.25 c
h
8779 27021 m
74.38 0 121.98 -43.62 121.98 -111.98 c
0 -65.39 -48.59 -108.97 -121.98 -108.97 c
-73.38 0 -121.97 43.59 -121.97 109.96 c
0 67.36 48.59 110.99 121.97 110.99 c
h
8778.98 26726 m
87.39 0 147.03 -55.8 147.03 -138.49 c
0 -83.68 -59.64 -139.48 -149.02 -139.48 c
-85.41 0 -144.99 56.79 -144.99 139.48 c
0 82.69 59.59 138.49 146.98 138.49 c
h
f
9328.93 27099 m
-65.71 0 -125.44 -29 -162.27 -78.01 c
-45.8 -61.73 -68.69 -156.29 -68.69 -286.67 c
0 -237.87 79.64 -364.27 230.96 -364.27 c
149.33 0 231.05 126.4 231.05 358.3 c
0 137.35 -21.99 228.91 -68.79 292.64 c
-36.83 50.01 -95.57 78.01 -162.27 78.01 c
h
9328.96 27021 m
94.32 0 141.01 -95.57 141.01 -284.54 c
0 -199.91 -45.7 -293.39 -142.99 -293.39 c
-92.34 0 -139 97.46 -139 290.41 c
0 192.95 46.66 287.52 140.98 287.52 c
h
f
9878.93 27099 m
-65.71 0 -125.44 -29 -162.27 -78.01 c
-45.8 -61.73 -68.69 -156.29 -68.69 -286.67 c
0 -237.87 79.64 -364.27 230.96 -364.27 c
149.33 0 231.05 126.4 231.05 358.3 c
0 137.35 -21.99 228.91 -68.79 292.64 c
-36.83 50.01 -95.57 78.01 -162.27 78.01 c
h
9878.96 27021 m
94.32 0 141.01 -95.57 141.01 -284.54 c
0 -199.91 -45.7 -293.39 -142.99 -293.39 c
-92.34 0 -139 97.46 -139 290.41 c
0 192.95 46.66 287.52 140.98 287.52 c
h
f
8208.97 32655.9 0 -502.86 88.02 0 0 706.11 -57.89 0 P
-30.91 -108.64 -50.86 -123.58 -186.48 -140.51 c
0 -62.74 h
f
8774.93 32859 m
-65.71 0 -125.44 -29 -162.27 -78.01 c
-45.8 -61.73 -68.69 -156.29 -68.69 -286.67 c
0 -237.87 79.64 -364.27 230.96 -364.27 c
149.33 0 231.05 126.4 231.05 358.3 c
0 137.35 -21.99 228.91 -68.79 292.64 c
-36.83 50.01 -95.57 78.01 -162.27 78.01 c
h
8774.96 32781 m
94.32 0 141.01 -95.57 141.01 -284.54 c
0 -199.91 -45.7 -293.39 -142.99 -293.39 c
-92.34 0 -139 97.46 -139 290.41 c
0 192.95 46.66 287.52 140.98 287.52 c
h
f
9324.93 32859 m
-65.71 0 -125.44 -29 -162.27 -78.01 c
-45.8 -61.73 -68.69 -156.29 -68.69 -286.67 c
0 -237.87 79.64 -364.27 230.96 -364.27 c
149.33 0 231.05 126.4 231.05 358.3 c
0 137.35 -21.99 228.91 -68.79 292.64 c
-36.83 50.01 -95.57 78.01 -162.27 78.01 c
h
9324.96 32781 m
94.32 0 141.01 -95.57 141.01 -284.54 c
0 -199.91 -45.7 -293.39 -142.99 -293.39 c
-92.34 0 -139 97.46 -139 290.41 c
0 192.95 46.66 287.52 140.98 287.52 c
h
f
9874.93 32859 m
-65.71 0 -125.44 -29 -162.27 -78.01 c
-45.8 -61.73 -68.69 -156.29 -68.69 -286.67 c
0 -237.87 79.64 -364.27 230.96 -364.27 c
149.33 0 231.05 126.4 231.05 358.3 c
0 137.35 -21.99 228.91 -68.79 292.64 c
-36.83 50.01 -95.57 78.01 -162.27 78.01 c
h
9874.96 32781 m
94.32 0 141.01 -95.57 141.01 -284.54 c
0 -199.91 -45.7 -293.39 -142.99 -293.39 c
-92.34 0 -139 97.46 -139 290.41 c
0 192.95 46.66 287.52 140.98 287.52 c
h
f
6970.99 16655 0 394.84 -82.01 0 ^ -230.99 0 0 410.07 -82.02 0 0 -503.08 
726.03 0 0 521.08 -82.01 0 0 -428.07 H
f
7302 17415.9 -521.98 200.25 0 -93.65 423.35 -147.45 -423.35 -139.48 0 -93.65 521.98 183.31 H
f
7069.02 18123 m
-79.72 0 -127.55 -6.05 -166.41 -20.98 c
-85.7 -33.86 -137.59 -113.52 -137.59 -211.11 c
0 -145.38 111.64 -238.98 283 -238.98 c
171.36 0 276.96 90.64 276.96 237.05 c
0 119.52 -67.76 202.19 -181.38 223.13 c
0 -83.62 p
68.59 -22.88 104.37 -69.63 104.37 -136.29 c
0 -52.72 -23.86 -97.49 -67.59 -125.35 c
-29.82 -19.89 -59.65 -26.86 -111.36 -27.85 c
h
7001 17740.5 m
-96.37 6.97 -158.98 65.75 -158.98 149.44 c
0 81.7 67.57 144.46 153.02 144.46 c
1.98 0 3.97 0 5.96 -1 c
h
f
6779.96 18232 522.04 0 0 84.01 -287.71 0 P
-106.52 0 -176.27 55.55 -176.27 140.85 c
0 65.46 39.88 107.13 102.6 107.13 c
361.38 0 0 83.01 -394.52 0 p
-86.68 0 -142.46 -64.62 -142.46 -165.02 c
0 -77.54 29.89 -127.24 102.61 -172.97 c
-87.67 0 h
f
6780.02 18965 0 -84.98 -143.52 0 0 -83.02 ^ 0 -71.04 68.01 0 ^ 
394.32 0 P
52.77 0 82.63 35.78 82.63 100.38 c
0 19.88 -1.99 39.75 -6.98 67.62 c
-69.8 0 p
2.82 -10.88 3.76 -23.73 3.76 -39.54 c
0 -35.57 -9.95 -45.45 -46.75 -45.45 c
-357.18 0 0 84.98 h
f
6925.41 19428.4 m
-102.62 -1 -160.4 -68.71 -160.4 -189.2 c
0 -121.48 62.84 -200.15 159.4 -200.15 c
81.63 0 120.46 41.73 150.32 164.93 c
18.92 77.5 p
13.94 57.63 34.84 80.52 72.67 80.52 c
48.78 0 81.63 -48.73 81.63 -121.32 c
0 -44.75 -12.92 -82.53 -34.79 -103.41 c
-14.9 -12.93 -29.81 -18.89 -66.6 -23.87 c
0 -87.5 p
120.6 3.98 178.39 71.66 178.39 208.02 c
0 131.38 -64.71 215.09 -165.25 215.09 c
-77.66 0 -120.46 -43.75 -145.35 -147.09 c
-18.91 -79.48 p
-15.93 -67.56 -37.83 -96.38 -74.66 -96.38 c
-47.79 0 -78.77 42.75 -78.77 110.37 c
0 66.62 28.79 102.42 83.39 104.41 c
h
f
1 i
35518.4 33413.3 m
-34.7 191.38 -144.75 284.68 -336.12 284.68 c
-117.21 0 -211.71 -37.12 -276.3 -108.81 c
-78.94 -86.04 -122 -210.31 -122 -351.31 c
0 -143.39 44.25 -266.47 126.79 -351.31 c
66.98 -69.31 153.1 -101.57 266.73 -101.57 c
212.91 0 332.52 114.57 358.84 344.98 c
-114.88 0 p
-9.57 -59.71 -21.54 -100.29 -39.5 -134.88 c
-35.89 -71.59 -110.09 -112.16 -203.43 -112.16 c
-173.52 0 -283.61 138.61 -283.61 356.09 c
0 223.46 105.31 361.04 274.04 361.04 c
70.61 0 136.42 -21.56 172.32 -55.08 c
32.31 -29.93 50.26 -67.03 63.42 -131.66 c
h
f
35671 33684 0 -871.98 98.94 0 0 346.09 P
0 128.14 66.98 211.97 169.84 211.97 c
32.3 0 64.59 -10.78 88.52 -28.74 c
28.71 -20.36 40.73 -50.3 40.73 -94.61 c
0 -434.71 98.94 0 0 473.07 p
0 105.13 -75.32 170.94 -197.24 170.94 c
-88.45 0 -142.23 -27.41 -200.8 -103.64 c
0 331.61 h
f
36426 33438 -99.94 0 0 -626 ^ H
36426 33684 -99.94 0 0 -125.98 ^ H
f
37121.9 32915.9 -445.93 0 P
10.76 69.38 49.02 113.63 153.03 174.63 c
119.55 64.59 p
118.36 64.59 179.4 151.9 179.4 255.96 c
0 70.57 -28.77 136.36 -78.98 181.81 c
-50.21 45.45 -112.37 67.07 -192.48 67.07 c
-107.6 0 -187.7 -38.32 -234.32 -110.14 c
-29.89 -45.48 -43.04 -98.15 -45.43 -184.34 c
105.13 0 p
3.58 57.51 10.75 92.26 25.09 119.82 c
27.48 51.52 82.43 82.71 145.75 82.71 c
95.57 0 167.32 -68.3 167.32 -159.2 c
0 -66.98 -39.5 -124.39 -114.77 -167.45 c
-109.91 -62.2 p
-176.8 -100.48 -228.18 -180.61 -237.73 -367.2 c
564.29 0 h
f
38109 33684 -98.94 0 0 -324.43 P
-41.95 63.12 -108.96 96.46 -192.73 96.46 c
-162.75 0 -269.25 -130.21 -269.25 -329.57 c
0 -211.3 103.93 -341.41 272.38 -341.41 c
86.01 0 145.75 32.12 199.6 109.46 c
0 -82.49 88.94 0 h
37834 33363.1 m
107.75 0 176.06 -95.65 176.06 -244.98 c
0 -144.55 -69.51 -240.12 -174.87 -240.12 c
-110.15 0 -183.18 96.76 -183.18 242.51 c
0 145.75 73.03 242.59 181.98 242.59 c
h
f
38356 33438 -99.94 0 0 -626 ^ H
38356 33684 -99.94 0 0 -125.98 ^ H
f
38970.6 33263.9 m
-1.23 122.89 -82.55 192.11 -227.24 192.11 c
-145.89 0 -240.36 -75.28 -240.36 -191.07 c
0 -97.89 50.26 -144.45 198.65 -180.26 c
93.34 -22.68 p
69.41 -16.71 97 -41.78 97 -87.14 c
0 -58.5 -58.62 -97.89 -145.96 -97.89 c
-53.84 0 -99.3 15.48 -124.42 41.7 c
-15.55 17.87 -22.73 35.74 -28.71 79.83 c
-105.28 0 p
4.78 -144.32 86.09 -213.47 249.92 -213.47 c
157.85 0 258.4 77.59 258.4 198.16 c
0 93.12 -52.73 144.45 -177.18 174.29 c
-95.74 22.68 p
-81.37 19.1 -116.07 45.36 -116.07 89.53 c
0 57.3 51.43 94.38 132.76 94.38 c
80.14 0 123.2 -34.59 125.59 -100.16 c
h
f
39350.8 33438 -102.89 0 0 172.6 -98.94 0 ^ -85 0 0 -80.95 ^ 
0 -472.92 P
0 -63.29 42.98 -99.11 120.6 -99.11 c
23.88 0 47.76 2.38 81.23 8.32 c
0 83.21 p
-13.18 -3.44 -28.73 -4.59 -47.87 -4.59 c
-43.05 0 -55.02 11.95 -55.02 56.15 c
0 428.93 102.89 0 h
f
39460.1 33438 0 -625.99 99.94 0 0 325.1 P
0 89.64 22.7 148.21 70.48 182.87 c
31.06 22.71 60.93 29.88 130.25 31.11 c
0 101.34 p
-16.72 2.39 -25.07 3.59 -38.19 3.59 c
-64.4 0 -113.29 -38.33 -170.54 -131.51 c
0 113.49 h
f
39976 33438 -99.94 0 0 -626 ^ H
39976 33684 -99.94 0 0 -125.98 ^ H
f
40132 33684 0 -871.98 89.94 0 0 80.1 P
47.71 -72.58 110.94 -107.07 198.02 -107.07 c
164.62 0 272.06 134.89 272.06 342.61 c
0 202.94 -102.78 328.38 -267.61 328.38 c
-85.99 0 -146.9 -32.17 -193.48 -102.44 c
0 330.41 h
40405.3 33363.1 m
111.08 0 182.78 -96.84 182.78 -246.18 c
0 -142.16 -74.09 -238.93 -182.78 -238.93 c
-105.1 0 -174.37 95.57 -174.37 242.51 c
0 146.94 69.27 242.59 174.37 242.59 c
h
f
41283 32812.5 0 625.53 -98.94 0 0 -354.69 P
0 -127.76 -67.02 -211.34 -171.02 -211.34 c
-78.91 0 -129.12 47.76 -129.12 122.98 c
0 443.05 -98.94 0 0 -482.31 p
0 -103.83 77.55 -170.66 199.26 -170.66 c
91.88 0 150.34 32.22 208.81 114.57 c
0 -87.13 h
f
41670.8 33438 -102.89 0 0 172.6 -98.94 0 ^ -85 0 0 -80.95 ^ 
0 -472.92 P
0 -63.29 42.98 -99.11 120.6 -99.11 c
23.88 0 47.76 2.38 81.23 8.32 c
0 83.21 p
-13.18 -3.44 -28.73 -4.59 -47.87 -4.59 c
-43.05 0 -55.02 11.95 -55.02 56.15 c
0 428.93 102.89 0 h
f
41876 33438 -99.94 0 0 -626 ^ H
41876 33684 -99.94 0 0 -125.98 ^ H
f
42292.2 33456 m
-175.78 0 -282.21 -125.44 -282.21 -335.54 c
0 -210.11 105.23 -335.45 283.4 -335.45 c
175.79 0 283.5 125.34 283.5 330.67 c
0 216.07 -104.12 340.31 -284.69 340.31 c
h
42293.5 33364.1 m
112.49 0 179.53 -91.96 179.53 -247.15 c
0 -146.84 -69.43 -239.95 -179.53 -239.95 c
-111.29 0 -179.5 91.92 -179.5 243.53 c
0 150.41 68.21 243.57 179.5 243.57 c
h
f
42711 33438 0 -625.99 99.94 0 0 345.42 P
0 127.89 67 211.65 169.89 211.65 c
78.96 0 129.25 -47.9 129.25 -123.2 c
0 -433.87 98.94 0 0 473.07 p
0 103.94 -77.71 170.94 -198.31 170.94 c
-93.13 0 -152.84 -35.94 -207.76 -123.15 c
0 105.13 h
f
43930.8 33438 -102.89 0 0 172.6 -98.94 0 ^ -85 0 0 -80.95 ^ 
0 -472.92 P
0 -63.29 42.98 -99.11 120.6 -99.11 c
23.88 0 47.76 2.38 81.23 8.32 c
0 83.21 p
-13.18 -3.44 -28.73 -4.59 -47.87 -4.59 c
-43.05 0 -55.02 11.95 -55.02 56.15 c
0 428.93 102.89 0 h
f
44040.1 33438 0 -625.99 99.94 0 0 325.1 P
0 89.64 22.7 148.21 70.48 182.87 c
31.06 22.71 60.93 29.88 130.25 31.11 c
0 101.34 p
-16.72 2.39 -25.07 3.59 -38.19 3.59 c
-64.4 0 -113.29 -38.33 -170.54 -131.51 c
0 113.49 h
f
44986.6 32870.6 m
-10.82 -1.61 -15.62 -1.61 -21.61 -1.61 c
-34.79 0 -53.99 17.89 -53.99 48.91 c
0 367.41 p
0 110.94 -81.3 170.72 -235.41 170.72 c
-90.8 0 -166.06 -26.27 -207.87 -72.81 c
-28.68 -32.21 -40.62 -68.01 -43.01 -130.05 c
100.43 0 p
8.37 76.33 53.8 110.92 147.05 110.92 c
89.66 0 139.88 -33.49 139.88 -93.18 c
0 -26.26 p
0 -41.79 -25.16 -59.69 -104.09 -69.24 c
-141.11 -17.91 -162.63 -22.68 -200.9 -38.2 c
-72.95 -29.85 -110.01 -85.95 -110.01 -167.13 c
0 -113.41 78.92 -185.03 205.68 -185.03 c
78.92 0 142.3 27.33 212.86 91.53 c
7.18 -63.01 38.27 -91.53 102.84 -91.53 c
20.33 0 35.88 2.37 68.17 10.69 c
h
44812.1 33009.3 m
0 -33.44 -9.64 -53.75 -39.55 -81.21 c
-40.67 -37.02 -89.71 -56.13 -148.32 -56.13 c
-77.75 0 -123.2 37.02 -123.2 100.32 c
0 65.69 44.25 99.13 150.71 114.66 c
105.26 14.33 126.79 19.11 160.36 34.68 c
h
f
45091 33438 0 -625.99 99.94 0 0 345.42 P
0 127.89 67 211.65 169.89 211.65 c
78.96 0 129.25 -47.9 129.25 -123.2 c
0 -433.87 98.94 0 0 473.07 p
0 103.94 -77.71 170.94 -198.31 170.94 c
-93.13 0 -152.84 -35.94 -207.76 -123.15 c
0 105.13 h
f
46190.6 33263.9 m
-1.23 122.89 -82.55 192.11 -227.24 192.11 c
-145.89 0 -240.36 -75.28 -240.36 -191.07 c
0 -97.89 50.26 -144.45 198.65 -180.26 c
93.34 -22.68 p
69.41 -16.71 97 -41.78 97 -87.14 c
0 -58.5 -58.62 -97.89 -145.96 -97.89 c
-53.84 0 -99.3 15.48 -124.42 41.7 c
-15.55 17.87 -22.73 35.74 -28.71 79.83 c
-105.28 0 p
4.78 -144.32 86.09 -213.47 249.92 -213.47 c
157.85 0 258.4 77.59 258.4 198.16 c
0 93.12 -52.73 144.45 -177.18 174.29 c
-95.74 22.68 p
-81.37 19.1 -116.07 45.36 -116.07 89.53 c
0 57.3 51.43 94.38 132.76 94.38 c
80.14 0 123.2 -34.59 125.59 -100.16 c
h
f
46332 32551.4 99.94 0 0 326.59 P
52.57 -64.35 111.13 -92.94 192.38 -92.94 c
161.32 0 267.71 130.12 267.71 329.48 c
0 210.1 -102.7 341.51 -268.68 341.51 c
-84.77 0 -152.84 -38.31 -199.4 -112.39 c
0 94.4 -91.94 0 h
46606.4 33363.1 m
109.93 0 181.7 -96.84 181.7 -246.18 c
0 -142.16 -72.96 -238.93 -181.7 -238.93 c
-105.16 0 -174.46 95.57 -174.46 242.51 c
0 146.94 69.3 242.59 174.46 242.59 c
h
f
47252.2 33456 m
-175.78 0 -282.21 -125.44 -282.21 -335.54 c
0 -210.11 105.23 -335.45 283.4 -335.45 c
175.79 0 283.5 125.34 283.5 330.67 c
0 216.07 -104.12 340.31 -284.69 340.31 c
h
47253.5 33364.1 m
112.49 0 179.53 -91.96 179.53 -247.15 c
0 -146.84 -69.43 -239.95 -179.53 -239.95 c
-111.29 0 -179.5 91.92 -179.5 243.53 c
0 150.41 68.21 243.57 179.5 243.57 c
h
f
47669.1 32812 99.9414 871.98 re
f
48281 33438 0 -625.99 99.94 0 0 393.23 P
0 90.84 65.75 163.84 147.05 163.84 c
74.12 0 116 -45.51 116 -125.59 c
0 -431.48 99.94 0 0 393.23 p
0 90.84 66.01 163.84 147.62 163.84 c
73.21 0 116.44 -46.71 116.44 -125.59 c
0 -431.48 99.94 0 0 469.49 p
0 112.3 -64.63 174.52 -181.73 174.52 c
-83.65 0 -133.84 -25.01 -192.39 -95.27 c
-37.04 66.69 -87.23 95.27 -168.49 95.27 c
-83.64 0 -138.61 -31.16 -192.38 -106.43 c
0 88.4 h
f
49376 33438 -99.94 0 0 -626 ^ H
49376 33684 -99.94 0 0 -125.98 ^ H
f
49551 33438 0 -625.99 99.94 0 0 345.42 P
0 127.89 67 211.65 169.89 211.65 c
78.96 0 129.25 -47.9 129.25 -123.2 c
0 -433.87 98.94 0 0 473.07 p
0 103.94 -77.71 170.94 -198.31 170.94 c
-93.13 0 -152.84 -35.94 -207.76 -123.15 c
0 105.13 h
f
50693 32812.5 0 625.53 -98.94 0 0 -354.69 P
0 -127.76 -67.02 -211.34 -171.02 -211.34 c
-78.91 0 -129.12 47.76 -129.12 122.98 c
0 443.05 -98.94 0 0 -482.31 p
0 -103.83 77.55 -170.66 199.26 -170.66 c
91.88 0 150.34 32.22 208.81 114.57 c
0 -87.13 h
f
51300.6 33263.9 m
-1.23 122.89 -82.55 192.11 -227.24 192.11 c
-145.89 0 -240.36 -75.28 -240.36 -191.07 c
0 -97.89 50.26 -144.45 198.65 -180.26 c
93.34 -22.68 p
69.41 -16.71 97 -41.78 97 -87.14 c
0 -58.5 -58.62 -97.89 -145.96 -97.89 c
-53.84 0 -99.3 15.48 -124.42 41.7 c
-15.55 17.87 -22.73 35.74 -28.71 79.83 c
-105.28 0 p
4.78 -144.32 86.09 -213.47 249.92 -213.47 c
157.85 0 258.4 77.59 258.4 198.16 c
0 93.12 -52.73 144.45 -177.18 174.29 c
-95.74 22.68 p
-81.37 19.1 -116.07 45.36 -116.07 89.53 c
0 57.3 51.43 94.38 132.76 94.38 c
80.14 0 123.2 -34.59 125.59 -100.16 c
h
f
65226.1 30468 393.04 0 P
82.43 0 143.35 22.72 189.95 72.96 c
43.01 45.45 66.9 107.64 66.9 175.83 c
0 105.26 -47.89 168.65 -159.15 211.71 c
78.48 37.08 120.12 101.66 120.12 190.18 c
0 63.39 -23.95 119.61 -69.29 160.27 c
-45.32 41.87 -104.97 61.03 -188.48 61.03 c
-353.09 0 h
65337 30964 0 278.07 214.77 0 P
62.04 0 96.64 -8.43 126.48 -31.2 c
31.02 -23.97 47.74 -59.92 47.74 -107.86 c
0 -46.74 -16.72 -83.89 -47.74 -107.86 c
-29.83 -22.77 -64.43 -31.16 -126.48 -31.16 c
h
65337 30565.9 0 300.09 271.38 0 P
53.8 0 89.66 -13.17 115.96 -41.86 c
26.3 -27.5 40.68 -65.75 40.68 -108.79 c
0 -41.84 -14.37 -80.1 -40.68 -107.6 c
-26.3 -28.69 -62.17 -41.84 -115.96 -41.84 c
h
f
66110 31094 -99.94 0 0 -626 ^ H
66110 31340 -99.94 0 0 -125.98 ^ H
f
66285 31094 0 -625.99 99.94 0 0 345.42 P
0 127.89 67 211.65 169.89 211.65 c
78.96 0 129.25 -47.9 129.25 -123.2 c
0 -433.87 98.94 0 0 473.07 p
0 103.94 -77.71 170.94 -198.31 170.94 c
-93.13 0 -152.84 -35.94 -207.76 -123.15 c
0 105.13 h
f
67116.9 30591.9 -123.92 0 0 -123.92 ^ H
67116.9 31094 -123.92 0 0 -123.92 ^ H
f
67992.1 30671 0 -202.97 104.94 0 ^ 125.68 0 0 94.94 ^ 0 550.09 
-77.75 0 -384.77 -533.74 0 -111.29 H
67992.1 30765.9 -265.52 0 265.52 370.38 H
f
68356.1 30468 393.04 0 P
82.43 0 143.35 22.72 189.95 72.96 c
43.01 45.45 66.9 107.64 66.9 175.83 c
0 105.26 -47.89 168.65 -159.15 211.71 c
78.48 37.08 120.12 101.66 120.12 190.18 c
0 63.39 -23.95 119.61 -69.29 160.27 c
-45.32 41.87 -104.97 61.03 -188.48 61.03 c
-353.09 0 h
68467 30964 0 278.07 214.77 0 P
62.04 0 96.64 -8.43 126.48 -31.2 c
31.02 -23.97 47.74 -59.92 47.74 -107.86 c
0 -46.74 -16.72 -83.89 -47.74 -107.86 c
-29.83 -22.77 -64.43 -31.16 -126.48 -31.16 c
h
68467 30565.9 0 300.09 271.38 0 P
53.8 0 89.66 -13.17 115.96 -41.86 c
26.3 -27.5 40.68 -65.75 40.68 -108.79 c
0 -41.84 -14.37 -80.1 -40.68 -107.6 c
-26.3 -28.69 -62.17 -41.84 -115.96 -41.84 c
h
f
69240 31094 -99.94 0 0 -626 ^ H
69240 31340 -99.94 0 0 -125.98 ^ H
f
69415 31094 0 -625.99 99.94 0 0 345.42 P
0 127.89 67 211.65 169.89 211.65 c
78.96 0 129.25 -47.9 129.25 -123.2 c
0 -433.87 98.94 0 0 473.07 p
0 103.94 -77.71 170.94 -198.31 170.94 c
-93.13 0 -152.84 -35.94 -207.76 -123.15 c
0 105.13 h
f
70301 31071.6 0 -603.59 104.93 0 0 847.47 -69.36 0 P
-37.07 -130.34 -60.98 -148.27 -223.61 -168.59 c
0 -75.3 h
f
65303 29215.3 m
29.85 -27.55 74.04 -38.33 114.63 -38.33 c
76.42 0 128.96 51.45 156.43 88.54 c
11.98 -63.42 62.29 -88.54 104.21 -88.54 c
35.93 0 64.68 21.52 86.25 64.57 c
19.16 40.66 35.99 113.6 35.99 118.38 c
0 5.98 -4.82 10.79 -12 10.79 c
-10.76 0 -11.96 -5.98 -16.74 -23.91 c
-17.94 -70.54 -40.66 -145.85 -89.69 -145.85 c
-34.67 0 -37.06 31.06 -37.06 54.95 c
0 27.48 10.76 70.48 19.14 106.32 c
10.77 43 22.73 86.02 33.5 129.02 c
4.79 22.7 17.95 76.46 23.93 97.96 c
7.18 28.67 20.34 80.04 20.34 84.82 c
0 17.92 -14.38 29.94 -32.32 29.94 c
-10.77 0 -35.89 -4.85 -45.45 -40.69 c
-83.73 -332.11 p
-5.98 -23.89 -5.98 -26.28 -21.53 -45.39 c
-14.35 -20.31 -61 -84.82 -136.36 -84.82 c
-66.98 0 -88.51 48.99 -88.51 105.15 c
0 34.65 10.78 76.48 15.58 96.79 c
53.93 215.09 p
5.99 22.71 15.6 60.95 15.6 68.11 c
0 19.12 -15.54 29.9 -31.09 29.9 c
-10.76 0 -37.06 -3.75 -46.62 -41.98 c
-173.35 -691.87 p
-1.2 -5.97 -3.59 -13.14 -3.59 -20.32 c
0 -17.92 14.33 -29.87 32.24 -29.87 c
34.63 0 41.79 27.5 50.15 60.97 c
13.14 50.21 5.97 26.3 56.12 222.37 c
h
f
66977.7 29576 m
16.73 0 38.28 0 38.28 21.38 c
0 22.59 -20.36 22.59 -38.28 22.59 c
-703.99 0 p
-16.74 0 -38.25 0 -38.25 -21.4 c
0 -22.57 20.31 -22.57 38.25 -22.57 c
h
66977.7 29354 m
16.73 0 38.28 0 38.28 21.39 c
0 22.59 -20.36 22.59 -38.28 22.59 c
-703.99 0 p
-16.74 0 -38.25 0 -38.25 -21.39 c
0 -22.58 20.31 -22.58 38.25 -22.58 c
h
f
67842.9 29967.2 m
0 22.73 0 28.72 -16.8 28.72 c
-9.57 0 -13.16 0 -22.73 -14.37 c
-360.11 -558.58 0 -34.98 314.42 0 0 -108.2 p
0 -43.99 -2.39 -55.87 -89.66 -55.87 c
-23.91 0 0 -34.98 p
27.5 2.39 121.95 2.39 155.42 2.39 c
33.48 0 129.12 0 156.61 -2.39 c
0 34.98 -23.85 0 p
-85.81 0 -89.38 11.89 -89.38 55.88 c
0 108.2 120.4 0 0 34.98 ^ h
67764 29874 0 -451 -290.81 0 H
f
68220.9 29246.4 m
0 34.65 -28.7 58.57 -57.38 58.57 c
-34.65 0 -58.55 -28.7 -58.55 -57.38 c
0 -34.65 28.68 -58.55 57.36 -58.55 c
34.65 0 58.57 28.68 58.57 57.36 c
h
f
68867 29571.5 m
0 99.2 -6.01 196.02 -49.08 286.85 c
-49.05 99.21 -135.19 125.63 -193.82 125.63 c
-69.39 0 -154.33 -34.79 -198.6 -133.99 c
-33.5 -75.3 -45.46 -149.41 -45.46 -278.49 c
0 -115.94 8.38 -203.19 51.45 -288.05 c
46.66 -90.84 129.21 -119.52 191.42 -119.52 c
104.09 0 163.9 62.15 198.6 131.47 c
43.07 89.64 45.49 206.77 45.49 276.1 c
h
68622.9 29188 m
-38.27 0 -116.02 21.51 -138.75 151.76 c
-13.15 71.69 -13.15 162.51 -13.15 246.16 c
0 97.98 0 186.41 19.14 256.91 c
20.33 80.06 81.33 117.26 132.76 117.26 c
45.45 0 114.83 -27.64 137.55 -130.41 c
15.62 -68.11 15.62 -162.51 15.62 -243.76 c
0 -80.06 0 -170.87 -13.23 -243.77 c
-22.72 -131.44 -98.08 -154.14 -139.95 -154.14 c
h
f
69488.9 29931.3 0 27.61 -288.12 0 P
-144.66 0 -147.05 15.48 -151.83 38.11 c
-26.3 0 -37.06 -238.95 26.3 0 p
3.59 21.5 14.35 95.57 29.89 108.71 c
9.57 7.19 99.23 7.19 115.96 7.19 c
253.45 0 -126.44 -181.71 p
-32.2 -46.62 -152.65 -242.63 -152.65 -467.34 c
0 -13.14 0 -60.95 48.87 -60.95 c
50.07 0 50.07 46.61 50.07 62.15 c
0 59.76 p
0 178.09 28.65 316.74 84.76 396.81 c
h
f
69615 29312.9 0 -123.92 71.95 0 0 -21.64 P
0 -82.92 -15.6 -106.95 -71.95 -109.35 c
0 -44.97 p
83.93 0 125.92 53.75 125.92 156.5 c
0 143.39 h
f
70768.3 29639 m
15.54 0 54.99 0 54.99 38.49 c
0 26.47 -22.84 26.47 -44.33 26.47 c
-263.89 0 p
-179.11 0 -308.07 -199.59 -308.07 -340.59 c
0 -101.57 65.66 -186.41 173.09 -186.41 c
140.87 0 294.87 151.61 294.87 330.68 c
0 46.55 -10.74 91.92 -39.38 131.37 c
h
70381 29201 m
-60.87 0 -105.02 46.54 -105.02 128.89 c
0 71.61 42.96 309.16 218.4 309.16 c
51.32 0 108.65 -25.12 108.65 -117.01 c
0 -41.77 -19.13 -142.02 -60.91 -211.25 c
-42.96 -70.41 -107.41 -109.79 -161.12 -109.79 c
h
f
72007.7 29576 m
16.73 0 38.28 0 38.28 21.38 c
0 22.59 -20.36 22.59 -38.28 22.59 c
-703.99 0 p
-16.74 0 -38.25 0 -38.25 -21.4 c
0 -22.57 20.31 -22.57 38.25 -22.57 c
h
72007.7 29354 m
16.73 0 38.28 0 38.28 21.39 c
0 22.59 -20.36 22.59 -38.28 22.59 c
-703.99 0 p
-16.74 0 -38.25 0 -38.25 -21.39 c
0 -22.58 20.31 -22.58 38.25 -22.58 c
h
f
72661.2 29618.4 m
-20.37 -1.2 -25.16 -2.41 -25.16 -13.28 c
0 -12.07 5.99 -12.07 27.55 -12.07 c
55.1 0 p
101.82 0 147.37 -83.76 147.37 -198.56 c
0 -156.65 -81.49 -198.5 -140.16 -198.5 c
-57.47 0 -155.64 27.67 -190.36 107.08 c
38.31 -6.43 73.04 15.12 73.04 58.23 c
0 34.73 -25.14 58.7 -58.67 58.7 c
-28.73 0 -59.86 -16.77 -59.86 -62.23 c
0 -106.45 106.48 -193.77 239.28 -193.77 c
142.37 0 247.67 108.77 247.67 229.48 c
0 109.96 -88.61 196.01 -203.52 216.33 c
104.14 29.88 171.17 117.13 171.17 210.36 c
0 94.42 -98.16 163.88 -214.26 163.88 c
-119.7 0 -208.27 -73.08 -208.27 -160.48 c
0 -47.89 37.1 -57.47 55.06 -57.47 c
25.13 0 53.87 17.95 53.87 53.86 c
0 38.3 -28.67 55.07 -54.94 55.07 c
-7.16 0 -9.55 0 -13.13 0 c
45.52 80.04 158.12 80.04 164.11 80.04 c
39.53 0 117.39 -17.97 117.39 -134.93 c
0 -22.68 -3.59 -89.51 -38.33 -140.83 c
-35.94 -52.52 -76.66 -56.1 -109 -57.29 c
h
f
73250.9 29246.4 m
0 34.65 -28.7 58.57 -57.38 58.57 c
-34.65 0 -58.55 -28.7 -58.55 -57.38 c
0 -34.65 28.68 -58.55 57.36 -58.55 c
34.65 0 58.57 28.68 58.57 57.36 c
h
f
73799 29536.8 m
0 -282.28 -125.71 -340.89 -197.53 -340.89 c
-28.73 0 -92.17 3.63 -122.09 46.03 c
7.18 0 p
8.38 -2.77 51.47 4.43 51.47 48.78 c
0 26.37 -17.95 49.16 -49.07 49.16 c
-31.12 0 -50.27 -20.38 -50.27 -51.49 c
0 -74.2 59.82 -124.46 163.91 -124.46 c
149.55 0 294.35 158.96 294.35 418.33 c
0 321.52 -134.08 401.72 -239.34 401.72 c
-131.57 0 -247.59 -110.05 -247.59 -267.78 c
0 -157.73 111.29 -265.27 230.96 -265.27 c
88.55 0 134.03 64.48 158.03 125.38 c
h
73645.5 29475 m
-75.34 0 -107.62 60.9 -118.39 83.58 c
-19.13 45.38 -19.13 102.69 -19.13 156.42 c
0 66.87 0 124.18 31.09 173.14 c
21.52 32.24 53.81 66.95 118.38 66.95 c
68.16 0 102.84 -59.78 114.8 -87.24 c
23.92 -58.51 23.92 -160 23.92 -177.92 c
0 -100.3 -45.45 -214.93 -150.68 -214.93 c
h
f
74518.9 29931.3 0 27.61 -288.12 0 P
-144.66 0 -147.05 15.48 -151.83 38.11 c
-26.3 0 -37.06 -238.95 26.3 0 p
3.59 21.5 14.35 95.57 29.89 108.71 c
9.57 7.19 99.23 7.19 115.96 7.19 c
253.45 0 -126.44 -181.71 p
-32.2 -46.62 -152.65 -242.63 -152.65 -467.34 c
0 -13.14 0 -60.95 48.87 -60.95 c
50.07 0 50.07 46.61 50.07 62.15 c
0 59.76 p
0 178.09 28.65 316.74 84.76 396.81 c
h
f
65226.1 27485 393.04 0 P
82.43 0 143.35 22.72 189.95 72.96 c
43.01 45.45 66.9 107.64 66.9 175.83 c
0 105.26 -47.89 168.65 -159.15 211.71 c
78.48 37.08 120.12 101.66 120.12 190.18 c
0 63.39 -23.95 119.61 -69.29 160.27 c
-45.32 41.87 -104.97 61.03 -188.48 61.03 c
-353.09 0 h
65337 27981 0 278.07 214.77 0 P
62.04 0 96.64 -8.43 126.48 -31.2 c
31.02 -23.97 47.74 -59.92 47.74 -107.86 c
0 -46.74 -16.72 -83.89 -47.74 -107.86 c
-29.83 -22.77 -64.43 -31.16 -126.48 -31.16 c
h
65337 27582.9 0 300.09 271.38 0 P
53.8 0 89.66 -13.17 115.96 -41.86 c
26.3 -27.5 40.68 -65.75 40.68 -108.79 c
0 -41.84 -14.37 -80.1 -40.68 -107.6 c
-26.3 -28.69 -62.17 -41.84 -115.96 -41.84 c
h
f
66110 28111 -99.94 0 0 -626 ^ H
66110 28357 -99.94 0 0 -125.98 ^ H
f
66285 28111 0 -625.99 99.94 0 0 345.42 P
0 127.89 67 211.65 169.89 211.65 c
78.96 0 129.25 -47.9 129.25 -123.2 c
0 -433.87 98.94 0 0 473.07 p
0 103.94 -77.71 170.94 -198.31 170.94 c
-93.13 0 -152.84 -35.94 -207.76 -123.15 c
0 105.13 h
f
67116.9 27608.9 -123.92 0 0 -123.92 ^ H
67116.9 28111 -123.92 0 0 -123.92 ^ H
f
67992.1 27688 0 -202.97 104.94 0 ^ 125.68 0 0 94.94 ^ 0 550.09 
-77.75 0 -384.77 -533.74 0 -111.29 H
67992.1 27782.9 -265.52 0 265.52 370.38 H
f
68356.1 27485 393.04 0 P
82.43 0 143.35 22.72 189.95 72.96 c
43.01 45.45 66.9 107.64 66.9 175.83 c
0 105.26 -47.89 168.65 -159.15 211.71 c
78.48 37.08 120.12 101.66 120.12 190.18 c
0 63.39 -23.95 119.61 -69.29 160.27 c
-45.32 41.87 -104.97 61.03 -188.48 61.03 c
-353.09 0 h
68467 27981 0 278.07 214.77 0 P
62.04 0 96.64 -8.43 126.48 -31.2 c
31.02 -23.97 47.74 -59.92 47.74 -107.86 c
0 -46.74 -16.72 -83.89 -47.74 -107.86 c
-29.83 -22.77 -64.43 -31.16 -126.48 -31.16 c
h
68467 27582.9 0 300.09 271.38 0 P
53.8 0 89.66 -13.17 115.96 -41.86 c
26.3 -27.5 40.68 -65.75 40.68 -108.79 c
0 -41.84 -14.37 -80.1 -40.68 -107.6 c
-26.3 -28.69 -62.17 -41.84 -115.96 -41.84 c
h
f
69240 28111 -99.94 0 0 -626 ^ H
69240 28357 -99.94 0 0 -125.98 ^ H
f
69415 28111 0 -625.99 99.94 0 0 345.42 P
0 127.89 67 211.65 169.89 211.65 c
78.96 0 129.25 -47.9 129.25 -123.2 c
0 -433.87 98.94 0 0 473.07 p
0 103.94 -77.71 170.94 -198.31 170.94 c
-93.13 0 -152.84 -35.94 -207.76 -123.15 c
0 105.13 h
f
70595.9 27588.9 -445.93 0 P
10.76 69.38 49.02 113.63 153.03 174.63 c
119.55 64.59 p
118.36 64.59 179.4 151.9 179.4 255.96 c
0 70.57 -28.77 136.36 -78.98 181.81 c
-50.21 45.45 -112.37 67.07 -192.48 67.07 c
-107.6 0 -187.7 -38.32 -234.32 -110.14 c
-29.89 -45.48 -43.04 -98.15 -45.43 -184.34 c
105.13 0 p
3.58 57.51 10.75 92.26 25.09 119.82 c
27.48 51.52 82.43 82.71 145.75 82.71 c
95.57 0 167.32 -68.3 167.32 -159.2 c
0 -66.98 -39.5 -124.39 -114.77 -167.45 c
-109.91 -62.2 p
-176.8 -100.48 -228.18 -180.61 -237.73 -367.2 c
564.29 0 h
f
65303 26232.3 m
29.85 -27.55 74.04 -38.33 114.63 -38.33 c
76.42 0 128.96 51.45 156.43 88.54 c
11.98 -63.42 62.29 -88.54 104.21 -88.54 c
35.93 0 64.68 21.52 86.25 64.57 c
19.16 40.66 35.99 113.6 35.99 118.38 c
0 5.98 -4.82 10.79 -12 10.79 c
-10.76 0 -11.96 -5.98 -16.74 -23.91 c
-17.94 -70.54 -40.66 -145.85 -89.69 -145.85 c
-34.67 0 -37.06 31.06 -37.06 54.95 c
0 27.48 10.76 70.48 19.14 106.32 c
10.77 43 22.73 86.02 33.5 129.02 c
4.79 22.7 17.95 76.46 23.93 97.96 c
7.18 28.67 20.34 80.04 20.34 84.82 c
0 17.92 -14.38 29.94 -32.32 29.94 c
-10.77 0 -35.89 -4.85 -45.45 -40.69 c
-83.73 -332.11 p
-5.98 -23.89 -5.98 -26.28 -21.53 -45.39 c
-14.35 -20.31 -61 -84.82 -136.36 -84.82 c
-66.98 0 -88.51 48.99 -88.51 105.15 c
0 34.65 10.78 76.48 15.58 96.79 c
53.93 215.09 p
5.99 22.71 15.6 60.95 15.6 68.11 c
0 19.12 -15.54 29.9 -31.09 29.9 c
-10.76 0 -37.06 -3.75 -46.62 -41.98 c
-173.35 -691.87 p
-1.2 -5.97 -3.59 -13.14 -3.59 -20.32 c
0 -17.92 14.33 -29.87 32.24 -29.87 c
34.63 0 41.79 27.5 50.15 60.97 c
13.14 50.21 5.97 26.3 56.12 222.37 c
h
f
66977.7 26593 m
16.73 0 38.28 0 38.28 21.38 c
0 22.59 -20.36 22.59 -38.28 22.59 c
-703.99 0 p
-16.74 0 -38.25 0 -38.25 -21.4 c
0 -22.57 20.31 -22.57 38.25 -22.57 c
h
66977.7 26371 m
16.73 0 38.28 0 38.28 21.39 c
0 22.59 -20.36 22.59 -38.28 22.59 c
-703.99 0 p
-16.74 0 -38.25 0 -38.25 -21.39 c
0 -22.58 20.31 -22.58 38.25 -22.58 c
h
f
67842.9 26984.2 m
0 22.73 0 28.72 -16.8 28.72 c
-9.57 0 -13.16 0 -22.73 -14.37 c
-360.11 -558.58 0 -34.98 314.42 0 0 -108.2 p
0 -43.99 -2.39 -55.87 -89.66 -55.87 c
-23.91 0 0 -34.98 p
27.5 2.39 121.95 2.39 155.42 2.39 c
33.48 0 129.12 0 156.61 -2.39 c
0 34.98 -23.85 0 p
-85.81 0 -89.38 11.89 -89.38 55.88 c
0 108.2 120.4 0 0 34.98 ^ h
67764 26891 0 -451 -290.81 0 H
f
68220.9 26263.4 m
0 34.65 -28.7 58.57 -57.38 58.57 c
-34.65 0 -58.55 -28.7 -58.55 -57.38 c
0 -34.65 28.68 -58.55 57.36 -58.55 c
34.65 0 58.57 28.68 58.57 57.36 c
h
f
68675.9 26972.3 m
0 27.48 0 28.74 -24 28.74 c
-28.77 -32.09 -88.68 -76.07 -212.12 -76.07 c
0 -34.98 p
27.52 0 87.36 0 153.18 30.95 c
0 -622.59 p
0 -43.02 -3.6 -57.36 -108.91 -57.36 c
-37.09 0 0 -34.98 p
32.28 2.39 148.25 2.39 187.7 2.39 c
39.45 0 154.22 0 186.5 -2.39 c
0 34.98 -36.94 0 p
-104.74 0 -108.31 14.34 -108.31 57.36 c
h
f
69488.9 26948.3 0 27.61 -288.12 0 P
-144.66 0 -147.05 15.48 -151.83 38.11 c
-26.3 0 -37.06 -238.95 26.3 0 p
3.59 21.5 14.35 95.57 29.89 108.71 c
9.57 7.19 99.23 7.19 115.96 7.19 c
253.45 0 -126.44 -181.71 p
-32.2 -46.62 -152.65 -242.63 -152.65 -467.34 c
0 -13.14 0 -60.95 48.87 -60.95 c
50.07 0 50.07 46.61 50.07 62.15 c
0 59.76 p
0 178.09 28.65 316.74 84.76 396.81 c
h
f
69615 26329.9 0 -123.92 71.95 0 0 -21.64 P
0 -82.92 -15.6 -106.95 -71.95 -109.35 c
0 -44.97 p
83.93 0 125.92 53.75 125.92 156.5 c
0 143.39 h
f
70768.3 26656 m
15.54 0 54.99 0 54.99 38.49 c
0 26.47 -22.84 26.47 -44.33 26.47 c
-263.89 0 p
-179.11 0 -308.07 -199.59 -308.07 -340.59 c
0 -101.57 65.66 -186.41 173.09 -186.41 c
140.87 0 294.87 151.61 294.87 330.68 c
0 46.55 -10.74 91.92 -39.38 131.37 c
h
70381 26218 m
-60.87 0 -105.02 46.54 -105.02 128.89 c
0 71.61 42.96 309.16 218.4 309.16 c
51.32 0 108.65 -25.12 108.65 -117.01 c
0 -41.77 -19.13 -142.02 -60.91 -211.25 c
-42.96 -70.41 -107.41 -109.79 -161.12 -109.79 c
h
f
72007.7 26593 m
16.73 0 38.28 0 38.28 21.38 c
0 22.59 -20.36 22.59 -38.28 22.59 c
-703.99 0 p
-16.74 0 -38.25 0 -38.25 -21.4 c
0 -22.57 20.31 -22.57 38.25 -22.57 c
h
72007.7 26371 m
16.73 0 38.28 0 38.28 21.39 c
0 22.59 -20.36 22.59 -38.28 22.59 c
-703.99 0 p
-16.74 0 -38.25 0 -38.25 -21.39 c
0 -22.58 20.31 -22.58 38.25 -22.58 c
h
f
72872.9 26984.2 m
0 22.73 0 28.72 -16.8 28.72 c
-9.57 0 -13.16 0 -22.73 -14.37 c
-360.11 -558.58 0 -34.98 314.42 0 0 -108.2 p
0 -43.99 -2.39 -55.87 -89.66 -55.87 c
-23.91 0 0 -34.98 p
27.5 2.39 121.95 2.39 155.42 2.39 c
33.48 0 129.12 0 156.61 -2.39 c
0 34.98 -23.85 0 p
-85.81 0 -89.38 11.89 -89.38 55.88 c
0 108.2 120.4 0 0 34.98 ^ h
72794 26891 0 -451 -290.81 0 H
f
73250.9 26263.4 m
0 34.65 -28.7 58.57 -57.38 58.57 c
-34.65 0 -58.55 -28.7 -58.55 -57.38 c
0 -34.65 28.68 -58.55 57.36 -58.55 c
34.65 0 58.57 28.68 58.57 57.36 c
h
f
73705.9 26972.3 m
0 27.48 0 28.74 -24 28.74 c
-28.77 -32.09 -88.68 -76.07 -212.12 -76.07 c
0 -34.98 p
27.52 0 87.36 0 153.18 30.95 c
0 -622.59 p
0 -43.02 -3.6 -57.36 -108.91 -57.36 c
-37.09 0 0 -34.98 p
32.28 2.39 148.25 2.39 187.7 2.39 c
39.45 0 154.22 0 186.5 -2.39 c
0 34.98 -36.94 0 p
-104.74 0 -108.31 14.34 -108.31 57.36 c
h
f
74518.9 26948.3 0 27.61 -288.12 0 P
-144.66 0 -147.05 15.48 -151.83 38.11 c
-26.3 0 -37.06 -238.95 26.3 0 p
3.59 21.5 14.35 95.57 29.89 108.71 c
9.57 7.19 99.23 7.19 115.96 7.19 c
253.45 0 -126.44 -181.71 p
-32.2 -46.62 -152.65 -242.63 -152.65 -467.34 c
0 -13.14 0 -60.95 48.87 -60.95 c
50.07 0 50.07 46.61 50.07 62.15 c
0 59.76 p
0 178.09 28.65 316.74 84.76 396.81 c
h
f
65226.1 24500 393.04 0 P
82.43 0 143.35 22.72 189.95 72.96 c
43.01 45.45 66.9 107.64 66.9 175.83 c
0 105.26 -47.89 168.65 -159.15 211.71 c
78.48 37.08 120.12 101.66 120.12 190.18 c
0 63.39 -23.95 119.61 -69.29 160.27 c
-45.32 41.87 -104.97 61.03 -188.48 61.03 c
-353.09 0 h
65337 24996 0 278.07 214.77 0 P
62.04 0 96.64 -8.43 126.48 -31.2 c
31.02 -23.97 47.74 -59.92 47.74 -107.86 c
0 -46.74 -16.72 -83.89 -47.74 -107.86 c
-29.83 -22.77 -64.43 -31.16 -126.48 -31.16 c
h
65337 24597.9 0 300.09 271.38 0 P
53.8 0 89.66 -13.17 115.96 -41.86 c
26.3 -27.5 40.68 -65.75 40.68 -108.79 c
0 -41.84 -14.37 -80.1 -40.68 -107.6 c
-26.3 -28.69 -62.17 -41.84 -115.96 -41.84 c
h
f
66110 25126 -99.94 0 0 -626 ^ H
66110 25372 -99.94 0 0 -125.98 ^ H
f
66285 25126 0 -625.99 99.94 0 0 345.42 P
0 127.89 67 211.65 169.89 211.65 c
78.96 0 129.25 -47.9 129.25 -123.2 c
0 -433.87 98.94 0 0 473.07 p
0 103.94 -77.71 170.94 -198.31 170.94 c
-93.13 0 -152.84 -35.94 -207.76 -123.15 c
0 105.13 h
f
67116.9 24623.9 -123.92 0 0 -123.92 ^ H
67116.9 25126 -123.92 0 0 -123.92 ^ H
f
67992.1 24703 0 -202.97 104.94 0 ^ 125.68 0 0 94.94 ^ 0 550.09 
-77.75 0 -384.77 -533.74 0 -111.29 H
67992.1 24797.9 -265.52 0 265.52 370.38 H
f
68356.1 24500 393.04 0 P
82.43 0 143.35 22.72 189.95 72.96 c
43.01 45.45 66.9 107.64 66.9 175.83 c
0 105.26 -47.89 168.65 -159.15 211.71 c
78.48 37.08 120.12 101.66 120.12 190.18 c
0 63.39 -23.95 119.61 -69.29 160.27 c
-45.32 41.87 -104.97 61.03 -188.48 61.03 c
-353.09 0 h
68467 24996 0 278.07 214.77 0 P
62.04 0 96.64 -8.43 126.48 -31.2 c
31.02 -23.97 47.74 -59.92 47.74 -107.86 c
0 -46.74 -16.72 -83.89 -47.74 -107.86 c
-29.83 -22.77 -64.43 -31.16 -126.48 -31.16 c
h
68467 24597.9 0 300.09 271.38 0 P
53.8 0 89.66 -13.17 115.96 -41.86 c
26.3 -27.5 40.68 -65.75 40.68 -108.79 c
0 -41.84 -14.37 -80.1 -40.68 -107.6 c
-26.3 -28.69 -62.17 -41.84 -115.96 -41.84 c
h
f
69240 25126 -99.94 0 0 -626 ^ H
69240 25372 -99.94 0 0 -125.98 ^ H
f
69415 25126 0 -625.99 99.94 0 0 345.42 P
0 127.89 67 211.65 169.89 211.65 c
78.96 0 129.25 -47.9 129.25 -123.2 c
0 -433.87 98.94 0 0 473.07 p
0 103.94 -77.71 170.94 -198.31 170.94 c
-93.13 0 -152.84 -35.94 -207.76 -123.15 c
0 105.13 h
f
70255.2 24888 57.31 0 P
115.82 0 175.55 -52.35 175.55 -153.34 c
0 -105.75 -65.78 -168.73 -175.69 -168.73 c
-114.68 0 -170.83 57.32 -178 180.31 c
-105.12 0 p
4.78 -68.02 16.73 -112.17 37.06 -150.36 c
43.04 -81.14 126.73 -122.89 242.69 -122.89 c
174.55 0 287 103.98 287 264.14 c
0 107.57 -41.87 167.33 -143.54 201.99 c
79 31.08 118.51 90.84 118.51 175.7 c
0 145.82 -96.88 233.14 -258.32 233.14 c
-171 0 -261.88 -93.41 -265.47 -274.15 c
105.16 0 p
1.19 51.53 5.97 80.29 19.12 106.66 c
23.9 46.74 76.48 75.55 142.2 75.55 c
93.2 0 149.38 -55.16 149.38 -145.05 c
0 -59.92 -21.52 -95.87 -68.1 -115.05 c
-28.66 -11.98 -65.69 -16.78 -139.73 -17.97 c
h
f
65303 23259.3 m
29.85 -27.55 74.04 -38.33 114.63 -38.33 c
76.42 0 128.96 51.45 156.43 88.54 c
11.98 -63.42 62.29 -88.54 104.21 -88.54 c
35.93 0 64.68 21.52 86.25 64.57 c
19.16 40.66 35.99 113.6 35.99 118.38 c
0 5.98 -4.82 10.79 -12 10.79 c
-10.76 0 -11.96 -5.98 -16.74 -23.91 c
-17.94 -70.54 -40.66 -145.85 -89.69 -145.85 c
-34.67 0 -37.06 31.06 -37.06 54.95 c
0 27.48 10.76 70.48 19.14 106.32 c
10.77 43 22.73 86.02 33.5 129.02 c
4.79 22.7 17.95 76.46 23.93 97.96 c
7.18 28.67 20.34 80.04 20.34 84.82 c
0 17.92 -14.38 29.94 -32.32 29.94 c
-10.77 0 -35.89 -4.85 -45.45 -40.69 c
-83.73 -332.11 p
-5.98 -23.89 -5.98 -26.28 -21.53 -45.39 c
-14.35 -20.31 -61 -84.82 -136.36 -84.82 c
-66.98 0 -88.51 48.99 -88.51 105.15 c
0 34.65 10.78 76.48 15.58 96.79 c
53.93 215.09 p
5.99 22.71 15.6 60.95 15.6 68.11 c
0 19.12 -15.54 29.9 -31.09 29.9 c
-10.76 0 -37.06 -3.75 -46.62 -41.98 c
-173.35 -691.87 p
-1.2 -5.97 -3.59 -13.14 -3.59 -20.32 c
0 -17.92 14.33 -29.87 32.24 -29.87 c
34.63 0 41.79 27.5 50.15 60.97 c
13.14 50.21 5.97 26.3 56.12 222.37 c
h
f
66977.7 23620 m
16.73 0 38.28 0 38.28 21.38 c
0 22.59 -20.36 22.59 -38.28 22.59 c
-703.99 0 p
-16.74 0 -38.25 0 -38.25 -21.4 c
0 -22.57 20.31 -22.57 38.25 -22.57 c
h
66977.7 23398 m
16.73 0 38.28 0 38.28 21.39 c
0 22.59 -20.36 22.59 -38.28 22.59 c
-703.99 0 p
-16.74 0 -38.25 0 -38.25 -21.39 c
0 -22.58 20.31 -22.58 38.25 -22.58 c
h
f
67842.9 24011.2 m
0 22.73 0 28.72 -16.8 28.72 c
-9.57 0 -13.16 0 -22.73 -14.37 c
-360.11 -558.58 0 -34.98 314.42 0 0 -108.2 p
0 -43.99 -2.39 -55.87 -89.66 -55.87 c
-23.91 0 0 -34.98 p
27.5 2.39 121.95 2.39 155.42 2.39 c
33.48 0 129.12 0 156.61 -2.39 c
0 34.98 -23.85 0 p
-85.81 0 -89.38 11.89 -89.38 55.88 c
0 108.2 120.4 0 0 34.98 ^ h
67764 23918 0 -451 -290.81 0 H
f
68220.9 23290.4 m
0 34.65 -28.7 58.57 -57.38 58.57 c
-34.65 0 -58.55 -28.7 -58.55 -57.38 c
0 -34.65 28.68 -58.55 57.36 -58.55 c
34.65 0 58.57 28.68 58.57 57.36 c
h
f
68856.9 23433.8 -26.32 0 P
-3.59 -20.33 -13.15 -86.04 -25.1 -105.15 c
-8.36 -10.75 -76.49 -10.75 -112.35 -10.75 c
-221.12 0 p
32.27 27.49 105.18 103.98 136.25 132.67 c
181.68 167.33 248.63 229.48 248.63 347.81 c
0 137.45 -108.71 229.59 -247.22 229.59 c
-138.51 0 -219.71 -118.3 -219.71 -221.01 c
0 -60.91 52.39 -60.91 55.96 -60.91 c
25 0 55.98 17.86 55.98 55.96 c
0 33.33 -22.71 55.97 -56.19 55.97 c
-10.76 0 -13.15 0 -16.74 0 c
22.73 80.52 87.32 135.01 165.06 135.01 c
101.66 0 163.92 -84.91 163.92 -194.84 c
0 -101.57 -58.58 -189.99 -126.67 -266.47 c
-241.32 -270.05 0 -28.68 435.83 0 h
f
69457 23615.5 m
0 99.2 -6.01 196.02 -49.08 286.85 c
-49.05 99.21 -135.19 125.63 -193.82 125.63 c
-69.39 0 -154.33 -34.79 -198.6 -133.99 c
-33.5 -75.3 -45.46 -149.41 -45.46 -278.49 c
0 -115.94 8.38 -203.19 51.45 -288.05 c
46.66 -90.84 129.21 -119.52 191.42 -119.52 c
104.09 0 163.9 62.15 198.6 131.47 c
43.07 89.64 45.49 206.77 45.49 276.1 c
h
69212.9 23232 m
-38.27 0 -116.02 21.51 -138.75 151.76 c
-13.15 71.69 -13.15 162.51 -13.15 246.16 c
0 97.98 0 186.41 19.14 256.91 c
20.33 80.06 81.33 117.26 132.76 117.26 c
45.45 0 114.83 -27.64 137.55 -130.41 c
15.62 -68.11 15.62 -162.51 15.62 -243.76 c
0 -80.06 0 -170.87 -13.23 -243.77 c
-22.72 -131.44 -98.08 -154.14 -139.95 -154.14 c
h
f
69615 23356.9 0 -123.92 71.95 0 0 -21.64 P
0 -82.92 -15.6 -106.95 -71.95 -109.35 c
0 -44.97 p
83.93 0 125.92 53.75 125.92 156.5 c
0 143.39 h
f
70768.3 23683 m
15.54 0 54.99 0 54.99 38.49 c
0 26.47 -22.84 26.47 -44.33 26.47 c
-263.89 0 p
-179.11 0 -308.07 -199.59 -308.07 -340.59 c
0 -101.57 65.66 -186.41 173.09 -186.41 c
140.87 0 294.87 151.61 294.87 330.68 c
0 46.55 -10.74 91.92 -39.38 131.37 c
h
70381 23245 m
-60.87 0 -105.02 46.54 -105.02 128.89 c
0 71.61 42.96 309.16 218.4 309.16 c
51.32 0 108.65 -25.12 108.65 -117.01 c
0 -41.77 -19.13 -142.02 -60.91 -211.25 c
-42.96 -70.41 -107.41 -109.79 -161.12 -109.79 c
h
f
72007.7 23620 m
16.73 0 38.28 0 38.28 21.38 c
0 22.59 -20.36 22.59 -38.28 22.59 c
-703.99 0 p
-16.74 0 -38.25 0 -38.25 -21.4 c
0 -22.57 20.31 -22.57 38.25 -22.57 c
h
72007.7 23398 m
16.73 0 38.28 0 38.28 21.39 c
0 22.59 -20.36 22.59 -38.28 22.59 c
-703.99 0 p
-16.74 0 -38.25 0 -38.25 -21.39 c
0 -22.58 20.31 -22.58 38.25 -22.58 c
h
f
72872.9 24011.2 m
0 22.73 0 28.72 -16.8 28.72 c
-9.57 0 -13.16 0 -22.73 -14.37 c
-360.11 -558.58 0 -34.98 314.42 0 0 -108.2 p
0 -43.99 -2.39 -55.87 -89.66 -55.87 c
-23.91 0 0 -34.98 p
27.5 2.39 121.95 2.39 155.42 2.39 c
33.48 0 129.12 0 156.61 -2.39 c
0 34.98 -23.85 0 p
-85.81 0 -89.38 11.89 -89.38 55.88 c
0 108.2 120.4 0 0 34.98 ^ h
72794 23918 0 -451 -290.81 0 H
f
73250.9 23290.4 m
0 34.65 -28.7 58.57 -57.38 58.57 c
-34.65 0 -58.55 -28.7 -58.55 -57.38 c
0 -34.65 28.68 -58.55 57.36 -58.55 c
34.65 0 58.57 28.68 58.57 57.36 c
h
f
73886.9 23433.8 -26.32 0 P
-3.59 -20.33 -13.15 -86.04 -25.1 -105.15 c
-8.36 -10.75 -76.49 -10.75 -112.35 -10.75 c
-221.12 0 p
32.27 27.49 105.18 103.98 136.25 132.67 c
181.68 167.33 248.63 229.48 248.63 347.81 c
0 137.45 -108.71 229.59 -247.22 229.59 c
-138.51 0 -219.71 -118.3 -219.71 -221.01 c
0 -60.91 52.39 -60.91 55.96 -60.91 c
25 0 55.98 17.86 55.98 55.96 c
0 33.33 -22.71 55.97 -56.19 55.97 c
-10.76 0 -13.15 0 -16.74 0 c
22.73 80.52 87.32 135.01 165.06 135.01 c
101.66 0 163.92 -84.91 163.92 -194.84 c
0 -101.57 -58.58 -189.99 -126.67 -266.47 c
-241.32 -270.05 0 -28.68 435.83 0 h
f
74103.9 23918 m
51.41 -16.86 93.25 -18.06 106.4 -18.06 c
135.09 0 221.25 99.44 221.25 116.22 c
0 4.79 -2.43 10.79 -9.6 10.79 c
-2.39 0 -4.78 0 -15.53 -4.78 c
-66.9 -28.69 -124.24 -32.28 -155.3 -32.28 c
-78.84 0 -134.99 23.91 -157.69 33.47 c
-8.36 3.59 -10.75 3.59 -11.95 3.59 c
-9.55 0 -9.55 -7.22 -9.55 -26.36 c
0 -355.16 p
0 -21.52 0 -28.7 13.7 -28.7 c
5.71 0 6.86 1.2 18.28 15.54 c
33.61 49.02 90.03 77.71 150.05 77.71 c
63.63 0 94.84 -58.71 104.45 -79.04 c
20.41 -46.63 21.64 -105.23 21.64 -150.67 c
0 -45.44 0 -113.6 -33.54 -167.41 c
-26.29 -43.05 -72.89 -72.94 -125.47 -72.94 c
-78.86 0 -156.53 53.87 -178.04 141.3 c
5.97 -2.16 13.15 -3.24 19.12 -3.24 c
20.31 0 52.58 11.92 52.58 52.46 c
0 33.39 -22.71 52.48 -52.58 52.48 c
-21.51 0 -52.57 -10.76 -52.57 -57.38 c
0 -101.62 81.29 -217.59 214 -217.59 c
135.09 0 253.45 113.57 253.45 265.41 c
0 142.27 -95.71 260.62 -221.25 260.62 c
-68.14 0 -120.75 -29.93 -151.83 -63.44 c
h
f
65226.1 21519 393.04 0 P
82.43 0 143.35 22.72 189.95 72.96 c
43.01 45.45 66.9 107.64 66.9 175.83 c
0 105.26 -47.89 168.65 -159.15 211.71 c
78.48 37.08 120.12 101.66 120.12 190.18 c
0 63.39 -23.95 119.61 -69.29 160.27 c
-45.32 41.87 -104.97 61.03 -188.48 61.03 c
-353.09 0 h
65337 22015 0 278.07 214.77 0 P
62.04 0 96.64 -8.43 126.48 -31.2 c
31.02 -23.97 47.74 -59.92 47.74 -107.86 c
0 -46.74 -16.72 -83.89 -47.74 -107.86 c
-29.83 -22.77 -64.43 -31.16 -126.48 -31.16 c
h
65337 21616.9 0 300.09 271.38 0 P
53.8 0 89.66 -13.17 115.96 -41.86 c
26.3 -27.5 40.68 -65.75 40.68 -108.79 c
0 -41.84 -14.37 -80.1 -40.68 -107.6 c
-26.3 -28.69 -62.17 -41.84 -115.96 -41.84 c
h
f
66110 22145 -99.94 0 0 -626 ^ H
66110 22391 -99.94 0 0 -125.98 ^ H
f
66285 22145 0 -625.99 99.94 0 0 345.42 P
0 127.89 67 211.65 169.89 211.65 c
78.96 0 129.25 -47.9 129.25 -123.2 c
0 -433.87 98.94 0 0 473.07 p
0 103.94 -77.71 170.94 -198.31 170.94 c
-93.13 0 -152.84 -35.94 -207.76 -123.15 c
0 105.13 h
f
67116.9 21642.9 -123.92 0 0 -123.92 ^ H
67116.9 22145 -123.92 0 0 -123.92 ^ H
f
67992.1 21722 0 -202.97 104.94 0 ^ 125.68 0 0 94.94 ^ 0 550.09 
-77.75 0 -384.77 -533.74 0 -111.29 H
67992.1 21816.9 -265.52 0 265.52 370.38 H
f
68356.1 21519 393.04 0 P
82.43 0 143.35 22.72 189.95 72.96 c
43.01 45.45 66.9 107.64 66.9 175.83 c
0 105.26 -47.89 168.65 -159.15 211.71 c
78.48 37.08 120.12 101.66 120.12 190.18 c
0 63.39 -23.95 119.61 -69.29 160.27 c
-45.32 41.87 -104.97 61.03 -188.48 61.03 c
-353.09 0 h
68467 22015 0 278.07 214.77 0 P
62.04 0 96.64 -8.43 126.48 -31.2 c
31.02 -23.97 47.74 -59.92 47.74 -107.86 c
0 -46.74 -16.72 -83.89 -47.74 -107.86 c
-29.83 -22.77 -64.43 -31.16 -126.48 -31.16 c
h
68467 21616.9 0 300.09 271.38 0 P
53.8 0 89.66 -13.17 115.96 -41.86 c
26.3 -27.5 40.68 -65.75 40.68 -108.79 c
0 -41.84 -14.37 -80.1 -40.68 -107.6 c
-26.3 -28.69 -62.17 -41.84 -115.96 -41.84 c
h
f
69240 22145 -99.94 0 0 -626 ^ H
69240 22391 -99.94 0 0 -125.98 ^ H
f
69415 22145 0 -625.99 99.94 0 0 345.42 P
0 127.89 67 211.65 169.89 211.65 c
78.96 0 129.25 -47.9 129.25 -123.2 c
0 -433.87 98.94 0 0 473.07 p
0 103.94 -77.71 170.94 -198.31 170.94 c
-93.13 0 -152.84 -35.94 -207.76 -123.15 c
0 105.13 h
f
70382.1 21722 0 -202.97 104.94 0 ^ 125.68 0 0 94.94 ^ 0 550.09 
-77.75 0 -384.77 -533.74 0 -111.29 H
70382.1 21816.9 -265.52 0 265.52 370.38 H
f
65303 20265.3 m
29.85 -27.55 74.04 -38.33 114.63 -38.33 c
76.42 0 128.96 51.45 156.43 88.54 c
11.98 -63.42 62.29 -88.54 104.21 -88.54 c
35.93 0 64.68 21.52 86.25 64.57 c
19.16 40.66 35.99 113.6 35.99 118.38 c
0 5.98 -4.82 10.79 -12 10.79 c
-10.76 0 -11.96 -5.98 -16.74 -23.91 c
-17.94 -70.54 -40.66 -145.85 -89.69 -145.85 c
-34.67 0 -37.06 31.06 -37.06 54.95 c
0 27.48 10.76 70.48 19.14 106.32 c
10.77 43 22.73 86.02 33.5 129.02 c
4.79 22.7 17.95 76.46 23.93 97.96 c
7.18 28.67 20.34 80.04 20.34 84.82 c
0 17.92 -14.38 29.94 -32.32 29.94 c
-10.77 0 -35.89 -4.85 -45.45 -40.69 c
-83.73 -332.11 p
-5.98 -23.89 -5.98 -26.28 -21.53 -45.39 c
-14.35 -20.31 -61 -84.82 -136.36 -84.82 c
-66.98 0 -88.51 48.99 -88.51 105.15 c
0 34.65 10.78 76.48 15.58 96.79 c
53.93 215.09 p
5.99 22.71 15.6 60.95 15.6 68.11 c
0 19.12 -15.54 29.9 -31.09 29.9 c
-10.76 0 -37.06 -3.75 -46.62 -41.98 c
-173.35 -691.87 p
-1.2 -5.97 -3.59 -13.14 -3.59 -20.32 c
0 -17.92 14.33 -29.87 32.24 -29.87 c
34.63 0 41.79 27.5 50.15 60.97 c
13.14 50.21 5.97 26.3 56.12 222.37 c
h
f
66977.7 20626 m
16.73 0 38.28 0 38.28 21.38 c
0 22.59 -20.36 22.59 -38.28 22.59 c
-703.99 0 p
-16.74 0 -38.25 0 -38.25 -21.4 c
0 -22.57 20.31 -22.57 38.25 -22.57 c
h
66977.7 20404 m
16.73 0 38.28 0 38.28 21.39 c
0 22.59 -20.36 22.59 -38.28 22.59 c
-703.99 0 p
-16.74 0 -38.25 0 -38.25 -21.39 c
0 -22.58 20.31 -22.58 38.25 -22.58 c
h
f
67842.9 21017.2 m
0 22.73 0 28.72 -16.8 28.72 c
-9.57 0 -13.16 0 -22.73 -14.37 c
-360.11 -558.58 0 -34.98 314.42 0 0 -108.2 p
0 -43.99 -2.39 -55.87 -89.66 -55.87 c
-23.91 0 0 -34.98 p
27.5 2.39 121.95 2.39 155.42 2.39 c
33.48 0 129.12 0 156.61 -2.39 c
0 34.98 -23.85 0 p
-85.81 0 -89.38 11.89 -89.38 55.88 c
0 108.2 120.4 0 0 34.98 ^ h
67764 20924 0 -451 -290.81 0 H
f
68220.9 20296.4 m
0 34.65 -28.7 58.57 -57.38 58.57 c
-34.65 0 -58.55 -28.7 -58.55 -57.38 c
0 -34.65 28.68 -58.55 57.36 -58.55 c
34.65 0 58.57 28.68 58.57 57.36 c
h
f
68867 20621.5 m
0 99.2 -6.01 196.02 -49.08 286.85 c
-49.05 99.21 -135.19 125.63 -193.82 125.63 c
-69.39 0 -154.33 -34.79 -198.6 -133.99 c
-33.5 -75.3 -45.46 -149.41 -45.46 -278.49 c
0 -115.94 8.38 -203.19 51.45 -288.05 c
46.66 -90.84 129.21 -119.52 191.42 -119.52 c
104.09 0 163.9 62.15 198.6 131.47 c
43.07 89.64 45.49 206.77 45.49 276.1 c
h
68622.9 20238 m
-38.27 0 -116.02 21.51 -138.75 151.76 c
-13.15 71.69 -13.15 162.51 -13.15 246.16 c
0 97.98 0 186.41 19.14 256.91 c
20.33 80.06 81.33 117.26 132.76 117.26 c
45.45 0 114.83 -27.64 137.55 -130.41 c
15.62 -68.11 15.62 -162.51 15.62 -243.76 c
0 -80.06 0 -170.87 -13.23 -243.77 c
-22.72 -131.44 -98.08 -154.14 -139.95 -154.14 c
h
f
69457 20621.5 m
0 99.2 -6.01 196.02 -49.08 286.85 c
-49.05 99.21 -135.19 125.63 -193.82 125.63 c
-69.39 0 -154.33 -34.79 -198.6 -133.99 c
-33.5 -75.3 -45.46 -149.41 -45.46 -278.49 c
0 -115.94 8.38 -203.19 51.45 -288.05 c
46.66 -90.84 129.21 -119.52 191.42 -119.52 c
104.09 0 163.9 62.15 198.6 131.47 c
43.07 89.64 45.49 206.77 45.49 276.1 c
h
69212.9 20238 m
-38.27 0 -116.02 21.51 -138.75 151.76 c
-13.15 71.69 -13.15 162.51 -13.15 246.16 c
0 97.98 0 186.41 19.14 256.91 c
20.33 80.06 81.33 117.26 132.76 117.26 c
45.45 0 114.83 -27.64 137.55 -130.41 c
15.62 -68.11 15.62 -162.51 15.62 -243.76 c
0 -80.06 0 -170.87 -13.23 -243.77 c
-22.72 -131.44 -98.08 -154.14 -139.95 -154.14 c
h
f
69615 20362.9 0 -123.92 71.95 0 0 -21.64 P
0 -82.92 -15.6 -106.95 -71.95 -109.35 c
0 -44.97 p
83.93 0 125.92 53.75 125.92 156.5 c
0 143.39 h
f
70768.3 20689 m
15.54 0 54.99 0 54.99 38.49 c
0 26.47 -22.84 26.47 -44.33 26.47 c
-263.89 0 p
-179.11 0 -308.07 -199.59 -308.07 -340.59 c
0 -101.57 65.66 -186.41 173.09 -186.41 c
140.87 0 294.87 151.61 294.87 330.68 c
0 46.55 -10.74 91.92 -39.38 131.37 c
h
70381 20251 m
-60.87 0 -105.02 46.54 -105.02 128.89 c
0 71.61 42.96 309.16 218.4 309.16 c
51.32 0 108.65 -25.12 108.65 -117.01 c
0 -41.77 -19.13 -142.02 -60.91 -211.25 c
-42.96 -70.41 -107.41 -109.79 -161.12 -109.79 c
h
f
72007.7 20626 m
16.73 0 38.28 0 38.28 21.38 c
0 22.59 -20.36 22.59 -38.28 22.59 c
-703.99 0 p
-16.74 0 -38.25 0 -38.25 -21.4 c
0 -22.57 20.31 -22.57 38.25 -22.57 c
h
72007.7 20404 m
16.73 0 38.28 0 38.28 21.39 c
0 22.59 -20.36 22.59 -38.28 22.59 c
-703.99 0 p
-16.74 0 -38.25 0 -38.25 -21.39 c
0 -22.58 20.31 -22.58 38.25 -22.58 c
h
f
72661.2 20668.4 m
-20.37 -1.2 -25.16 -2.41 -25.16 -13.28 c
0 -12.07 5.99 -12.07 27.55 -12.07 c
55.1 0 p
101.82 0 147.37 -83.76 147.37 -198.56 c
0 -156.65 -81.49 -198.5 -140.16 -198.5 c
-57.47 0 -155.64 27.67 -190.36 107.08 c
38.31 -6.43 73.04 15.12 73.04 58.23 c
0 34.73 -25.14 58.7 -58.67 58.7 c
-28.73 0 -59.86 -16.77 -59.86 -62.23 c
0 -106.45 106.48 -193.77 239.28 -193.77 c
142.37 0 247.67 108.77 247.67 229.48 c
0 109.96 -88.61 196.01 -203.52 216.33 c
104.14 29.88 171.17 117.13 171.17 210.36 c
0 94.42 -98.16 163.88 -214.26 163.88 c
-119.7 0 -208.27 -73.08 -208.27 -160.48 c
0 -47.89 37.1 -57.47 55.06 -57.47 c
25.13 0 53.87 17.95 53.87 53.86 c
0 38.3 -28.67 55.07 -54.94 55.07 c
-7.16 0 -9.55 0 -13.13 0 c
45.52 80.04 158.12 80.04 164.11 80.04 c
39.53 0 117.39 -17.97 117.39 -134.93 c
0 -22.68 -3.59 -89.51 -38.33 -140.83 c
-35.94 -52.52 -76.66 -56.1 -109 -57.29 c
h
f
73250.9 20296.4 m
0 34.65 -28.7 58.57 -57.38 58.57 c
-34.65 0 -58.55 -28.7 -58.55 -57.38 c
0 -34.65 28.68 -58.55 57.36 -58.55 c
34.65 0 58.57 28.68 58.57 57.36 c
h
f
73717.3 20670.5 m
59.64 32.27 146.75 87.25 146.75 187.65 c
0 103.98 -100.36 175.82 -210.27 175.82 c
-118.27 0 -211.45 -87.38 -211.45 -196.14 c
0 -40.64 11.95 -81.28 45.39 -121.91 c
13.14 -15.54 14.34 -16.73 97.96 -75.3 c
-115.88 -53.78 -175.61 -133.86 -175.61 -221.11 c
0 -126.7 120.71 -205.58 242.63 -205.58 c
132.67 0 243.92 98 243.92 223.51 c
0 121.91 -86.08 175.7 -179.33 233.07 c
h
73554.6 20778.1 m
-15.52 10.75 -63.3 41.8 -63.3 100.32 c
0 77.63 81.21 126.63 161.23 126.63 c
86 0 162.5 -62.13 162.5 -148.12 c
0 -72.86 -52.61 -131.37 -121.89 -169.59 c
h
73610.9 20624 m
32.28 -21.57 112.38 -73.01 144.66 -94.54 c
31.09 -20.33 86.08 -57.41 86.08 -130.37 c
0 -90.91 -92.05 -153.1 -187.7 -153.1 c
-101.62 0 -188.89 74.16 -188.89 173.43 c
0 93.29 68.14 168.65 145.85 204.57 c
h
f
74098 20655 m
0 302.17 147.05 350.03 211.61 350.03 c
43.04 0 86.08 -13.16 108.79 -49.03 c
-14.35 0 -59.78 0 -59.78 -48.97 c
0 -26.27 17.93 -48.96 49.02 -48.96 c
29.89 0 50.29 17.95 50.29 52.65 c
0 62.23 -45.51 123.29 -149.5 123.29 c
-150.6 0 -308.36 -154.31 -308.36 -417.26 c
0 -328.68 143.53 -402.79 245.2 -402.79 c
130.38 0 241.73 113.49 241.73 268.79 c
0 158.89 -111.36 265.23 -231.03 265.23 c
-106.51 0 -146 -91.84 -157.96 -125.23 c
h
74245.3 20246 m
-75.43 0 -111.35 66.92 -122.12 92.01 c
-10.78 31.07 -22.75 89.62 -22.75 173.27 c
0 94.4 43.1 212.79 150.85 212.79 c
65.85 0 100.57 -44.3 118.53 -84.93 c
19.2 -44.21 19.2 -103.96 19.2 -155.34 c
0 -60.95 0 -114.71 -22.79 -160.12 c
-29.94 -57.36 -73.04 -77.67 -120.93 -77.67 c
h
f
65226.1 18535 393.04 0 P
82.43 0 143.35 22.72 189.95 72.96 c
43.01 45.45 66.9 107.64 66.9 175.83 c
0 105.26 -47.89 168.65 -159.15 211.71 c
78.48 37.08 120.12 101.66 120.12 190.18 c
0 63.39 -23.95 119.61 -69.29 160.27 c
-45.32 41.87 -104.97 61.03 -188.48 61.03 c
-353.09 0 h
65337 19031 0 278.07 214.77 0 P
62.04 0 96.64 -8.43 126.48 -31.2 c
31.02 -23.97 47.74 -59.92 47.74 -107.86 c
0 -46.74 -16.72 -83.89 -47.74 -107.86 c
-29.83 -22.77 -64.43 -31.16 -126.48 -31.16 c
h
65337 18632.9 0 300.09 271.38 0 P
53.8 0 89.66 -13.17 115.96 -41.86 c
26.3 -27.5 40.68 -65.75 40.68 -108.79 c
0 -41.84 -14.37 -80.1 -40.68 -107.6 c
-26.3 -28.69 -62.17 -41.84 -115.96 -41.84 c
h
f
66110 19161 -99.94 0 0 -626 ^ H
66110 19407 -99.94 0 0 -125.98 ^ H
f
66285 19161 0 -625.99 99.94 0 0 345.42 P
0 127.89 67 211.65 169.89 211.65 c
78.96 0 129.25 -47.9 129.25 -123.2 c
0 -433.87 98.94 0 0 473.07 p
0 103.94 -77.71 170.94 -198.31 170.94 c
-93.13 0 -152.84 -35.94 -207.76 -123.15 c
0 105.13 h
f
67116.9 18658.9 -123.92 0 0 -123.92 ^ H
67116.9 19161 -123.92 0 0 -123.92 ^ H
f
68215.9 18638.9 -445.93 0 P
10.76 69.38 49.02 113.63 153.03 174.63 c
119.55 64.59 p
118.36 64.59 179.4 151.9 179.4 255.96 c
0 70.57 -28.77 136.36 -78.98 181.81 c
-50.21 45.45 -112.37 67.07 -192.48 67.07 c
-107.6 0 -187.7 -38.32 -234.32 -110.14 c
-29.89 -45.48 -43.04 -98.15 -45.43 -184.34 c
105.13 0 p
3.58 57.51 10.75 92.26 25.09 119.82 c
27.48 51.52 82.43 82.71 145.75 82.71 c
95.57 0 167.32 -68.3 167.32 -159.2 c
0 -66.98 -39.5 -124.39 -114.77 -167.45 c
-109.91 -62.2 p
-176.8 -100.48 -228.18 -180.61 -237.73 -367.2 c
564.29 0 h
f
68366.1 18535 393.04 0 P
82.43 0 143.35 22.72 189.95 72.96 c
43.01 45.45 66.9 107.64 66.9 175.83 c
0 105.26 -47.89 168.65 -159.15 211.71 c
78.48 37.08 120.12 101.66 120.12 190.18 c
0 63.39 -23.95 119.61 -69.29 160.27 c
-45.32 41.87 -104.97 61.03 -188.48 61.03 c
-353.09 0 h
68477 19031 0 278.07 214.77 0 P
62.04 0 96.64 -8.43 126.48 -31.2 c
31.02 -23.97 47.74 -59.92 47.74 -107.86 c
0 -46.74 -16.72 -83.89 -47.74 -107.86 c
-29.83 -22.77 -64.43 -31.16 -126.48 -31.16 c
h
68477 18632.9 0 300.09 271.38 0 P
53.8 0 89.66 -13.17 115.96 -41.86 c
26.3 -27.5 40.68 -65.75 40.68 -108.79 c
0 -41.84 -14.37 -80.1 -40.68 -107.6 c
-26.3 -28.69 -62.17 -41.84 -115.96 -41.84 c
h
f
69250 19161 -99.94 0 0 -626 ^ H
69250 19407 -99.94 0 0 -125.98 ^ H
f
69425 19161 0 -625.99 99.94 0 0 345.42 P
0 127.89 67 211.65 169.89 211.65 c
78.96 0 129.25 -47.9 129.25 -123.2 c
0 -433.87 98.94 0 0 473.07 p
0 103.94 -77.71 170.94 -198.31 170.94 c
-93.13 0 -152.84 -35.94 -207.76 -123.15 c
0 105.13 h
f
65303 17282.3 m
29.85 -27.55 74.04 -38.33 114.63 -38.33 c
76.42 0 128.96 51.45 156.43 88.54 c
11.98 -63.42 62.29 -88.54 104.21 -88.54 c
35.93 0 64.68 21.52 86.25 64.57 c
19.16 40.66 35.99 113.6 35.99 118.38 c
0 5.98 -4.82 10.79 -12 10.79 c
-10.76 0 -11.96 -5.98 -16.74 -23.91 c
-17.94 -70.54 -40.66 -145.85 -89.69 -145.85 c
-34.67 0 -37.06 31.06 -37.06 54.95 c
0 27.48 10.76 70.48 19.14 106.32 c
10.77 43 22.73 86.02 33.5 129.02 c
4.79 22.7 17.95 76.46 23.93 97.96 c
7.18 28.67 20.34 80.04 20.34 84.82 c
0 17.92 -14.38 29.94 -32.32 29.94 c
-10.77 0 -35.89 -4.85 -45.45 -40.69 c
-83.73 -332.11 p
-5.98 -23.89 -5.98 -26.28 -21.53 -45.39 c
-14.35 -20.31 -61 -84.82 -136.36 -84.82 c
-66.98 0 -88.51 48.99 -88.51 105.15 c
0 34.65 10.78 76.48 15.58 96.79 c
53.93 215.09 p
5.99 22.71 15.6 60.95 15.6 68.11 c
0 19.12 -15.54 29.9 -31.09 29.9 c
-10.76 0 -37.06 -3.75 -46.62 -41.98 c
-173.35 -691.87 p
-1.2 -5.97 -3.59 -13.14 -3.59 -20.32 c
0 -17.92 14.33 -29.87 32.24 -29.87 c
34.63 0 41.79 27.5 50.15 60.97 c
13.14 50.21 5.97 26.3 56.12 222.37 c
h
f
66977.7 17643 m
16.73 0 38.28 0 38.28 21.38 c
0 22.59 -20.36 22.59 -38.28 22.59 c
-703.99 0 p
-16.74 0 -38.25 0 -38.25 -21.4 c
0 -22.57 20.31 -22.57 38.25 -22.57 c
h
66977.7 17421 m
16.73 0 38.28 0 38.28 21.39 c
0 22.59 -20.36 22.59 -38.28 22.59 c
-703.99 0 p
-16.74 0 -38.25 0 -38.25 -21.39 c
0 -22.58 20.31 -22.58 38.25 -22.58 c
h
f
67755.9 18022.3 m
0 27.48 0 28.74 -24 28.74 c
-28.77 -32.09 -88.68 -76.07 -212.12 -76.07 c
0 -34.98 p
27.52 0 87.36 0 153.18 30.95 c
0 -622.59 p
0 -43.02 -3.6 -57.36 -108.91 -57.36 c
-37.09 0 0 -34.98 p
32.28 2.39 148.25 2.39 187.7 2.39 c
39.45 0 154.22 0 186.5 -2.39 c
0 34.98 -36.94 0 p
-104.74 0 -108.31 14.34 -108.31 57.36 c
h
f
68220.9 17313.4 m
0 34.65 -28.7 58.57 -57.38 58.57 c
-34.65 0 -58.55 -28.7 -58.55 -57.38 c
0 -34.65 28.68 -58.55 57.36 -58.55 c
34.65 0 58.57 28.68 58.57 57.36 c
h
f
68898.9 17998.3 0 27.61 -288.12 0 P
-144.66 0 -147.05 15.48 -151.83 38.11 c
-26.3 0 -37.06 -238.95 26.3 0 p
3.59 21.5 14.35 95.57 29.89 108.71 c
9.57 7.19 99.23 7.19 115.96 7.19 c
253.45 0 -126.44 -181.71 p
-32.2 -46.62 -152.65 -242.63 -152.65 -467.34 c
0 -13.14 0 -60.95 48.87 -60.95 c
50.07 0 50.07 46.61 50.07 62.15 c
0 59.76 p
0 178.09 28.65 316.74 84.76 396.81 c
h
f
69277.3 17687.5 m
59.64 32.27 146.75 87.25 146.75 187.65 c
0 103.98 -100.36 175.82 -210.27 175.82 c
-118.27 0 -211.45 -87.38 -211.45 -196.14 c
0 -40.64 11.95 -81.28 45.39 -121.91 c
13.14 -15.54 14.34 -16.73 97.96 -75.3 c
-115.88 -53.78 -175.61 -133.86 -175.61 -221.11 c
0 -126.7 120.71 -205.58 242.63 -205.58 c
132.67 0 243.92 98 243.92 223.51 c
0 121.91 -86.08 175.7 -179.33 233.07 c
h
69114.6 17795.1 m
-15.52 10.75 -63.3 41.8 -63.3 100.32 c
0 77.63 81.21 126.63 161.23 126.63 c
86 0 162.5 -62.13 162.5 -148.12 c
0 -72.86 -52.61 -131.37 -121.89 -169.59 c
h
69170.9 17641 m
32.28 -21.57 112.38 -73.01 144.66 -94.54 c
31.09 -20.33 86.08 -57.41 86.08 -130.37 c
0 -90.91 -92.05 -153.1 -187.7 -153.1 c
-101.62 0 -188.89 74.16 -188.89 173.43 c
0 93.29 68.14 168.65 145.85 204.57 c
h
f
69615 17379.9 0 -123.92 71.95 0 0 -21.64 P
0 -82.92 -15.6 -106.95 -71.95 -109.35 c
0 -44.97 p
83.93 0 125.92 53.75 125.92 156.5 c
0 143.39 h
f
70768.3 17706 m
15.54 0 54.99 0 54.99 38.49 c
0 26.47 -22.84 26.47 -44.33 26.47 c
-263.89 0 p
-179.11 0 -308.07 -199.59 -308.07 -340.59 c
0 -101.57 65.66 -186.41 173.09 -186.41 c
140.87 0 294.87 151.61 294.87 330.68 c
0 46.55 -10.74 91.92 -39.38 131.37 c
h
70381 17268 m
-60.87 0 -105.02 46.54 -105.02 128.89 c
0 71.61 42.96 309.16 218.4 309.16 c
51.32 0 108.65 -25.12 108.65 -117.01 c
0 -41.77 -19.13 -142.02 -60.91 -211.25 c
-42.96 -70.41 -107.41 -109.79 -161.12 -109.79 c
h
f
72007.7 17643 m
16.73 0 38.28 0 38.28 21.38 c
0 22.59 -20.36 22.59 -38.28 22.59 c
-703.99 0 p
-16.74 0 -38.25 0 -38.25 -21.4 c
0 -22.57 20.31 -22.57 38.25 -22.57 c
h
72007.7 17421 m
16.73 0 38.28 0 38.28 21.39 c
0 22.59 -20.36 22.59 -38.28 22.59 c
-703.99 0 p
-16.74 0 -38.25 0 -38.25 -21.39 c
0 -22.58 20.31 -22.58 38.25 -22.58 c
h
f
72966.9 17456.8 -26.32 0 P
-3.59 -20.33 -13.15 -86.04 -25.1 -105.15 c
-8.36 -10.75 -76.49 -10.75 -112.35 -10.75 c
-221.12 0 p
32.27 27.49 105.18 103.98 136.25 132.67 c
181.68 167.33 248.63 229.48 248.63 347.81 c
0 137.45 -108.71 229.59 -247.22 229.59 c
-138.51 0 -219.71 -118.3 -219.71 -221.01 c
0 -60.91 52.39 -60.91 55.96 -60.91 c
25 0 55.98 17.86 55.98 55.96 c
0 33.33 -22.71 55.97 -56.19 55.97 c
-10.76 0 -13.15 0 -16.74 0 c
22.73 80.52 87.32 135.01 165.06 135.01 c
101.66 0 163.92 -84.91 163.92 -194.84 c
0 -101.57 -58.58 -189.99 -126.67 -266.47 c
-241.32 -270.05 0 -28.68 435.83 0 h
f
73250.9 17313.4 m
0 34.65 -28.7 58.57 -57.38 58.57 c
-34.65 0 -58.55 -28.7 -58.55 -57.38 c
0 -34.65 28.68 -58.55 57.36 -58.55 c
34.65 0 58.57 28.68 58.57 57.36 c
h
f
73792.9 18034.2 m
0 22.73 0 28.72 -16.8 28.72 c
-9.57 0 -13.16 0 -22.73 -14.37 c
-360.11 -558.58 0 -34.98 314.42 0 0 -108.2 p
0 -43.99 -2.39 -55.87 -89.66 -55.87 c
-23.91 0 0 -34.98 p
27.5 2.39 121.95 2.39 155.42 2.39 c
33.48 0 129.12 0 156.61 -2.39 c
0 34.98 -23.85 0 p
-85.81 0 -89.38 11.89 -89.38 55.88 c
0 108.2 120.4 0 0 34.98 ^ h
73714 17941 0 -451 -290.81 0 H
f
74382.9 18034.2 m
0 22.73 0 28.72 -16.8 28.72 c
-9.57 0 -13.16 0 -22.73 -14.37 c
-360.11 -558.58 0 -34.98 314.42 0 0 -108.2 p
0 -43.99 -2.39 -55.87 -89.66 -55.87 c
-23.91 0 0 -34.98 p
27.5 2.39 121.95 2.39 155.42 2.39 c
33.48 0 129.12 0 156.61 -2.39 c
0 34.98 -23.85 0 p
-85.81 0 -89.38 11.89 -89.38 55.88 c
0 108.2 120.4 0 0 34.98 ^ h
74304 17941 0 -451 -290.81 0 H
f
cleartomark end end pagesave restore
 showpage
%%PageTrailer
%%Trailer
%%Pages: 1
cleartomark
countdictstack
exch sub { end } repeat
restore
showpage
%%EOF
