%!PS-Adobe-3.0 EPSF-3.0
%%Pages: (atend)
%%BoundingBox: 0 0 576 432
%%HiResBoundingBox: 0.000000 0.000000 575.999982 431.999987
%.........................................
%%Creator: GPL Ghostscript 870 (pswrite)
%%CreationDate: 2016/12/02 10:41:58
%%DocumentData: Clean7Bit
%%LanguageLevel: 2
%%EndComments
%%BeginProlog
save
countdictstack
mark
newpath
/showpage {} def
/setpagedevice {pop} def
%%EndProlog
%%Page 1 1
%%BeginProlog
% This copyright applies to everything between here and the %%EndProlog:
% Copyright (C) 2009 Artifex Software, Inc.  All rights reserved.
%%BeginResource: procset GS_pswrite_2_0_1001 1.001 0
/GS_pswrite_2_0_1001 80 dict dup begin
/PageSize 2 array def/setpagesize{ PageSize aload pop 3 index eq exch
4 index eq and{ pop pop pop}{ PageSize dup  1
5 -1 roll put 0 4 -1 roll put dup null eq {false} {dup where} ifelse{ exch get exec}
{ pop/setpagedevice where
{ pop 1 dict dup /PageSize PageSize put setpagedevice}
{ /setpage where{ pop PageSize aload pop pageparams 3 {exch pop} repeat
setpage}if}ifelse}ifelse}ifelse} bind def
/!{bind def}bind def/#{load def}!/N/counttomark #
/rG{3{3 -1 roll 255 div}repeat setrgbcolor}!/G{255 div setgray}!/K{0 G}!
/r6{dup 3 -1 roll rG}!/r5{dup 3 1 roll rG}!/r3{dup rG}!
/w/setlinewidth #/J/setlinecap #
/j/setlinejoin #/M/setmiterlimit #/d/setdash #/i/setflat #
/m/moveto #/l/lineto #/c/rcurveto #
/p{N 2 idiv{N -2 roll rlineto}repeat}!
/P{N 0 gt{N -2 roll moveto p}if}!
/h{p closepath}!/H{P closepath}!
/lx{0 rlineto}!/ly{0 exch rlineto}!/v{0 0 6 2 roll c}!/y{2 copy c}!
/re{4 -2 roll m exch dup lx exch ly neg lx h}!
/^{3 index neg 3 index neg}!
/f{P fill}!/f*{P eofill}!/s{H stroke}!/S{P stroke}!
/q/gsave #/Q/grestore #/rf{re fill}!
/Y{P clip newpath}!/Y*{P eoclip newpath}!/rY{re Y}!
/|={pop exch 4 1 roll 1 array astore cvx 3 array astore cvx exch 1 index def exec}!
/|{exch string readstring |=}!
/+{dup type/nametype eq{2 index 7 add -3 bitshift 2 index mul}if}!
/@/currentfile #/${+ @ |}!
/B{{2 copy string{readstring pop}aload pop 4 array astore cvx
3 1 roll}repeat pop pop true}!
/Ix{[1 0 0 1 11 -2 roll exch neg exch neg]exch}!
/,{true exch Ix imagemask}!/If{false exch Ix imagemask}!/I{exch Ix image}!
/Ic{exch Ix false 3 colorimage}!
/F{/Columns counttomark 3 add -2 roll/Rows exch/K -1/BlackIs1 true>>
/CCITTFaxDecode filter}!/FX{<</EndOfBlock false F}!
/X{/ASCII85Decode filter}!/@X{@ X}!/&2{2 index 2 index}!
/@F{@ &2<<F}!/@C{@X &2 FX}!
/$X{+ @X |}!/&4{4 index 4 index}!/$F{+ @ &4<<F |}!/$C{+ @X &4 FX |}!
/IC{3 1 roll 10 dict begin 1{/ImageType/Interpolate/Decode/DataSource
/ImageMatrix/BitsPerComponent/Height/Width}{exch def}forall
currentdict end image}!
/~{@ read {pop} if}!
end def
%%EndResource
/pagesave null def
%%EndProlog
%%Page: 1 1
%%BeginPageSetup
GS_pswrite_2_0_1001 begin
576 432 null setpagesize
/pagesave save store 197 dict begin
0.012 0.012 scale
%%EndPageSetup
gsave mark
Q q
0 0 48000 36000 re
Y
255 G
0 0 48000 36000 re
f
6000 3600 37200 28800 re
f
Q q
6000 3600 37200 28800 re
Y
127 G
6000 16500.4 37200 855.566 re
f
83.3333 w
100000 M
K
6000 16500.4 37200 855.566 re
S
Q q
6000 3600 37200 28800 re
Y
255 0 r3
10133.3 14889.8 m
66.3 0 129.89 26.34 176.78 73.22 c
46.88 46.88 73.22 110.48 73.22 176.78 c
0 66.3 -26.34 129.89 -73.22 176.78 c
-46.88 46.88 -110.48 73.22 -176.78 73.22 c
-66.3 0 -129.89 -26.34 -176.78 -73.22 c
-46.88 -46.88 -73.22 -110.48 -73.22 -176.78 c
0 -66.3 26.34 -129.89 73.22 -176.78 c
46.88 -46.88 110.48 -73.22 176.78 -73.22 c
f
41.6667 w
100000 M
1 j
K
10133.3 14889.8 m
66.3 0 129.89 26.34 176.78 73.22 c
46.88 46.88 73.22 110.48 73.22 176.78 c
0 66.3 -26.34 129.89 -73.22 176.78 c
-46.88 46.88 -110.48 73.22 -176.78 73.22 c
-66.3 0 -129.89 -26.34 -176.78 -73.22 c
-46.88 -46.88 -73.22 -110.48 -73.22 -176.78 c
0 -66.3 26.34 -129.89 73.22 -176.78 c
46.88 -46.88 110.48 -73.22 176.78 -73.22 c
h
S
255 0 r3
14266.7 16750.5 m
66.3 0 129.89 26.34 176.77 73.22 c
46.88 46.88 73.23 110.48 73.23 176.78 c
0 66.3 -26.34 129.89 -73.23 176.78 c
-46.88 46.88 -110.47 73.22 -176.77 73.22 c
-66.3 0 -129.89 -26.34 -176.78 -73.22 c
-46.88 -46.88 -73.22 -110.48 -73.22 -176.78 c
0 -66.3 26.34 -129.89 73.22 -176.78 c
46.88 -46.88 110.48 -73.22 176.78 -73.22 c
f
K
14266.7 16750.5 m
66.3 0 129.89 26.34 176.77 73.22 c
46.88 46.88 73.23 110.48 73.23 176.78 c
0 66.3 -26.34 129.89 -73.23 176.78 c
-46.88 46.88 -110.47 73.22 -176.77 73.22 c
-66.3 0 -129.89 -26.34 -176.78 -73.22 c
-46.88 -46.88 -73.22 -110.48 -73.22 -176.78 c
0 -66.3 26.34 -129.89 73.22 -176.78 c
46.88 -46.88 110.48 -73.22 176.78 -73.22 c
h
S
255 0 r3
18400 13810.2 m
66.3 0 129.89 26.34 176.78 73.22 c
46.88 46.88 73.22 110.48 73.22 176.78 c
0 66.3 -26.34 129.89 -73.22 176.77 c
-46.88 46.88 -110.48 73.23 -176.78 73.23 c
-66.3 0 -129.89 -26.34 -176.78 -73.23 c
-46.88 -46.88 -73.22 -110.47 -73.22 -176.77 c
0 -66.3 26.34 -129.89 73.22 -176.78 c
46.88 -46.88 110.48 -73.22 176.78 -73.22 c
f
K
18400 13810.2 m
66.3 0 129.89 26.34 176.78 73.22 c
46.88 46.88 73.22 110.48 73.22 176.78 c
0 66.3 -26.34 129.89 -73.22 176.77 c
-46.88 46.88 -110.48 73.23 -176.78 73.23 c
-66.3 0 -129.89 -26.34 -176.78 -73.23 c
-46.88 -46.88 -73.22 -110.47 -73.22 -176.77 c
0 -66.3 26.34 -129.89 73.22 -176.78 c
46.88 -46.88 110.48 -73.22 176.78 -73.22 c
h
S
255 0 r3
22533.3 18083.1 m
66.3 0 129.89 26.34 176.78 73.22 c
46.88 46.88 73.22 110.48 73.22 176.78 c
0 66.3 -26.34 129.89 -73.22 176.78 c
-46.88 46.88 -110.48 73.22 -176.78 73.22 c
-66.3 0 -129.89 -26.34 -176.78 -73.22 c
-46.88 -46.88 -73.22 -110.48 -73.22 -176.78 c
0 -66.3 26.34 -129.89 73.22 -176.78 c
46.88 -46.88 110.48 -73.22 176.78 -73.22 c
f
K
22533.3 18083.1 m
66.3 0 129.89 26.34 176.78 73.22 c
46.88 46.88 73.22 110.48 73.22 176.78 c
0 66.3 -26.34 129.89 -73.22 176.78 c
-46.88 46.88 -110.48 73.22 -176.78 73.22 c
-66.3 0 -129.89 -26.34 -176.78 -73.22 c
-46.88 -46.88 -73.22 -110.48 -73.22 -176.78 c
0 -66.3 26.34 -129.89 73.22 -176.78 c
46.88 -46.88 110.48 -73.22 176.78 -73.22 c
h
S
255 0 r3
26666.7 16657.3 m
66.3 0 129.89 26.34 176.78 73.22 c
46.88 46.88 73.22 110.48 73.22 176.78 c
0 66.3 -26.34 129.89 -73.22 176.78 c
-46.88 46.88 -110.48 73.22 -176.78 73.22 c
-66.3 0 -129.89 -26.34 -176.78 -73.22 c
-46.88 -46.88 -73.22 -110.48 -73.22 -176.78 c
0 -66.3 26.34 -129.89 73.22 -176.78 c
46.88 -46.88 110.48 -73.22 176.78 -73.22 c
f
K
26666.7 16657.3 m
66.3 0 129.89 26.34 176.78 73.22 c
46.88 46.88 73.22 110.48 73.22 176.78 c
0 66.3 -26.34 129.89 -73.22 176.78 c
-46.88 46.88 -110.48 73.22 -176.78 73.22 c
-66.3 0 -129.89 -26.34 -176.78 -73.22 c
-46.88 -46.88 -73.22 -110.48 -73.22 -176.78 c
0 -66.3 26.34 -129.89 73.22 -176.78 c
46.88 -46.88 110.48 -73.22 176.78 -73.22 c
h
S
255 0 r3
30800 20973.5 m
66.3 0 129.89 26.34 176.78 73.22 c
46.88 46.88 73.22 110.48 73.22 176.78 c
0 66.3 -26.34 129.89 -73.22 176.78 c
-46.88 46.88 -110.48 73.22 -176.78 73.22 c
-66.3 0 -129.89 -26.34 -176.78 -73.22 c
-46.88 -46.88 -73.22 -110.48 -73.22 -176.78 c
0 -66.3 26.34 -129.89 73.22 -176.78 c
46.88 -46.88 110.48 -73.22 176.78 -73.22 c
f
K
30800 20973.5 m
66.3 0 129.89 26.34 176.78 73.22 c
46.88 46.88 73.22 110.48 73.22 176.78 c
0 66.3 -26.34 129.89 -73.22 176.78 c
-46.88 46.88 -110.48 73.22 -176.78 73.22 c
-66.3 0 -129.89 -26.34 -176.78 -73.22 c
-46.88 -46.88 -73.22 -110.48 -73.22 -176.78 c
0 -66.3 26.34 -129.89 73.22 -176.78 c
46.88 -46.88 110.48 -73.22 176.78 -73.22 c
h
S
255 0 r3
34933.3 16020.8 m
66.3 0 129.89 26.34 176.78 73.22 c
46.88 46.88 73.22 110.48 73.22 176.78 c
0 66.3 -26.34 129.89 -73.22 176.78 c
-46.88 46.88 -110.48 73.22 -176.78 73.22 c
-66.3 0 -129.89 -26.34 -176.78 -73.22 c
-46.88 -46.88 -73.22 -110.48 -73.22 -176.78 c
0 -66.3 26.34 -129.89 73.22 -176.78 c
46.88 -46.88 110.48 -73.22 176.78 -73.22 c
f
K
34933.3 16020.8 m
66.3 0 129.89 26.34 176.78 73.22 c
46.88 46.88 73.22 110.48 73.22 176.78 c
0 66.3 -26.34 129.89 -73.22 176.78 c
-46.88 46.88 -110.48 73.22 -176.78 73.22 c
-66.3 0 -129.89 -26.34 -176.78 -73.22 c
-46.88 -46.88 -73.22 -110.48 -73.22 -176.78 c
0 -66.3 26.34 -129.89 73.22 -176.78 c
46.88 -46.88 110.48 -73.22 176.78 -73.22 c
h
S
Q q
0 0 48000 36000 re
Y
83.3333 w
100000 M
2 J
K
6000 32400 37200 0 S
43200 3600 0 28800 S
6000 3600 37200 0 S
6000 3600 0 28800 S
10133.3 3600 0 333.33 f
41.6667 w
0 J
1 j
10133.3 3600 0 333.33 S
10133.3 32400 0 -333.33 f
10133.3 32400 0 -333.33 S
14266.7 3600 0 333.33 f
14266.7 3600 0 333.33 S
14266.7 32400 0 -333.33 f
14266.7 32400 0 -333.33 S
18400 3600 0 333.33 f
18400 3600 0 333.33 S
18400 32400 0 -333.33 f
18400 32400 0 -333.33 S
22533.3 3600 0 333.33 f
22533.3 3600 0 333.33 S
22533.3 32400 0 -333.33 f
22533.3 32400 0 -333.33 S
26666.7 3600 0 333.33 f
26666.7 3600 0 333.33 S
26666.7 32400 0 -333.33 f
26666.7 32400 0 -333.33 S
30800 3600 0 333.33 f
30800 3600 0 333.33 S
30800 32400 0 -333.33 f
30800 32400 0 -333.33 S
34933.3 3600 0 333.33 f
34933.3 3600 0 333.33 S
34933.3 32400 0 -333.33 f
34933.3 32400 0 -333.33 S
6000 3626.4 333.33 0 f
6000 3626.4 333.33 0 S
43200 3626.4 -333.33 0 f
43200 3626.4 -333.33 0 S
6000 8334.75 333.33 0 f
6000 8334.75 333.33 0 S
43200 8334.75 -333.33 0 f
43200 8334.75 -333.33 0 S
6000 13043.2 333.33 0 f
6000 13043.2 333.33 0 S
43200 13043.2 -333.33 0 f
43200 13043.2 -333.33 0 S
6000 17751.5 333.33 0 f
6000 17751.5 333.33 0 S
43200 17751.5 -333.33 0 f
43200 17751.5 -333.33 0 S
6000 22459.9 333.33 0 f
6000 22459.9 333.33 0 S
43200 22459.9 -333.33 0 f
43200 22459.9 -333.33 0 S
6000 27168.3 333.33 0 f
6000 27168.3 333.33 0 S
43200 27168.3 -333.33 0 f
43200 27168.3 -333.33 0 S
6000 31876.7 333.33 0 f
6000 31876.7 333.33 0 S
43200 31876.7 -333.33 0 f
43200 31876.7 -333.33 0 S
Q q
Y
0.83022 i
K
-7784.11 19757 93.82 0 P
74.72 0 113.74 5.79 146.95 21.52 c
58.95 28.15 92.21 81.13 92.21 146.52 c
0 62.91 -29.11 110.93 -83.9 138.24 c
-32.38 16.55 -83.85 25.74 -141.14 25.74 c
-290.58 0 0 -38.96 14.96 0 p
67.31 0 74.8 -4.25 74.8 -39.09 c
0 -443.02 p
0 -34.84 -7.48 -38.99 -74.8 -38.99 c
-14.96 0 0 -38.96 278.95 0 ^ -21.59 0 p
-67.25 0 -74.72 4.16 -74.72 39.1 c
0 24.13 h
-7784.11 19795.9 0 211.86 P
0 38.07 4.98 42.25 50.7 42.25 c
53.2 0 p
86.45 0 127.18 -40.59 127.18 -128.32 c
0 -85.24 -42.4 -125.79 -130.51 -125.79 c
h
f
-6986.79 20094.5 -30.74 0 -33.23 -49.83 P
-39.05 37.37 -92.22 57.35 -151.21 57.35 c
-108.84 0 -181.95 -69.74 -181.95 -173.49 c
0 -90.47 44.86 -135.29 167 -166.83 c
78.93 -19.92 p
61.48 -15.77 67.29 -17.43 84.74 -30.71 c
24.93 -19.09 38.27 -46.48 38.27 -78.85 c
0 -33.2 -12.49 -60.59 -37.39 -83 c
-27.39 -24.07 -54.78 -33.2 -100.43 -33.2 c
-61.42 0 -105.41 19.07 -144.42 62.19 c
-34.86 38.97 -52.29 77.95 -64.74 141.81 c
-35.69 0 3.32 -236.16 32.39 0 37.37 56.34 p
55.64 -45.57 102.14 -62.14 174.39 -62.14 c
122.07 0 200.14 71.32 200.14 182.47 c
0 51.42 -17.5 95.38 -49.9 126.89 c
-22.44 21.57 -54.84 35.67 -121.3 52.26 c
-88.9 22.39 p
-73.95 19.08 -108.84 51.42 -108.84 102.02 c
0 58.06 47.35 97.97 117.95 97.97 c
58.14 0 105.49 -24.91 138.71 -72.23 c
24.09 -34.04 39.04 -68.91 49.84 -111.25 c
35.76 0 h
f
-6753.07 19877 0 47.38 P
0 41.56 2.49 68.99 9.14 85.62 c
13.3 36.57 42.39 59.03 75.64 59.03 c
17.46 0 28.29 -5 28.29 -14.17 c
0 -2.5 -0.85 -4.16 -5.07 -10.83 c
-5.07 -8.33 -7.59 -17.5 -7.59 -26.66 c
0 -25 20.01 -44.16 45.86 -44.16 c
27.52 0 46.71 20.77 46.71 50.68 c
0 48.19 -41.58 78.11 -108.87 78.11 c
-57.32 0 -98.87 -19.93 -128.78 -61.44 c
-24.93 -34.87 -33.23 -70.57 -33.23 -137.82 c
0 -25.74 -73.24 0 0 -35.96 ^ 0 -282.07 p
0 -33.19 -9.16 -38.99 -62.44 -38.99 c
-3.33 0 0 -29.96 221.67 0 ^ -14.94 0 p
-53.93 0 -63.05 5.8 -63.05 38.99 c
0 282.07 91.27 0 0 35.96 h
f
-6475.62 19877 -146.95 -9.03 0 -35.96 34.04 0 P
30.72 0 35.7 -5.84 35.7 -41.52 c
0 -231.52 p
0 -33.19 -9.13 -39 -63.09 -39 c
-3.32 0 0 -29.96 221.67 0 ^ -15.78 0 p
-53.13 0 -62.27 5.8 -62.27 38.97 c
0 41.46 p
0 62.2 11.63 125.21 32.38 172.48 c
19.93 46.44 48.15 72.14 83.02 76.29 c
-11.62 -13.27 -14.95 -21.55 -14.95 -37.31 c
0 -26.54 19.09 -45.61 45.66 -45.61 c
29.89 0 50.64 22.39 50.64 56.38 c
0 39.8 -28.23 66.4 -72.23 66.4 c
-52.3 0 -97.97 -42.24 -124.54 -115.09 c
h
f
-5895.03 19757 m
0 52.29 -9.17 78.85 -33.22 98.77 c
-27.36 21.58 -67.99 33.22 -121.06 33.22 c
-92.87 0 -161.7 -43.94 -161.7 -103.58 c
0 -31.48 19.08 -51.36 48.12 -51.36 c
25.72 0 44.82 17.34 44.82 42.13 c
0 10.74 -4.1 22.3 -12.29 33.87 c
-4.91 5.79 -5.73 8.26 -5.73 10.74 c
0 17.35 33.95 32.24 73.69 32.24 c
25.67 0 54.65 -8.34 67.89 -20.76 c
15.73 -13.24 21.57 -33.11 21.57 -70.36 c
0 -32.28 p
-87.26 -14.9 -113.86 -21.52 -154.57 -37.25 c
-71.47 -26.49 -106.37 -65.39 -106.37 -117.54 c
0 -58.77 47.45 -96.85 120.7 -96.85 c
57.44 0 109.05 23.07 144.85 65.12 c
13.32 -42.49 34.13 -59.15 73.31 -59.15 c
37.09 0 75.84 24.47 75.84 48.95 c
0 4.98 -4.18 9.13 -8.34 9.13 c
-3.33 0 -6.66 -0.83 -12.5 -3.32 c
-13.33 -4.98 -16.66 -5.81 -23.33 -5.81 c
-23.33 0 -31.66 15.77 -31.66 57.27 c
h
-5972.94 19656.1 m
0 -49.69 -2.53 -61.29 -16.66 -82.82 c
-20.77 -30.64 -59 -51.35 -94.74 -51.35 c
-37.39 0 -65.65 27.33 -65.65 64.6 c
0 34.79 17.45 59.63 54.02 77.02 c
25.76 11.6 58.17 19.88 123.03 30.65 c
h
f
-5647 19550.9 m
-45.65 0.83 -48.14 1.66 -58.1 7.48 c
-5.81 3.32 -9.96 12.46 -9.96 21.61 c
0 24.93 22.35 35.73 77.81 37.4 c
78.64 1.66 91.06 3.32 118.38 15.79 c
49.67 22.44 77.85 65.65 77.85 120.5 c
0 33.24 -7.36 54.02 -30.25 81.44 c
14.11 14.96 21.59 19.95 28.23 19.95 c
4.15 0 6.64 -2.48 8.3 -11.56 c
3.32 -19.81 16.61 -30.54 37.36 -30.54 c
20.76 0 37.36 17.44 37.36 39.87 c
0 28.24 -22.42 48.19 -54.8 48.19 c
-26.57 0 -41.51 -8.56 -79.7 -43.54 c
-34.87 23.25 -61.44 31.55 -102.95 31.55 c
-98.8 0 -163.55 -54.83 -163.55 -137.87 c
0 -49 26.57 -91.35 69.74 -111.28 c
-55.52 -12.45 -78.71 -37.37 -78.71 -83.04 c
0 -36.54 16.39 -58.13 54.94 -71.41 c
-51.13 -18.27 -75.86 -44.84 -75.86 -78.89 c
0 -54.81 63.96 -85.53 175.26 -85.53 c
138.71 0 208.57 43.98 208.57 131.11 c
0 41.49 -19.12 74.68 -49.84 87.13 c
-21.58 8.3 -48.14 11.67 -105.41 11.67 c
h
-5598.12 19853.1 m
52.19 0 81.19 -36.45 81.19 -100.19 c
0 -64.57 -31.48 -103.47 -84.5 -103.47 c
-51.36 0 -83.67 38.9 -83.67 100.99 c
0 65.39 31.48 102.68 86.98 102.68 c
h
-5605.57 19480 m
69.02 0 74.02 0 86.49 -1.67 c
33.27 -3.34 54.06 -21.67 54.06 -48.34 c
0 -47.51 -54.06 -75.01 -147.2 -75.01 c
-69.86 0 -109.77 20.84 -109.77 58.34 c
0 27.5 14.96 45.84 54.88 66.68 c
h
f
-4965.62 19877 -146.95 -9.03 0 -35.96 34.04 0 P
30.72 0 35.7 -5.84 35.7 -41.52 c
0 -231.52 p
0 -33.19 -9.13 -39 -63.09 -39 c
-3.32 0 0 -29.96 221.67 0 ^ -15.78 0 p
-53.13 0 -62.27 5.8 -62.27 38.97 c
0 41.46 p
0 62.2 11.63 125.21 32.38 172.48 c
19.93 46.44 48.15 72.14 83.02 76.29 c
-11.62 -13.27 -14.95 -21.55 -14.95 -37.31 c
0 -26.54 19.09 -45.61 45.66 -45.61 c
29.89 0 50.64 22.39 50.64 56.38 c
0 39.8 -28.23 66.4 -72.23 66.4 c
-52.3 0 -97.97 -42.24 -124.54 -115.09 c
h
f
-4373.95 19677 m
0.83 124.23 -69.74 212.02 -171.02 212.02 c
-106.27 0 -185.97 -92 -185.97 -216.29 c
0 -116 75.55 -194.72 187.63 -194.72 c
78.87 0 135.32 38.87 169.36 117.45 c
-29.05 15.74 p
-34.04 -63.51 -68.91 -88.25 -124.54 -88.25 c
-42.34 0 -73.06 18.22 -94.64 54.66 c
-14.95 24.85 -21.59 53.84 -20.75 99.39 c
h
-4642.11 19713 m
0 25.54 3.32 43.67 11.63 66.74 c
17.43 49.43 44 73.36 83.85 73.36 c
50.64 0 83.85 -43.7 83.85 -109.62 c
0 -23.89 -7.47 -30.48 -34.04 -30.48 c
h
f
-4173.07 19877 -143.68 -9.03 0 -35.96 29.96 0 P
30.8 0 35.8 -5.83 35.8 -41.54 c
0 -399.44 p
0 -33.21 -9.16 -39.02 -62.44 -39.02 c
-3.33 0 0 -29.97 215.86 0 ^ -9.13 0 p
-53.93 0 -63.05 5.81 -63.05 39.04 c
0 153.75 p
27.37 -47.82 58.89 -66.78 109.48 -66.78 c
96.21 0 167.59 88.66 167.59 207.15 c
0 114.34 -71.38 203.86 -162.62 203.86 c
-51.42 0 -85.43 -21.5 -114.46 -71.09 c
h
-4073.04 19844.1 m
57.05 0 90.13 -57.11 90.13 -153.94 c
0 -106.76 -33.91 -167.17 -92.61 -167.17 c
-58.7 0 -97.56 61.24 -97.56 156.41 c
0 102.62 37.2 164.7 100.04 164.7 c
h
f
-3691.02 20102 -153.2 -8.98 0 -35.96 40.53 0 P
29.78 0 34.76 -5.86 34.76 -41.55 c
0 -456.51 p
0 -33.2 -9.11 -39.01 -62.03 -39.01 c
-5.79 0 0 -29.96 215.03 0 ^ -5.85 0 p
-54.27 0 -63.45 5.81 -63.45 39.02 c
0 33.21 h
f
-3225.03 19757 m
0 52.29 -9.17 78.85 -33.22 98.77 c
-27.36 21.58 -67.99 33.22 -121.06 33.22 c
-92.87 0 -161.7 -43.94 -161.7 -103.58 c
0 -31.48 19.08 -51.36 48.12 -51.36 c
25.72 0 44.82 17.34 44.82 42.13 c
0 10.74 -4.1 22.3 -12.29 33.87 c
-4.91 5.79 -5.73 8.26 -5.73 10.74 c
0 17.35 33.95 32.24 73.69 32.24 c
25.67 0 54.65 -8.34 67.89 -20.76 c
15.73 -13.24 21.57 -33.11 21.57 -70.36 c
0 -32.28 p
-87.26 -14.9 -113.86 -21.52 -154.57 -37.25 c
-71.47 -26.49 -106.37 -65.39 -106.37 -117.54 c
0 -58.77 47.45 -96.85 120.7 -96.85 c
57.44 0 109.05 23.07 144.85 65.12 c
13.32 -42.49 34.13 -59.15 73.31 -59.15 c
37.09 0 75.84 24.47 75.84 48.95 c
0 4.98 -4.18 9.13 -8.34 9.13 c
-3.33 0 -6.66 -0.83 -12.5 -3.32 c
-13.33 -4.98 -16.66 -5.81 -23.33 -5.81 c
-23.33 0 -31.66 15.77 -31.66 57.27 c
h
-3302.94 19656.1 m
0 -49.69 -2.53 -61.29 -16.66 -82.82 c
-20.77 -30.64 -59 -51.35 -94.74 -51.35 c
-37.39 0 -65.65 27.33 -65.65 64.6 c
0 34.79 17.45 59.63 54.02 77.02 c
25.76 11.6 58.17 19.88 123.03 30.65 c
h
f
-2818.78 19612 m
-26.61 -59.23 -54.87 -83.09 -98.11 -83.09 c
-66.52 0 -108.09 60.35 -108.09 157.09 c
0 100.04 40.78 167.02 102.36 167.02 c
24.97 0 46.62 -11.58 46.62 -24.8 c
0 -2.48 -1.66 -4.96 -4.98 -9.91 c
-13.28 -15.7 -16.6 -23.96 -16.6 -38 c
0 -27.27 20.76 -46.27 49.82 -46.27 c
29.07 0 50.67 23.19 50.67 56.33 c
0 55.5 -55.7 98.61 -129.61 98.61 c
-107.95 0 -185.18 -88.69 -185.18 -212.14 c
0 -117.66 70.58 -198.86 173.56 -198.86 c
73.9 0 116.25 33.91 151.99 121.59 c
h
f
-2383.95 19677 m
0.83 124.23 -69.74 212.02 -171.02 212.02 c
-106.27 0 -185.97 -92 -185.97 -216.29 c
0 -116 75.55 -194.72 187.63 -194.72 c
78.87 0 135.32 38.87 169.36 117.45 c
-29.05 15.74 p
-34.04 -63.51 -68.91 -88.25 -124.54 -88.25 c
-42.34 0 -73.06 18.22 -94.64 54.66 c
-14.95 24.85 -21.59 53.84 -20.75 99.39 c
h
-2652.11 19713 m
0 25.54 3.32 43.67 11.63 66.74 c
17.43 49.43 44 73.36 83.85 73.36 c
50.64 0 83.85 -43.7 83.85 -109.62 c
0 -23.89 -7.47 -30.48 -34.04 -30.48 c
h
f
-2183.07 19877 -147.83 -9.03 0 -35.96 34.12 0 P
30.79 0 35.8 -5.84 35.8 -41.52 c
0 -230.69 p
0 -34.02 -9.16 -39.83 -62.44 -39.83 c
-3.33 0 0 -29.96 209.21 0 ^ -3.33 0 p
-53.08 0 -62.2 5.8 -62.2 39.77 c
0 149.94 p
0 73.73 40.68 128.41 94.64 128.41 c
21.59 0 44.83 -11.61 54.8 -27.35 c
11.62 -15.74 16.63 -39.76 16.63 -73.73 c
0 -178.11 p
0 -33.13 -9.16 -38.93 -63.17 -38.93 c
-3.32 0 0 -29.96 210.05 0 ^ -3.33 0 p
-53.17 0 -62.31 5.8 -62.31 38.93 c
0 143.31 p
0 82.84 37.39 135.87 95.54 135.87 c
27.42 0 49.85 -15.75 60.65 -41.43 c
7.48 -18.23 9.98 -36.45 9.98 -68.76 c
0 -168.99 p
0 -33.13 -9.16 -38.93 -63.17 -38.93 c
-3.32 0 0 -29.96 210.04 0 ^ -3.32 0 p
-53.18 0 -62.31 5.8 -62.31 39.8 c
0 184.91 p
0 51.41 -5 68.82 -26.58 97.02 c
-24.07 30.68 -58.1 47.33 -97.94 47.33 c
-53.95 0 -93.79 -25.65 -129.48 -82.71 c
-14.11 49.62 -58.93 82.71 -114.54 82.71 c
-49.8 0 -87.16 -23.98 -119.52 -76.07 c
h
f
-1223.95 19677 m
0.83 124.23 -69.74 212.02 -171.02 212.02 c
-106.27 0 -185.97 -92 -185.97 -216.29 c
0 -116 75.55 -194.72 187.63 -194.72 c
78.87 0 135.32 38.87 169.36 117.45 c
-29.05 15.74 p
-34.04 -63.51 -68.91 -88.25 -124.54 -88.25 c
-42.34 0 -73.06 18.22 -94.64 54.66 c
-14.95 24.85 -21.59 53.84 -20.75 99.39 c
h
-1492.11 19713 m
0 25.54 3.32 43.67 11.63 66.74 c
17.43 49.43 44 73.36 83.85 73.36 c
50.64 0 83.85 -43.7 83.85 -109.62 c
0 -23.89 -7.47 -30.48 -34.04 -30.48 c
h
f
-1024.01 19877 -143.58 -9.03 0 -35.96 29.92 0 P
30.75 0 35.75 -5.84 35.75 -41.52 c
0 -231.52 p
0 -33.19 -9.16 -39 -62.34 -39 c
-3.32 0 0 -29.96 210.05 0 ^ -3.33 0 p
-54 0 -63.14 5.8 -63.14 38.93 c
0 119.29 p
0 40.59 5.82 77.87 14.96 96.92 c
17.47 37.28 54.89 62.97 90.65 62.97 c
21.62 0 46.57 -12.44 59.05 -29.01 c
12.47 -17.4 18.32 -43.08 18.32 -82.84 c
0 -167.34 p
0 -33.13 -9.18 -38.93 -63.37 -38.93 c
-3.34 0 0 -29.96 210.05 0 ^ -3.32 0 p
-53 0 -62.12 5.8 -62.12 38.97 c
0 163.35 p
0 59.7 -2.51 74.63 -17.46 102.82 c
-20.77 39.8 -63.14 63.91 -112.16 63.91 c
-53.18 0 -94.71 -24.81 -131.27 -79.39 c
h
f
-518.99 19877 0 164.28 -34.04 0 P
-8.3 -108.02 -44.81 -162.85 -112.02 -167.84 c
0 -32.4 68.16 0 0 -211.38 p
0 -58 1.66 -78.71 9.95 -97.77 c
13.28 -34.8 46.47 -53.86 94.6 -53.86 c
32.36 0 60.57 9.93 79.66 28.14 c
27.39 26.49 43.19 70.36 43.19 115.89 c
0 4.97 0 10.76 -0.85 19.05 c
-34.88 0 p
-2.49 -74.22 -24.08 -112.14 -64.77 -112.14 c
-19.1 0 -35.71 9.93 -41.52 24 c
-4.98 11.59 -7.47 32.28 -7.47 62.07 c
0 226 122.09 0 0 35.96 h
f
-36.21 19886 -29.1 0 -24.09 -29.89 P
-29.89 23.02 -59.79 32.9 -101.31 32.9 c
-73.08 0 -121.24 -48.08 -121.24 -120.09 c
0 -32.28 10.79 -59.6 29.05 -76.16 c
19.1 -17.39 38.19 -25.66 88 -37.25 c
44 -9.93 p
65.59 -15.73 88.88 -32.28 88.88 -65.39 c
0 -38.91 -34.04 -66.22 -83.01 -66.22 c
-69.72 0 -119.52 44.57 -139.45 127.13 c
-33.2 0 0 -156.46 29.09 0 29.09 33.94 p
34.08 -27.32 72.32 -40.56 113.88 -40.56 c
81.46 0 135.54 50.46 135.54 127.41 c
0 36.4 -11.7 64.54 -35.01 83.56 c
-19.98 17.38 -36.63 24 -87.41 34.75 c
-41.62 9.1 p
-45.79 9.93 -45.79 9.93 -60.77 18.21 c
-18.32 8.27 -29.14 25.65 -29.14 43.85 c
0 33.09 31.59 57.17 77.3 57.17 c
31.59 0 57.36 -10.77 80.63 -33.1 c
18.29 -18.2 27.43 -34.74 40.73 -72.79 c
29.13 0 h
f
q[8000 0 0 -40 -7991 19189]concat
1 1 false[1 0 0 -1 0 0]@X
imagemask
!!~>
Q
Q q
0 0 48000 0 0 36000 ^ Y
0.996264 i
K
9356.14 3080.98 m
-16.96 115.37 -92.48 184 -199.79 184 c
-77.5 0 -147.05 -37.88 -188.78 -100.62 c
-43.72 -68.71 -63.59 -155.34 -63.59 -283.8 c
0 -118.5 17.88 -194.17 59.61 -256.91 c
37.75 -56.76 99.36 -87.63 176.86 -87.63 c
134.13 0 230.56 99.55 230.56 237.93 c
0 131.41 -89.6 224.02 -215.91 224.02 c
-69.62 0 -124.32 -26.68 -162.11 -78.02 c
0.99 171.68 56.7 267 157.18 267 c
61.68 0 104.46 -38.64 118.39 -105.98 c
h
9143.72 2919.96 m
84.56 0 137.29 -58.65 137.29 -153 c
0 -88.38 -59.7 -152.93 -140.27 -152.93 c
-81.57 0 -143.25 67.53 -143.25 157.9 c
0 87.39 59.69 148.03 146.23 148.03 c
h
f
9489.02 2559 327.69 0 P
68.73 0 119.52 18.92 158.36 60.74 c
35.86 37.84 55.9 89.62 55.9 146.38 c
0 87.63 -39.95 140.4 -132.8 176.25 c
65.9 30.87 100.86 84.64 100.86 158.33 c
0 52.77 -19.97 99.57 -57.82 133.43 c
-37.85 34.85 -87.65 50.89 -157.37 50.89 c
-294.82 0 h
9582.03 2973.02 0 230 178.84 0 P
51.67 0 80.48 -6.99 105.32 -25.82 c
25.83 -19.82 39.82 -49.55 39.82 -89.2 c
0 -38.66 -13.99 -69.38 -39.82 -89.2 c
-24.84 -18.83 -53.65 -25.77 -105.32 -25.77 c
h
9582.03 2641.01 0 249.99 225.65 0 P
44.73 0 74.56 -11 96.43 -34.9 c
21.87 -22.91 33.85 -54.77 33.85 -90.62 c
0 -34.86 -11.98 -66.72 -33.85 -89.62 c
-21.87 -23.9 -51.69 -34.85 -96.43 -34.85 c
h
f
10220 3080.98 -84.01 0 0 -521.98 ^ H
10220 3285.03 -84.01 0 0 -104.36 ^ H
f
10360 3081.04 0 -522.04 84.01 0 0 287.71 P
0 106.52 55.55 176.27 140.85 176.27 c
65.46 0 107.13 -39.88 107.13 -102.6 c
0 -361.37 83.01 0 0 394.52 p
0 86.68 -64.62 142.46 -165.02 142.46 c
-77.54 0 -127.24 -29.89 -172.97 -102.61 c
0 87.67 h
f
11344 2646.01 -371.52 0 P
8.96 57.71 40.84 94.53 127.49 145.28 c
99.61 53.73 p
98.61 53.73 149.46 126.37 149.46 212.94 c
0 58.71 -23.96 113.44 -65.79 151.25 c
-41.83 37.81 -93.62 55.77 -160.36 55.77 c
-89.64 0 -156.37 -31.87 -195.22 -91.55 c
-24.9 -37.79 -35.86 -81.55 -37.85 -153.16 c
87.56 0 p
2.98 47.62 8.96 76.39 20.89 99.21 c
22.89 42.66 68.66 68.48 121.39 68.48 c
79.61 0 139.35 -56.81 139.35 -132.44 c
0 -55.72 -32.9 -103.48 -95.59 -139.31 c
-91.55 -51.74 p
-147.26 -83.59 -190.05 -150.25 -198.01 -305.48 c
470.12 0 h
f
13489.1 3080.98 m
-16.96 115.37 -92.48 184 -199.79 184 c
-77.5 0 -147.05 -37.88 -188.78 -100.62 c
-43.72 -68.71 -63.59 -155.34 -63.59 -283.8 c
0 -118.5 17.88 -194.17 59.61 -256.91 c
37.75 -56.76 99.36 -87.63 176.86 -87.63 c
134.13 0 230.56 99.55 230.56 237.93 c
0 131.41 -89.6 224.02 -215.91 224.02 c
-69.62 0 -124.32 -26.68 -162.11 -78.02 c
0.99 171.68 56.7 267 157.18 267 c
61.68 0 104.46 -38.64 118.39 -105.98 c
h
13276.7 2919.96 m
84.56 0 137.29 -58.65 137.29 -153 c
0 -88.38 -59.7 -152.93 -140.27 -152.93 c
-81.57 0 -143.25 67.53 -143.25 157.9 c
0 87.39 59.69 148.03 146.23 148.03 c
h
f
13622 2559 327.69 0 P
68.73 0 119.52 18.92 158.36 60.74 c
35.86 37.84 55.9 89.62 55.9 146.38 c
0 87.63 -39.95 140.4 -132.8 176.25 c
65.9 30.87 100.86 84.64 100.86 158.33 c
0 52.77 -19.97 99.57 -57.82 133.43 c
-37.85 34.85 -87.65 50.89 -157.37 50.89 c
-294.82 0 h
13715 2973.02 0 230 178.84 0 P
51.67 0 80.48 -6.99 105.32 -25.82 c
25.83 -19.82 39.82 -49.55 39.82 -89.2 c
0 -38.66 -13.99 -69.38 -39.82 -89.2 c
-24.84 -18.83 -53.65 -25.77 -105.32 -25.77 c
h
13715 2641.01 0 249.99 225.65 0 P
44.73 0 74.56 -11 96.43 -34.9 c
21.87 -22.91 33.85 -54.77 33.85 -90.62 c
0 -34.86 -11.98 -66.72 -33.85 -89.62 c
-21.87 -23.9 -51.69 -34.85 -96.43 -34.85 c
h
f
14353 3080.98 -84.01 0 0 -521.98 ^ H
14353 3285.03 -84.01 0 0 -104.36 ^ H
f
14493 3081.04 0 -522.04 84.01 0 0 287.71 P
0 106.52 55.55 176.27 140.85 176.27 c
65.46 0 107.13 -39.88 107.13 -102.6 c
0 -361.37 83.01 0 0 394.52 p
0 86.68 -64.62 142.46 -165.02 142.46 c
-77.54 0 -127.24 -29.89 -172.97 -102.61 c
0 87.67 h
f
15193.2 2882.97 47.69 0 P
96.38 0 146.11 -43.67 146.11 -128.02 c
0 -88.32 -54.8 -140.92 -146.32 -140.92 c
-95.5 0 -142.26 47.74 -148.23 150.2 c
-87.54 0 p
3.98 -56.81 13.94 -93.68 30.87 -125.57 c
35.84 -67.76 105.55 -102.64 202.14 -102.64 c
145.38 0 239.09 86.63 239.09 220.07 c
0 89.62 -34.85 139.41 -119.43 168.29 c
65.63 25.89 98.44 75.68 98.44 146.38 c
0 121.48 -80.68 194.22 -215.11 194.22 c
-142.39 0 -218.08 -77.59 -221.06 -227.77 c
87.52 0 p
1 42.64 4.97 66.44 15.91 88.25 c
19.89 38.68 63.65 62.5 118.35 62.5 c
77.58 0 124.38 -45.63 124.38 -119.96 c
0 -49.56 -17.89 -79.29 -56.62 -95.15 c
-23.83 -9.91 -54.62 -13.88 -116.19 -14.87 c
h
f
17622.1 3080.98 m
-16.96 115.37 -92.48 184 -199.79 184 c
-77.5 0 -147.05 -37.88 -188.78 -100.62 c
-43.72 -68.71 -63.59 -155.34 -63.59 -283.8 c
0 -118.5 17.88 -194.17 59.61 -256.91 c
37.75 -56.76 99.36 -87.63 176.86 -87.63 c
134.13 0 230.56 99.55 230.56 237.93 c
0 131.41 -89.6 224.02 -215.91 224.02 c
-69.62 0 -124.32 -26.68 -162.11 -78.02 c
0.99 171.68 56.7 267 157.18 267 c
61.68 0 104.46 -38.64 118.39 -105.98 c
h
17409.7 2919.96 m
84.56 0 137.29 -58.65 137.29 -153 c
0 -88.38 -59.7 -152.93 -140.27 -152.93 c
-81.57 0 -143.25 67.53 -143.25 157.9 c
0 87.39 59.69 148.03 146.23 148.03 c
h
f
17755 2559 327.69 0 P
68.73 0 119.52 18.92 158.36 60.74 c
35.86 37.84 55.9 89.62 55.9 146.38 c
0 87.63 -39.95 140.4 -132.8 176.25 c
65.9 30.87 100.86 84.64 100.86 158.33 c
0 52.77 -19.97 99.57 -57.82 133.43 c
-37.85 34.85 -87.65 50.89 -157.37 50.89 c
-294.82 0 h
17848 2973.02 0 230 178.84 0 P
51.67 0 80.48 -6.99 105.32 -25.82 c
25.83 -19.82 39.82 -49.55 39.82 -89.2 c
0 -38.66 -13.99 -69.38 -39.82 -89.2 c
-24.84 -18.83 -53.65 -25.77 -105.32 -25.77 c
h
17848 2641.01 0 249.99 225.65 0 P
44.73 0 74.56 -11 96.43 -34.9 c
21.87 -22.91 33.85 -54.77 33.85 -90.62 c
0 -34.86 -11.98 -66.72 -33.85 -89.62 c
-21.87 -23.9 -51.69 -34.85 -96.43 -34.85 c
h
f
18486 3080.98 -84.01 0 0 -521.98 ^ H
18486 3285.03 -84.01 0 0 -104.36 ^ H
f
18626 3081.04 0 -522.04 84.01 0 0 287.71 P
0 106.52 55.55 176.27 140.85 176.27 c
65.46 0 107.13 -39.88 107.13 -102.6 c
0 -361.37 83.01 0 0 394.52 p
0 86.68 -64.62 142.46 -165.02 142.46 c
-77.54 0 -127.24 -29.89 -172.97 -102.61 c
0 87.67 h
f
19364 3061.86 0 -502.86 88.02 0 0 706.11 -57.89 0 P
-30.91 -108.64 -50.86 -123.58 -186.48 -140.51 c
0 -62.74 h
f
21586 2726 0 -169 88.01 0 ^ 104.02 0 0 79.01 ^ 0 457.97 
-64.88 0 -321.27 -444.35 0 -92.63 H
21586 2805.01 -221.42 0 221.42 308.9 H
f
21889 2557 327.69 0 P
68.73 0 119.52 18.92 158.36 60.74 c
35.86 37.84 55.9 89.62 55.9 146.38 c
0 87.63 -39.95 140.4 -132.8 176.25 c
65.9 30.87 100.86 84.64 100.86 158.33 c
0 52.77 -19.97 99.57 -57.82 133.43 c
-37.85 34.85 -87.65 50.89 -157.37 50.89 c
-294.82 0 h
21982 2971.02 0 230 178.84 0 P
51.67 0 80.48 -6.99 105.32 -25.82 c
25.83 -19.82 39.82 -49.55 39.82 -89.2 c
0 -38.66 -13.99 -69.38 -39.82 -89.2 c
-24.84 -18.83 -53.65 -25.77 -105.32 -25.77 c
h
21982 2639.01 0 249.99 225.65 0 P
44.73 0 74.56 -11 96.43 -34.9 c
21.87 -22.91 33.85 -54.77 33.85 -90.62 c
0 -34.86 -11.98 -66.72 -33.85 -89.62 c
-21.87 -23.9 -51.69 -34.85 -96.43 -34.85 c
h
f
22620 3078.98 -84.01 0 0 -521.98 ^ H
22620 3283.03 -84.01 0 0 -104.36 ^ H
f
22760 3079.04 0 -522.04 84.01 0 0 287.71 P
0 106.52 55.55 176.27 140.85 176.27 c
65.46 0 107.13 -39.88 107.13 -102.6 c
0 -361.37 83.01 0 0 394.52 p
0 86.68 -64.62 142.46 -165.02 142.46 c
-77.54 0 -127.24 -29.89 -172.97 -102.61 c
0 87.67 h
f
23498 3059.86 0 -502.86 88.02 0 0 706.11 -57.89 0 P
-30.91 -108.64 -50.86 -123.58 -186.48 -140.51 c
0 -62.74 h
f
25719 2726 0 -169 88.01 0 ^ 104.02 0 0 79.01 ^ 0 457.97 
-64.88 0 -321.27 -444.35 0 -92.63 H
25719 2805.01 -221.42 0 221.42 308.9 H
f
26022 2557 327.69 0 P
68.73 0 119.52 18.92 158.36 60.74 c
35.86 37.84 55.9 89.62 55.9 146.38 c
0 87.63 -39.95 140.4 -132.8 176.25 c
65.9 30.87 100.86 84.64 100.86 158.33 c
0 52.77 -19.97 99.57 -57.82 133.43 c
-37.85 34.85 -87.65 50.89 -157.37 50.89 c
-294.82 0 h
26115 2971.02 0 230 178.84 0 P
51.67 0 80.48 -6.99 105.32 -25.82 c
25.83 -19.82 39.82 -49.55 39.82 -89.2 c
0 -38.66 -13.99 -69.38 -39.82 -89.2 c
-24.84 -18.83 -53.65 -25.77 -105.32 -25.77 c
h
26115 2639.01 0 249.99 225.65 0 P
44.73 0 74.56 -11 96.43 -34.9 c
21.87 -22.91 33.85 -54.77 33.85 -90.62 c
0 -34.86 -11.98 -66.72 -33.85 -89.62 c
-21.87 -23.9 -51.69 -34.85 -96.43 -34.85 c
h
f
26753 3078.98 -84.01 0 0 -521.98 ^ H
26753 3283.03 -84.01 0 0 -104.36 ^ H
f
26893 3079.04 0 -522.04 84.01 0 0 287.71 P
0 106.52 55.55 176.27 140.85 176.27 c
65.46 0 107.13 -39.88 107.13 -102.6 c
0 -361.37 83.01 0 0 394.52 p
0 86.68 -64.62 142.46 -165.02 142.46 c
-77.54 0 -127.24 -29.89 -172.97 -102.61 c
0 87.67 h
f
27877 2644.01 -371.52 0 P
8.96 57.71 40.84 94.53 127.49 145.28 c
99.61 53.73 p
98.61 53.73 149.46 126.37 149.46 212.94 c
0 58.71 -23.96 113.44 -65.79 151.25 c
-41.83 37.81 -93.62 55.77 -160.36 55.77 c
-89.64 0 -156.37 -31.87 -195.22 -91.55 c
-24.9 -37.79 -35.86 -81.55 -37.85 -153.16 c
87.56 0 p
2.98 47.62 8.96 76.39 20.89 99.21 c
22.89 42.66 68.66 68.48 121.39 68.48 c
79.61 0 139.35 -56.81 139.35 -132.44 c
0 -55.72 -32.9 -103.48 -95.59 -139.31 c
-91.55 -51.74 p
-147.26 -83.59 -190.05 -150.25 -198.01 -305.48 c
470.12 0 h
f
29852 2728 0 -169 88.01 0 ^ 104.02 0 0 79.01 ^ 0 457.97 
-64.88 0 -321.27 -444.35 0 -92.63 H
29852 2807.01 -221.42 0 221.42 308.9 H
f
30155 2559 327.69 0 P
68.73 0 119.52 18.92 158.36 60.74 c
35.86 37.84 55.9 89.62 55.9 146.38 c
0 87.63 -39.95 140.4 -132.8 176.25 c
65.9 30.87 100.86 84.64 100.86 158.33 c
0 52.77 -19.97 99.57 -57.82 133.43 c
-37.85 34.85 -87.65 50.89 -157.37 50.89 c
-294.82 0 h
30248 2973.02 0 230 178.84 0 P
51.67 0 80.48 -6.99 105.32 -25.82 c
25.83 -19.82 39.82 -49.55 39.82 -89.2 c
0 -38.66 -13.99 -69.38 -39.82 -89.2 c
-24.84 -18.83 -53.65 -25.77 -105.32 -25.77 c
h
30248 2641.01 0 249.99 225.65 0 P
44.73 0 74.56 -11 96.43 -34.9 c
21.87 -22.91 33.85 -54.77 33.85 -90.62 c
0 -34.86 -11.98 -66.72 -33.85 -89.62 c
-21.87 -23.9 -51.69 -34.85 -96.43 -34.85 c
h
f
30886 3080.98 -84.01 0 0 -521.98 ^ H
30886 3285.03 -84.01 0 0 -104.36 ^ H
f
31026 3081.04 0 -522.04 84.01 0 0 287.71 P
0 106.52 55.55 176.27 140.85 176.27 c
65.46 0 107.13 -39.88 107.13 -102.6 c
0 -361.37 83.01 0 0 394.52 p
0 86.68 -64.62 142.46 -165.02 142.46 c
-77.54 0 -127.24 -29.89 -172.97 -102.61 c
0 87.67 h
f
31726.2 2882.97 47.69 0 P
96.38 0 146.11 -43.67 146.11 -128.02 c
0 -88.32 -54.8 -140.92 -146.32 -140.92 c
-95.5 0 -142.26 47.74 -148.23 150.2 c
-87.54 0 p
3.98 -56.81 13.94 -93.68 30.87 -125.57 c
35.84 -67.76 105.55 -102.64 202.14 -102.64 c
145.38 0 239.09 86.63 239.09 220.07 c
0 89.62 -34.85 139.41 -119.43 168.29 c
65.63 25.89 98.44 75.68 98.44 146.38 c
0 121.48 -80.68 194.22 -215.11 194.22 c
-142.39 0 -218.08 -77.59 -221.06 -227.77 c
87.52 0 p
1 42.64 4.97 66.44 15.91 88.25 c
19.89 38.68 63.65 62.5 118.35 62.5 c
77.58 0 124.38 -45.63 124.38 -119.96 c
0 -49.56 -17.89 -79.29 -56.62 -95.15 c
-23.83 -9.91 -54.62 -13.88 -116.19 -14.87 c
h
f
33986 2726 0 -169 88.01 0 ^ 104.02 0 0 79.01 ^ 0 457.97 
-64.88 0 -321.27 -444.35 0 -92.63 H
33986 2805.01 -221.42 0 221.42 308.9 H
f
34289 2557 327.69 0 P
68.73 0 119.52 18.92 158.36 60.74 c
35.86 37.84 55.9 89.62 55.9 146.38 c
0 87.63 -39.95 140.4 -132.8 176.25 c
65.9 30.87 100.86 84.64 100.86 158.33 c
0 52.77 -19.97 99.57 -57.82 133.43 c
-37.85 34.85 -87.65 50.89 -157.37 50.89 c
-294.82 0 h
34382 2971.02 0 230 178.84 0 P
51.67 0 80.48 -6.99 105.32 -25.82 c
25.83 -19.82 39.82 -49.55 39.82 -89.2 c
0 -38.66 -13.99 -69.38 -39.82 -89.2 c
-24.84 -18.83 -53.65 -25.77 -105.32 -25.77 c
h
34382 2639.01 0 249.99 225.65 0 P
44.73 0 74.56 -11 96.43 -34.9 c
21.87 -22.91 33.85 -54.77 33.85 -90.62 c
0 -34.86 -11.98 -66.72 -33.85 -89.62 c
-21.87 -23.9 -51.69 -34.85 -96.43 -34.85 c
h
f
35020 3078.98 -84.01 0 0 -521.98 ^ H
35020 3283.03 -84.01 0 0 -104.36 ^ H
f
35160 3079.04 0 -522.04 84.01 0 0 287.71 P
0 106.52 55.55 176.27 140.85 176.27 c
65.46 0 107.13 -39.88 107.13 -102.6 c
0 -361.37 83.01 0 0 394.52 p
0 86.68 -64.62 142.46 -165.02 142.46 c
-77.54 0 -127.24 -29.89 -172.97 -102.61 c
0 87.67 h
f
35966 2726 0 -169 88.01 0 ^ 104.02 0 0 79.01 ^ 0 457.97 
-64.88 0 -321.27 -444.35 0 -92.63 H
35966 2805.01 -221.42 0 221.42 308.9 H
f
4218.98 4017.01 m
0 22.93 0 24 -19.94 24 c
-23.92 -27 -73.75 -64.01 -176.38 -64.01 c
0 -29 p
22.87 0 72.6 0 127.32 25.77 c
0 -518.95 p
0 -35.86 -2.99 -47.81 -90.51 -47.81 c
-30.83 0 0 -29 p
26.9 1.99 123.54 1.99 156.41 1.99 c
32.88 0 128.52 0 155.42 -1.99 c
0 29 -30.89 0 p
-87.6 0 -90.59 11.96 -90.59 47.84 c
h
f
4605 3426.01 m
0 29 -24 49.01 -48.01 49.01 c
-29 0 -49.01 -24 -49.01 -48.01 c
0 -29 24 -49.01 48.01 -49.01 c
29.01 0 49.01 24 49.01 48.01 c
h
f
5138.02 3696.99 m
0 82.75 -5.04 163.51 -40.86 239.28 c
-40.8 82.75 -112.44 104.75 -161.2 104.75 c
-57.71 0 -128.36 -28.97 -165.18 -111.72 c
-27.86 -62.81 -37.81 -124.62 -37.81 -232.3 c
0 -96.71 6.96 -169.49 42.79 -240.28 c
38.8 -75.77 107.46 -99.7 159.21 -99.7 c
86.57 0 136.32 51.84 165.18 109.67 c
35.82 74.77 37.88 172.48 37.88 230.3 c
h
4934.98 3377.02 m
-31.75 0 -96.24 17.94 -115.09 126.58 c
-10.91 59.81 -10.91 135.56 -10.91 205.33 c
0 81.73 0 155.5 15.87 214.3 c
16.86 66.78 67.46 97.77 110.13 97.77 c
37.7 0 95.24 -23.02 114.09 -108.74 c
12.93 -56.81 12.93 -135.56 12.93 -203.34 c
0 -66.78 0 -142.54 -10.95 -203.34 c
-18.85 -109.64 -81.36 -128.58 -116.07 -128.58 c
h
f
5628.02 3696.99 m
0 82.75 -5.04 163.51 -40.86 239.28 c
-40.8 82.75 -112.44 104.75 -161.2 104.75 c
-57.71 0 -128.36 -28.97 -165.18 -111.72 c
-27.86 -62.81 -37.81 -124.62 -37.81 -232.3 c
0 -96.71 6.96 -169.49 42.79 -240.28 c
38.8 -75.77 107.46 -99.7 159.21 -99.7 c
86.57 0 136.32 51.84 165.18 109.67 c
35.82 74.77 37.88 172.48 37.88 230.3 c
h
5424.98 3377.02 m
-31.75 0 -96.24 17.94 -115.09 126.58 c
-10.91 59.81 -10.91 135.56 -10.91 205.33 c
0 81.73 0 155.5 15.87 214.3 c
16.86 66.78 67.46 97.77 110.13 97.77 c
37.7 0 95.24 -23.02 114.09 -108.74 c
12.93 -56.81 12.93 -135.56 12.93 -203.34 c
0 -66.78 0 -142.54 -10.95 -203.34 c
-18.85 -109.64 -81.36 -128.58 -116.07 -128.58 c
h
f
4218.98 8725.01 m
0 22.93 0 24 -19.94 24 c
-23.92 -27 -73.75 -64.01 -176.38 -64.01 c
0 -29 p
22.87 0 72.6 0 127.32 25.77 c
0 -518.95 p
0 -35.86 -2.99 -47.81 -90.51 -47.81 c
-30.83 0 0 -29 p
26.9 1.99 123.54 1.99 156.41 1.99 c
32.88 0 128.52 0 155.42 -1.99 c
0 29 -30.89 0 p
-87.6 0 -90.59 11.96 -90.59 47.84 c
h
f
4605 8134.01 m
0 29 -24 49.01 -48.01 49.01 c
-29 0 -49.01 -24 -49.01 -48.01 c
0 -29 24 -49.01 48.01 -49.01 c
29.01 0 49.01 24 49.01 48.01 c
h
f
5138.02 8404.99 m
0 82.75 -5.04 163.51 -40.86 239.28 c
-40.8 82.75 -112.44 104.75 -161.2 104.75 c
-57.71 0 -128.36 -28.97 -165.18 -111.72 c
-27.86 -62.81 -37.81 -124.62 -37.81 -232.3 c
0 -96.71 6.96 -169.49 42.79 -240.28 c
38.8 -75.77 107.46 -99.7 159.21 -99.7 c
86.57 0 136.32 51.84 165.18 109.67 c
35.82 74.77 37.88 172.48 37.88 230.3 c
h
4934.98 8085.02 m
-31.75 0 -96.24 17.94 -115.09 126.58 c
-10.91 59.81 -10.91 135.56 -10.91 205.33 c
0 81.73 0 155.5 15.87 214.3 c
16.86 66.78 67.46 97.77 110.13 97.77 c
37.7 0 95.24 -23.02 114.09 -108.74 c
12.93 -56.81 12.93 -135.56 12.93 -203.34 c
0 -66.78 0 -142.54 -10.95 -203.34 c
-18.85 -109.64 -81.36 -128.58 -116.07 -128.58 c
h
f
5310 8656.86 m
42.75 -13.87 77.56 -14.86 88.49 -14.86 c
112.36 0 184 83.01 184 97.02 c
0 4 -2.06 9 -8.02 9 c
-1.99 0 -3.98 0 -12.93 -4 c
-55.71 -24 -103.46 -27 -129.33 -27 c
-65.66 0 -112.41 20 -131.31 28 c
-6.96 3 -8.96 3 -9.95 3 c
-7.96 0 -7.96 -6.07 -7.96 -22.02 c
0 -296.25 p
0 -17.96 0 -23.94 11.57 -23.94 c
4.82 0 5.79 0.99 15.43 12.86 c
27.99 40.57 74.97 64.33 124.96 64.33 c
52.98 0 78.97 -48.76 86.97 -65.68 c
16.99 -38.8 18.04 -87.54 18.04 -125.35 c
0 -37.8 0 -94.5 -27.93 -139.27 c
-21.94 -35.82 -60.83 -60.68 -104.71 -60.68 c
-65.82 0 -130.64 44.81 -148.59 117.52 c
4.99 -2.39 10.97 -3.58 15.96 -3.58 c
16.95 0 43.88 10 43.88 44.01 c
0 28 -18.95 44 -43.88 44 c
-17.95 0 -43.88 -9 -43.88 -47.81 c
0 -84.6 67.84 -181.14 178.59 -181.14 c
112.74 0 211.57 94.55 211.57 220.95 c
0 118.44 -79.8 217.03 -184.43 217.03 c
-56.8 0 -100.65 -24.71 -126.55 -52.37 c
h
f
4218.98 13433 m
0 22.93 0 24 -19.94 24 c
-23.92 -27 -73.75 -64.01 -176.38 -64.01 c
0 -29 p
22.87 0 72.6 0 127.32 25.77 c
0 -518.95 p
0 -35.86 -2.99 -47.81 -90.51 -47.81 c
-30.83 0 0 -29 p
26.9 1.99 123.54 1.99 156.41 1.99 c
32.88 0 128.52 0 155.42 -1.99 c
0 29 -30.89 0 p
-87.6 0 -90.59 11.96 -90.59 47.84 c
h
f
4605 12842 m
0 29 -24 49.01 -48.01 49.01 c
-29 0 -49.01 -24 -49.01 -48.01 c
0 -29 24 -49.01 48.01 -49.01 c
29.01 0 49.01 24 49.01 48.01 c
h
f
4978.98 13433 m
0 22.93 0 24 -19.94 24 c
-23.92 -27 -73.75 -64.01 -176.38 -64.01 c
0 -29 p
22.87 0 72.6 0 127.32 25.77 c
0 -518.95 p
0 -35.86 -2.99 -47.81 -90.51 -47.81 c
-30.83 0 0 -29 p
26.9 1.99 123.54 1.99 156.41 1.99 c
32.88 0 128.52 0 155.42 -1.99 c
0 29 -30.89 0 p
-87.6 0 -90.59 11.96 -90.59 47.84 c
h
f
5628.02 13113 m
0 82.75 -5.04 163.51 -40.86 239.28 c
-40.8 82.75 -112.44 104.75 -161.2 104.75 c
-57.71 0 -128.36 -28.97 -165.18 -111.72 c
-27.86 -62.81 -37.81 -124.62 -37.81 -232.3 c
0 -96.71 6.96 -169.49 42.79 -240.28 c
38.8 -75.77 107.46 -99.7 159.21 -99.7 c
86.57 0 136.32 51.84 165.18 109.67 c
35.82 74.77 37.88 172.48 37.88 230.3 c
h
5424.98 12793 m
-31.75 0 -96.24 17.94 -115.09 126.58 c
-10.91 59.81 -10.91 135.56 -10.91 205.33 c
0 81.73 0 155.5 15.87 214.3 c
16.86 66.78 67.46 97.77 110.13 97.77 c
37.7 0 95.24 -23.02 114.09 -108.74 c
12.93 -56.81 12.93 -135.56 12.93 -203.34 c
0 -66.78 0 -142.54 -10.95 -203.34 c
-18.85 -109.64 -81.36 -128.58 -116.07 -128.58 c
h
f
4218.98 18142 m
0 22.93 0 24 -19.94 24 c
-23.92 -27 -73.75 -64.01 -176.38 -64.01 c
0 -29 p
22.87 0 72.6 0 127.32 25.77 c
0 -518.95 p
0 -35.86 -2.99 -47.81 -90.51 -47.81 c
-30.83 0 0 -29 p
26.9 1.99 123.54 1.99 156.41 1.99 c
32.88 0 128.52 0 155.42 -1.99 c
0 29 -30.89 0 p
-87.6 0 -90.59 11.96 -90.59 47.84 c
h
f
4605 17551 m
0 29 -24 49.01 -48.01 49.01 c
-29 0 -49.01 -24 -49.01 -48.01 c
0 -29 24 -49.01 48.01 -49.01 c
29.01 0 49.01 24 49.01 48.01 c
h
f
4978.98 18142 m
0 22.93 0 24 -19.94 24 c
-23.92 -27 -73.75 -64.01 -176.38 -64.01 c
0 -29 p
22.87 0 72.6 0 127.32 25.77 c
0 -518.95 p
0 -35.86 -2.99 -47.81 -90.51 -47.81 c
-30.83 0 0 -29 p
26.9 1.99 123.54 1.99 156.41 1.99 c
32.88 0 128.52 0 155.42 -1.99 c
0 29 -30.89 0 p
-87.6 0 -90.59 11.96 -90.59 47.84 c
h
f
5310 18073.9 m
42.75 -13.87 77.56 -14.86 88.49 -14.86 c
112.36 0 184 83.01 184 97.02 c
0 4 -2.06 9 -8.02 9 c
-1.99 0 -3.98 0 -12.93 -4 c
-55.71 -24 -103.46 -27 -129.33 -27 c
-65.66 0 -112.41 20 -131.31 28 c
-6.96 3 -8.96 3 -9.95 3 c
-7.96 0 -7.96 -6.07 -7.96 -22.02 c
0 -296.25 p
0 -17.96 0 -23.94 11.57 -23.94 c
4.82 0 5.79 0.99 15.43 12.86 c
27.99 40.57 74.97 64.33 124.96 64.33 c
52.98 0 78.97 -48.76 86.97 -65.68 c
16.99 -38.8 18.04 -87.54 18.04 -125.35 c
0 -37.8 0 -94.5 -27.93 -139.27 c
-21.94 -35.82 -60.83 -60.68 -104.71 -60.68 c
-65.82 0 -130.64 44.81 -148.59 117.52 c
4.99 -2.39 10.97 -3.58 15.96 -3.58 c
16.95 0 43.88 10 43.88 44.01 c
0 28 -18.95 44 -43.88 44 c
-17.95 0 -43.88 -9 -43.88 -47.81 c
0 -84.6 67.84 -181.14 178.59 -181.14 c
112.74 0 211.57 94.55 211.57 220.95 c
0 118.44 -79.8 217.03 -184.43 217.03 c
-56.8 0 -100.65 -24.71 -126.55 -52.37 c
h
f
4218.98 22850 m
0 22.93 0 24 -19.94 24 c
-23.92 -27 -73.75 -64.01 -176.38 -64.01 c
0 -29 p
22.87 0 72.6 0 127.32 25.77 c
0 -518.95 p
0 -35.86 -2.99 -47.81 -90.51 -47.81 c
-30.83 0 0 -29 p
26.9 1.99 123.54 1.99 156.41 1.99 c
32.88 0 128.52 0 155.42 -1.99 c
0 29 -30.89 0 p
-87.6 0 -90.59 11.96 -90.59 47.84 c
h
f
4605 22259 m
0 29 -24 49.01 -48.01 49.01 c
-29 0 -49.01 -24 -49.01 -48.01 c
0 -29 24 -49.01 48.01 -49.01 c
29.01 0 49.01 24 49.01 48.01 c
h
f
5130.99 22378.4 -21.97 0 P
-3 -16.89 -10.98 -71.53 -20.96 -87.42 c
-6.99 -8.94 -63.89 -8.94 -93.83 -8.94 c
-184.67 0 p
26.95 22.92 87.84 86.7 113.8 110.61 c
151.73 139.51 207.64 191.33 207.64 289.98 c
0 114.6 -90.82 191.41 -206.5 191.41 c
-115.68 0 -183.49 -99.02 -183.49 -185.04 c
0 -51.01 44.01 -51.01 47.01 -51.01 c
21 0 47.01 15 47.01 47.01 c
0 28 -19.11 47.01 -47.25 47.01 c
-9.05 0 -11.06 0 -14.07 0 c
18.94 67.41 72.8 113.02 137.61 113.02 c
84.77 0 136.67 -70.85 136.67 -162.55 c
0 -84.72 -48.88 -158.48 -105.68 -222.27 c
-201.29 -225.27 0 -23.92 363.99 0 h
f
5628.02 22530 m
0 82.75 -5.04 163.51 -40.86 239.28 c
-40.8 82.75 -112.44 104.75 -161.2 104.75 c
-57.71 0 -128.36 -28.97 -165.18 -111.72 c
-27.86 -62.81 -37.81 -124.62 -37.81 -232.3 c
0 -96.71 6.96 -169.49 42.79 -240.28 c
38.8 -75.77 107.46 -99.7 159.21 -99.7 c
86.57 0 136.32 51.84 165.18 109.67 c
35.82 74.77 37.88 172.48 37.88 230.3 c
h
5424.98 22210 m
-31.75 0 -96.24 17.94 -115.09 126.58 c
-10.91 59.81 -10.91 135.56 -10.91 205.33 c
0 81.73 0 155.5 15.87 214.3 c
16.86 66.78 67.46 97.77 110.13 97.77 c
37.7 0 95.24 -23.02 114.09 -108.74 c
12.93 -56.81 12.93 -135.56 12.93 -203.34 c
0 -66.78 0 -142.54 -10.95 -203.34 c
-18.85 -109.64 -81.36 -128.58 -116.07 -128.58 c
h
f
4218.98 27558 m
0 22.93 0 24 -19.94 24 c
-23.92 -27 -73.75 -64.01 -176.38 -64.01 c
0 -29 p
22.87 0 72.6 0 127.32 25.77 c
0 -518.95 p
0 -35.86 -2.99 -47.81 -90.51 -47.81 c
-30.83 0 0 -29 p
26.9 1.99 123.54 1.99 156.41 1.99 c
32.88 0 128.52 0 155.42 -1.99 c
0 29 -30.89 0 p
-87.6 0 -90.59 11.96 -90.59 47.84 c
h
f
4605 26967 m
0 29 -24 49.01 -48.01 49.01 c
-29 0 -49.01 -24 -49.01 -48.01 c
0 -29 24 -49.01 48.01 -49.01 c
29.01 0 49.01 24 49.01 48.01 c
h
f
5130.99 27086.4 -21.97 0 P
-3 -16.89 -10.98 -71.53 -20.96 -87.42 c
-6.99 -8.94 -63.89 -8.94 -93.83 -8.94 c
-184.67 0 p
26.95 22.92 87.84 86.7 113.8 110.61 c
151.73 139.51 207.64 191.33 207.64 289.98 c
0 114.6 -90.82 191.41 -206.5 191.41 c
-115.68 0 -183.49 -99.02 -183.49 -185.04 c
0 -51.01 44.01 -51.01 47.01 -51.01 c
21 0 47.01 15 47.01 47.01 c
0 28 -19.11 47.01 -47.25 47.01 c
-9.05 0 -11.06 0 -14.07 0 c
18.94 67.41 72.8 113.02 137.61 113.02 c
84.77 0 136.67 -70.85 136.67 -162.55 c
0 -84.72 -48.88 -158.48 -105.68 -222.27 c
-201.29 -225.27 0 -23.92 363.99 0 h
f
5310 27489.9 m
42.75 -13.87 77.56 -14.86 88.49 -14.86 c
112.36 0 184 83.01 184 97.02 c
0 4 -2.06 9 -8.02 9 c
-1.99 0 -3.98 0 -12.93 -4 c
-55.71 -24 -103.46 -27 -129.33 -27 c
-65.66 0 -112.41 20 -131.31 28 c
-6.96 3 -8.96 3 -9.95 3 c
-7.96 0 -7.96 -6.07 -7.96 -22.02 c
0 -296.25 p
0 -17.96 0 -23.94 11.57 -23.94 c
4.82 0 5.79 0.99 15.43 12.86 c
27.99 40.57 74.97 64.33 124.96 64.33 c
52.98 0 78.97 -48.76 86.97 -65.68 c
16.99 -38.8 18.04 -87.54 18.04 -125.35 c
0 -37.8 0 -94.5 -27.93 -139.27 c
-21.94 -35.82 -60.83 -60.68 -104.71 -60.68 c
-65.82 0 -130.64 44.81 -148.59 117.52 c
4.99 -2.39 10.97 -3.58 15.96 -3.58 c
16.95 0 43.88 10 43.88 44.01 c
0 28 -18.95 44 -43.88 44 c
-17.95 0 -43.88 -9 -43.88 -47.81 c
0 -84.6 67.84 -181.14 178.59 -181.14 c
112.74 0 211.57 94.55 211.57 220.95 c
0 118.44 -79.8 217.03 -184.43 217.03 c
-56.8 0 -100.65 -24.71 -126.55 -52.37 c
h
f
4218.98 32267 m
0 22.93 0 24 -19.94 24 c
-23.92 -27 -73.75 -64.01 -176.38 -64.01 c
0 -29 p
22.87 0 72.6 0 127.32 25.77 c
0 -518.95 p
0 -35.86 -2.99 -47.81 -90.51 -47.81 c
-30.83 0 0 -29 p
26.9 1.99 123.54 1.99 156.41 1.99 c
32.88 0 128.52 0 155.42 -1.99 c
0 29 -30.89 0 p
-87.6 0 -90.59 11.96 -90.59 47.84 c
h
f
4605 31676 m
0 29 -24 49.01 -48.01 49.01 c
-29 0 -49.01 -24 -49.01 -48.01 c
0 -29 24 -49.01 48.01 -49.01 c
29.01 0 49.01 24 49.01 48.01 c
h
f
4875.09 31986 m
-16.89 -1 -20.86 -2 -20.86 -11 c
0 -10 4.96 -10 22.85 -10 c
45.7 0 p
84.46 0 122.22 -69.82 122.22 -165.51 c
0 -130.57 -67.61 -165.46 -116.32 -165.46 c
-47.71 0 -129.23 22.72 -158.06 87.93 c
31.81 -4.29 60.64 13.59 60.64 49.34 c
0 28.8 -20.87 48.68 -48.71 48.68 c
-23.86 0 -49.7 -13.95 -49.7 -51.76 c
0 -88.56 88.58 -161.2 199.06 -161.2 c
118.44 0 206.11 90.73 206.11 191.42 c
0 91.72 -73.68 163.5 -169.16 180.45 c
86.53 24.93 142.22 97.71 142.22 175.47 c
0 78.76 -81.55 136.65 -178.03 136.65 c
-99.46 0 -173.05 -61 -173.05 -133.99 c
0 -40 31 -48 46.01 -48 c
21 0 45 15 45 45.01 c
0 32 -24.17 46.01 -46.32 46.01 c
-6.04 0 -8.05 0 -11.07 0 c
37.75 66.96 131.16 66.96 136.12 66.96 c
32.79 0 97.37 -15 97.37 -112.64 c
0 -18.93 -2.98 -74.72 -31.79 -117.56 c
-29.81 -43.83 -63.59 -46.82 -90.41 -47.82 c
h
f
5628.02 31947 m
0 82.75 -5.04 163.51 -40.86 239.28 c
-40.8 82.75 -112.44 104.75 -161.2 104.75 c
-57.71 0 -128.36 -28.97 -165.18 -111.72 c
-27.86 -62.81 -37.81 -124.62 -37.81 -232.3 c
0 -96.71 6.96 -169.49 42.79 -240.28 c
38.8 -75.77 107.46 -99.7 159.21 -99.7 c
86.57 0 136.32 51.84 165.18 109.67 c
35.82 74.77 37.88 172.48 37.88 230.3 c
h
5424.98 31627 m
-31.75 0 -96.24 17.94 -115.09 126.58 c
-10.91 59.81 -10.91 135.56 -10.91 205.33 c
0 81.73 0 155.5 15.87 214.3 c
16.86 66.78 67.46 97.77 110.13 97.77 c
37.7 0 95.24 -23.02 114.09 -108.74 c
12.93 -56.81 12.93 -135.56 12.93 -203.34 c
0 -66.78 0 -142.54 -10.95 -203.34 c
-18.85 -109.64 -81.36 -128.58 -116.07 -128.58 c
h
f
2580.93 16859 m
-142.29 -1.09 -224.91 -98.71 -224.91 -266.04 c
0 -159.36 81.77 -257.96 213.15 -257.96 c
88.58 0 144.32 46.79 169.2 142.36 c
47.77 180.19 p
23.89 91.59 60.71 133.49 117.44 133.49 c
38.82 0 78.63 -20.92 100.52 -51.8 c
19.91 -28.89 30.86 -74.72 30.86 -133.5 c
0 -78.71 -18.89 -132.5 -60.67 -167.37 c
-31.82 -26.9 -66.64 -38.86 -111.43 -37.33 c
0 -88.01 p
66.77 1 110.61 13.95 150.47 42.85 c
67.76 49.82 103.64 133.54 103.64 244.14 c
0 86.7 -19.91 157.45 -55.75 204.28 c
-38.82 48.83 -103.54 79.76 -166.25 79.76 c
-89.6 0 -155.3 -55.84 -182.18 -154.39 c
-48.78 -182.18 p
-23.89 -87.61 -51.77 -119.46 -107.52 -119.46 c
-73.67 0 -122.46 64.61 -122.46 162.03 c
0 115.31 52.62 179.93 146.89 180.94 c
h
f
2367.97 16993 726.027 84.0117 re
f
2557.02 17415.9 m
0 -146.34 104.67 -234.95 280.01 -234.95 c
175.34 0 279.95 87.61 279.95 235.94 c
0 146.34 -104.61 236.04 -275.96 236.04 c
-180.32 0 -284 -86.71 -284 -237.04 c
h
2634.03 17417 m
0 93.35 76.66 148.99 205.98 148.99 c
122.36 0 199.95 -57.62 199.95 -148.99 c
0 -92.36 -76.6 -148.96 -202.94 -148.96 c
-125.35 0 -203 56.61 -203 148.96 c
h
f
3311.18 17749 0 84.02 -272.22 0 P
54.01 43.75 78.01 92.49 78.01 160.12 c
0 134.27 -108.59 222.86 -274.97 222.86 c
-175.34 0 -284.99 -85.58 -284.99 -223.86 c
0 -70.63 31.88 -127.34 93.65 -166.13 c
-78.71 0 0 -77.01 h
2635.03 17978 m
0 91.37 80.63 150.98 204.98 150.98 c
118.38 0 198.96 -60.61 198.96 -150.98 c
0 -87.39 -79.59 -144.99 -201.94 -144.99 c
-122.36 0 -202 57.59 -202 144.99 c
h
f
2861.02 18756 m
-79.72 0 -127.55 -6.05 -166.41 -20.98 c
-85.7 -33.86 -137.59 -113.52 -137.59 -211.11 c
0 -145.38 111.64 -238.98 283 -238.98 c
171.36 0 276.96 90.64 276.96 237.05 c
0 119.52 -67.76 202.19 -181.38 223.13 c
0 -83.62 p
68.59 -22.88 104.37 -69.63 104.37 -136.29 c
0 -52.72 -23.86 -97.49 -67.59 -125.35 c
-29.82 -19.89 -59.65 -26.86 -111.36 -27.85 c
h
2793 18373.5 m
-96.37 6.97 -158.98 65.75 -158.98 149.44 c
0 81.7 67.57 144.46 153.02 144.46 c
1.98 0 3.97 0 5.96 -1 c
h
f
2717.41 19231.4 m
-102.62 -1 -160.4 -68.71 -160.4 -189.2 c
0 -121.48 62.84 -200.15 159.4 -200.15 c
81.63 0 120.46 41.73 150.32 164.93 c
18.92 77.5 p
13.94 57.63 34.84 80.52 72.67 80.52 c
48.78 0 81.63 -48.73 81.63 -121.32 c
0 -44.75 -12.92 -82.53 -34.79 -103.41 c
-14.9 -12.93 -29.81 -18.89 -66.6 -23.87 c
0 -87.5 p
120.6 3.98 178.39 71.66 178.39 208.02 c
0 131.38 -64.71 215.09 -165.25 215.09 c
-77.66 0 -120.46 -43.75 -145.35 -147.09 c
-18.91 -79.48 p
-15.93 -67.56 -37.83 -96.38 -74.66 -96.38 c
-47.79 0 -78.77 42.75 -78.77 110.37 c
0 66.62 28.79 102.42 83.39 104.41 c
h
f
1 i
8376.83 28184.4 -236.5 520.46 P
-5.31 10.63 -7.97 18.59 -17.27 18.59 c
-3.98 0 -6.64 0 -18.6 -10.62 c
-131.54 -99.58 p
-14.61 -11.95 -15.94 -13.28 -15.94 -18.59 c
0 -9.29 5.31 -14.61 13.29 -14.61 c
3.98 0 6.64 0 18.6 10.62 c
69.09 51.78 263.08 -577.55 p
7.97 -18.59 10.63 -19.92 25.24 -19.92 c
21.26 0 23.91 5.31 33.21 25.23 c
605.88 1253.35 p
6.64 14.61 8.11 15.94 8.11 22.57 c
0 14.61 -10.77 26.79 -26.71 26.79 c
-15.95 0 -19.93 -9.53 -27.9 -25.46 c
h
f
q[620 0 0 -60 8969 29318.6]concat
1 1 false[1 0 0 -1 0 0]@X
imagemask
!!~>
Q
9273.62 28626.1 m
22.72 -3.98 58.8 -11.94 66.82 -13.27 c
17.38 -5.31 77.52 -26.54 77.52 -90.24 c
0 -41.14 -37.41 -148.63 -192.21 -148.63 c
-28.02 0 -128.11 3.93 -154.8 75.99 c
53.35 -6.31 80.04 34.7 80.04 63.8 c
0 27.78 -18.65 42.36 -45.27 42.36 c
-29.29 0 -67.89 -22.53 -67.89 -82.1 c
0 -78.11 79.8 -127.09 186.19 -127.09 c
202.16 0 262.04 148.63 262.04 217.64 c
0 19.91 0 57.06 -42.67 99.53 c
-33.28 31.85 -65.23 38.49 -137.12 53.08 c
-35.94 7.96 -93.18 19.91 -93.18 79.63 c
0 26.54 23.85 122.09 149.73 122.09 c
55.66 0 109.98 -21.17 123.24 -68.77 c
-57.57 0 -60.19 -50.75 -60.19 -52.08 c
0 -28.04 25.27 -36.05 37.24 -36.05 c
18.63 0 55.89 14.65 55.89 70.63 c
0 55.96 -50.59 113.31 -154.3 113.31 c
-174.18 0 -220.72 -136.69 -220.72 -191.1 c
0 -100.86 98.89 -122.09 129.63 -128.73 c
h
f
10659 28829 -642.93 0 0 -93.14 ^ H
10659 28600.2 -642.93 0 0 -93.14 ^ H
f
11485.9 28839.2 m
66.34 35.84 163.22 96.92 163.22 208.45 c
0 115.51 -111.47 195.37 -233.53 195.37 c
-131.34 0 -234.83 -97.12 -234.83 -217.94 c
0 -45.14 13.27 -90.28 50.41 -135.43 c
14.6 -17.26 15.92 -18.59 108.8 -83.64 c
-128.7 -59.74 -195.03 -148.7 -195.03 -245.62 c
0 -140.74 134.03 -228.36 269.39 -228.36 c
147.3 0 270.82 108.87 270.82 248.27 c
0 135.43 -95.64 195.18 -199.25 258.91 c
h
11305.2 28958.9 m
-17.27 11.94 -70.43 46.43 -70.43 111.42 c
0 86.21 90.37 140.62 179.41 140.62 c
95.69 0 180.79 -69 180.79 -164.5 c
0 -80.91 -58.52 -145.9 -135.6 -188.34 c
h
11367.8 28787.7 m
35.82 -24 124.71 -81.09 160.54 -104.99 c
34.49 -22.57 95.62 -63.73 95.62 -144.72 c
0 -100.91 -102.26 -169.95 -208.39 -169.95 c
-112.77 0 -209.62 82.32 -209.62 192.51 c
0 103.57 75.63 187.21 161.86 227.14 c
h
f
12580 29218.9 317.75 0 0 109.16 -759.82 0 ^ 318.89 0 0 -858.87 123.18 0 H
f
13441 28670.8 m
0 106.27 -8.03 170.03 -27.94 221.84 c
-45.13 114.24 -151.32 183.31 -281.4 183.31 c
-193.8 0 -318.57 -148.9 -318.57 -377.49 c
0 -228.59 120.88 -369.46 316.15 -369.46 c
159.4 0 269.65 90.48 297.63 242.18 c
-111.54 0 p
-30.53 -92.02 -92.92 -140.03 -181.85 -140.03 c
-70.35 0 -130.09 31.95 -167.25 90.53 c
-26.55 39.94 -35.84 79.88 -37.16 149.13 c
h
12931.4 28761 m
9.3 129.04 87.67 212.87 199.25 212.87 c
108.93 0 192.61 -90.48 192.61 -204.89 c
0 -2.66 0 -5.32 -1.33 -7.98 c
h
f
14020.7 28360 336.07 968.04 -131.51 0 -268.32 -819.26 -284.27 819.26 -132.83 0 348.03 -968.04 H
f
14335.8 28498.2 0 -138.2 79.12 0 0 -23.97 P
0 -91.79 -17.16 -118.4 -79.12 -121.05 c
0 -50.07 p
92.78 0 139.2 59.75 139.2 173.93 c
0 159.38 h
f
15544.1 28583.2 -29.27 0 P
-3.98 -22.63 -14.6 -95.78 -27.87 -117.06 c
-9.29 -11.96 -84.93 -11.96 -124.75 -11.96 c
-245.5 0 p
35.83 30.54 116.78 115.54 151.28 147.41 c
201.71 185.92 276.11 254.98 276.11 386.45 c
0 152.72 -120.92 255.02 -274.89 255.02 c
-153.98 0 -244.23 -131.44 -244.23 -245.56 c
0 -67.68 58.59 -67.68 62.58 -67.68 c
27.96 0 62.6 19.97 62.6 62.59 c
0 37.28 -25.33 62.6 -62.62 62.6 c
-11.98 0 -14.64 0 -18.64 0 c
25.22 89.46 96.89 150 183.18 150 c
112.83 0 181.87 -94.45 181.87 -216.66 c
0 -112.91 -65.09 -211.21 -140.77 -296.22 c
-268.19 -300.21 0 -31.88 484.49 0 h
f
16205.2 28784.8 m
0 110.2 -6.78 217.74 -54.63 318.65 c
-54.5 110.2 -150.21 139.61 -215.35 139.61 c
-77.1 0 -171.48 -38.7 -220.67 -148.9 c
-37.23 -83.64 -50.52 -165.96 -50.52 -309.36 c
0 -128.79 9.3 -225.71 57.16 -319.98 c
51.84 -100.9 143.56 -132.77 212.69 -132.77 c
115.65 0 182.11 69.04 220.66 146.04 c
47.85 99.57 50.64 229.69 50.64 306.7 c
h
15933.9 28359.1 m
-42.52 0 -128.88 23.87 -154.12 168.45 c
-14.61 79.58 -14.61 180.39 -14.61 273.24 c
0 108.76 0 206.91 21.26 285.18 c
22.59 88.87 90.35 130.05 147.48 130.05 c
50.49 0 127.55 -30.57 152.8 -144.64 c
17.33 -75.6 17.33 -180.39 17.33 -270.58 c
0 -88.87 0 -189.68 -14.68 -270.59 c
-25.24 -145.91 -108.95 -171.1 -155.46 -171.1 c
h
f
16504 28423.9 m
0 38.61 -31.98 65.27 -63.94 65.27 c
-38.61 0 -65.25 -31.98 -65.25 -63.94 c
0 -38.62 31.96 -65.25 63.92 -65.25 c
38.62 0 65.27 31.96 65.27 63.92 c
h
f
17204.1 28583.2 -29.27 0 P
-3.98 -22.63 -14.6 -95.78 -27.87 -117.06 c
-9.29 -11.96 -84.93 -11.96 -124.75 -11.96 c
-245.5 0 p
35.83 30.54 116.78 115.54 151.28 147.41 c
201.71 185.92 276.11 254.98 276.11 386.45 c
0 152.72 -120.92 255.02 -274.89 255.02 c
-153.98 0 -244.23 -131.44 -244.23 -245.56 c
0 -67.68 58.59 -67.68 62.58 -67.68 c
27.96 0 62.6 19.97 62.6 62.59 c
0 37.28 -25.33 62.6 -62.62 62.6 c
-11.98 0 -14.64 0 -18.64 0 c
25.22 89.46 96.89 150 183.18 150 c
112.83 0 181.87 -94.45 181.87 -216.66 c
0 -112.91 -65.09 -211.21 -140.77 -296.22 c
-268.19 -300.21 0 -31.88 484.49 0 h
f
18232.5 28895 m
26.49 0 37.14 0 37.14 24.93 c
0 13.13 -10.62 13.13 -34.54 13.13 c
-107.6 0 p
25.54 136.35 44.36 230.34 55.11 272.7 c
8.06 31.77 36.29 62.23 71.25 62.23 c
27.29 0 54.58 -11.47 67.58 -22.94 c
-51.69 -5.24 -67.58 -43.13 -67.58 -65.34 c
0 -26.13 19.85 -41.81 44.99 -41.81 c
26.46 0 66.17 22.25 66.17 72 c
0 54.99 -55.7 85.13 -113.99 85.13 c
-56.96 0 -112.6 -42.47 -139.1 -94.17 c
-23.85 -46.41 -37.09 -94.13 -67.56 -267.8 c
-88.76 0 p
-25.17 0 -38.42 0 -38.42 -23.62 c
0 -14.43 7.95 -14.43 34.44 -14.43 c
84.79 0 p
-23.85 -123.71 -78.17 -424.06 -108.64 -566.27 c
-22.52 -115.62 -42.39 -212.64 -108.63 -212.64 c
-4.07 0 -43.26 0 -67.58 24.93 c
67.58 5.24 67.58 62.91 67.58 64.21 c
0 26.21 -19.86 41.94 -45 41.94 c
-26.46 0 -66.16 -22.41 -66.16 -72.48 c
0 -56.66 58.91 -85.64 111.16 -85.64 c
135.13 0 190.77 243.32 205.34 309.81 c
23.85 102.38 88.76 456.07 95.38 496.14 c
h
f
18727.3 29248.7 m
1.33 5.31 3.98 13.28 3.98 19.92 c
0 13.37 -13.24 13.37 -15.89 13.37 c
-1.32 0 -48.99 -3.99 -72.83 -6.64 c
-22.51 -1.33 -42.37 -3.98 -66.21 -5.31 c
-31.78 -2.66 -41.05 -3.98 -41.05 -27.86 c
0 -13.26 13.24 -13.26 26.48 -13.26 c
67.53 0 67.53 -12.06 67.53 -25.34 c
0 -9.29 -10.59 -47.81 -15.89 -71.71 c
-31.78 -127.49 p
-13.24 -53.12 -88.72 -354.59 -94.02 -378.49 c
-6.62 -33.2 -6.62 -55.78 -6.62 -73.04 c
0 -135.46 75.47 -205.84 161.54 -205.84 c
153.6 0 312.59 197.87 312.59 390.44 c
0 122.18 -68.95 208.57 -168.26 208.57 c
-68.86 0 -131.09 -57.23 -156.25 -83.85 c
h
18643.1 28374 m
-42.52 0 -89.02 31.82 -89.02 135.23 c
0 43.75 3.98 68.94 27.9 161.74 c
3.98 17.23 25.25 102.08 30.56 119.32 c
2.66 10.61 81.05 128.64 171.4 128.64 c
58.46 0 85.04 -58.37 85.04 -127.32 c
0 -63.63 -37.21 -213.44 -70.43 -282.38 c
-33.22 -71.59 -94.34 -135.23 -155.45 -135.23 c
h
f
0.929842 i
19594.6 29144 m
13.02 0 30.77 0 30.77 18.48 c
0 18.48 -17.75 18.48 -30.77 18.48 c
-506.89 0 p
-13.02 0 -30.69 0 -30.69 -18.48 c
0 -18.48 17.67 -18.48 30.69 -18.48 c
h
f
19973 29524.8 m
0 22.3 0 24.16 -21.37 24.16 c
-57.54 -59.05 -139.2 -59.05 -168.9 -59.05 c
0 -28.96 p
18.52 0 73.17 0 121.35 24.14 c
0 -481.54 p
0 -33.46 -2.8 -44.61 -86.14 -44.61 c
-29.63 0 0 -28.96 p
32.54 2.79 113.44 2.79 150.63 2.79 c
37.2 0 118.09 0 150.64 -2.79 c
0 28.96 -29.86 0 p
-83.93 0 -86.73 10.22 -86.73 44.6 c
h
f
1 i
8553.03 27240.6 m
-1.23 166.01 -115.21 262.39 -310.62 262.39 c
-186.11 0 -301.26 -95.39 -301.26 -248.89 c
0 -103.5 54.66 -168.62 166.33 -197.69 c
210.53 -55.82 p
107.02 -27.91 155.99 -70.94 155.99 -137.22 c
0 -45.36 -24.49 -91.87 -60.54 -117.45 c
-33.72 -23.26 -87.21 -36.05 -155.82 -36.05 c
-91.86 0 -154.66 22.16 -195.36 71.14 c
-31.4 37.32 -45.35 78.14 -44.41 130.64 c
-101.88 0 p
1.16 -77.95 16.27 -129.14 49.96 -175.68 c
58.1 -79.12 155.71 -121 284.7 -121 c
101.09 0 183.6 23.23 238.21 65.06 c
56.94 45.3 93.02 120.82 93.02 194.01 c
0 104.55 -65.26 181.23 -180.41 212.6 c
-212.86 56.93 p
-102.36 27.88 -139.58 60.41 -139.58 125.46 c
0 85.97 75.75 143.05 189.96 143.05 c
135.19 0 210.94 -61.43 212.16 -171.5 c
h
f
8718.96 26642 97.8867 846.961 re
f
9216.24 27268 m
-170.82 0 -274.23 -122.09 -274.23 -326.55 c
0 -204.46 102.25 -326.45 275.4 -326.45 c
170.82 0 275.45 121.98 275.45 321.8 c
0 210.27 -101.14 331.2 -276.61 331.2 c
h
9217.41 27178.1 m
109.37 0 174.56 -89.33 174.56 -240.1 c
0 -142.64 -67.52 -233.11 -174.56 -233.11 c
-108.2 0 -174.52 89.3 -174.52 236.59 c
0 146.13 66.32 236.61 174.52 236.61 c
h
f
9612.98 26388.6 97.89 0 0 317.25 P
51.08 -62.93 107.96 -90.89 186.9 -90.89 c
156.72 0 260.12 126.63 260.12 320.64 c
0 204.46 -99.86 332.36 -261.19 332.36 c
-82.4 0 -148.56 -37.3 -193.82 -109.32 c
0 91.75 -89.89 0 h
9880.44 27177.1 m
106.86 0 176.56 -94.01 176.56 -239.09 c
0 -138.12 -70.87 -232.12 -176.56 -232.12 c
-102.21 0 -169.57 92.85 -169.57 235.6 c
0 142.75 67.36 235.61 169.57 235.61 c
h
f
10796 26914 m
0 92.85 -6.97 148.56 -24.39 193.82 c
-39.49 99.81 -132.41 160.18 -246.23 160.18 c
-169.57 0 -278.75 -130.22 -278.75 -330.04 c
0 -199.82 105.72 -322.96 276.5 -322.96 c
139.41 0 235.83 79.13 260.35 211.83 c
-97.59 0 p
-26.71 -80.13 -81.3 -121.93 -159.12 -121.93 c
-61.56 0 -113.82 27.87 -146.35 78.98 c
-23.23 34.84 -31.36 69.69 -32.52 130.13 c
h
10349.9 26992.9 m
8.14 112.25 76.71 185.19 174.35 185.19 c
95.31 0 168.54 -78.73 168.54 -178.25 c
0 -2.32 0 -4.63 -1.16 -6.94 c
h
f
11720 26641.7 0 609.27 -96.89 0 0 -345.32 P
0 -124.4 -64.95 -205.78 -165.85 -205.78 c
-76.54 0 -125.25 46.5 -125.25 119.75 c
0 431.36 -96.89 0 0 -469.76 p
0 -101.14 75.62 -166.25 194.29 -166.25 c
89.59 0 146.59 31.39 203.69 111.61 c
0 -84.87 h
f
11891.1 27250.5 0 -608.46 97.89 0 0 335.5 P
0 124.21 64.98 205.58 164.76 205.58 c
76.59 0 125.36 -46.54 125.36 -119.67 c
0 -421.4 96.89 0 0 459.82 p
0 101.02 -75.53 166.15 -192.86 166.15 c
-90.61 0 -148.7 -34.94 -202.14 -119.7 c
0 102.18 h
f
13007.5 27046.5 m
-4.7 59.38 -17.48 97.8 -40.73 131.59 c
-41.84 56.46 -115.04 89.9 -199.87 89.9 c
-163.85 0 -270.75 -130.22 -270.75 -332.36 c
0 -196.34 104.58 -320.64 269.59 -320.64 c
145.25 0 237.05 87.28 248.73 236.24 c
-97.72 0 p
-16.28 -97.57 -66.27 -146.34 -148.81 -146.34 c
-106.96 0 -170.9 86.98 -170.9 230.79 c
0 151.93 62.78 242.41 168.58 242.41 c
81.38 0 132.54 -47.35 144.16 -131.59 c
h
f
13636 26914 m
0 92.85 -6.97 148.56 -24.39 193.82 c
-39.49 99.81 -132.41 160.18 -246.23 160.18 c
-169.57 0 -278.75 -130.22 -278.75 -330.04 c
0 -199.82 105.72 -322.96 276.5 -322.96 c
139.41 0 235.83 79.13 260.35 211.83 c
-97.59 0 p
-26.71 -80.13 -81.3 -121.93 -159.12 -121.93 c
-61.56 0 -113.82 27.87 -146.35 78.98 c
-23.23 34.84 -31.36 69.69 -32.52 130.13 c
h
13189.9 26992.9 m
8.14 112.25 76.71 185.19 174.35 185.19 c
95.31 0 168.54 -78.73 168.54 -178.25 c
0 -2.32 0 -4.63 -1.16 -6.94 c
h
f
13770 27250.5 0 -608.46 97.89 0 0 316.07 P
0 87.15 22.07 144.09 68.56 177.79 c
30.21 22.08 59.26 29.05 126.67 30.23 c
0 98.41 p
-16.28 2.32 -24.4 3.47 -37.18 3.47 c
-62.71 0 -110.31 -37.26 -166.05 -127.84 c
0 110.32 h
f
14425 27251 -99.12 0 0 167.45 -96.89 0 ^ -82.67 0 0 -78.91 ^ 
0 -460.58 P
0 -61.63 41.75 -96.52 117.13 -96.52 c
23.19 0 46.39 2.33 78.88 8.16 c
0 81.63 p
-12.7 -3.66 -27.68 -4.89 -46.12 -4.89 c
-41.48 0 -53.01 11.63 -53.01 54.65 c
0 417.54 99.13 0 h
f
15071.8 26699 m
-10.43 -3.07 -15.06 -3.07 -20.85 -3.07 c
-33.58 0 -52.1 17.44 -52.1 47.66 c
0 358.08 p
0 108.13 -79.12 166.35 -229.13 166.35 c
-88.38 0 -161.64 -25.52 -202.34 -70.73 c
-27.91 -31.3 -39.54 -66.08 -41.86 -126.35 c
97.58 0 p
8.13 73.75 52.28 107.18 142.9 107.18 c
87.13 0 135.96 -32.57 135.96 -90.62 c
0 -25.54 p
0 -40.63 -24.47 -58.04 -101.11 -67.33 c
-137.02 -17.41 -157.92 -22.06 -195.08 -37.15 c
-70.83 -29.02 -106.83 -83.58 -106.83 -162.53 c
0 -110.28 76.67 -179.93 199.82 -179.93 c
76.68 0 138.25 26.82 206.79 89.79 c
6.97 -61.81 37.18 -89.79 99.91 -89.79 c
19.75 0 34.85 2.33 66.34 10.49 c
h
14902 26833.6 m
0 -32.57 -9.3 -52.34 -38.35 -79.1 c
-39.51 -36.05 -87.15 -54.66 -144.09 -54.66 c
-75.53 0 -119.68 36.05 -119.68 97.7 c
0 63.98 42.99 96.54 146.41 111.66 c
102.25 13.96 123.17 18.61 155.71 33.79 c
h
f
15274.9 27251 -97.89 0 0 -608.98 ^ H
15274.9 27489 -97.89 0 0 -121.68 ^ H
f
15441.1 27250.5 0 -608.46 97.89 0 0 335.5 P
0 124.21 64.98 205.58 164.76 205.58 c
76.59 0 125.36 -46.54 125.36 -119.67 c
0 -421.4 96.89 0 0 459.82 p
0 101.02 -75.53 166.15 -192.86 166.15 c
-90.61 0 -148.7 -34.94 -202.14 -119.7 c
0 102.18 h
f
16305 27251 -99.12 0 0 167.45 -96.89 0 ^ -82.67 0 0 -78.91 ^ 
0 -460.58 P
0 -61.63 41.75 -96.52 117.13 -96.52 c
23.19 0 46.39 2.33 78.88 8.16 c
0 81.63 p
-12.7 -3.66 -27.68 -4.89 -46.12 -4.89 c
-41.48 0 -53.01 11.63 -53.01 54.65 c
0 417.54 99.13 0 h
f
16781 27251 -168.54 -474.15 -155.75 474.15 -103.45 0 205.73 -611.4 -37.2 -96.45 P
-15.11 -42.99 -37.2 -59.26 -77.87 -59.26 c
-13.95 0 -30.22 2.34 -51.14 7.03 c
0 -86.87 p
19.76 -10.42 39.52 -15.05 65.09 -15.05 c
31.38 0 65.09 10.45 90.66 29.04 c
30.22 22.07 47.65 47.62 66.25 96.4 c
270.82 736.57 h
f
17158.9 26762.9 -120.86 0 0 -120.86 ^ H
17158.9 27251 -120.86 0 0 -120.86 ^ H
f
18085.9 27006 323.8 0 P
16.25 0 38.31 0 38.31 23.48 c
0 23.47 -22.06 23.47 -38.31 23.47 c
-323.8 0 0 321.25 p
0 17.39 0 41.81 -23.48 41.81 c
-23.47 0 -23.47 -20.93 -23.47 -37.17 c
0 -325.89 -325.52 0 p
-16.27 0 -38.36 0 -38.36 -23.47 c
0 -23.48 22.08 -23.48 38.36 -23.48 c
325.52 0 0 -317.07 ^ p
-16.27 0 -38.36 0 -38.36 -23.47 c
0 -23.47 22.08 -23.47 38.36 -23.47 c
696.23 0 p
16.27 0 38.36 0 38.36 23.47 c
0 23.47 -22.06 23.47 -38.31 23.47 c
-323.8 0 h
f
19031 27014.2 m
0 96.43 -5.86 190.52 -47.69 278.82 c
-47.64 96.43 -131.31 122.01 -188.25 122.01 c
-67.4 0 -149.9 -33.72 -192.9 -130.14 c
-32.54 -73.19 -44.15 -145.22 -44.15 -270.69 c
0 -112.69 8.13 -197.5 49.96 -279.98 c
45.32 -88.29 125.5 -116.17 185.93 -116.17 c
101.09 0 159.2 60.41 192.89 127.79 c
41.84 87.13 44.21 200.98 44.21 268.36 c
h
18793.9 26641 m
-37.29 0 -113.05 20.92 -135.19 147.61 c
-12.82 69.74 -12.82 158.07 -12.82 239.44 c
0 95.31 0 181.32 18.65 249.9 c
19.81 77.88 79.25 114.09 129.36 114.09 c
44.29 0 111.88 -26.91 134.02 -126.87 c
15.16 -66.25 15.16 -158.07 15.16 -237.11 c
0 -77.87 0 -166.21 -12.82 -237.11 c
-22.14 -127.85 -95.57 -149.94 -136.36 -149.94 c
h
f
19293.9 26697.8 m
0 33.74 -27.94 57.03 -55.87 57.03 c
-33.74 0 -57.01 -27.94 -57.01 -55.86 c
0 -33.74 27.93 -57.01 55.85 -57.01 c
33.74 0 57.03 27.92 57.03 55.84 c
h
f
19921 27014.2 m
0 96.43 -5.86 190.52 -47.69 278.82 c
-47.64 96.43 -131.31 122.01 -188.25 122.01 c
-67.4 0 -149.9 -33.72 -192.9 -130.14 c
-32.54 -73.19 -44.15 -145.22 -44.15 -270.69 c
0 -112.69 8.13 -197.5 49.96 -279.98 c
45.32 -88.29 125.5 -116.17 185.93 -116.17 c
101.09 0 159.2 60.41 192.89 127.79 c
41.84 87.13 44.21 200.98 44.21 268.36 c
h
19683.9 26641 m
-37.29 0 -113.05 20.92 -135.19 147.61 c
-12.82 69.74 -12.82 158.07 -12.82 239.44 c
0 95.31 0 181.32 18.65 249.9 c
19.81 77.88 79.25 114.09 129.36 114.09 c
44.29 0 111.88 -26.91 134.02 -126.87 c
15.16 -66.25 15.16 -158.07 15.16 -237.11 c
0 -77.87 0 -166.21 -12.82 -237.11 c
-22.14 -127.85 -95.57 -149.94 -136.36 -149.94 c
h
f
20491 27014.2 m
0 96.43 -5.86 190.52 -47.69 278.82 c
-47.64 96.43 -131.31 122.01 -188.25 122.01 c
-67.4 0 -149.9 -33.72 -192.9 -130.14 c
-32.54 -73.19 -44.15 -145.22 -44.15 -270.69 c
0 -112.69 8.13 -197.5 49.96 -279.98 c
45.32 -88.29 125.5 -116.17 185.93 -116.17 c
101.09 0 159.2 60.41 192.89 127.79 c
41.84 87.13 44.21 200.98 44.21 268.36 c
h
20253.9 26641 m
-37.29 0 -113.05 20.92 -135.19 147.61 c
-12.82 69.74 -12.82 158.07 -12.82 239.44 c
0 95.31 0 181.32 18.65 249.9 c
19.81 77.88 79.25 114.09 129.36 114.09 c
44.29 0 111.88 -26.91 134.02 -126.87 c
15.16 -66.25 15.16 -158.07 15.16 -237.11 c
0 -77.87 0 -166.21 -12.82 -237.11 c
-22.14 -127.85 -95.57 -149.94 -136.36 -149.94 c
h
f
20959.9 27399 m
0 22.09 0 28.02 -16.35 28.02 c
-9.31 0 -12.8 0 -22.1 -14.07 c
-350.11 -542.93 0 -33.96 305.69 0 0 -105.57 p
0 -42.91 -2.32 -54.51 -87.17 -54.51 c
-23.25 0 0 -33.96 p
26.73 2.32 118.55 2.32 151.1 2.32 c
32.55 0 125.53 0 152.27 -2.32 c
0 33.96 -23.18 0 p
-83.42 0 -86.89 11.6 -86.89 54.51 c
0 105.57 117.05 0 0 33.96 ^ h
20883 27308 0 -438.01 -282.59 0 H
f
21662.1 27364 0 26.84 -280.12 0 P
-140.64 0 -142.96 15.08 -147.61 37.12 c
-25.57 0 -36.03 -232.75 ^ p
3.49 20.91 13.95 92.96 29.06 105.74 c
9.3 6.98 96.47 6.98 112.74 6.98 c
246.41 0 -123.44 -176.6 p
-31.44 -45.3 -149.03 -235.77 -149.03 -454.13 c
0 -12.78 0 -59.23 47.85 -59.23 c
49.04 0 49.04 45.32 49.04 60.42 c
0 58.1 p
0 173.14 27.9 307.94 82.54 385.79 c
h
f
16436 33723.7 m
-1.22 171.04 -118.21 270.34 -318.77 270.34 c
-191 0 -309.18 -98.1 -309.18 -255.84 c
0 -106.35 56.14 -173.27 170.79 -203.14 c
216.18 -57.36 p
109.88 -28.68 160.1 -72.89 160.1 -141 c
0 -46.6 -25.18 -94.4 -62.22 -120.69 c
-34.65 -23.9 -89.62 -37.04 -160.12 -37.04 c
-94.4 0 -158.93 22.66 -200.75 72.76 c
-32.27 38.18 -46.6 79.93 -46.05 133.63 c
-104.93 0 p
1.19 -80.02 16.73 -132.52 51.39 -180.24 c
59.76 -81.14 160.16 -124.09 292.83 -124.09 c
103.98 0 188.84 23.9 245.02 66.93 c
58.57 46.62 95.76 124.3 95.76 199.61 c
0 107.57 -66.95 186.45 -185.18 218.72 c
-218.57 58.57 p
-105.1 28.69 -143.32 62.15 -143.32 129.08 c
0 88.45 77.63 147.15 194.68 147.15 c
138.55 0 216.18 -63.54 217.4 -177.39 c
h
f
16605.1 33108 99.9414 871.98 re
f
17118.2 33752 m
-175.78 0 -282.21 -125.44 -282.21 -335.54 c
0 -210.11 105.23 -335.45 283.4 -335.45 c
175.79 0 283.5 125.34 283.5 330.67 c
0 216.07 -104.12 340.31 -284.69 340.31 c
h
17119.5 33660.1 m
112.49 0 179.53 -91.96 179.53 -247.15 c
0 -146.84 -69.43 -239.95 -179.53 -239.95 c
-111.29 0 -179.5 91.92 -179.5 243.53 c
0 150.41 68.21 243.57 179.5 243.57 c
h
f
17518 32847.4 99.94 0 0 326.59 P
52.57 -64.35 111.13 -92.94 192.38 -92.94 c
161.32 0 267.71 130.12 267.71 329.48 c
0 210.1 -102.7 341.51 -268.68 341.51 c
-84.77 0 -152.84 -38.31 -199.4 -112.39 c
0 94.4 -91.94 0 h
17792.4 33659.1 m
109.93 0 181.7 -96.84 181.7 -246.18 c
0 -142.16 -72.96 -238.93 -181.7 -238.93 c
-105.16 0 -174.46 95.57 -174.46 242.51 c
0 146.94 69.3 242.59 174.46 242.59 c
h
f
18726.6 33388 m
0 95.45 -7.2 152.73 -25.14 199.26 c
-40.66 102.61 -136.32 164.73 -253.51 164.73 c
-174.59 0 -287 -133.79 -287 -339.12 c
0 -205.33 108.74 -331.86 284.39 -331.86 c
143.39 0 242.57 81.09 267.79 217.06 c
-100.44 0 p
-27.48 -82.23 -83.66 -125.12 -163.74 -125.12 c
-63.35 0 -117.13 28.67 -150.6 81.23 c
-23.91 35.84 -32.27 71.68 -33.46 133.82 c
h
18267.2 33469 m
8.37 115.85 78.9 191.09 179.33 191.09 c
98.03 0 173.35 -81.21 173.35 -183.93 c
0 -2.39 0 -4.78 -1.2 -7.16 c
h
f
19296.6 33559.9 m
-1.23 122.89 -82.55 192.11 -227.24 192.11 c
-145.89 0 -240.36 -75.28 -240.36 -191.07 c
0 -97.89 50.26 -144.45 198.65 -180.26 c
93.34 -22.68 p
69.41 -16.71 97 -41.78 97 -87.14 c
0 -58.5 -58.62 -97.89 -145.96 -97.89 c
-53.84 0 -99.3 15.48 -124.42 41.7 c
-15.55 17.87 -22.73 35.74 -28.71 79.83 c
-105.28 0 p
4.78 -144.32 86.09 -213.47 249.92 -213.47 c
157.85 0 258.4 77.59 258.4 198.16 c
0 93.12 -52.73 144.45 -177.18 174.29 c
-95.74 22.68 p
-81.37 19.1 -116.07 45.36 -116.07 89.53 c
0 57.3 51.43 94.38 132.76 94.38 c
80.14 0 123.2 -34.59 125.59 -100.16 c
h
f
20028.2 33752 m
-175.78 0 -282.21 -125.44 -282.21 -335.54 c
0 -210.11 105.23 -335.45 283.4 -335.45 c
175.79 0 283.5 125.34 283.5 330.67 c
0 216.07 -104.12 340.31 -284.69 340.31 c
h
20029.5 33660.1 m
112.49 0 179.53 -91.96 179.53 -247.15 c
0 -146.84 -69.43 -239.95 -179.53 -239.95 c
-111.29 0 -179.5 91.92 -179.5 243.53 c
0 150.41 68.21 243.57 179.5 243.57 c
h
f
20671 33734 -103.97 0 0 98.39 P
0 42 23.89 63.63 69.3 63.63 c
8.36 0 11.95 0 34.67 0 c
0 81.06 p
-22.7 4.7 -35.83 5.89 -56.12 5.89 c
-91.9 0 -146.8 -52.71 -146.8 -142.46 c
0 -106.5 -83.91 0 0 -80.95 ^ 0 -545.05 98.94 0 ^ 103.97 0 h
f
21596.1 33524 m
-4.78 61.39 -17.93 101.11 -41.84 136.03 c
-43.04 57.75 -118.36 91.95 -205.63 91.95 c
-168.57 0 -278.55 -133.79 -278.55 -341.51 c
0 -201.75 107.59 -329.48 277.36 -329.48 c
149.44 0 243.89 89.46 255.84 242.17 c
-100.5 0 p
-16.74 -100.16 -68.14 -150.23 -153.03 -150.23 c
-109.99 0 -175.74 89.53 -175.74 237.56 c
0 156.38 64.56 249.54 173.35 249.54 c
83.68 0 136.29 -48.93 148.24 -136.03 c
h
f
22272.6 33166.6 m
-10.82 -1.61 -15.62 -1.61 -21.61 -1.61 c
-34.79 0 -53.99 17.89 -53.99 48.91 c
0 367.41 p
0 110.94 -81.3 170.72 -235.41 170.72 c
-90.8 0 -166.06 -26.27 -207.87 -72.81 c
-28.68 -32.21 -40.62 -68.01 -43.01 -130.05 c
100.43 0 p
8.37 76.33 53.8 110.92 147.05 110.92 c
89.66 0 139.88 -33.49 139.88 -93.18 c
0 -26.26 p
0 -41.79 -25.16 -59.69 -104.09 -69.24 c
-141.11 -17.91 -162.63 -22.68 -200.9 -38.2 c
-72.95 -29.85 -110.01 -85.95 -110.01 -167.13 c
0 -113.41 78.92 -185.03 205.68 -185.03 c
78.92 0 142.3 27.33 212.86 91.53 c
7.18 -63.01 38.27 -91.53 102.84 -91.53 c
20.33 0 35.88 2.37 68.17 10.69 c
h
22098.1 33305.3 m
0 -33.44 -9.64 -53.75 -39.55 -81.21 c
-40.67 -37.02 -89.71 -56.13 -148.32 -56.13 c
-77.75 0 -123.2 37.02 -123.2 100.32 c
0 65.69 44.25 99.13 150.71 114.66 c
105.26 14.33 126.79 19.11 160.36 34.68 c
h
f
22375.1 33108 99.9414 871.98 re
f
22742 33734 -99.94 0 0 -626 ^ H
22742 33980 -99.94 0 0 -125.98 ^ H
f
22898 33980 0 -871.98 89.94 0 0 80.1 P
47.71 -72.58 110.94 -107.07 198.02 -107.07 c
164.62 0 272.06 134.89 272.06 342.61 c
0 202.94 -102.78 328.38 -267.61 328.38 c
-85.99 0 -146.9 -32.17 -193.48 -102.44 c
0 330.41 h
23171.3 33659.1 m
111.08 0 182.78 -96.84 182.78 -246.18 c
0 -142.16 -74.09 -238.93 -182.78 -238.93 c
-105.1 0 -174.37 95.57 -174.37 242.51 c
0 146.94 69.27 242.59 174.37 242.59 c
h
f
23576.1 33734 0 -625.99 99.94 0 0 325.1 P
0 89.64 22.7 148.21 70.48 182.87 c
31.06 22.71 60.93 29.88 130.25 31.11 c
0 101.34 p
-16.72 2.39 -25.07 3.59 -38.19 3.59 c
-64.4 0 -113.29 -38.33 -170.54 -131.51 c
0 113.49 h
f
24522.6 33166.6 m
-10.82 -1.61 -15.62 -1.61 -21.61 -1.61 c
-34.79 0 -53.99 17.89 -53.99 48.91 c
0 367.41 p
0 110.94 -81.3 170.72 -235.41 170.72 c
-90.8 0 -166.06 -26.27 -207.87 -72.81 c
-28.68 -32.21 -40.62 -68.01 -43.01 -130.05 c
100.43 0 p
8.37 76.33 53.8 110.92 147.05 110.92 c
89.66 0 139.88 -33.49 139.88 -93.18 c
0 -26.26 p
0 -41.79 -25.16 -59.69 -104.09 -69.24 c
-141.11 -17.91 -162.63 -22.68 -200.9 -38.2 c
-72.95 -29.85 -110.01 -85.95 -110.01 -167.13 c
0 -113.41 78.92 -185.03 205.68 -185.03 c
78.92 0 142.3 27.33 212.86 91.53 c
7.18 -63.01 38.27 -91.53 102.84 -91.53 c
20.33 0 35.88 2.37 68.17 10.69 c
h
24348.1 33305.3 m
0 -33.44 -9.64 -53.75 -39.55 -81.21 c
-40.67 -37.02 -89.71 -56.13 -148.32 -56.13 c
-77.75 0 -123.2 37.02 -123.2 100.32 c
0 65.69 44.25 99.13 150.71 114.66 c
105.26 14.33 126.79 19.11 160.36 34.68 c
h
f
24846.8 33734 -102.89 0 0 172.6 -98.94 0 ^ -85 0 0 -80.95 ^ 
0 -472.92 P
0 -63.29 42.98 -99.11 120.6 -99.11 c
23.88 0 47.76 2.38 81.23 8.32 c
0 83.21 p
-13.18 -3.44 -28.73 -4.59 -47.87 -4.59 c
-43.05 0 -55.02 11.95 -55.02 56.15 c
0 428.93 102.89 0 h
f
25052 33734 -99.94 0 0 -626 ^ H
25052 33980 -99.94 0 0 -125.98 ^ H
f
25468.2 33752 m
-175.78 0 -282.21 -125.44 -282.21 -335.54 c
0 -210.11 105.23 -335.45 283.4 -335.45 c
175.79 0 283.5 125.34 283.5 330.67 c
0 216.07 -104.12 340.31 -284.69 340.31 c
h
25469.5 33660.1 m
112.49 0 179.53 -91.96 179.53 -247.15 c
0 -146.84 -69.43 -239.95 -179.53 -239.95 c
-111.29 0 -179.5 91.92 -179.5 243.53 c
0 150.41 68.21 243.57 179.5 243.57 c
h
f
25887 33734 0 -625.99 99.94 0 0 345.42 P
0 127.89 67 211.65 169.89 211.65 c
78.96 0 129.25 -47.9 129.25 -123.2 c
0 -433.87 98.94 0 0 473.07 p
0 103.94 -77.71 170.94 -198.31 170.94 c
-93.13 0 -152.84 -35.94 -207.76 -123.15 c
0 105.13 h
f
27366.1 33524 m
-4.78 61.39 -17.93 101.11 -41.84 136.03 c
-43.04 57.75 -118.36 91.95 -205.63 91.95 c
-168.57 0 -278.55 -133.79 -278.55 -341.51 c
0 -201.75 107.59 -329.48 277.36 -329.48 c
149.44 0 243.89 89.46 255.84 242.17 c
-100.5 0 p
-16.74 -100.16 -68.14 -150.23 -153.03 -150.23 c
-109.99 0 -175.74 89.53 -175.74 237.56 c
0 156.38 64.56 249.54 173.35 249.54 c
83.68 0 136.29 -48.93 148.24 -136.03 c
h
f
27979 33108.5 0 625.53 -98.94 0 0 -354.69 P
0 -127.76 -67.02 -211.34 -171.02 -211.34 c
-78.91 0 -129.12 47.76 -129.12 122.98 c
0 443.05 -98.94 0 0 -482.31 p
0 -103.83 77.55 -170.66 199.26 -170.66 c
91.88 0 150.34 32.22 208.81 114.57 c
0 -87.13 h
f
28146.1 33734 0 -625.99 99.94 0 0 325.1 P
0 89.64 22.7 148.21 70.48 182.87 c
31.06 22.71 60.93 29.88 130.25 31.11 c
0 101.34 p
-16.72 2.39 -25.07 3.59 -38.19 3.59 c
-64.4 0 -113.29 -38.33 -170.54 -131.51 c
0 113.49 h
f
28843.7 33108 240.3 626 -112.38 0 -176.94 -507.65 -167.37 507.65 -112.37 0 219.97 -626 H
f
29686.6 33388 m
0 95.45 -7.2 152.73 -25.14 199.26 c
-40.66 102.61 -136.32 164.73 -253.51 164.73 c
-174.59 0 -287 -133.79 -287 -339.12 c
0 -205.33 108.74 -331.86 284.39 -331.86 c
143.39 0 242.57 81.09 267.79 217.06 c
-100.44 0 p
-27.48 -82.23 -83.66 -125.12 -163.74 -125.12 c
-63.35 0 -117.13 28.67 -150.6 81.23 c
-23.91 35.84 -32.27 71.68 -33.46 133.82 c
h
29227.2 33469 m
8.37 115.85 78.9 191.09 179.33 191.09 c
98.03 0 173.35 -81.21 173.35 -183.93 c
0 -2.39 0 -4.78 -1.2 -7.16 c
h
f
30256.6 33559.9 m
-1.23 122.89 -82.55 192.11 -227.24 192.11 c
-145.89 0 -240.36 -75.28 -240.36 -191.07 c
0 -97.89 50.26 -144.45 198.65 -180.26 c
93.34 -22.68 p
69.41 -16.71 97 -41.78 97 -87.14 c
0 -58.5 -58.62 -97.89 -145.96 -97.89 c
-53.84 0 -99.3 15.48 -124.42 41.7 c
-15.55 17.87 -22.73 35.74 -28.71 79.83 c
-105.28 0 p
4.78 -144.32 86.09 -213.47 249.92 -213.47 c
157.85 0 258.4 77.59 258.4 198.16 c
0 93.12 -52.73 144.45 -177.18 174.29 c
-95.74 22.68 p
-81.37 19.1 -116.07 45.36 -116.07 89.53 c
0 57.3 51.43 94.38 132.76 94.38 c
80.14 0 123.2 -34.59 125.59 -100.16 c
h
f
31130.5 33558 m
-22.7 0 -33.45 0 -50.17 -14.41 c
-7.16 -6 -20.29 -23.98 -20.29 -43.16 c
0 -23.98 17.98 -38.37 40.76 -38.37 c
28.78 0 61.17 23.86 61.17 71.57 c
0 57.26 -55.04 101.41 -137.58 101.41 c
-156.69 0 -313.37 -170.99 -313.37 -340.67 c
0 -103.96 64.41 -198.36 186.09 -198.36 c
162.23 0 264.86 126.75 264.86 142.3 c
0 7.17 -7.17 13.19 -11.95 13.19 c
-3.57 0 -4.77 -1.2 -15.5 -11.95 c
-76.34 -101.62 -189.67 -119.55 -235 -119.55 c
-82.31 0 -108.55 71.67 -108.55 131.41 c
0 41.81 20.32 157.69 63.36 238.93 c
31.09 56.15 95.64 120.73 170.96 120.73 c
15.54 0 81.3 -2.36 105.21 -53.05 c
h
f
31708 33436.5 m
0 113.52 -74.18 198.48 -182.92 198.48 c
-157.73 0 -313.07 -172.19 -313.07 -340.67 c
0 -113.52 74.09 -198.36 182.82 -198.36 c
158.93 0 313.17 172.07 313.17 340.55 c
h
31396 33120 m
-59.79 0 -104.04 47.78 -104.04 131.41 c
0 54.95 28.7 176.81 62.18 236.54 c
53.81 91.99 120.77 123.11 169.8 123.11 c
58.59 0 104.11 -47.85 104.11 -131.48 c
0 -47.78 -25.18 -175.61 -70.62 -248.48 c
-49.03 -80.04 -114.8 -111.1 -161.43 -111.1 c
h
f
31996.3 33347 m
20.4 -3.59 52.8 -10.75 60 -11.95 c
15.61 -4.78 69.63 -23.9 69.63 -81.25 c
0 -37.05 -33.67 -133.83 -172.89 -133.83 c
-25.2 0 -115.22 3.57 -139.22 69.11 c
48.03 -5.75 72.05 31.33 72.05 57.65 c
0 25.13 -16.8 38.29 -40.79 38.29 c
-26.38 0 -61.15 -20.35 -61.15 -74.19 c
0 -70.59 71.73 -114.86 167.37 -114.86 c
181.72 0 235.59 133.84 235.59 195.97 c
0 17.92 0 51.38 -38.29 89.62 c
-29.87 28.68 -58.55 34.65 -123.08 47.8 c
-32.27 7.17 -83.64 17.93 -83.64 71.7 c
0 23.9 21.4 109.96 134.36 109.96 c
49.94 0 98.7 -19.09 110.64 -62.02 c
-51.61 0 -53.95 -45.46 -53.95 -46.66 c
0 -25.12 22.78 -32.29 33.57 -32.29 c
16.78 0 50.38 13.14 50.38 63.34 c
0 50.2 -45.48 101.61 -138.66 101.61 c
-156.5 0 -198.3 -123.11 -198.3 -172.1 c
0 -90.82 88.79 -109.94 116.38 -115.91 c
h
f
32802 33709.6 m
0 122 -38.21 240.45 -135.86 240.45 c
-166.72 0 -344.16 -350.49 -344.16 -613.63 c
0 -55.02 11.91 -240.42 136.95 -240.42 c
161.95 0 343.07 342.08 343.07 613.6 c
h
32440.4 33541 m
17.94 70.55 43.06 171 90.9 255.9 c
39.47 71.75 81.34 129.17 133.96 129.17 c
39.47 0 65.79 -33.5 65.79 -148.3 c
0 -43.05 -3.59 -102.84 -38.28 -236.77 c
h
32684.3 33505 m
-29.9 -117.24 -54.97 -192.55 -97.94 -267.87 c
-34.62 -60.97 -76.4 -117.16 -126.54 -117.16 c
-37.01 0 -66.85 28.69 -66.85 147.05 c
0 77.71 19.1 159 38.2 237.98 c
h
f
0.83022 i
33092.3 34114.9 m
0 0.83 0 9.15 -10.79 9.15 c
-19.1 0 -79.72 -6.66 -101.31 -8.33 c
-6.64 -0.83 -15.78 -1.67 -15.78 -16.64 c
0 -9.99 7.47 -9.99 19.93 -9.99 c
39.86 0 41.52 -5.8 41.52 -14.11 c
-2.49 -16.59 -120.41 -477.86 p
-3.32 -11.61 -3.32 -13.27 -3.32 -18.25 c
0 -19.08 16.63 -23.23 24.11 -23.23 c
10.8 0 23.27 7.71 28.26 17.98 c
4.16 7.44 41.56 160.43 46.55 181.12 c
28.26 -2.53 96.45 -15.8 96.45 -70.54 c
0 -5.8 0 -9.12 -2.61 -17.42 c
-1.73 -9.95 -3.46 -19.91 -3.46 -29.03 c
0 -48.93 33.21 -82.11 76.38 -82.11 c
24.91 0 47.32 13.27 65.59 43.95 c
20.76 36.48 29.89 82.09 29.89 83.75 c
0 8.3 -7.47 8.3 -9.96 8.3 c
-8.3 0 -9.13 -3.34 -11.62 -14.97 c
-16.61 -60.67 -35.7 -103.05 -72.23 -103.05 c
-15.77 0 -26.57 9.14 -26.57 39.07 c
0 14.13 3.51 33.25 7.02 46.55 c
3.52 14.13 3.52 17.46 3.52 25.77 c
0 54.03 -52.55 78.14 -123.45 87.28 c
25.74 14.96 52.3 41.56 71.4 61.51 c
39.85 44.06 78.04 79.86 118.72 79.86 c
4.98 0 5.81 0 7.47 0 c
9.96 -1.69 10.79 -1.69 17.43 -6.74 c
1.66 -0.84 1.66 -1.68 3.32 -3.36 c
-39.47 -2.54 -46.87 -35.36 -46.87 -45.46 c
0 -13.47 9.09 -29.46 31.43 -29.46 c
21.5 0 45.48 18.27 45.48 50.67 c
0 24.92 -19.16 52.33 -56.53 52.33 c
-23.25 0 -61.45 -6.66 -121.25 -73.09 c
-28.23 -31.55 -60.62 -64.77 -92.17 -77.23 c
h
f
33162.9 33009.1 232.14 0 P
11.65 0 27.5 0 27.5 16.48 c
0 16.48 -15.86 16.48 -27.5 16.48 c
-232.14 0 0 232.57 p
0 11.63 0 27.43 -16.48 27.43 c
-16.48 0 -16.48 -15.8 -16.48 -27.43 c
0 -232.57 -232.14 0 p
-11.61 0 -27.36 0 -27.36 -16.48 c
0 -16.48 15.75 -16.48 27.36 -16.48 c
232.14 0 0 -232.65 p
0 -11.63 0 -27.42 16.48 -27.42 c
16.48 0 16.48 15.79 16.48 27.42 c
h
f
cleartomark end end pagesave restore
 showpage
%%PageTrailer
%%Trailer
%%Pages: 1
cleartomark
countdictstack
exch sub { end } repeat
restore
showpage
%%EOF
