%!PS-Adobe-3.0 EPSF-3.0
%%Title: systematics/plots/nuisance_rheldiff_fiducial.eps
%%Creator: matplotlib version 1.5.1, http://matplotlib.org/
%%CreationDate: Thu Aug 18 14:22:01 2016
%%Orientation: portrait
%%BoundingBox: 18 -36 594 828
%%EndComments
%%BeginProlog
/mpldict 11 dict def
mpldict begin
/m { moveto } bind def
/l { lineto } bind def
/r { rlineto } bind def
/c { curveto } bind def
/cl { closepath } bind def
/box {
m
1 index 0 r
0 exch r
neg 0 r
cl
} bind def
/clipbox {
box
clip
newpath
} bind def
%!PS-Adobe-3.0 Resource-Font
%%Title: cmr10
%%Copyright: Copyright (C) 1994, Basil K. Malyshev. All Rights Reserved.012BaKoMa Fonts Collection, Level-B.
%%Creator: Converted from TrueType to type 3 by PPR
25 dict begin
/_d{bind def}bind def
/_m{moveto}_d
/_l{lineto}_d
/_cl{closepath eofill}_d
/_c{curveto}_d
/_sc{7 -1 roll{setcachedevice}{pop pop pop pop pop pop}ifelse}_d
/_e{exec}_d
/FontName /Cmr10 def
/PaintType 0 def
/FontMatrix[.001 0 0 .001 0 0]def
/FontBBox[-44 -250 1009 750]def
/FontType 3 def
/Encoding [ /two /one ] def
/FontInfo 10 dict dup begin
/FamilyName (cmr10) def
/FullName (cmr10) def
/Notice (Copyright (C) 1994, Basil K. Malyshev. All Rights Reserved.012BaKoMa Fonts Collection, Level-B. ) def
/Weight (Regular) def
/Version (1.1/12-Nov-94) def
/ItalicAngle 0.0 def
/isFixedPitch false def
/UnderlinePosition -133 def
/UnderlineThickness 20 def
end readonly def
/CharStrings 2 dict dup begin
/two{{500 0 50 0 449 666 _sc
50 0 _m
50 27 _l
50 28 50 30 52 32 _c
207 204 _l
230 229 249 250 264 268 _c
278 285 293 305 307 327 _c
321 349 333 372 341 396 _c
349 419 354 444 354 470 _c
354 497 349 523 339 548 _c
329 573 314 593 294 608 _c
274 623 249 631 221 631 _c
192 631 166 622 143 605 _c
119 587 103 565 94 537 _c
96 537 100 538 105 538 _c
}_e{119 538 132 533 143 523 _c
153 513 159 500 159 484 _c
159 468 153 455 143 445 _c
132 434 119 429 105 429 _c
89 429 76 434 66 445 _c
55 456 50 469 50 484 _c
50 508 54 532 64 554 _c
73 576 86 595 104 613 _c
122 630 142 643 164 652 _c
186 661 210 666 236 666 _c
274 666 309 658 342 642 _c
375 626 401 603 420 573 _c
439 543 449 509 449 470 _c
}_e{449 441 442 414 430 388 _c
417 362 401 338 381 317 _c
361 295 336 271 305 244 _c
274 217 254 199 244 190 _c
131 81 _l
227 81 _l
274 81 313 81 345 82 _c
377 82 394 84 396 86 _c
404 94 412 125 420 178 _c
449 178 _l
421 0 _l
50 0 _l
_cl}_e}_d
/one{500 0 87 0 421 666 _sc
93 0 _m
93 35 _l
176 35 218 45 218 67 _c
218 592 _l
183 575 139 567 87 567 _c
87 602 _l
168 602 230 623 272 666 _c
286 666 _l
288 666 291 665 293 663 _c
295 661 296 659 296 657 _c
296 67 _l
296 45 337 35 421 35 _c
421 0 _l
93 0 _l
_cl}_d
end readonly def

/BuildGlyph
 {exch begin
 CharStrings exch
 2 copy known not{pop /.notdef}if
 true 3 1 roll get exec
 end}_d

/BuildChar {
 1 index /Encoding get exch get
 1 index /BuildGlyph get exec
}_d

FontName currentdict end definefont pop
%!PS-Adobe-3.0 Resource-Font
%%Title: cmsy10
%%Copyright: Copyright (C) 1994, Basil K. Malyshev. All Rights Reserved.012BaKoMa Fonts Collection, Level-B.
%%Creator: Converted from TrueType to type 3 by PPR
25 dict begin
/_d{bind def}bind def
/_m{moveto}_d
/_l{lineto}_d
/_cl{closepath eofill}_d
/_c{curveto}_d
/_sc{7 -1 roll{setcachedevice}{pop pop pop pop pop pop}ifelse}_d
/_e{exec}_d
/FontName /Cmsy10 def
/PaintType 0 def
/FontMatrix[.001 0 0 .001 0 0]def
/FontBBox[-29 -960 1123 779]def
/FontType 3 def
/Encoding [ /plusminus ] def
/FontInfo 10 dict dup begin
/FamilyName (cmsy10) def
/FullName (cmsy10) def
/Notice (Copyright (C) 1994, Basil K. Malyshev. All Rights Reserved.012BaKoMa Fonts Collection, Level-B. ) def
/Weight (Regular) def
/Version (1.1/12-Nov-94) def
/ItalicAngle 0.0 def
/isFixedPitch false def
/UnderlinePosition -133 def
/UnderlineThickness 20 def
end readonly def
/CharStrings 1 dict dup begin
/plusminus{{777 0 56 0 721 666 _sc
75 0 _m
69 0 65 2 61 6 _c
57 10 56 14 56 20 _c
56 24 57 29 61 33 _c
65 37 69 40 75 40 _c
369 40 _l
369 313 _l
75 313 _l
69 313 65 315 61 319 _c
57 323 56 328 56 333 _c
56 337 57 342 61 346 _c
65 350 69 353 75 353 _c
369 353 _l
369 648 _l
369 653 371 657 375 661 _c
379 664 383 666 389 666 _c
}_e{393 666 398 664 402 661 _c
406 657 409 653 409 648 _c
409 353 _l
703 353 _l
707 353 711 350 715 346 _c
719 342 721 337 721 333 _c
721 328 719 323 715 319 _c
711 315 707 313 703 313 _c
409 313 _l
409 40 _l
703 40 _l
707 40 711 37 715 33 _c
719 29 721 24 721 20 _c
721 14 719 10 715 6 _c
711 2 707 0 703 0 _c
75 0 _l
_cl}_e}_d
end readonly def

/BuildGlyph
 {exch begin
 CharStrings exch
 2 copy known not{pop /.notdef}if
 true 3 1 roll get exec
 end}_d

/BuildChar {
 1 index /Encoding get exch get
 1 index /BuildGlyph get exec
}_d

FontName currentdict end definefont pop
%!PS-Adobe-3.0 Resource-Font
%%Title: Bitstream Vera Sans
%%Copyright: Copyright (c) 2003 by Bitstream, Inc. All Rights Reserved.
%%Creator: Converted from TrueType to type 3 by PPR
25 dict begin
/_d{bind def}bind def
/_m{moveto}_d
/_l{lineto}_d
/_cl{closepath eofill}_d
/_c{curveto}_d
/_sc{7 -1 roll{setcachedevice}{pop pop pop pop pop pop}ifelse}_d
/_e{exec}_d
/FontName /BitstreamVeraSans-Roman def
/PaintType 0 def
/FontMatrix[.001 0 0 .001 0 0]def
/FontBBox[-183 -236 1287 928]def
/FontType 3 def
/Encoding [ /space /parenleft /parenright /zero /one /two /three /four /five /six /seven /eight /D /N /P /underscore /a /b /c /d /e /f /g /h /i /j /l /m /n /o /p /r /s /t /u /v /x /z /minus ] def
/FontInfo 10 dict dup begin
/FamilyName (Bitstream Vera Sans) def
/FullName (Bitstream Vera Sans) def
/Notice (Copyright (c) 2003 by Bitstream, Inc. All Rights Reserved. Bitstream Vera is a trademark of Bitstream, Inc.) def
/Weight (Roman) def
/Version (Release 1.10) def
/ItalicAngle 0.0 def
/isFixedPitch false def
/UnderlinePosition -213 def
/UnderlineThickness 143 def
end readonly def
/CharStrings 39 dict dup begin
/space{318 0 0 0 0 0 _sc
}_d
/parenleft{390 0 86 -131 310 759 _sc
310 759 _m
266 683 234 609 213 536 _c
191 463 181 389 181 314 _c
181 238 191 164 213 91 _c
234 17 266 -56 310 -131 _c
232 -131 _l
183 -54 146 20 122 94 _c
98 168 86 241 86 314 _c
86 386 98 459 122 533 _c
146 607 182 682 232 759 _c
310 759 _l
_cl}_d
/parenright{390 0 80 -131 304 759 _sc
80 759 _m
158 759 _l
206 682 243 607 267 533 _c
291 459 304 386 304 314 _c
304 241 291 168 267 94 _c
243 20 206 -54 158 -131 _c
80 -131 _l
123 -56 155 17 177 91 _c
198 164 209 238 209 314 _c
209 389 198 463 177 536 _c
155 609 123 683 80 759 _c
_cl}_d
/zero{636 0 66 -13 570 742 _sc
318 664 _m
267 664 229 639 203 589 _c
177 539 165 464 165 364 _c
165 264 177 189 203 139 _c
229 89 267 64 318 64 _c
369 64 407 89 433 139 _c
458 189 471 264 471 364 _c
471 464 458 539 433 589 _c
407 639 369 664 318 664 _c
318 742 _m
399 742 461 709 505 645 _c
548 580 570 486 570 364 _c
570 241 548 147 505 83 _c
461 19 399 -13 318 -13 _c
236 -13 173 19 130 83 _c
87 147 66 241 66 364 _c
66 486 87 580 130 645 _c
173 709 236 742 318 742 _c
_cl}_d
/one{636 0 110 0 544 729 _sc
124 83 _m
285 83 _l
285 639 _l
110 604 _l
110 694 _l
284 729 _l
383 729 _l
383 83 _l
544 83 _l
544 0 _l
124 0 _l
124 83 _l
_cl}_d
/two{{636 0 73 0 536 742 _sc
192 83 _m
536 83 _l
536 0 _l
73 0 _l
73 83 _l
110 121 161 173 226 239 _c
290 304 331 346 348 365 _c
380 400 402 430 414 455 _c
426 479 433 504 433 528 _c
433 566 419 598 392 622 _c
365 646 330 659 286 659 _c
255 659 222 653 188 643 _c
154 632 117 616 78 594 _c
78 694 _l
118 710 155 722 189 730 _c
223 738 255 742 284 742 _c
}_e{359 742 419 723 464 685 _c
509 647 532 597 532 534 _c
532 504 526 475 515 449 _c
504 422 484 390 454 354 _c
446 344 420 317 376 272 _c
332 227 271 164 192 83 _c
_cl}_e}_d
/three{{636 0 76 -13 556 742 _sc
406 393 _m
453 383 490 362 516 330 _c
542 298 556 258 556 212 _c
556 140 531 84 482 45 _c
432 6 362 -13 271 -13 _c
240 -13 208 -10 176 -4 _c
144 1 110 10 76 22 _c
76 117 _l
103 101 133 89 166 81 _c
198 73 232 69 268 69 _c
330 69 377 81 409 105 _c
441 129 458 165 458 212 _c
458 254 443 288 413 312 _c
383 336 341 349 287 349 _c
}_e{202 349 _l
202 430 _l
291 430 _l
339 430 376 439 402 459 _c
428 478 441 506 441 543 _c
441 580 427 609 401 629 _c
374 649 336 659 287 659 _c
260 659 231 656 200 650 _c
169 644 135 635 98 623 _c
98 711 _l
135 721 170 729 203 734 _c
235 739 266 742 296 742 _c
370 742 429 725 473 691 _c
517 657 539 611 539 553 _c
539 513 527 479 504 451 _c
481 423 448 403 406 393 _c
_cl}_e}_d
/four{636 0 49 0 580 729 _sc
378 643 _m
129 254 _l
378 254 _l
378 643 _l
352 729 _m
476 729 _l
476 254 _l
580 254 _l
580 172 _l
476 172 _l
476 0 _l
378 0 _l
378 172 _l
49 172 _l
49 267 _l
352 729 _l
_cl}_d
/five{{636 0 77 -13 549 729 _sc
108 729 _m
495 729 _l
495 646 _l
198 646 _l
198 467 _l
212 472 227 476 241 478 _c
255 480 270 482 284 482 _c
365 482 429 459 477 415 _c
525 370 549 310 549 234 _c
549 155 524 94 475 51 _c
426 8 357 -13 269 -13 _c
238 -13 207 -10 175 -6 _c
143 -1 111 6 77 17 _c
77 116 _l
106 100 136 88 168 80 _c
199 72 232 69 267 69 _c
}_e{323 69 368 83 401 113 _c
433 143 450 183 450 234 _c
450 284 433 324 401 354 _c
368 384 323 399 267 399 _c
241 399 214 396 188 390 _c
162 384 135 375 108 363 _c
108 729 _l
_cl}_e}_d
/six{{636 0 70 -13 573 742 _sc
330 404 _m
286 404 251 388 225 358 _c
199 328 186 286 186 234 _c
186 181 199 139 225 109 _c
251 79 286 64 330 64 _c
374 64 409 79 435 109 _c
461 139 474 181 474 234 _c
474 286 461 328 435 358 _c
409 388 374 404 330 404 _c
526 713 _m
526 623 _l
501 635 476 644 451 650 _c
425 656 400 659 376 659 _c
310 659 260 637 226 593 _c
}_e{192 549 172 482 168 394 _c
187 422 211 444 240 459 _c
269 474 301 482 336 482 _c
409 482 467 459 509 415 _c
551 371 573 310 573 234 _c
573 159 550 99 506 54 _c
462 9 403 -13 330 -13 _c
246 -13 181 19 137 83 _c
92 147 70 241 70 364 _c
70 479 97 571 152 639 _c
206 707 280 742 372 742 _c
396 742 421 739 447 735 _c
472 730 498 723 526 713 _c
_cl}_e}_d
/seven{636 0 82 0 551 729 _sc
82 729 _m
551 729 _l
551 687 _l
286 0 _l
183 0 _l
432 646 _l
82 646 _l
82 729 _l
_cl}_d
/eight{{636 0 68 -13 568 742 _sc
318 346 _m
271 346 234 333 207 308 _c
180 283 167 249 167 205 _c
167 161 180 126 207 101 _c
234 76 271 64 318 64 _c
364 64 401 76 428 102 _c
455 127 469 161 469 205 _c
469 249 455 283 429 308 _c
402 333 365 346 318 346 _c
219 388 _m
177 398 144 418 120 447 _c
96 476 85 511 85 553 _c
85 611 105 657 147 691 _c
188 725 245 742 318 742 _c
}_e{390 742 447 725 489 691 _c
530 657 551 611 551 553 _c
551 511 539 476 515 447 _c
491 418 459 398 417 388 _c
464 377 501 355 528 323 _c
554 291 568 251 568 205 _c
568 134 546 80 503 43 _c
459 5 398 -13 318 -13 _c
237 -13 175 5 132 43 _c
89 80 68 134 68 205 _c
68 251 81 291 108 323 _c
134 355 171 377 219 388 _c
183 544 _m
183 506 194 476 218 455 _c
}_e{242 434 275 424 318 424 _c
360 424 393 434 417 455 _c
441 476 453 506 453 544 _c
453 582 441 611 417 632 _c
393 653 360 664 318 664 _c
275 664 242 653 218 632 _c
194 611 183 582 183 544 _c
_cl}_e}_d
/D{770 0 98 0 711 729 _sc
197 648 _m
197 81 _l
316 81 _l
416 81 490 103 537 149 _c
583 195 607 267 607 365 _c
607 463 583 534 537 580 _c
490 625 416 648 316 648 _c
197 648 _l
98 729 _m
301 729 _l
442 729 546 699 612 641 _c
678 582 711 490 711 365 _c
711 239 677 147 611 88 _c
545 29 441 0 301 0 _c
98 0 _l
98 729 _l
_cl}_d
/N{748 0 98 0 650 729 _sc
98 729 _m
231 729 _l
554 119 _l
554 729 _l
650 729 _l
650 0 _l
517 0 _l
194 610 _l
194 0 _l
98 0 _l
98 729 _l
_cl}_d
/P{603 0 98 0 569 729 _sc
197 648 _m
197 374 _l
321 374 _l
367 374 402 385 427 409 _c
452 433 465 467 465 511 _c
465 555 452 588 427 612 _c
402 636 367 648 321 648 _c
197 648 _l
98 729 _m
321 729 _l
402 729 464 710 506 673 _c
548 636 569 582 569 511 _c
569 439 548 384 506 348 _c
464 311 402 293 321 293 _c
197 293 _l
197 0 _l
98 0 _l
98 729 _l
_cl}_d
/underscore{500 0 -9 -235 510 -165 _sc
510 -165 _m
510 -235 _l
-9 -235 _l
-9 -165 _l
510 -165 _l
_cl}_d
/a{{613 0 60 -13 522 560 _sc
343 275 _m
270 275 220 266 192 250 _c
164 233 150 205 150 165 _c
150 133 160 107 181 89 _c
202 70 231 61 267 61 _c
317 61 357 78 387 114 _c
417 149 432 196 432 255 _c
432 275 _l
343 275 _l
522 312 _m
522 0 _l
432 0 _l
432 83 _l
411 49 385 25 355 10 _c
325 -5 287 -13 243 -13 _c
187 -13 142 2 109 33 _c
76 64 60 106 60 159 _c
}_e{60 220 80 266 122 298 _c
163 329 224 345 306 345 _c
432 345 _l
432 354 _l
432 395 418 427 391 450 _c
364 472 326 484 277 484 _c
245 484 215 480 185 472 _c
155 464 127 453 100 439 _c
100 522 _l
132 534 164 544 195 550 _c
226 556 256 560 286 560 _c
365 560 424 539 463 498 _c
502 457 522 395 522 312 _c
_cl}_e}_d
/b{{635 0 91 -13 580 760 _sc
487 273 _m
487 339 473 390 446 428 _c
418 466 381 485 334 485 _c
286 485 249 466 222 428 _c
194 390 181 339 181 273 _c
181 207 194 155 222 117 _c
249 79 286 61 334 61 _c
381 61 418 79 446 117 _c
473 155 487 207 487 273 _c
181 464 _m
199 496 223 520 252 536 _c
281 552 316 560 356 560 _c
422 560 476 533 518 481 _c
559 428 580 359 580 273 _c
}_e{580 187 559 117 518 65 _c
476 13 422 -13 356 -13 _c
316 -13 281 -5 252 10 _c
223 25 199 49 181 82 _c
181 0 _l
91 0 _l
91 760 _l
181 760 _l
181 464 _l
_cl}_e}_d
/c{{550 0 55 -13 488 560 _sc
488 526 _m
488 442 _l
462 456 437 466 411 473 _c
385 480 360 484 334 484 _c
276 484 230 465 198 428 _c
166 391 150 339 150 273 _c
150 206 166 154 198 117 _c
230 80 276 62 334 62 _c
360 62 385 65 411 72 _c
437 79 462 90 488 104 _c
488 21 _l
462 9 436 0 410 -5 _c
383 -10 354 -13 324 -13 _c
242 -13 176 12 128 64 _c
}_e{79 115 55 185 55 273 _c
55 362 79 432 128 483 _c
177 534 244 560 330 560 _c
358 560 385 557 411 551 _c
437 545 463 537 488 526 _c
_cl}_e}_d
/d{{635 0 55 -13 544 760 _sc
454 464 _m
454 760 _l
544 760 _l
544 0 _l
454 0 _l
454 82 _l
435 49 411 25 382 10 _c
353 -5 319 -13 279 -13 _c
213 -13 159 13 117 65 _c
75 117 55 187 55 273 _c
55 359 75 428 117 481 _c
159 533 213 560 279 560 _c
319 560 353 552 382 536 _c
411 520 435 496 454 464 _c
148 273 _m
148 207 161 155 188 117 _c
215 79 253 61 301 61 _c
}_e{348 61 385 79 413 117 _c
440 155 454 207 454 273 _c
454 339 440 390 413 428 _c
385 466 348 485 301 485 _c
253 485 215 466 188 428 _c
161 390 148 339 148 273 _c
_cl}_e}_d
/e{{615 0 55 -13 562 560 _sc
562 296 _m
562 252 _l
149 252 _l
153 190 171 142 205 110 _c
238 78 284 62 344 62 _c
378 62 412 66 444 74 _c
476 82 509 95 541 113 _c
541 28 _l
509 14 476 3 442 -3 _c
408 -9 373 -13 339 -13 _c
251 -13 182 12 131 62 _c
80 112 55 181 55 268 _c
55 357 79 428 127 481 _c
175 533 241 560 323 560 _c
397 560 455 536 498 489 _c
}_e{540 441 562 377 562 296 _c
472 322 _m
471 371 457 410 431 440 _c
404 469 368 484 324 484 _c
274 484 234 469 204 441 _c
174 413 156 373 152 322 _c
472 322 _l
_cl}_e}_d
/f{352 0 23 0 371 760 _sc
371 760 _m
371 685 _l
285 685 _l
253 685 230 678 218 665 _c
205 652 199 629 199 595 _c
199 547 _l
347 547 _l
347 477 _l
199 477 _l
199 0 _l
109 0 _l
109 477 _l
23 477 _l
23 547 _l
109 547 _l
109 585 _l
109 645 123 690 151 718 _c
179 746 224 760 286 760 _c
371 760 _l
_cl}_d
/g{{635 0 55 -207 544 560 _sc
454 280 _m
454 344 440 395 414 431 _c
387 467 349 485 301 485 _c
253 485 215 467 188 431 _c
161 395 148 344 148 280 _c
148 215 161 165 188 129 _c
215 93 253 75 301 75 _c
349 75 387 93 414 129 _c
440 165 454 215 454 280 _c
544 68 _m
544 -24 523 -93 482 -139 _c
440 -184 377 -207 292 -207 _c
260 -207 231 -204 203 -200 _c
175 -195 147 -188 121 -178 _c
}_e{121 -91 _l
147 -105 173 -115 199 -122 _c
225 -129 251 -133 278 -133 _c
336 -133 380 -117 410 -87 _c
439 -56 454 -10 454 52 _c
454 96 _l
435 64 411 40 382 24 _c
353 8 319 0 279 0 _c
211 0 157 25 116 76 _c
75 127 55 195 55 280 _c
55 364 75 432 116 483 _c
157 534 211 560 279 560 _c
319 560 353 552 382 536 _c
411 520 435 496 454 464 _c
454 547 _l
544 547 _l
}_e{544 68 _l
_cl}_e}_d
/h{634 0 91 0 549 760 _sc
549 330 _m
549 0 _l
459 0 _l
459 327 _l
459 379 448 417 428 443 _c
408 469 378 482 338 482 _c
289 482 251 466 223 435 _c
195 404 181 362 181 309 _c
181 0 _l
91 0 _l
91 760 _l
181 760 _l
181 462 _l
202 494 227 519 257 535 _c
286 551 320 560 358 560 _c
420 560 468 540 500 501 _c
532 462 549 405 549 330 _c
_cl}_d
/i{278 0 94 0 184 760 _sc
94 547 _m
184 547 _l
184 0 _l
94 0 _l
94 547 _l
94 760 _m
184 760 _l
184 646 _l
94 646 _l
94 760 _l
_cl}_d
/j{278 0 -17 -207 184 760 _sc
94 547 _m
184 547 _l
184 -9 _l
184 -78 170 -128 144 -160 _c
117 -191 74 -207 16 -207 _c
-17 -207 _l
-17 -131 _l
6 -131 _l
40 -131 63 -123 75 -107 _c
87 -91 94 -58 94 -9 _c
94 547 _l
94 760 _m
184 760 _l
184 646 _l
94 646 _l
94 760 _l
_cl}_d
/l{278 0 94 0 184 760 _sc
94 760 _m
184 760 _l
184 0 _l
94 0 _l
94 760 _l
_cl}_d
/m{{974 0 91 0 889 560 _sc
520 442 _m
542 482 569 511 600 531 _c
631 550 668 560 711 560 _c
767 560 811 540 842 500 _c
873 460 889 403 889 330 _c
889 0 _l
799 0 _l
799 327 _l
799 379 789 418 771 444 _c
752 469 724 482 686 482 _c
639 482 602 466 575 435 _c
548 404 535 362 535 309 _c
535 0 _l
445 0 _l
445 327 _l
445 379 435 418 417 444 _c
398 469 369 482 331 482 _c
}_e{285 482 248 466 221 435 _c
194 404 181 362 181 309 _c
181 0 _l
91 0 _l
91 547 _l
181 547 _l
181 462 _l
201 495 226 520 255 536 _c
283 552 317 560 357 560 _c
397 560 430 550 458 530 _c
486 510 506 480 520 442 _c
_cl}_e}_d
/n{634 0 91 0 549 560 _sc
549 330 _m
549 0 _l
459 0 _l
459 327 _l
459 379 448 417 428 443 _c
408 469 378 482 338 482 _c
289 482 251 466 223 435 _c
195 404 181 362 181 309 _c
181 0 _l
91 0 _l
91 547 _l
181 547 _l
181 462 _l
202 494 227 519 257 535 _c
286 551 320 560 358 560 _c
420 560 468 540 500 501 _c
532 462 549 405 549 330 _c
_cl}_d
/o{612 0 55 -13 557 560 _sc
306 484 _m
258 484 220 465 192 427 _c
164 389 150 338 150 273 _c
150 207 163 156 191 118 _c
219 80 257 62 306 62 _c
354 62 392 80 420 118 _c
448 156 462 207 462 273 _c
462 337 448 389 420 427 _c
392 465 354 484 306 484 _c
306 560 _m
384 560 445 534 490 484 _c
534 433 557 363 557 273 _c
557 183 534 113 490 63 _c
445 12 384 -13 306 -13 _c
227 -13 165 12 121 63 _c
77 113 55 183 55 273 _c
55 363 77 433 121 484 _c
165 534 227 560 306 560 _c
_cl}_d
/p{{635 0 91 -207 580 560 _sc
181 82 _m
181 -207 _l
91 -207 _l
91 547 _l
181 547 _l
181 464 _l
199 496 223 520 252 536 _c
281 552 316 560 356 560 _c
422 560 476 533 518 481 _c
559 428 580 359 580 273 _c
580 187 559 117 518 65 _c
476 13 422 -13 356 -13 _c
316 -13 281 -5 252 10 _c
223 25 199 49 181 82 _c
487 273 _m
487 339 473 390 446 428 _c
418 466 381 485 334 485 _c
}_e{286 485 249 466 222 428 _c
194 390 181 339 181 273 _c
181 207 194 155 222 117 _c
249 79 286 61 334 61 _c
381 61 418 79 446 117 _c
473 155 487 207 487 273 _c
_cl}_e}_d
/r{411 0 91 0 411 560 _sc
411 463 _m
401 469 390 473 378 476 _c
366 478 353 480 339 480 _c
288 480 249 463 222 430 _c
194 397 181 350 181 288 _c
181 0 _l
91 0 _l
91 547 _l
181 547 _l
181 462 _l
199 495 224 520 254 536 _c
284 552 321 560 365 560 _c
371 560 378 559 386 559 _c
393 558 401 557 411 555 _c
411 463 _l
_cl}_d
/s{{521 0 54 -13 472 560 _sc
443 531 _m
443 446 _l
417 458 391 468 364 475 _c
336 481 308 485 279 485 _c
234 485 200 478 178 464 _c
156 450 145 430 145 403 _c
145 382 153 366 169 354 _c
185 342 217 330 265 320 _c
296 313 _l
360 299 405 279 432 255 _c
458 230 472 195 472 151 _c
472 100 452 60 412 31 _c
372 1 316 -13 246 -13 _c
216 -13 186 -10 154 -5 _c
}_e{122 0 89 8 54 20 _c
54 113 _l
87 95 120 82 152 74 _c
184 65 216 61 248 61 _c
290 61 323 68 346 82 _c
368 96 380 117 380 144 _c
380 168 371 187 355 200 _c
339 213 303 226 247 238 _c
216 245 _l
160 257 119 275 95 299 _c
70 323 58 356 58 399 _c
58 450 76 490 112 518 _c
148 546 200 560 268 560 _c
301 560 332 557 362 552 _c
391 547 418 540 443 531 _c
}_e{_cl}_e}_d
/t{392 0 27 0 368 702 _sc
183 702 _m
183 547 _l
368 547 _l
368 477 _l
183 477 _l
183 180 _l
183 135 189 106 201 94 _c
213 81 238 75 276 75 _c
368 75 _l
368 0 _l
276 0 _l
206 0 158 13 132 39 _c
106 65 93 112 93 180 _c
93 477 _l
27 477 _l
27 547 _l
93 547 _l
93 702 _l
183 702 _l
_cl}_d
/u{634 0 85 -13 543 547 _sc
85 216 _m
85 547 _l
175 547 _l
175 219 _l
175 167 185 129 205 103 _c
225 77 255 64 296 64 _c
344 64 383 79 411 110 _c
439 141 453 183 453 237 _c
453 547 _l
543 547 _l
543 0 _l
453 0 _l
453 84 _l
431 50 405 26 377 10 _c
348 -5 315 -13 277 -13 _c
214 -13 166 6 134 45 _c
101 83 85 140 85 216 _c
_cl}_d
/v{592 0 30 0 562 547 _sc
30 547 _m
125 547 _l
296 88 _l
467 547 _l
562 547 _l
357 0 _l
235 0 _l
30 547 _l
_cl}_d
/x{592 0 29 0 559 547 _sc
549 547 _m
351 281 _l
559 0 _l
453 0 _l
294 215 _l
135 0 _l
29 0 _l
241 286 _l
47 547 _l
153 547 _l
298 352 _l
443 547 _l
549 547 _l
_cl}_d
/z{525 0 43 0 482 547 _sc
55 547 _m
482 547 _l
482 465 _l
144 72 _l
482 72 _l
482 0 _l
43 0 _l
43 82 _l
381 475 _l
55 475 _l
55 547 _l
_cl}_d
/minus{838 0 106 272 732 355 _sc
106 355 _m
732 355 _l
732 272 _l
106 272 _l
106 355 _l
_cl}_d
end readonly def

/BuildGlyph
 {exch begin
 CharStrings exch
 2 copy known not{pop /.notdef}if
 true 3 1 roll get exec
 end}_d

/BuildChar {
 1 index /Encoding get exch get
 1 index /BuildGlyph get exec
}_d

FontName currentdict end definefont pop
%!PS-Adobe-3.0 Resource-Font
%%Title: cmmi10
%%Copyright: Copyright (C) 1994, Basil K. Malyshev. All Rights Reserved.012BaKoMa Fonts Collection, Level-B.
%%Creator: Converted from TrueType to type 3 by PPR
25 dict begin
/_d{bind def}bind def
/_m{moveto}_d
/_l{lineto}_d
/_cl{closepath eofill}_d
/_c{curveto}_d
/_sc{7 -1 roll{setcachedevice}{pop pop pop pop pop pop}ifelse}_d
/_e{exec}_d
/FontName /Cmmi10 def
/PaintType 0 def
/FontMatrix[.001 0 0 .001 0 0]def
/FontBBox[-34 -250 1048 750]def
/FontType 3 def
/Encoding [ /theta /sigma ] def
/FontInfo 10 dict dup begin
/FamilyName (cmmi10) def
/FullName (cmmi10) def
/Notice (Copyright (C) 1994, Basil K. Malyshev. All Rights Reserved.012BaKoMa Fonts Collection, Level-B. ) def
/Weight (Regular) def
/Version (1.1/12-Nov-94) def
/ItalicAngle 0.0 def
/isFixedPitch false def
/UnderlinePosition -133 def
/UnderlineThickness 20 def
end readonly def
/CharStrings 2 dict dup begin
/theta{{469 0 40 -10 457 705 _sc
161 -10 _m
131 -10 106 0 88 22 _c
70 44 57 70 50 102 _c
43 133 40 164 40 195 _c
40 196 _l
40 229 43 263 49 299 _c
55 335 65 370 77 406 _c
89 442 102 474 116 502 _c
126 521 138 543 154 567 _c
169 591 186 614 205 635 _c
224 656 245 673 267 686 _c
289 698 311 705 334 705 _c
335 705 _l
359 705 379 698 395 685 _c
}_e{411 671 423 654 432 634 _c
441 613 447 591 451 567 _c
455 543 457 520 457 499 _c
457 448 450 396 436 344 _c
422 292 404 241 380 192 _c
370 173 358 151 342 126 _c
326 101 309 79 291 59 _c
273 39 252 22 230 9 _c
207 -3 184 -10 162 -10 _c
161 -10 _l
163 15 _m
185 15 206 26 226 50 _c
246 74 264 102 280 136 _c
295 170 308 204 320 240 _c
332 275 340 305 346 330 _c
}_e{142 330 _l
131 288 123 251 117 221 _c
111 191 109 161 109 132 _c
109 54 127 15 163 15 _c
150 365 _m
355 365 _l
362 394 368 418 372 438 _c
376 458 379 479 382 501 _c
385 523 387 543 387 562 _c
387 640 369 679 334 679 _c
292 679 255 645 224 577 _c
193 509 168 438 150 365 _c
_cl}_e}_d
/sigma{{571 0 36 -10 568 431 _sc
187 -10 _m
157 -10 131 -3 108 10 _c
85 24 67 43 55 67 _c
42 91 36 118 36 147 _c
36 177 43 210 57 244 _c
71 278 90 310 114 338 _c
138 366 166 389 197 406 _c
227 422 259 431 291 431 _c
543 431 _l
549 431 555 428 560 424 _c
565 419 568 413 568 406 _c
568 396 564 387 557 380 _c
550 372 542 369 532 369 _c
410 369 _l
}_e{429 340 439 305 439 265 _c
439 231 432 198 419 166 _c
406 133 388 103 365 77 _c
342 50 315 29 284 13 _c
253 -2 221 -10 187 -10 _c
188 15 _m
224 15 257 29 285 58 _c
313 86 334 121 349 162 _c
364 203 372 241 372 277 _c
372 305 364 328 348 344 _c
332 360 310 369 282 369 _c
243 369 210 356 183 330 _c
156 304 136 271 122 232 _c
108 192 102 154 102 118 _c
}_e{102 89 109 65 124 45 _c
139 25 160 15 188 15 _c
_cl}_e}_d
end readonly def

/BuildGlyph
 {exch begin
 CharStrings exch
 2 copy known not{pop /.notdef}if
 true 3 1 roll get exec
 end}_d

/BuildChar {
 1 index /Encoding get exch get
 1 index /BuildGlyph get exec
}_d

FontName currentdict end definefont pop
end
%%EndProlog
mpldict begin
18 -36 translate
576 864 0 0 clipbox
100000 setmiterlimit
gsave
0 0 m
576 0 l
576 864 l
0 864 l
cl
1.000 setgray
fill
grestore
gsave
178.8475 50.76 m
563.04 50.76 l
563.04 851.04 l
178.8475 851.04 l
cl
1.000 setgray
fill
grestore
1.000 setlinewidth
0 setlinejoin
0 setlinecap
[] 0 setdash
0.000 setgray
gsave
384.2 800.3 178.8 50.76 clipbox
294.10525 50.76 m
294.10525 851.04 l
447.78225 851.04 l
447.78225 50.76 l
cl
gsave
0.969 0.996 0.180 setrgbcolor
fill
grestore
stroke
grestore
gsave
384.2 800.3 178.8 50.76 clipbox
332.5245 50.76 m
332.5245 851.04 l
409.363 851.04 l
409.363 50.76 l
cl
gsave
0.000 1.000 0.000 setrgbcolor
fill
grestore
stroke
grestore
1 setlinejoin
1.000 0.000 0.000 setrgbcolor
gsave
384.2 800.3 178.8 50.76 clipbox
326.356455 65.310545 m
402.336975 65.310545 l
stroke
grestore
gsave
384.2 800.3 178.8 50.76 clipbox
328.308036 79.861091 m
399.124209 79.861091 l
stroke
grestore
gsave
384.2 800.3 178.8 50.76 clipbox
333.833238 94.411636 m
410.106095 94.411636 l
stroke
grestore
gsave
384.2 800.3 178.8 50.76 clipbox
341.122699 108.962182 m
413.021986 108.962182 l
stroke
grestore
gsave
384.2 800.3 178.8 50.76 clipbox
345.520537 123.512727 m
419.590203 123.512727 l
stroke
grestore
gsave
384.2 800.3 178.8 50.76 clipbox
325.571409 138.063273 m
400.078025 138.063273 l
stroke
grestore
gsave
384.2 800.3 178.8 50.76 clipbox
334.475663 152.613818 m
407.955347 152.613818 l
stroke
grestore
gsave
384.2 800.3 178.8 50.76 clipbox
330.72695 167.164364 m
406.656755 167.164364 l
stroke
grestore
gsave
384.2 800.3 178.8 50.76 clipbox
330.176325 181.714909 m
406.631345 181.714909 l
stroke
grestore
gsave
384.2 800.3 178.8 50.76 clipbox
330.982339 196.265455 m
406.352587 196.265455 l
stroke
grestore
gsave
384.2 800.3 178.8 50.76 clipbox
337.194373 210.816 m
405.35099 210.816 l
stroke
grestore
gsave
384.2 800.3 178.8 50.76 clipbox
331.828412 225.366545 m
407.155917 225.366545 l
stroke
grestore
gsave
384.2 800.3 178.8 50.76 clipbox
331.795581 239.917091 m
407.26706 239.917091 l
stroke
grestore
gsave
384.2 800.3 178.8 50.76 clipbox
323.056189 254.467636 m
395.043396 254.467636 l
stroke
grestore
gsave
384.2 800.3 178.8 50.76 clipbox
332.12401 269.018182 m
407.865873 269.018182 l
stroke
grestore
gsave
384.2 800.3 178.8 50.76 clipbox
331.71895 283.568727 m
408.260905 283.568727 l
stroke
grestore
gsave
384.2 800.3 178.8 50.76 clipbox
335.557293 298.119273 m
407.023787 298.119273 l
stroke
grestore
gsave
384.2 800.3 178.8 50.76 clipbox
332.86195 312.669818 m
406.479409 312.669818 l
stroke
grestore
gsave
384.2 800.3 178.8 50.76 clipbox
329.737318 327.220364 m
405.695475 327.220364 l
stroke
grestore
gsave
384.2 800.3 178.8 50.76 clipbox
320.486709 341.770909 m
388.534728 341.770909 l
stroke
grestore
gsave
384.2 800.3 178.8 50.76 clipbox
341.293718 356.321455 m
411.43751 356.321455 l
stroke
grestore
gsave
384.2 800.3 178.8 50.76 clipbox
334.979694 370.872 m
407.032846 370.872 l
stroke
grestore
gsave
384.2 800.3 178.8 50.76 clipbox
324.249035 385.422545 m
385.330142 385.422545 l
stroke
grestore
gsave
384.2 800.3 178.8 50.76 clipbox
337.844398 399.973091 m
410.786474 399.973091 l
stroke
grestore
gsave
384.2 800.3 178.8 50.76 clipbox
325.74997 414.523636 m
399.103804 414.523636 l
stroke
grestore
gsave
384.2 800.3 178.8 50.76 clipbox
339.455277 429.074182 m
412.321021 429.074182 l
stroke
grestore
gsave
384.2 800.3 178.8 50.76 clipbox
327.000067 443.624727 m
399.75503 443.624727 l
stroke
grestore
gsave
384.2 800.3 178.8 50.76 clipbox
349.648855 458.175273 m
424.042825 458.175273 l
stroke
grestore
gsave
384.2 800.3 178.8 50.76 clipbox
331.23629 472.725818 m
402.231986 472.725818 l
stroke
grestore
gsave
384.2 800.3 178.8 50.76 clipbox
389.433802 487.276364 m
434.51424 487.276364 l
stroke
grestore
gsave
384.2 800.3 178.8 50.76 clipbox
331.141672 501.826909 m
401.543653 501.826909 l
stroke
grestore
gsave
384.2 800.3 178.8 50.76 clipbox
349.048697 516.377455 m
421.07305 516.377455 l
stroke
grestore
gsave
384.2 800.3 178.8 50.76 clipbox
350.178614 530.928 m
420.855306 530.928 l
stroke
grestore
gsave
384.2 800.3 178.8 50.76 clipbox
322.595117 545.478545 m
397.984967 545.478545 l
stroke
grestore
gsave
384.2 800.3 178.8 50.76 clipbox
331.175861 560.029091 m
401.858816 560.029091 l
stroke
grestore
gsave
384.2 800.3 178.8 50.76 clipbox
332.362143 574.579636 m
401.125912 574.579636 l
stroke
grestore
gsave
384.2 800.3 178.8 50.76 clipbox
344.661891 589.130182 m
415.886837 589.130182 l
stroke
grestore
gsave
384.2 800.3 178.8 50.76 clipbox
325.688293 603.680727 m
397.040985 603.680727 l
stroke
grestore
gsave
384.2 800.3 178.8 50.76 clipbox
352.690507 618.231273 m
422.781692 618.231273 l
stroke
grestore
gsave
384.2 800.3 178.8 50.76 clipbox
353.864827 632.781818 m
425.077178 632.781818 l
stroke
grestore
gsave
384.2 800.3 178.8 50.76 clipbox
327.78594 647.332364 m
403.683298 647.332364 l
stroke
grestore
gsave
384.2 800.3 178.8 50.76 clipbox
332.420832 661.882909 m
407.175561 661.882909 l
stroke
grestore
gsave
384.2 800.3 178.8 50.76 clipbox
334.952398 676.433455 m
411.509435 676.433455 l
stroke
grestore
gsave
384.2 800.3 178.8 50.76 clipbox
330.355607 690.984 m
407.507369 690.984 l
stroke
grestore
gsave
384.2 800.3 178.8 50.76 clipbox
332.074845 705.534545 m
407.310993 705.534545 l
stroke
grestore
gsave
384.2 800.3 178.8 50.76 clipbox
332.469508 720.085091 m
409.504533 720.085091 l
stroke
grestore
gsave
384.2 800.3 178.8 50.76 clipbox
342.121509 734.635636 m
400.170935 734.635636 l
stroke
grestore
gsave
384.2 800.3 178.8 50.76 clipbox
341.651054 749.186182 m
400.454138 749.186182 l
stroke
grestore
gsave
384.2 800.3 178.8 50.76 clipbox
335.073493 763.736727 m
405.317663 763.736727 l
stroke
grestore
gsave
384.2 800.3 178.8 50.76 clipbox
324.166462 778.287273 m
397.076003 778.287273 l
stroke
grestore
gsave
384.2 800.3 178.8 50.76 clipbox
316.847216 792.837818 m
387.205629 792.837818 l
stroke
grestore
gsave
384.2 800.3 178.8 50.76 clipbox
327.957609 807.388364 m
399.861364 807.388364 l
stroke
grestore
gsave
384.2 800.3 178.8 50.76 clipbox
333.939184 821.938909 m
409.671216 821.938909 l
stroke
grestore
gsave
384.2 800.3 178.8 50.76 clipbox
330.405589 836.489455 m
406.551444 836.489455 l
stroke
grestore
0.000 setgray
gsave
384.2 800.3 178.8 50.76 clipbox
330.376331 65.310545 m
407.049923 65.310545 l
stroke
grestore
gsave
384.2 800.3 178.8 50.76 clipbox
336.625739 79.861091 m
406.760384 79.861091 l
stroke
grestore
gsave
384.2 800.3 178.8 50.76 clipbox
332.773233 94.411636 m
410.337802 94.411636 l
stroke
grestore
gsave
384.2 800.3 178.8 50.76 clipbox
335.212314 108.962182 m
407.924785 108.962182 l
stroke
grestore
gsave
384.2 800.3 178.8 50.76 clipbox
335.851399 123.512727 m
409.148986 123.512727 l
stroke
grestore
gsave
384.2 800.3 178.8 50.76 clipbox
332.602632 138.063273 m
407.565029 138.063273 l
stroke
grestore
gsave
384.2 800.3 178.8 50.76 clipbox
333.776074 152.613818 m
408.533535 152.613818 l
stroke
grestore
gsave
384.2 800.3 178.8 50.76 clipbox
332.809307 167.164364 m
408.743463 167.164364 l
stroke
grestore
gsave
384.2 800.3 178.8 50.76 clipbox
331.697235 181.714909 m
408.362828 181.714909 l
stroke
grestore
gsave
384.2 800.3 178.8 50.76 clipbox
331.888572 196.265455 m
408.593863 196.265455 l
stroke
grestore
gsave
384.2 800.3 178.8 50.76 clipbox
337.573197 210.816 m
405.496876 210.816 l
stroke
grestore
gsave
384.2 800.3 178.8 50.76 clipbox
332.748614 225.366545 m
409.115234 225.366545 l
stroke
grestore
gsave
384.2 800.3 178.8 50.76 clipbox
332.911298 239.917091 m
408.004897 239.917091 l
stroke
grestore
gsave
384.2 800.3 178.8 50.76 clipbox
336.987759 254.467636 m
408.733891 254.467636 l
stroke
grestore
gsave
384.2 800.3 178.8 50.76 clipbox
332.515398 269.018182 m
409.000094 269.018182 l
stroke
grestore
gsave
384.2 800.3 178.8 50.76 clipbox
333.594835 283.568727 m
409.296222 283.568727 l
stroke
grestore
gsave
384.2 800.3 178.8 50.76 clipbox
338.755507 298.119273 m
409.778778 298.119273 l
stroke
grestore
gsave
384.2 800.3 178.8 50.76 clipbox
333.880866 312.669818 m
407.959455 312.669818 l
stroke
grestore
gsave
384.2 800.3 178.8 50.76 clipbox
331.738979 327.220364 m
408.614841 327.220364 l
stroke
grestore
gsave
384.2 800.3 178.8 50.76 clipbox
337.05224 341.770909 m
405.880934 341.770909 l
stroke
grestore
gsave
384.2 800.3 178.8 50.76 clipbox
335.453209 356.321455 m
405.598737 356.321455 l
stroke
grestore
gsave
384.2 800.3 178.8 50.76 clipbox
334.789767 370.872 m
407.571303 370.872 l
stroke
grestore
gsave
384.2 800.3 178.8 50.76 clipbox
340.111582 385.422545 m
402.726785 385.422545 l
stroke
grestore
gsave
384.2 800.3 178.8 50.76 clipbox
333.604885 399.973091 m
405.765217 399.973091 l
stroke
grestore
gsave
384.2 800.3 178.8 50.76 clipbox
334.912502 414.523636 m
407.216978 414.523636 l
stroke
grestore
gsave
384.2 800.3 178.8 50.76 clipbox
334.464881 429.074182 m
406.987517 429.074182 l
stroke
grestore
gsave
384.2 800.3 178.8 50.76 clipbox
334.378099 443.624727 m
407.705649 443.624727 l
stroke
grestore
gsave
384.2 800.3 178.8 50.76 clipbox
332.929332 458.175273 m
407.642739 458.175273 l
stroke
grestore
gsave
384.2 800.3 178.8 50.76 clipbox
336.815628 472.725818 m
407.176956 472.725818 l
stroke
grestore
gsave
384.2 800.3 178.8 50.76 clipbox
347.768408 487.276364 m
392.160296 487.276364 l
stroke
grestore
gsave
384.2 800.3 178.8 50.76 clipbox
336.667202 501.826909 m
407.04973 501.826909 l
stroke
grestore
gsave
384.2 800.3 178.8 50.76 clipbox
334.610494 516.377455 m
407.01863 516.377455 l
stroke
grestore
gsave
384.2 800.3 178.8 50.76 clipbox
334.849282 530.928 m
405.400005 530.928 l
stroke
grestore
gsave
384.2 800.3 178.8 50.76 clipbox
332.504298 545.478545 m
408.243426 545.478545 l
stroke
grestore
gsave
384.2 800.3 178.8 50.76 clipbox
336.603838 560.029091 m
407.130612 560.029091 l
stroke
grestore
gsave
384.2 800.3 178.8 50.76 clipbox
336.454203 574.579636 m
405.997945 574.579636 l
stroke
grestore
gsave
384.2 800.3 178.8 50.76 clipbox
336.002951 589.130182 m
405.283267 589.130182 l
stroke
grestore
gsave
384.2 800.3 178.8 50.76 clipbox
336.948817 603.680727 m
407.313672 603.680727 l
stroke
grestore
gsave
384.2 800.3 178.8 50.76 clipbox
335.487637 618.231273 m
404.616275 618.231273 l
stroke
grestore
gsave
384.2 800.3 178.8 50.76 clipbox
335.440323 632.781818 m
406.60088 632.781818 l
stroke
grestore
gsave
384.2 800.3 178.8 50.76 clipbox
333.143135 647.332364 m
408.657105 647.332364 l
stroke
grestore
gsave
384.2 800.3 178.8 50.76 clipbox
332.718706 661.882909 m
408.696969 661.882909 l
stroke
grestore
gsave
384.2 800.3 178.8 50.76 clipbox
333.649831 676.433455 m
408.959734 676.433455 l
stroke
grestore
gsave
384.2 800.3 178.8 50.76 clipbox
333.960755 690.984 m
408.085537 690.984 l
stroke
grestore
gsave
384.2 800.3 178.8 50.76 clipbox
332.598309 705.534545 m
408.755563 705.534545 l
stroke
grestore
gsave
384.2 800.3 178.8 50.76 clipbox
333.011328 720.085091 m
409.601943 720.085091 l
stroke
grestore
gsave
384.2 800.3 178.8 50.76 clipbox
344.214347 734.635636 m
402.427841 734.635636 l
stroke
grestore
gsave
384.2 800.3 178.8 50.76 clipbox
343.33791 749.186182 m
401.425122 749.186182 l
stroke
grestore
gsave
384.2 800.3 178.8 50.76 clipbox
334.925949 763.736727 m
406.066492 763.736727 l
stroke
grestore
gsave
384.2 800.3 178.8 50.76 clipbox
334.112394 778.287273 m
407.610914 778.287273 l
stroke
grestore
gsave
384.2 800.3 178.8 50.76 clipbox
336.000468 792.837818 m
406.526379 792.837818 l
stroke
grestore
gsave
384.2 800.3 178.8 50.76 clipbox
335.458268 807.388364 m
409.53017 807.388364 l
stroke
grestore
gsave
384.2 800.3 178.8 50.76 clipbox
333.389784 821.938909 m
409.452626 821.938909 l
stroke
grestore
gsave
384.2 800.3 178.8 50.76 clipbox
331.431077 836.489455 m
407.52603 836.489455 l
stroke
grestore
0.500 setlinewidth
1.000 0.000 0.000 setrgbcolor
gsave
384.2 800.3 178.8 50.76 clipbox
/o {
gsave
newpath
translate
0.5 setlinewidth
1 setlinejoin
0 setlinecap
0 -3 m
0 3 l

gsave
1.000 0.000 0.000 setrgbcolor
fill
grestore
stroke
grestore
} bind def
326.356 65.3105 o
328.308 79.8611 o
333.833 94.4116 o
341.123 108.962 o
345.521 123.513 o
325.571 138.063 o
334.476 152.614 o
330.727 167.164 o
330.176 181.715 o
330.982 196.265 o
337.194 210.816 o
331.828 225.367 o
331.796 239.917 o
323.056 254.468 o
332.124 269.018 o
331.719 283.569 o
335.557 298.119 o
332.862 312.67 o
329.737 327.22 o
320.487 341.771 o
341.294 356.321 o
334.98 370.872 o
324.249 385.423 o
337.844 399.973 o
325.75 414.524 o
339.455 429.074 o
327 443.625 o
349.649 458.175 o
331.236 472.726 o
389.434 487.276 o
331.142 501.827 o
349.049 516.377 o
350.179 530.928 o
322.595 545.479 o
331.176 560.029 o
332.362 574.58 o
344.662 589.13 o
325.688 603.681 o
352.691 618.231 o
353.865 632.782 o
327.786 647.332 o
332.421 661.883 o
334.952 676.433 o
330.356 690.984 o
332.075 705.535 o
332.47 720.085 o
342.122 734.636 o
341.651 749.186 o
335.073 763.737 o
324.166 778.287 o
316.847 792.838 o
327.958 807.388 o
333.939 821.939 o
330.406 836.489 o
grestore
gsave
384.2 800.3 178.8 50.76 clipbox
/o {
gsave
newpath
translate
0.5 setlinewidth
1 setlinejoin
0 setlinecap
0 -3 m
0 3 l

gsave
1.000 0.000 0.000 setrgbcolor
fill
grestore
stroke
grestore
} bind def
402.337 65.3105 o
399.124 79.8611 o
410.106 94.4116 o
413.022 108.962 o
419.59 123.513 o
400.078 138.063 o
407.955 152.614 o
406.657 167.164 o
406.631 181.715 o
406.353 196.265 o
405.351 210.816 o
407.156 225.367 o
407.267 239.917 o
395.043 254.468 o
407.866 269.018 o
408.261 283.569 o
407.024 298.119 o
406.479 312.67 o
405.695 327.22 o
388.535 341.771 o
411.438 356.321 o
407.033 370.872 o
385.33 385.423 o
410.786 399.973 o
399.104 414.524 o
412.321 429.074 o
399.755 443.625 o
424.043 458.175 o
402.232 472.726 o
434.514 487.276 o
401.544 501.827 o
421.073 516.377 o
420.855 530.928 o
397.985 545.479 o
401.859 560.029 o
401.126 574.58 o
415.887 589.13 o
397.041 603.681 o
422.782 618.231 o
425.077 632.782 o
403.683 647.332 o
407.176 661.883 o
411.509 676.433 o
407.507 690.984 o
407.311 705.535 o
409.505 720.085 o
400.171 734.636 o
400.454 749.186 o
405.318 763.737 o
397.076 778.287 o
387.206 792.838 o
399.861 807.388 o
409.671 821.939 o
406.551 836.489 o
grestore
0.000 setgray
gsave
384.2 800.3 178.8 50.76 clipbox
/o {
gsave
newpath
translate
0.5 setlinewidth
1 setlinejoin
0 setlinecap
0 -3 m
0.795609 -3 1.55874 -2.683901 2.12132 -2.12132 c
2.683901 -1.55874 3 -0.795609 3 0 c
3 0.795609 2.683901 1.55874 2.12132 2.12132 c
1.55874 2.683901 0.795609 3 0 3 c
-0.795609 3 -1.55874 2.683901 -2.12132 2.12132 c
-2.683901 1.55874 -3 0.795609 -3 0 c
-3 -0.795609 -2.683901 -1.55874 -2.12132 -2.12132 c
-1.55874 -2.683901 -0.795609 -3 0 -3 c
cl

gsave
1.000 0.000 0.000 setrgbcolor
fill
grestore
stroke
grestore
} bind def
364.347 65.3105 o
363.716 79.8611 o
371.97 94.4116 o
377.072 108.962 o
382.555 123.513 o
362.825 138.063 o
371.216 152.614 o
368.692 167.164 o
368.404 181.715 o
368.667 196.265 o
371.273 210.816 o
369.492 225.367 o
369.531 239.917 o
359.05 254.468 o
369.995 269.018 o
369.99 283.569 o
371.291 298.119 o
369.671 312.67 o
367.716 327.22 o
354.511 341.771 o
376.366 356.321 o
371.006 370.872 o
354.79 385.423 o
374.315 399.973 o
362.427 414.524 o
375.888 429.074 o
363.378 443.625 o
386.846 458.175 o
366.734 472.726 o
411.974 487.276 o
366.343 501.827 o
385.061 516.377 o
385.517 530.928 o
360.29 545.479 o
366.517 560.029 o
366.744 574.58 o
380.274 589.13 o
361.365 603.681 o
387.736 618.231 o
389.471 632.782 o
365.735 647.332 o
369.798 661.883 o
373.231 676.433 o
368.931 690.984 o
369.693 705.535 o
370.987 720.085 o
371.146 734.636 o
371.053 749.186 o
370.196 763.737 o
360.621 778.287 o
352.026 792.838 o
363.909 807.388 o
371.805 821.939 o
368.479 836.489 o
grestore
gsave
384.2 800.3 178.8 50.76 clipbox
/o {
gsave
newpath
translate
0.5 setlinewidth
1 setlinejoin
0 setlinecap
0 -3 m
0 3 l

gsave
0.000 setgray
fill
grestore
stroke
grestore
} bind def
330.376 65.3105 o
336.626 79.8611 o
332.773 94.4116 o
335.212 108.962 o
335.851 123.513 o
332.603 138.063 o
333.776 152.614 o
332.809 167.164 o
331.697 181.715 o
331.889 196.265 o
337.573 210.816 o
332.749 225.367 o
332.911 239.917 o
336.988 254.468 o
332.515 269.018 o
333.595 283.569 o
338.756 298.119 o
333.881 312.67 o
331.739 327.22 o
337.052 341.771 o
335.453 356.321 o
334.79 370.872 o
340.112 385.423 o
333.605 399.973 o
334.913 414.524 o
334.465 429.074 o
334.378 443.625 o
332.929 458.175 o
336.816 472.726 o
347.768 487.276 o
336.667 501.827 o
334.61 516.377 o
334.849 530.928 o
332.504 545.479 o
336.604 560.029 o
336.454 574.58 o
336.003 589.13 o
336.949 603.681 o
335.488 618.231 o
335.44 632.782 o
333.143 647.332 o
332.719 661.883 o
333.65 676.433 o
333.961 690.984 o
332.598 705.535 o
333.011 720.085 o
344.214 734.636 o
343.338 749.186 o
334.926 763.737 o
334.112 778.287 o
336 792.838 o
335.458 807.388 o
333.39 821.939 o
331.431 836.489 o
grestore
gsave
384.2 800.3 178.8 50.76 clipbox
/o {
gsave
newpath
translate
0.5 setlinewidth
1 setlinejoin
0 setlinecap
0 -3 m
0 3 l

gsave
0.000 setgray
fill
grestore
stroke
grestore
} bind def
407.05 65.3105 o
406.76 79.8611 o
410.338 94.4116 o
407.925 108.962 o
409.149 123.513 o
407.565 138.063 o
408.534 152.614 o
408.743 167.164 o
408.363 181.715 o
408.594 196.265 o
405.497 210.816 o
409.115 225.367 o
408.005 239.917 o
408.734 254.468 o
409 269.018 o
409.296 283.569 o
409.779 298.119 o
407.959 312.67 o
408.615 327.22 o
405.881 341.771 o
405.599 356.321 o
407.571 370.872 o
402.727 385.423 o
405.765 399.973 o
407.217 414.524 o
406.988 429.074 o
407.706 443.625 o
407.643 458.175 o
407.177 472.726 o
392.16 487.276 o
407.05 501.827 o
407.019 516.377 o
405.4 530.928 o
408.243 545.479 o
407.131 560.029 o
405.998 574.58 o
405.283 589.13 o
407.314 603.681 o
404.616 618.231 o
406.601 632.782 o
408.657 647.332 o
408.697 661.883 o
408.96 676.433 o
408.086 690.984 o
408.756 705.535 o
409.602 720.085 o
402.428 734.636 o
401.425 749.186 o
406.066 763.737 o
407.611 778.287 o
406.526 792.838 o
409.53 807.388 o
409.453 821.939 o
407.526 836.489 o
grestore
gsave
384.2 800.3 178.8 50.76 clipbox
/o {
gsave
newpath
translate
0.5 setlinewidth
1 setlinejoin
0 setlinecap
0 -3 m
0.795609 -3 1.55874 -2.683901 2.12132 -2.12132 c
2.683901 -1.55874 3 -0.795609 3 0 c
3 0.795609 2.683901 1.55874 2.12132 2.12132 c
1.55874 2.683901 0.795609 3 0 3 c
-0.795609 3 -1.55874 2.683901 -2.12132 2.12132 c
-2.683901 1.55874 -3 0.795609 -3 0 c
-3 -0.795609 -2.683901 -1.55874 -2.12132 -2.12132 c
-1.55874 -2.683901 -0.795609 -3 0 -3 c
cl

gsave
0.000 setgray
fill
grestore
stroke
grestore
} bind def
368.713 65.3105 o
371.693 79.8611 o
371.556 94.4116 o
371.569 108.962 o
372.5 123.513 o
370.084 138.063 o
371.155 152.614 o
370.776 167.164 o
370.03 181.715 o
370.241 196.265 o
371.535 210.816 o
370.932 225.367 o
370.458 239.917 o
372.861 254.468 o
370.758 269.018 o
371.446 283.569 o
374.267 298.119 o
370.92 312.67 o
370.177 327.22 o
371.467 341.771 o
370.526 356.321 o
371.181 370.872 o
371.419 385.423 o
369.685 399.973 o
371.065 414.524 o
370.726 429.074 o
371.042 443.625 o
370.286 458.175 o
371.996 472.726 o
369.964 487.276 o
371.858 501.827 o
370.815 516.377 o
370.125 530.928 o
370.374 545.479 o
371.867 560.029 o
371.226 574.58 o
370.643 589.13 o
372.131 603.681 o
370.052 618.231 o
371.021 632.782 o
370.9 647.332 o
370.708 661.883 o
371.305 676.433 o
371.023 690.984 o
370.677 705.535 o
371.307 720.085 o
373.321 734.636 o
372.382 749.186 o
370.496 763.737 o
370.862 778.287 o
371.263 792.838 o
372.494 807.388 o
371.421 821.939 o
369.479 836.489 o
grestore
1.000 setlinewidth
0 setlinejoin
2 setlinecap
gsave
178.8475 851.04 m
563.04 851.04 l
stroke
grestore
gsave
563.04 50.76 m
563.04 851.04 l
stroke
grestore
gsave
178.8475 50.76 m
563.04 50.76 l
stroke
grestore
gsave
178.8475 50.76 m
178.8475 851.04 l
stroke
grestore
0.500 setlinewidth
1 setlinejoin
0 setlinecap
gsave
/o {
gsave
newpath
translate
0.5 setlinewidth
1 setlinejoin
0 setlinecap
0 0 m
0 4 l

gsave
0.000 setgray
fill
grestore
stroke
grestore
} bind def
217.267 50.76 o
grestore
gsave
/o {
gsave
newpath
translate
0.5 setlinewidth
1 setlinejoin
0 setlinecap
0 0 m
0 -4 l

gsave
0.000 setgray
fill
grestore
stroke
grestore
} bind def
217.267 851.04 o
grestore
/BitstreamVeraSans-Roman findfont
12.000 scalefont
setfont
gsave
208.415188 37.635000 translate
0.000000 rotate
0.000000 0.000000 m /minus glyphshow
10.054688 0.000000 m /four glyphshow
grestore
gsave
/o {
gsave
newpath
translate
0.5 setlinewidth
1 setlinejoin
0 setlinecap
0 0 m
0 4 l

gsave
0.000 setgray
fill
grestore
stroke
grestore
} bind def
294.105 50.76 o
grestore
gsave
/o {
gsave
newpath
translate
0.5 setlinewidth
1 setlinejoin
0 setlinecap
0 0 m
0 -4 l

gsave
0.000 setgray
fill
grestore
stroke
grestore
} bind def
294.105 851.04 o
grestore
gsave
285.253688 37.635000 translate
0.000000 rotate
0.000000 0.000000 m /minus glyphshow
10.054688 0.000000 m /two glyphshow
grestore
gsave
/o {
gsave
newpath
translate
0.5 setlinewidth
1 setlinejoin
0 setlinecap
0 0 m
0 4 l

gsave
0.000 setgray
fill
grestore
stroke
grestore
} bind def
370.944 50.76 o
grestore
gsave
/o {
gsave
newpath
translate
0.5 setlinewidth
1 setlinejoin
0 setlinecap
0 0 m
0 -4 l

gsave
0.000 setgray
fill
grestore
stroke
grestore
} bind def
370.944 851.04 o
grestore
gsave
367.123438 37.635000 translate
0.000000 rotate
0.000000 0.000000 m /zero glyphshow
grestore
gsave
/o {
gsave
newpath
translate
0.5 setlinewidth
1 setlinejoin
0 setlinecap
0 0 m
0 4 l

gsave
0.000 setgray
fill
grestore
stroke
grestore
} bind def
447.782 50.76 o
grestore
gsave
/o {
gsave
newpath
translate
0.5 setlinewidth
1 setlinejoin
0 setlinecap
0 0 m
0 -4 l

gsave
0.000 setgray
fill
grestore
stroke
grestore
} bind def
447.782 851.04 o
grestore
gsave
443.961938 37.635000 translate
0.000000 rotate
0.000000 0.000000 m /two glyphshow
grestore
gsave
/o {
gsave
newpath
translate
0.5 setlinewidth
1 setlinejoin
0 setlinecap
0 0 m
0 4 l

gsave
0.000 setgray
fill
grestore
stroke
grestore
} bind def
524.621 50.76 o
grestore
gsave
/o {
gsave
newpath
translate
0.5 setlinewidth
1 setlinejoin
0 setlinecap
0 0 m
0 -4 l

gsave
0.000 setgray
fill
grestore
stroke
grestore
} bind def
524.621 851.04 o
grestore
gsave
520.800438 37.635000 translate
0.000000 rotate
0.000000 0.000000 m /four glyphshow
grestore
gsave
299.943750 20.135000 translate
0.000000 rotate
/BitstreamVeraSans-Roman findfont
12.0 scalefont
setfont
0.000000 0.875000 moveto
/N glyphshow

8.976562 0.875000 moveto
/u glyphshow

16.582031 0.875000 moveto
/i glyphshow

19.916016 0.875000 moveto
/s glyphshow

26.167969 0.875000 moveto
/a glyphshow

33.521484 0.875000 moveto
/n glyphshow

41.126953 0.875000 moveto
/c glyphshow

47.724609 0.875000 moveto
/e glyphshow

55.107422 0.875000 moveto
/space glyphshow

58.921875 0.875000 moveto
/p glyphshow

66.539062 0.875000 moveto
/a glyphshow

73.892578 0.875000 moveto
/r glyphshow

78.826172 0.875000 moveto
/a glyphshow

86.179688 0.875000 moveto
/m glyphshow

97.869141 0.875000 moveto
/e glyphshow

105.251953 0.875000 moveto
/t glyphshow

109.957031 0.875000 moveto
/e glyphshow

117.339844 0.875000 moveto
/r glyphshow

122.273438 0.875000 moveto
/space glyphshow

126.087891 0.875000 moveto
/parenleft glyphshow

/Cmmi10 findfont
12.0 scalefont
setfont
130.769531 0.875000 moveto
/theta glyphshow

/BitstreamVeraSans-Roman findfont
12.0 scalefont
setfont
136.400391 0.875000 moveto
/parenright glyphshow


grestore
gsave
/o {
gsave
newpath
translate
0.5 setlinewidth
1 setlinejoin
0 setlinecap
0 0 m
4 0 l

gsave
0.000 setgray
fill
grestore
stroke
grestore
} bind def
178.848 65.3105 o
grestore
gsave
/o {
gsave
newpath
translate
0.5 setlinewidth
1 setlinejoin
0 setlinecap
0 0 m
-4 0 l

gsave
0.000 setgray
fill
grestore
stroke
grestore
} bind def
563.04 65.3105 o
grestore
gsave
146.878750 61.998045 translate
0.000000 rotate
0.000000 0.000000 m /z glyphshow
6.298828 0.000000 m /j glyphshow
9.632812 0.000000 m /e glyphshow
17.015625 0.000000 m /t glyphshow
21.720703 0.000000 m /s glyphshow
grestore
gsave
/o {
gsave
newpath
translate
0.5 setlinewidth
1 setlinejoin
0 setlinecap
0 0 m
4 0 l

gsave
0.000 setgray
fill
grestore
stroke
grestore
} bind def
178.848 79.8611 o
grestore
gsave
/o {
gsave
newpath
translate
0.5 setlinewidth
1 setlinejoin
0 setlinecap
0 0 m
-4 0 l

gsave
0.000 setgray
fill
grestore
stroke
grestore
} bind def
563.04 79.8611 o
grestore
gsave
155.691250 76.548591 translate
0.000000 rotate
0.000000 0.000000 m /j glyphshow
3.333984 0.000000 m /e glyphshow
10.716797 0.000000 m /f glyphshow
14.941406 0.000000 m /f glyphshow
grestore
gsave
/o {
gsave
newpath
translate
0.5 setlinewidth
1 setlinejoin
0 setlinecap
0 0 m
4 0 l

gsave
0.000 setgray
fill
grestore
stroke
grestore
} bind def
178.848 94.4116 o
grestore
gsave
/o {
gsave
newpath
translate
0.5 setlinewidth
1 setlinejoin
0 setlinecap
0 0 m
-4 0 l

gsave
0.000 setgray
fill
grestore
stroke
grestore
} bind def
563.04 94.4116 o
grestore
gsave
127.066250 91.263199 translate
0.000000 rotate
0.000000 0.000000 m /e glyphshow
7.382812 0.000000 m /l glyphshow
10.716797 0.000000 m /underscore glyphshow
16.716797 0.000000 m /t glyphshow
21.421875 0.000000 m /r glyphshow
26.355469 0.000000 m /i glyphshow
29.689453 0.000000 m /g glyphshow
37.306641 0.000000 m /s glyphshow
43.558594 0.000000 m /f glyphshow
grestore
gsave
/o {
gsave
newpath
translate
0.5 setlinewidth
1 setlinejoin
0 setlinecap
0 0 m
4 0 l

gsave
0.000 setgray
fill
grestore
stroke
grestore
} bind def
178.848 108.962 o
grestore
gsave
/o {
gsave
newpath
translate
0.5 setlinewidth
1 setlinejoin
0 setlinecap
0 0 m
-4 0 l

gsave
0.000 setgray
fill
grestore
stroke
grestore
} bind def
563.04 108.962 o
grestore
gsave
75.769375 105.649682 translate
0.000000 rotate
0.000000 0.000000 m /j glyphshow
3.333984 0.000000 m /e glyphshow
10.716797 0.000000 m /s glyphshow
16.968750 0.000000 m /e glyphshow
24.351562 0.000000 m /f glyphshow
28.576172 0.000000 m /f glyphshow
32.800781 0.000000 m /e glyphshow
40.183594 0.000000 m /c glyphshow
46.781250 0.000000 m /t glyphshow
51.486328 0.000000 m /i glyphshow
54.820312 0.000000 m /v glyphshow
61.921875 0.000000 m /e glyphshow
69.304688 0.000000 m /m glyphshow
80.994141 0.000000 m /i glyphshow
84.328125 0.000000 m /x glyphshow
91.429688 0.000000 m /four glyphshow
grestore
gsave
/o {
gsave
newpath
translate
0.5 setlinewidth
1 setlinejoin
0 setlinecap
0 0 m
4 0 l

gsave
0.000 setgray
fill
grestore
stroke
grestore
} bind def
178.848 123.513 o
grestore
gsave
/o {
gsave
newpath
translate
0.5 setlinewidth
1 setlinejoin
0 setlinecap
0 0 m
-4 0 l

gsave
0.000 setgray
fill
grestore
stroke
grestore
} bind def
563.04 123.513 o
grestore
gsave
75.769375 120.200227 translate
0.000000 rotate
0.000000 0.000000 m /j glyphshow
3.333984 0.000000 m /e glyphshow
10.716797 0.000000 m /s glyphshow
16.968750 0.000000 m /e glyphshow
24.351562 0.000000 m /f glyphshow
28.576172 0.000000 m /f glyphshow
32.800781 0.000000 m /e glyphshow
40.183594 0.000000 m /c glyphshow
46.781250 0.000000 m /t glyphshow
51.486328 0.000000 m /i glyphshow
54.820312 0.000000 m /v glyphshow
61.921875 0.000000 m /e glyphshow
69.304688 0.000000 m /m glyphshow
80.994141 0.000000 m /i glyphshow
84.328125 0.000000 m /x glyphshow
91.429688 0.000000 m /three glyphshow
grestore
gsave
/o {
gsave
newpath
translate
0.5 setlinewidth
1 setlinejoin
0 setlinecap
0 0 m
4 0 l

gsave
0.000 setgray
fill
grestore
stroke
grestore
} bind def
178.848 138.063 o
grestore
gsave
/o {
gsave
newpath
translate
0.5 setlinewidth
1 setlinejoin
0 setlinecap
0 0 m
-4 0 l

gsave
0.000 setgray
fill
grestore
stroke
grestore
} bind def
563.04 138.063 o
grestore
gsave
75.769375 134.750773 translate
0.000000 rotate
0.000000 0.000000 m /j glyphshow
3.333984 0.000000 m /e glyphshow
10.716797 0.000000 m /s glyphshow
16.968750 0.000000 m /e glyphshow
24.351562 0.000000 m /f glyphshow
28.576172 0.000000 m /f glyphshow
32.800781 0.000000 m /e glyphshow
40.183594 0.000000 m /c glyphshow
46.781250 0.000000 m /t glyphshow
51.486328 0.000000 m /i glyphshow
54.820312 0.000000 m /v glyphshow
61.921875 0.000000 m /e glyphshow
69.304688 0.000000 m /m glyphshow
80.994141 0.000000 m /i glyphshow
84.328125 0.000000 m /x glyphshow
91.429688 0.000000 m /two glyphshow
grestore
gsave
/o {
gsave
newpath
translate
0.5 setlinewidth
1 setlinejoin
0 setlinecap
0 0 m
4 0 l

gsave
0.000 setgray
fill
grestore
stroke
grestore
} bind def
178.848 152.614 o
grestore
gsave
/o {
gsave
newpath
translate
0.5 setlinewidth
1 setlinejoin
0 setlinecap
0 0 m
-4 0 l

gsave
0.000 setgray
fill
grestore
stroke
grestore
} bind def
563.04 152.614 o
grestore
gsave
75.769375 149.301318 translate
0.000000 rotate
0.000000 0.000000 m /j glyphshow
3.333984 0.000000 m /e glyphshow
10.716797 0.000000 m /s glyphshow
16.968750 0.000000 m /e glyphshow
24.351562 0.000000 m /f glyphshow
28.576172 0.000000 m /f glyphshow
32.800781 0.000000 m /e glyphshow
40.183594 0.000000 m /c glyphshow
46.781250 0.000000 m /t glyphshow
51.486328 0.000000 m /i glyphshow
54.820312 0.000000 m /v glyphshow
61.921875 0.000000 m /e glyphshow
69.304688 0.000000 m /m glyphshow
80.994141 0.000000 m /i glyphshow
84.328125 0.000000 m /x glyphshow
91.429688 0.000000 m /one glyphshow
grestore
gsave
/o {
gsave
newpath
translate
0.5 setlinewidth
1 setlinejoin
0 setlinecap
0 0 m
4 0 l

gsave
0.000 setgray
fill
grestore
stroke
grestore
} bind def
178.848 167.164 o
grestore
gsave
/o {
gsave
newpath
translate
0.5 setlinewidth
1 setlinejoin
0 setlinecap
0 0 m
-4 0 l

gsave
0.000 setgray
fill
grestore
stroke
grestore
} bind def
563.04 167.164 o
grestore
gsave
121.253750 163.851864 translate
0.000000 rotate
0.000000 0.000000 m /c glyphshow
6.597656 0.000000 m /t glyphshow
11.302734 0.000000 m /a glyphshow
18.656250 0.000000 m /u glyphshow
26.261719 0.000000 m /t glyphshow
30.966797 0.000000 m /a glyphshow
38.320312 0.000000 m /g glyphshow
45.937500 0.000000 m /six glyphshow
grestore
gsave
/o {
gsave
newpath
translate
0.5 setlinewidth
1 setlinejoin
0 setlinecap
0 0 m
4 0 l

gsave
0.000 setgray
fill
grestore
stroke
grestore
} bind def
178.848 181.715 o
grestore
gsave
/o {
gsave
newpath
translate
0.5 setlinewidth
1 setlinejoin
0 setlinecap
0 0 m
-4 0 l

gsave
0.000 setgray
fill
grestore
stroke
grestore
} bind def
563.04 181.715 o
grestore
gsave
139.894375 178.402409 translate
0.000000 rotate
0.000000 0.000000 m /b glyphshow
7.617188 0.000000 m /t glyphshow
12.322266 0.000000 m /a glyphshow
19.675781 0.000000 m /g glyphshow
27.292969 0.000000 m /three glyphshow
grestore
gsave
/o {
gsave
newpath
translate
0.5 setlinewidth
1 setlinejoin
0 setlinecap
0 0 m
4 0 l

gsave
0.000 setgray
fill
grestore
stroke
grestore
} bind def
178.848 196.265 o
grestore
gsave
/o {
gsave
newpath
translate
0.5 setlinewidth
1 setlinejoin
0 setlinecap
0 0 m
-4 0 l

gsave
0.000 setgray
fill
grestore
stroke
grestore
} bind def
563.04 196.265 o
grestore
gsave
139.894375 192.952955 translate
0.000000 rotate
0.000000 0.000000 m /b glyphshow
7.617188 0.000000 m /t glyphshow
12.322266 0.000000 m /a glyphshow
19.675781 0.000000 m /g glyphshow
27.292969 0.000000 m /two glyphshow
grestore
gsave
/o {
gsave
newpath
translate
0.5 setlinewidth
1 setlinejoin
0 setlinecap
0 0 m
4 0 l

gsave
0.000 setgray
fill
grestore
stroke
grestore
} bind def
178.848 210.816 o
grestore
gsave
/o {
gsave
newpath
translate
0.5 setlinewidth
1 setlinejoin
0 setlinecap
0 0 m
-4 0 l

gsave
0.000 setgray
fill
grestore
stroke
grestore
} bind def
563.04 210.816 o
grestore
gsave
133.488125 207.667562 translate
0.000000 rotate
0.000000 0.000000 m /s glyphshow
6.251953 0.000000 m /c glyphshow
12.849609 0.000000 m /underscore glyphshow
18.849609 0.000000 m /s glyphshow
25.101562 0.000000 m /o glyphshow
32.443359 0.000000 m /f glyphshow
36.667969 0.000000 m /t glyphshow
grestore
gsave
/o {
gsave
newpath
translate
0.5 setlinewidth
1 setlinejoin
0 setlinecap
0 0 m
4 0 l

gsave
0.000 setgray
fill
grestore
stroke
grestore
} bind def
178.848 225.367 o
grestore
gsave
/o {
gsave
newpath
translate
0.5 setlinewidth
1 setlinejoin
0 setlinecap
0 0 m
-4 0 l

gsave
0.000 setgray
fill
grestore
stroke
grestore
} bind def
563.04 225.367 o
grestore
gsave
139.894375 222.054045 translate
0.000000 rotate
0.000000 0.000000 m /b glyphshow
7.617188 0.000000 m /t glyphshow
12.322266 0.000000 m /a glyphshow
19.675781 0.000000 m /g glyphshow
27.292969 0.000000 m /zero glyphshow
grestore
gsave
/o {
gsave
newpath
translate
0.5 setlinewidth
1 setlinejoin
0 setlinecap
0 0 m
4 0 l

gsave
0.000 setgray
fill
grestore
stroke
grestore
} bind def
178.848 239.917 o
grestore
gsave
/o {
gsave
newpath
translate
0.5 setlinewidth
1 setlinejoin
0 setlinecap
0 0 m
-4 0 l

gsave
0.000 setgray
fill
grestore
stroke
grestore
} bind def
563.04 239.917 o
grestore
gsave
139.894375 236.604591 translate
0.000000 rotate
0.000000 0.000000 m /b glyphshow
7.617188 0.000000 m /t glyphshow
12.322266 0.000000 m /a glyphshow
19.675781 0.000000 m /g glyphshow
27.292969 0.000000 m /seven glyphshow
grestore
gsave
/o {
gsave
newpath
translate
0.5 setlinewidth
1 setlinejoin
0 setlinecap
0 0 m
4 0 l

gsave
0.000 setgray
fill
grestore
stroke
grestore
} bind def
178.848 254.468 o
grestore
gsave
/o {
gsave
newpath
translate
0.5 setlinewidth
1 setlinejoin
0 setlinecap
0 0 m
-4 0 l

gsave
0.000 setgray
fill
grestore
stroke
grestore
} bind def
563.04 254.468 o
grestore
gsave
133.894375 251.155136 translate
0.000000 rotate
0.000000 0.000000 m /m glyphshow
11.689453 0.000000 m /i glyphshow
15.023438 0.000000 m /s glyphshow
21.275391 0.000000 m /t glyphshow
25.980469 0.000000 m /a glyphshow
33.333984 0.000000 m /g glyphshow
grestore
gsave
/o {
gsave
newpath
translate
0.5 setlinewidth
1 setlinejoin
0 setlinecap
0 0 m
4 0 l

gsave
0.000 setgray
fill
grestore
stroke
grestore
} bind def
178.848 269.018 o
grestore
gsave
/o {
gsave
newpath
translate
0.5 setlinewidth
1 setlinejoin
0 setlinecap
0 0 m
-4 0 l

gsave
0.000 setgray
fill
grestore
stroke
grestore
} bind def
563.04 269.018 o
grestore
gsave
139.894375 265.705682 translate
0.000000 rotate
0.000000 0.000000 m /b glyphshow
7.617188 0.000000 m /t glyphshow
12.322266 0.000000 m /a glyphshow
19.675781 0.000000 m /g glyphshow
27.292969 0.000000 m /five glyphshow
grestore
gsave
/o {
gsave
newpath
translate
0.5 setlinewidth
1 setlinejoin
0 setlinecap
0 0 m
4 0 l

gsave
0.000 setgray
fill
grestore
stroke
grestore
} bind def
178.848 283.569 o
grestore
gsave
/o {
gsave
newpath
translate
0.5 setlinewidth
1 setlinejoin
0 setlinecap
0 0 m
-4 0 l

gsave
0.000 setgray
fill
grestore
stroke
grestore
} bind def
563.04 283.569 o
grestore
gsave
139.894375 280.256227 translate
0.000000 rotate
0.000000 0.000000 m /b glyphshow
7.617188 0.000000 m /t glyphshow
12.322266 0.000000 m /a glyphshow
19.675781 0.000000 m /g glyphshow
27.292969 0.000000 m /four glyphshow
grestore
gsave
/o {
gsave
newpath
translate
0.5 setlinewidth
1 setlinejoin
0 setlinecap
0 0 m
4 0 l

gsave
0.000 setgray
fill
grestore
stroke
grestore
} bind def
178.848 298.119 o
grestore
gsave
/o {
gsave
newpath
translate
0.5 setlinewidth
1 setlinejoin
0 setlinecap
0 0 m
-4 0 l

gsave
0.000 setgray
fill
grestore
stroke
grestore
} bind def
563.04 298.119 o
grestore
gsave
153.816250 294.806773 translate
0.000000 rotate
0.000000 0.000000 m /e glyphshow
7.382812 0.000000 m /e glyphshow
14.765625 0.000000 m /s glyphshow
grestore
gsave
/o {
gsave
newpath
translate
0.5 setlinewidth
1 setlinejoin
0 setlinecap
0 0 m
4 0 l

gsave
0.000 setgray
fill
grestore
stroke
grestore
} bind def
178.848 312.67 o
grestore
gsave
/o {
gsave
newpath
translate
0.5 setlinewidth
1 setlinejoin
0 setlinecap
0 0 m
-4 0 l

gsave
0.000 setgray
fill
grestore
stroke
grestore
} bind def
563.04 312.67 o
grestore
gsave
60.519375 309.357318 translate
0.000000 rotate
0.000000 0.000000 m /j glyphshow
3.333984 0.000000 m /e glyphshow
10.716797 0.000000 m /s glyphshow
16.968750 0.000000 m /e glyphshow
24.351562 0.000000 m /f glyphshow
28.576172 0.000000 m /f glyphshow
32.800781 0.000000 m /e glyphshow
40.183594 0.000000 m /c glyphshow
46.781250 0.000000 m /t glyphshow
51.486328 0.000000 m /i glyphshow
54.820312 0.000000 m /v glyphshow
61.921875 0.000000 m /e glyphshow
69.304688 0.000000 m /m glyphshow
80.994141 0.000000 m /o glyphshow
88.335938 0.000000 m /d glyphshow
95.953125 0.000000 m /e glyphshow
103.335938 0.000000 m /l glyphshow
106.669922 0.000000 m /four glyphshow
grestore
gsave
/o {
gsave
newpath
translate
0.5 setlinewidth
1 setlinejoin
0 setlinecap
0 0 m
4 0 l

gsave
0.000 setgray
fill
grestore
stroke
grestore
} bind def
178.848 327.22 o
grestore
gsave
/o {
gsave
newpath
translate
0.5 setlinewidth
1 setlinejoin
0 setlinecap
0 0 m
-4 0 l

gsave
0.000 setgray
fill
grestore
stroke
grestore
} bind def
563.04 327.22 o
grestore
gsave
139.894375 323.907864 translate
0.000000 rotate
0.000000 0.000000 m /b glyphshow
7.617188 0.000000 m /t glyphshow
12.322266 0.000000 m /a glyphshow
19.675781 0.000000 m /g glyphshow
27.292969 0.000000 m /eight glyphshow
grestore
gsave
/o {
gsave
newpath
translate
0.5 setlinewidth
1 setlinejoin
0 setlinecap
0 0 m
4 0 l

gsave
0.000 setgray
fill
grestore
stroke
grestore
} bind def
178.848 341.771 o
grestore
gsave
/o {
gsave
newpath
translate
0.5 setlinewidth
1 setlinejoin
0 setlinecap
0 0 m
-4 0 l

gsave
0.000 setgray
fill
grestore
stroke
grestore
} bind def
563.04 341.771 o
grestore
gsave
60.519375 338.458409 translate
0.000000 rotate
0.000000 0.000000 m /j glyphshow
3.333984 0.000000 m /e glyphshow
10.716797 0.000000 m /s glyphshow
16.968750 0.000000 m /e glyphshow
24.351562 0.000000 m /f glyphshow
28.576172 0.000000 m /f glyphshow
32.800781 0.000000 m /e glyphshow
40.183594 0.000000 m /c glyphshow
46.781250 0.000000 m /t glyphshow
51.486328 0.000000 m /i glyphshow
54.820312 0.000000 m /v glyphshow
61.921875 0.000000 m /e glyphshow
69.304688 0.000000 m /m glyphshow
80.994141 0.000000 m /o glyphshow
88.335938 0.000000 m /d glyphshow
95.953125 0.000000 m /e glyphshow
103.335938 0.000000 m /l glyphshow
106.669922 0.000000 m /two glyphshow
grestore
gsave
/o {
gsave
newpath
translate
0.5 setlinewidth
1 setlinejoin
0 setlinecap
0 0 m
4 0 l

gsave
0.000 setgray
fill
grestore
stroke
grestore
} bind def
178.848 356.321 o
grestore
gsave
/o {
gsave
newpath
translate
0.5 setlinewidth
1 setlinejoin
0 setlinecap
0 0 m
-4 0 l

gsave
0.000 setgray
fill
grestore
stroke
grestore
} bind def
563.04 356.321 o
grestore
gsave
60.519375 353.008955 translate
0.000000 rotate
0.000000 0.000000 m /j glyphshow
3.333984 0.000000 m /e glyphshow
10.716797 0.000000 m /s glyphshow
16.968750 0.000000 m /e glyphshow
24.351562 0.000000 m /f glyphshow
28.576172 0.000000 m /f glyphshow
32.800781 0.000000 m /e glyphshow
40.183594 0.000000 m /c glyphshow
46.781250 0.000000 m /t glyphshow
51.486328 0.000000 m /i glyphshow
54.820312 0.000000 m /v glyphshow
61.921875 0.000000 m /e glyphshow
69.304688 0.000000 m /m glyphshow
80.994141 0.000000 m /o glyphshow
88.335938 0.000000 m /d glyphshow
95.953125 0.000000 m /e glyphshow
103.335938 0.000000 m /l glyphshow
106.669922 0.000000 m /three glyphshow
grestore
gsave
/o {
gsave
newpath
translate
0.5 setlinewidth
1 setlinejoin
0 setlinecap
0 0 m
4 0 l

gsave
0.000 setgray
fill
grestore
stroke
grestore
} bind def
178.848 370.872 o
grestore
gsave
/o {
gsave
newpath
translate
0.5 setlinewidth
1 setlinejoin
0 setlinecap
0 0 m
-4 0 l

gsave
0.000 setgray
fill
grestore
stroke
grestore
} bind def
563.04 370.872 o
grestore
gsave
60.519375 367.559500 translate
0.000000 rotate
0.000000 0.000000 m /j glyphshow
3.333984 0.000000 m /e glyphshow
10.716797 0.000000 m /s glyphshow
16.968750 0.000000 m /e glyphshow
24.351562 0.000000 m /f glyphshow
28.576172 0.000000 m /f glyphshow
32.800781 0.000000 m /e glyphshow
40.183594 0.000000 m /c glyphshow
46.781250 0.000000 m /t glyphshow
51.486328 0.000000 m /i glyphshow
54.820312 0.000000 m /v glyphshow
61.921875 0.000000 m /e glyphshow
69.304688 0.000000 m /m glyphshow
80.994141 0.000000 m /o glyphshow
88.335938 0.000000 m /d glyphshow
95.953125 0.000000 m /e glyphshow
103.335938 0.000000 m /l glyphshow
106.669922 0.000000 m /one glyphshow
grestore
gsave
/o {
gsave
newpath
translate
0.5 setlinewidth
1 setlinejoin
0 setlinecap
0 0 m
4 0 l

gsave
0.000 setgray
fill
grestore
stroke
grestore
} bind def
178.848 385.423 o
grestore
gsave
/o {
gsave
newpath
translate
0.5 setlinewidth
1 setlinejoin
0 setlinecap
0 0 m
-4 0 l

gsave
0.000 setgray
fill
grestore
stroke
grestore
} bind def
563.04 385.423 o
grestore
gsave
159.191250 382.110045 translate
0.000000 rotate
0.000000 0.000000 m /j glyphshow
3.333984 0.000000 m /e glyphshow
10.716797 0.000000 m /r glyphshow
grestore
gsave
/o {
gsave
newpath
translate
0.5 setlinewidth
1 setlinejoin
0 setlinecap
0 0 m
4 0 l

gsave
0.000 setgray
fill
grestore
stroke
grestore
} bind def
178.848 399.973 o
grestore
gsave
/o {
gsave
newpath
translate
0.5 setlinewidth
1 setlinejoin
0 setlinecap
0 0 m
-4 0 l

gsave
0.000 setgray
fill
grestore
stroke
grestore
} bind def
563.04 399.973 o
grestore
gsave
128.441250 396.660591 translate
0.000000 rotate
0.000000 0.000000 m /b glyphshow
7.617188 0.000000 m /j glyphshow
10.951172 0.000000 m /e glyphshow
18.333984 0.000000 m /s glyphshow
24.585938 0.000000 m /u glyphshow
32.191406 0.000000 m /n glyphshow
39.796875 0.000000 m /c glyphshow
grestore
gsave
/o {
gsave
newpath
translate
0.5 setlinewidth
1 setlinejoin
0 setlinecap
0 0 m
4 0 l

gsave
0.000 setgray
fill
grestore
stroke
grestore
} bind def
178.848 414.524 o
grestore
gsave
/o {
gsave
newpath
translate
0.5 setlinewidth
1 setlinejoin
0 setlinecap
0 0 m
-4 0 l

gsave
0.000 setgray
fill
grestore
stroke
grestore
} bind def
563.04 414.524 o
grestore
gsave
26.535000 411.211136 translate
0.000000 rotate
0.000000 0.000000 m /e glyphshow
7.382812 0.000000 m /t glyphshow
12.087891 0.000000 m /a glyphshow
19.441406 0.000000 m /i glyphshow
22.775391 0.000000 m /n glyphshow
30.380859 0.000000 m /t glyphshow
35.085938 0.000000 m /e glyphshow
42.468750 0.000000 m /r glyphshow
47.402344 0.000000 m /c glyphshow
54.000000 0.000000 m /a glyphshow
61.353516 0.000000 m /l glyphshow
64.687500 0.000000 m /i glyphshow
68.021484 0.000000 m /b glyphshow
75.638672 0.000000 m /r glyphshow
80.572266 0.000000 m /a glyphshow
87.925781 0.000000 m /t glyphshow
92.630859 0.000000 m /i glyphshow
95.964844 0.000000 m /o glyphshow
103.306641 0.000000 m /n glyphshow
110.912109 0.000000 m /m glyphshow
122.601562 0.000000 m /o glyphshow
129.943359 0.000000 m /d glyphshow
137.560547 0.000000 m /e glyphshow
144.943359 0.000000 m /l glyphshow
grestore
gsave
/o {
gsave
newpath
translate
0.5 setlinewidth
1 setlinejoin
0 setlinecap
0 0 m
4 0 l

gsave
0.000 setgray
fill
grestore
stroke
grestore
} bind def
178.848 429.074 o
grestore
gsave
/o {
gsave
newpath
translate
0.5 setlinewidth
1 setlinejoin
0 setlinecap
0 0 m
-4 0 l

gsave
0.000 setgray
fill
grestore
stroke
grestore
} bind def
563.04 429.074 o
grestore
gsave
78.519375 425.925744 translate
0.000000 rotate
0.000000 0.000000 m /p glyphshow
7.617188 0.000000 m /i glyphshow
10.951172 0.000000 m /l glyphshow
14.285156 0.000000 m /e glyphshow
21.667969 0.000000 m /u glyphshow
29.273438 0.000000 m /p glyphshow
36.890625 0.000000 m /underscore glyphshow
42.890625 0.000000 m /o glyphshow
50.232422 0.000000 m /f glyphshow
54.457031 0.000000 m /f glyphshow
58.681641 0.000000 m /s glyphshow
64.933594 0.000000 m /e glyphshow
72.316406 0.000000 m /t glyphshow
77.021484 0.000000 m /m glyphshow
88.710938 0.000000 m /u glyphshow
grestore
gsave
/o {
gsave
newpath
translate
0.5 setlinewidth
1 setlinejoin
0 setlinecap
0 0 m
4 0 l

gsave
0.000 setgray
fill
grestore
stroke
grestore
} bind def
178.848 443.625 o
grestore
gsave
/o {
gsave
newpath
translate
0.5 setlinewidth
1 setlinejoin
0 setlinecap
0 0 m
-4 0 l

gsave
0.000 setgray
fill
grestore
stroke
grestore
} bind def
563.04 443.625 o
grestore
gsave
90.363125 440.312227 translate
0.000000 rotate
0.000000 0.000000 m /p glyphshow
7.617188 0.000000 m /u glyphshow
15.222656 0.000000 m /n glyphshow
22.828125 0.000000 m /c glyphshow
29.425781 0.000000 m /h glyphshow
37.031250 0.000000 m /t glyphshow
41.736328 0.000000 m /h glyphshow
49.341797 0.000000 m /r glyphshow
54.275391 0.000000 m /o glyphshow
61.617188 0.000000 m /u glyphshow
69.222656 0.000000 m /g glyphshow
76.839844 0.000000 m /h glyphshow
grestore
gsave
/o {
gsave
newpath
translate
0.5 setlinewidth
1 setlinejoin
0 setlinecap
0 0 m
4 0 l

gsave
0.000 setgray
fill
grestore
stroke
grestore
} bind def
178.848 458.175 o
grestore
gsave
/o {
gsave
newpath
translate
0.5 setlinewidth
1 setlinejoin
0 setlinecap
0 0 m
-4 0 l

gsave
0.000 setgray
fill
grestore
stroke
grestore
} bind def
563.04 458.175 o
grestore
gsave
155.128750 454.862773 translate
0.000000 rotate
0.000000 0.000000 m /e glyphshow
7.382812 0.000000 m /e glyphshow
14.765625 0.000000 m /r glyphshow
grestore
gsave
/o {
gsave
newpath
translate
0.5 setlinewidth
1 setlinejoin
0 setlinecap
0 0 m
4 0 l

gsave
0.000 setgray
fill
grestore
stroke
grestore
} bind def
178.848 472.726 o
grestore
gsave
/o {
gsave
newpath
translate
0.5 setlinewidth
1 setlinejoin
0 setlinecap
0 0 m
-4 0 l

gsave
0.000 setgray
fill
grestore
stroke
grestore
} bind def
563.04 472.726 o
grestore
gsave
112.050625 469.577381 translate
0.000000 rotate
0.000000 0.000000 m /p glyphshow
7.617188 0.000000 m /i glyphshow
10.951172 0.000000 m /l glyphshow
14.285156 0.000000 m /e glyphshow
21.667969 0.000000 m /u glyphshow
29.273438 0.000000 m /p glyphshow
36.890625 0.000000 m /underscore glyphshow
42.890625 0.000000 m /r glyphshow
47.824219 0.000000 m /h glyphshow
55.429688 0.000000 m /o glyphshow
grestore
gsave
/o {
gsave
newpath
translate
0.5 setlinewidth
1 setlinejoin
0 setlinecap
0 0 m
4 0 l

gsave
0.000 setgray
fill
grestore
stroke
grestore
} bind def
178.848 487.276 o
grestore
gsave
/o {
gsave
newpath
translate
0.5 setlinewidth
1 setlinejoin
0 setlinecap
0 0 m
-4 0 l

gsave
0.000 setgray
fill
grestore
stroke
grestore
} bind def
563.04 487.276 o
grestore
gsave
136.706875 484.127926 translate
0.000000 rotate
0.000000 0.000000 m /e glyphshow
7.382812 0.000000 m /l glyphshow
10.716797 0.000000 m /underscore glyphshow
16.716797 0.000000 m /i glyphshow
20.050781 0.000000 m /d glyphshow
27.667969 0.000000 m /s glyphshow
33.919922 0.000000 m /f glyphshow
grestore
gsave
/o {
gsave
newpath
translate
0.5 setlinewidth
1 setlinejoin
0 setlinecap
0 0 m
4 0 l

gsave
0.000 setgray
fill
grestore
stroke
grestore
} bind def
178.848 501.827 o
grestore
gsave
/o {
gsave
newpath
translate
0.5 setlinewidth
1 setlinejoin
0 setlinecap
0 0 m
-4 0 l

gsave
0.000 setgray
fill
grestore
stroke
grestore
} bind def
563.04 501.827 o
grestore
gsave
75.472500 498.678472 translate
0.000000 rotate
0.000000 0.000000 m /p glyphshow
7.617188 0.000000 m /i glyphshow
10.951172 0.000000 m /l glyphshow
14.285156 0.000000 m /e glyphshow
21.667969 0.000000 m /u glyphshow
29.273438 0.000000 m /p glyphshow
36.890625 0.000000 m /underscore glyphshow
42.890625 0.000000 m /o glyphshow
50.232422 0.000000 m /f glyphshow
54.457031 0.000000 m /f glyphshow
58.681641 0.000000 m /s glyphshow
64.933594 0.000000 m /e glyphshow
72.316406 0.000000 m /t glyphshow
77.021484 0.000000 m /n glyphshow
84.626953 0.000000 m /p glyphshow
92.244141 0.000000 m /v glyphshow
grestore
gsave
/o {
gsave
newpath
translate
0.5 setlinewidth
1 setlinejoin
0 setlinecap
0 0 m
4 0 l

gsave
0.000 setgray
fill
grestore
stroke
grestore
} bind def
178.848 516.377 o
grestore
gsave
/o {
gsave
newpath
translate
0.5 setlinewidth
1 setlinejoin
0 setlinecap
0 0 m
-4 0 l

gsave
0.000 setgray
fill
grestore
stroke
grestore
} bind def
563.04 516.377 o
grestore
gsave
74.878750 513.064955 translate
0.000000 rotate
0.000000 0.000000 m /j glyphshow
3.333984 0.000000 m /e glyphshow
10.716797 0.000000 m /s glyphshow
16.968750 0.000000 m /e glyphshow
24.351562 0.000000 m /f glyphshow
28.576172 0.000000 m /f glyphshow
32.800781 0.000000 m /e glyphshow
40.183594 0.000000 m /c glyphshow
46.781250 0.000000 m /t glyphshow
51.486328 0.000000 m /i glyphshow
54.820312 0.000000 m /v glyphshow
61.921875 0.000000 m /e glyphshow
69.304688 0.000000 m /s glyphshow
75.556641 0.000000 m /t glyphshow
80.261719 0.000000 m /a glyphshow
87.615234 0.000000 m /t glyphshow
92.320312 0.000000 m /three glyphshow
grestore
gsave
/o {
gsave
newpath
translate
0.5 setlinewidth
1 setlinejoin
0 setlinecap
0 0 m
4 0 l

gsave
0.000 setgray
fill
grestore
stroke
grestore
} bind def
178.848 530.928 o
grestore
gsave
/o {
gsave
newpath
translate
0.5 setlinewidth
1 setlinejoin
0 setlinecap
0 0 m
-4 0 l

gsave
0.000 setgray
fill
grestore
stroke
grestore
} bind def
563.04 530.928 o
grestore
gsave
127.753750 527.779562 translate
0.000000 rotate
0.000000 0.000000 m /r glyphshow
4.933594 0.000000 m /e glyphshow
12.316406 0.000000 m /s glyphshow
18.568359 0.000000 m /underscore glyphshow
24.568359 0.000000 m /s glyphshow
30.820312 0.000000 m /o glyphshow
38.162109 0.000000 m /f glyphshow
42.386719 0.000000 m /t glyphshow
grestore
gsave
/o {
gsave
newpath
translate
0.5 setlinewidth
1 setlinejoin
0 setlinecap
0 0 m
4 0 l

gsave
0.000 setgray
fill
grestore
stroke
grestore
} bind def
178.848 545.479 o
grestore
gsave
/o {
gsave
newpath
translate
0.5 setlinewidth
1 setlinejoin
0 setlinecap
0 0 m
-4 0 l

gsave
0.000 setgray
fill
grestore
stroke
grestore
} bind def
563.04 545.479 o
grestore
gsave
128.128750 542.330108 translate
0.000000 rotate
0.000000 0.000000 m /m glyphshow
11.689453 0.000000 m /u glyphshow
19.294922 0.000000 m /underscore glyphshow
25.294922 0.000000 m /i glyphshow
28.628906 0.000000 m /d glyphshow
36.246094 0.000000 m /s glyphshow
42.498047 0.000000 m /f glyphshow
grestore
gsave
/o {
gsave
newpath
translate
0.5 setlinewidth
1 setlinejoin
0 setlinecap
0 0 m
4 0 l

gsave
0.000 setgray
fill
grestore
stroke
grestore
} bind def
178.848 560.029 o
grestore
gsave
/o {
gsave
newpath
translate
0.5 setlinewidth
1 setlinejoin
0 setlinecap
0 0 m
-4 0 l

gsave
0.000 setgray
fill
grestore
stroke
grestore
} bind def
563.04 560.029 o
grestore
gsave
101.300625 556.880653 translate
0.000000 rotate
0.000000 0.000000 m /f glyphshow
4.224609 0.000000 m /l glyphshow
7.558594 0.000000 m /a glyphshow
14.912109 0.000000 m /v glyphshow
22.013672 0.000000 m /o glyphshow
29.355469 0.000000 m /r glyphshow
34.289062 0.000000 m /underscore glyphshow
40.289062 0.000000 m /c glyphshow
46.886719 0.000000 m /o glyphshow
54.228516 0.000000 m /m glyphshow
65.917969 0.000000 m /p glyphshow
grestore
gsave
/o {
gsave
newpath
translate
0.5 setlinewidth
1 setlinejoin
0 setlinecap
0 0 m
4 0 l

gsave
0.000 setgray
fill
grestore
stroke
grestore
} bind def
178.848 574.58 o
grestore
gsave
/o {
gsave
newpath
translate
0.5 setlinewidth
1 setlinejoin
0 setlinecap
0 0 m
-4 0 l

gsave
0.000 setgray
fill
grestore
stroke
grestore
} bind def
563.04 574.58 o
grestore
gsave
78.175625 571.267136 translate
0.000000 rotate
0.000000 0.000000 m /j glyphshow
3.333984 0.000000 m /e glyphshow
10.716797 0.000000 m /s glyphshow
16.968750 0.000000 m /e glyphshow
24.351562 0.000000 m /f glyphshow
28.576172 0.000000 m /f glyphshow
32.800781 0.000000 m /e glyphshow
40.183594 0.000000 m /c glyphshow
46.781250 0.000000 m /t glyphshow
51.486328 0.000000 m /i glyphshow
54.820312 0.000000 m /v glyphshow
61.921875 0.000000 m /e glyphshow
69.304688 0.000000 m /d glyphshow
76.921875 0.000000 m /e glyphshow
84.304688 0.000000 m /t glyphshow
89.009766 0.000000 m /one glyphshow
grestore
gsave
/o {
gsave
newpath
translate
0.5 setlinewidth
1 setlinejoin
0 setlinecap
0 0 m
4 0 l

gsave
0.000 setgray
fill
grestore
stroke
grestore
} bind def
178.848 589.13 o
grestore
gsave
/o {
gsave
newpath
translate
0.5 setlinewidth
1 setlinejoin
0 setlinecap
0 0 m
-4 0 l

gsave
0.000 setgray
fill
grestore
stroke
grestore
} bind def
563.04 589.13 o
grestore
gsave
78.175625 585.817682 translate
0.000000 rotate
0.000000 0.000000 m /j glyphshow
3.333984 0.000000 m /e glyphshow
10.716797 0.000000 m /s glyphshow
16.968750 0.000000 m /e glyphshow
24.351562 0.000000 m /f glyphshow
28.576172 0.000000 m /f glyphshow
32.800781 0.000000 m /e glyphshow
40.183594 0.000000 m /c glyphshow
46.781250 0.000000 m /t glyphshow
51.486328 0.000000 m /i glyphshow
54.820312 0.000000 m /v glyphshow
61.921875 0.000000 m /e glyphshow
69.304688 0.000000 m /d glyphshow
76.921875 0.000000 m /e glyphshow
84.304688 0.000000 m /t glyphshow
89.009766 0.000000 m /two glyphshow
grestore
gsave
/o {
gsave
newpath
translate
0.5 setlinewidth
1 setlinejoin
0 setlinecap
0 0 m
4 0 l

gsave
0.000 setgray
fill
grestore
stroke
grestore
} bind def
178.848 603.681 o
grestore
gsave
/o {
gsave
newpath
translate
0.5 setlinewidth
1 setlinejoin
0 setlinecap
0 0 m
-4 0 l

gsave
0.000 setgray
fill
grestore
stroke
grestore
} bind def
563.04 603.681 o
grestore
gsave
78.175625 600.368227 translate
0.000000 rotate
0.000000 0.000000 m /j glyphshow
3.333984 0.000000 m /e glyphshow
10.716797 0.000000 m /s glyphshow
16.968750 0.000000 m /e glyphshow
24.351562 0.000000 m /f glyphshow
28.576172 0.000000 m /f glyphshow
32.800781 0.000000 m /e glyphshow
40.183594 0.000000 m /c glyphshow
46.781250 0.000000 m /t glyphshow
51.486328 0.000000 m /i glyphshow
54.820312 0.000000 m /v glyphshow
61.921875 0.000000 m /e glyphshow
69.304688 0.000000 m /d glyphshow
76.921875 0.000000 m /e glyphshow
84.304688 0.000000 m /t glyphshow
89.009766 0.000000 m /three glyphshow
grestore
gsave
/o {
gsave
newpath
translate
0.5 setlinewidth
1 setlinejoin
0 setlinecap
0 0 m
4 0 l

gsave
0.000 setgray
fill
grestore
stroke
grestore
} bind def
178.848 618.231 o
grestore
gsave
/o {
gsave
newpath
translate
0.5 setlinewidth
1 setlinejoin
0 setlinecap
0 0 m
-4 0 l

gsave
0.000 setgray
fill
grestore
stroke
grestore
} bind def
563.04 618.231 o
grestore
gsave
119.613125 615.082835 translate
0.000000 rotate
0.000000 0.000000 m /p glyphshow
7.617188 0.000000 m /i glyphshow
10.951172 0.000000 m /l glyphshow
14.285156 0.000000 m /e glyphshow
21.667969 0.000000 m /u glyphshow
29.273438 0.000000 m /p glyphshow
36.890625 0.000000 m /underscore glyphshow
42.890625 0.000000 m /p glyphshow
50.507812 0.000000 m /t glyphshow
grestore
gsave
/o {
gsave
newpath
translate
0.5 setlinewidth
1 setlinejoin
0 setlinecap
0 0 m
4 0 l

gsave
0.000 setgray
fill
grestore
stroke
grestore
} bind def
178.848 632.782 o
grestore
gsave
/o {
gsave
newpath
translate
0.5 setlinewidth
1 setlinejoin
0 setlinecap
0 0 m
-4 0 l

gsave
0.000 setgray
fill
grestore
stroke
grestore
} bind def
563.04 632.782 o
grestore
gsave
79.753750 629.633381 translate
0.000000 rotate
0.000000 0.000000 m /f glyphshow
4.224609 0.000000 m /l glyphshow
7.558594 0.000000 m /a glyphshow
14.912109 0.000000 m /v glyphshow
22.013672 0.000000 m /o glyphshow
29.355469 0.000000 m /r glyphshow
34.289062 0.000000 m /underscore glyphshow
40.289062 0.000000 m /r glyphshow
45.222656 0.000000 m /e glyphshow
52.605469 0.000000 m /s glyphshow
58.857422 0.000000 m /p glyphshow
66.474609 0.000000 m /o glyphshow
73.816406 0.000000 m /n glyphshow
81.421875 0.000000 m /s glyphshow
87.673828 0.000000 m /e glyphshow
grestore
gsave
/o {
gsave
newpath
translate
0.5 setlinewidth
1 setlinejoin
0 setlinecap
0 0 m
4 0 l

gsave
0.000 setgray
fill
grestore
stroke
grestore
} bind def
178.848 647.332 o
grestore
gsave
/o {
gsave
newpath
translate
0.5 setlinewidth
1 setlinejoin
0 setlinecap
0 0 m
-4 0 l

gsave
0.000 setgray
fill
grestore
stroke
grestore
} bind def
563.04 647.332 o
grestore
gsave
120.160000 644.183926 translate
0.000000 rotate
0.000000 0.000000 m /m glyphshow
11.689453 0.000000 m /u glyphshow
19.294922 0.000000 m /underscore glyphshow
25.294922 0.000000 m /r glyphshow
30.228516 0.000000 m /e glyphshow
37.611328 0.000000 m /c glyphshow
44.208984 0.000000 m /s glyphshow
50.460938 0.000000 m /f glyphshow
grestore
gsave
/o {
gsave
newpath
translate
0.5 setlinewidth
1 setlinejoin
0 setlinecap
0 0 m
4 0 l

gsave
0.000 setgray
fill
grestore
stroke
grestore
} bind def
178.848 661.883 o
grestore
gsave
/o {
gsave
newpath
translate
0.5 setlinewidth
1 setlinejoin
0 setlinecap
0 0 m
-4 0 l

gsave
0.000 setgray
fill
grestore
stroke
grestore
} bind def
563.04 661.883 o
grestore
gsave
121.253750 658.570409 translate
0.000000 rotate
0.000000 0.000000 m /c glyphshow
6.597656 0.000000 m /t glyphshow
11.302734 0.000000 m /a glyphshow
18.656250 0.000000 m /u glyphshow
26.261719 0.000000 m /t glyphshow
30.966797 0.000000 m /a glyphshow
38.320312 0.000000 m /g glyphshow
45.937500 0.000000 m /three glyphshow
grestore
gsave
/o {
gsave
newpath
translate
0.5 setlinewidth
1 setlinejoin
0 setlinecap
0 0 m
4 0 l

gsave
0.000 setgray
fill
grestore
stroke
grestore
} bind def
178.848 676.433 o
grestore
gsave
/o {
gsave
newpath
translate
0.5 setlinewidth
1 setlinejoin
0 setlinecap
0 0 m
-4 0 l

gsave
0.000 setgray
fill
grestore
stroke
grestore
} bind def
563.04 676.433 o
grestore
gsave
121.253750 673.120955 translate
0.000000 rotate
0.000000 0.000000 m /c glyphshow
6.597656 0.000000 m /t glyphshow
11.302734 0.000000 m /a glyphshow
18.656250 0.000000 m /u glyphshow
26.261719 0.000000 m /t glyphshow
30.966797 0.000000 m /a glyphshow
38.320312 0.000000 m /g glyphshow
45.937500 0.000000 m /two glyphshow
grestore
gsave
/o {
gsave
newpath
translate
0.5 setlinewidth
1 setlinejoin
0 setlinecap
0 0 m
4 0 l

gsave
0.000 setgray
fill
grestore
stroke
grestore
} bind def
178.848 690.984 o
grestore
gsave
/o {
gsave
newpath
translate
0.5 setlinewidth
1 setlinejoin
0 setlinecap
0 0 m
-4 0 l

gsave
0.000 setgray
fill
grestore
stroke
grestore
} bind def
563.04 690.984 o
grestore
gsave
121.253750 687.671500 translate
0.000000 rotate
0.000000 0.000000 m /c glyphshow
6.597656 0.000000 m /t glyphshow
11.302734 0.000000 m /a glyphshow
18.656250 0.000000 m /u glyphshow
26.261719 0.000000 m /t glyphshow
30.966797 0.000000 m /a glyphshow
38.320312 0.000000 m /g glyphshow
45.937500 0.000000 m /one glyphshow
grestore
gsave
/o {
gsave
newpath
translate
0.5 setlinewidth
1 setlinejoin
0 setlinecap
0 0 m
4 0 l

gsave
0.000 setgray
fill
grestore
stroke
grestore
} bind def
178.848 705.535 o
grestore
gsave
/o {
gsave
newpath
translate
0.5 setlinewidth
1 setlinejoin
0 setlinecap
0 0 m
-4 0 l

gsave
0.000 setgray
fill
grestore
stroke
grestore
} bind def
563.04 705.535 o
grestore
gsave
121.253750 702.222045 translate
0.000000 rotate
0.000000 0.000000 m /c glyphshow
6.597656 0.000000 m /t glyphshow
11.302734 0.000000 m /a glyphshow
18.656250 0.000000 m /u glyphshow
26.261719 0.000000 m /t glyphshow
30.966797 0.000000 m /a glyphshow
38.320312 0.000000 m /g glyphshow
45.937500 0.000000 m /zero glyphshow
grestore
gsave
/o {
gsave
newpath
translate
0.5 setlinewidth
1 setlinejoin
0 setlinecap
0 0 m
4 0 l

gsave
0.000 setgray
fill
grestore
stroke
grestore
} bind def
178.848 720.085 o
grestore
gsave
/o {
gsave
newpath
translate
0.5 setlinewidth
1 setlinejoin
0 setlinecap
0 0 m
-4 0 l

gsave
0.000 setgray
fill
grestore
stroke
grestore
} bind def
563.04 720.085 o
grestore
gsave
113.644375 716.936653 translate
0.000000 rotate
0.000000 0.000000 m /s glyphshow
6.251953 0.000000 m /i glyphshow
9.585938 0.000000 m /n glyphshow
17.191406 0.000000 m /g glyphshow
24.808594 0.000000 m /l glyphshow
28.142578 0.000000 m /e glyphshow
35.525391 0.000000 m /underscore glyphshow
41.525391 0.000000 m /t glyphshow
46.230469 0.000000 m /o glyphshow
53.572266 0.000000 m /p glyphshow
grestore
gsave
/o {
gsave
newpath
translate
0.5 setlinewidth
1 setlinejoin
0 setlinecap
0 0 m
4 0 l

gsave
0.000 setgray
fill
grestore
stroke
grestore
} bind def
178.848 734.636 o
grestore
gsave
/o {
gsave
newpath
translate
0.5 setlinewidth
1 setlinejoin
0 setlinecap
0 0 m
-4 0 l

gsave
0.000 setgray
fill
grestore
stroke
grestore
} bind def
563.04 734.636 o
grestore
gsave
121.253750 731.323136 translate
0.000000 rotate
0.000000 0.000000 m /c glyphshow
6.597656 0.000000 m /t glyphshow
11.302734 0.000000 m /a glyphshow
18.656250 0.000000 m /u glyphshow
26.261719 0.000000 m /t glyphshow
30.966797 0.000000 m /a glyphshow
38.320312 0.000000 m /g glyphshow
45.937500 0.000000 m /five glyphshow
grestore
gsave
/o {
gsave
newpath
translate
0.5 setlinewidth
1 setlinejoin
0 setlinecap
0 0 m
4 0 l

gsave
0.000 setgray
fill
grestore
stroke
grestore
} bind def
178.848 749.186 o
grestore
gsave
/o {
gsave
newpath
translate
0.5 setlinewidth
1 setlinejoin
0 setlinecap
0 0 m
-4 0 l

gsave
0.000 setgray
fill
grestore
stroke
grestore
} bind def
563.04 749.186 o
grestore
gsave
121.253750 745.873682 translate
0.000000 rotate
0.000000 0.000000 m /c glyphshow
6.597656 0.000000 m /t glyphshow
11.302734 0.000000 m /a glyphshow
18.656250 0.000000 m /u glyphshow
26.261719 0.000000 m /t glyphshow
30.966797 0.000000 m /a glyphshow
38.320312 0.000000 m /g glyphshow
45.937500 0.000000 m /four glyphshow
grestore
gsave
/o {
gsave
newpath
translate
0.5 setlinewidth
1 setlinejoin
0 setlinecap
0 0 m
4 0 l

gsave
0.000 setgray
fill
grestore
stroke
grestore
} bind def
178.848 763.737 o
grestore
gsave
/o {
gsave
newpath
translate
0.5 setlinewidth
1 setlinejoin
0 setlinecap
0 0 m
-4 0 l

gsave
0.000 setgray
fill
grestore
stroke
grestore
} bind def
563.04 763.737 o
grestore
gsave
74.878750 760.424227 translate
0.000000 rotate
0.000000 0.000000 m /j glyphshow
3.333984 0.000000 m /e glyphshow
10.716797 0.000000 m /s glyphshow
16.968750 0.000000 m /e glyphshow
24.351562 0.000000 m /f glyphshow
28.576172 0.000000 m /f glyphshow
32.800781 0.000000 m /e glyphshow
40.183594 0.000000 m /c glyphshow
46.781250 0.000000 m /t glyphshow
51.486328 0.000000 m /i glyphshow
54.820312 0.000000 m /v glyphshow
61.921875 0.000000 m /e glyphshow
69.304688 0.000000 m /s glyphshow
75.556641 0.000000 m /t glyphshow
80.261719 0.000000 m /a glyphshow
87.615234 0.000000 m /t glyphshow
92.320312 0.000000 m /four glyphshow
grestore
gsave
/o {
gsave
newpath
translate
0.5 setlinewidth
1 setlinejoin
0 setlinecap
0 0 m
4 0 l

gsave
0.000 setgray
fill
grestore
stroke
grestore
} bind def
178.848 778.287 o
grestore
gsave
/o {
gsave
newpath
translate
0.5 setlinewidth
1 setlinejoin
0 setlinecap
0 0 m
-4 0 l

gsave
0.000 setgray
fill
grestore
stroke
grestore
} bind def
563.04 778.287 o
grestore
gsave
13.456875 774.974773 translate
0.000000 rotate
0.000000 0.000000 m /e glyphshow
7.382812 0.000000 m /t glyphshow
12.087891 0.000000 m /a glyphshow
19.441406 0.000000 m /i glyphshow
22.775391 0.000000 m /n glyphshow
30.380859 0.000000 m /t glyphshow
35.085938 0.000000 m /e glyphshow
42.468750 0.000000 m /r glyphshow
47.402344 0.000000 m /c glyphshow
54.000000 0.000000 m /a glyphshow
61.353516 0.000000 m /l glyphshow
64.687500 0.000000 m /i glyphshow
68.021484 0.000000 m /b glyphshow
75.638672 0.000000 m /r glyphshow
80.572266 0.000000 m /a glyphshow
87.925781 0.000000 m /t glyphshow
92.630859 0.000000 m /i glyphshow
95.964844 0.000000 m /o glyphshow
103.306641 0.000000 m /n glyphshow
110.912109 0.000000 m /t glyphshow
115.617188 0.000000 m /o glyphshow
122.958984 0.000000 m /t glyphshow
127.664062 0.000000 m /a glyphshow
135.017578 0.000000 m /l glyphshow
138.351562 0.000000 m /s glyphshow
144.603516 0.000000 m /t glyphshow
149.308594 0.000000 m /a glyphshow
156.662109 0.000000 m /t glyphshow
grestore
gsave
/o {
gsave
newpath
translate
0.5 setlinewidth
1 setlinejoin
0 setlinecap
0 0 m
4 0 l

gsave
0.000 setgray
fill
grestore
stroke
grestore
} bind def
178.848 792.838 o
grestore
gsave
/o {
gsave
newpath
translate
0.5 setlinewidth
1 setlinejoin
0 setlinecap
0 0 m
-4 0 l

gsave
0.000 setgray
fill
grestore
stroke
grestore
} bind def
563.04 792.838 o
grestore
gsave
74.878750 789.525318 translate
0.000000 rotate
0.000000 0.000000 m /j glyphshow
3.333984 0.000000 m /e glyphshow
10.716797 0.000000 m /s glyphshow
16.968750 0.000000 m /e glyphshow
24.351562 0.000000 m /f glyphshow
28.576172 0.000000 m /f glyphshow
32.800781 0.000000 m /e glyphshow
40.183594 0.000000 m /c glyphshow
46.781250 0.000000 m /t glyphshow
51.486328 0.000000 m /i glyphshow
54.820312 0.000000 m /v glyphshow
61.921875 0.000000 m /e glyphshow
69.304688 0.000000 m /s glyphshow
75.556641 0.000000 m /t glyphshow
80.261719 0.000000 m /a glyphshow
87.615234 0.000000 m /t glyphshow
92.320312 0.000000 m /one glyphshow
grestore
gsave
/o {
gsave
newpath
translate
0.5 setlinewidth
1 setlinejoin
0 setlinecap
0 0 m
4 0 l

gsave
0.000 setgray
fill
grestore
stroke
grestore
} bind def
178.848 807.388 o
grestore
gsave
/o {
gsave
newpath
translate
0.5 setlinewidth
1 setlinejoin
0 setlinecap
0 0 m
-4 0 l

gsave
0.000 setgray
fill
grestore
stroke
grestore
} bind def
563.04 807.388 o
grestore
gsave
74.878750 804.075864 translate
0.000000 rotate
0.000000 0.000000 m /j glyphshow
3.333984 0.000000 m /e glyphshow
10.716797 0.000000 m /s glyphshow
16.968750 0.000000 m /e glyphshow
24.351562 0.000000 m /f glyphshow
28.576172 0.000000 m /f glyphshow
32.800781 0.000000 m /e glyphshow
40.183594 0.000000 m /c glyphshow
46.781250 0.000000 m /t glyphshow
51.486328 0.000000 m /i glyphshow
54.820312 0.000000 m /v glyphshow
61.921875 0.000000 m /e glyphshow
69.304688 0.000000 m /s glyphshow
75.556641 0.000000 m /t glyphshow
80.261719 0.000000 m /a glyphshow
87.615234 0.000000 m /t glyphshow
92.320312 0.000000 m /two glyphshow
grestore
gsave
/o {
gsave
newpath
translate
0.5 setlinewidth
1 setlinejoin
0 setlinecap
0 0 m
4 0 l

gsave
0.000 setgray
fill
grestore
stroke
grestore
} bind def
178.848 821.939 o
grestore
gsave
/o {
gsave
newpath
translate
0.5 setlinewidth
1 setlinejoin
0 setlinecap
0 0 m
-4 0 l

gsave
0.000 setgray
fill
grestore
stroke
grestore
} bind def
563.04 821.939 o
grestore
gsave
121.472500 818.626409 translate
0.000000 rotate
0.000000 0.000000 m /d glyphshow
7.617188 0.000000 m /i glyphshow
10.951172 0.000000 m /b glyphshow
18.568359 0.000000 m /o glyphshow
25.910156 0.000000 m /s glyphshow
32.162109 0.000000 m /o glyphshow
39.503906 0.000000 m /n glyphshow
47.109375 0.000000 m /s glyphshow
grestore
gsave
/o {
gsave
newpath
translate
0.5 setlinewidth
1 setlinejoin
0 setlinecap
0 0 m
4 0 l

gsave
0.000 setgray
fill
grestore
stroke
grestore
} bind def
178.848 836.489 o
grestore
gsave
/o {
gsave
newpath
translate
0.5 setlinewidth
1 setlinejoin
0 setlinecap
0 0 m
-4 0 l

gsave
0.000 setgray
fill
grestore
stroke
grestore
} bind def
563.04 836.489 o
grestore
gsave
139.894375 833.176955 translate
0.000000 rotate
0.000000 0.000000 m /b glyphshow
7.617188 0.000000 m /t glyphshow
12.322266 0.000000 m /a glyphshow
19.675781 0.000000 m /g glyphshow
27.292969 0.000000 m /six glyphshow
grestore
1.000 setlinewidth
0 setlinejoin
gsave
419.578125 756.5325 m
555.84 756.5325 l
555.84 843.84 l
419.578125 843.84 l
cl
gsave
1.000 setgray
fill
grestore
stroke
grestore
1 setlinejoin
1.000 0.000 0.000 setrgbcolor
gsave
432.538125 832.479375 m
446.938125 832.479375 l
stroke
grestore
0.500 setlinewidth
gsave
/o {
gsave
newpath
translate
0.5 setlinewidth
1 setlinejoin
0 setlinecap
0 -3 m
0 3 l

gsave
1.000 0.000 0.000 setrgbcolor
fill
grestore
stroke
grestore
} bind def
432.538 832.479 o
grestore
gsave
/o {
gsave
newpath
translate
0.5 setlinewidth
1 setlinejoin
0 setlinecap
0 -3 m
0 3 l

gsave
1.000 0.000 0.000 setrgbcolor
fill
grestore
stroke
grestore
} bind def
446.938 832.479 o
grestore
0.000 setgray
gsave
/o {
gsave
newpath
translate
0.5 setlinewidth
1 setlinejoin
0 setlinecap
0 -3 m
0.795609 -3 1.55874 -2.683901 2.12132 -2.12132 c
2.683901 -1.55874 3 -0.795609 3 0 c
3 0.795609 2.683901 1.55874 2.12132 2.12132 c
1.55874 2.683901 0.795609 3 0 3 c
-0.795609 3 -1.55874 2.683901 -2.12132 2.12132 c
-2.683901 1.55874 -3 0.795609 -3 0 c
-3 -0.795609 -2.683901 -1.55874 -2.12132 -2.12132 c
-1.55874 -2.683901 -0.795609 -3 0 -3 c
cl

gsave
1.000 0.000 0.000 setrgbcolor
fill
grestore
stroke
grestore
} bind def
439.738 832.479 o
grestore
/BitstreamVeraSans-Roman findfont
14.400 scalefont
setfont
gsave
465.658125 827.439375 translate
0.000000 rotate
0.000000 0.000000 m /D glyphshow
11.081055 0.000000 m /a glyphshow
19.899521 0.000000 m /t glyphshow
25.541931 0.000000 m /a glyphshow
grestore
1.000 setlinewidth
gsave
432.538125 811.7325 m
446.938125 811.7325 l
stroke
grestore
0.500 setlinewidth
gsave
/o {
gsave
newpath
translate
0.5 setlinewidth
1 setlinejoin
0 setlinecap
0 -3 m
0 3 l

gsave
0.000 setgray
fill
grestore
stroke
grestore
} bind def
432.538 811.732 o
grestore
gsave
/o {
gsave
newpath
translate
0.5 setlinewidth
1 setlinejoin
0 setlinecap
0 -3 m
0 3 l

gsave
0.000 setgray
fill
grestore
stroke
grestore
} bind def
446.938 811.732 o
grestore
gsave
/o {
gsave
newpath
translate
0.5 setlinewidth
1 setlinejoin
0 setlinecap
0 -3 m
0.795609 -3 1.55874 -2.683901 2.12132 -2.12132 c
2.683901 -1.55874 3 -0.795609 3 0 c
3 0.795609 2.683901 1.55874 2.12132 2.12132 c
1.55874 2.683901 0.795609 3 0 3 c
-0.795609 3 -1.55874 2.683901 -2.12132 2.12132 c
-2.683901 1.55874 -3 0.795609 -3 0 c
-3 -0.795609 -2.683901 -1.55874 -2.12132 -2.12132 c
-1.55874 -2.683901 -0.795609 -3 0 -3 c
cl

gsave
0.000 setgray
fill
grestore
stroke
grestore
} bind def
439.738 811.732 o
grestore
gsave
465.658125 806.692500 translate
0.000000 rotate
0.000000 0.000000 m /P glyphshow
8.677933 0.000000 m /s glyphshow
16.175385 0.000000 m /e glyphshow
25.028992 0.000000 m /u glyphshow
34.149612 0.000000 m /d glyphshow
43.284286 0.000000 m /o glyphshow
52.088699 0.000000 m /d glyphshow
61.223373 0.000000 m /a glyphshow
70.041840 0.000000 m /t glyphshow
75.684250 0.000000 m /a glyphshow
grestore
1.000 setlinewidth
0 setlinejoin
gsave
425.338125 785.945625 m
454.138125 785.945625 l
454.138125 796.025625 l
425.338125 796.025625 l
cl
gsave
0.000 1.000 0.000 setrgbcolor
fill
grestore
stroke
grestore
gsave
465.658125 785.945625 translate
0.000000 rotate
/Cmsy10 findfont
14.4 scalefont
setfont
0.000000 0.421875 moveto
/plusminus glyphshow

/Cmr10 findfont
14.4 scalefont
setfont
11.179428 0.421875 moveto
/one glyphshow

/Cmmi10 findfont
14.4 scalefont
setfont
18.374741 0.421875 moveto
/sigma glyphshow

/BitstreamVeraSans-Roman findfont
14.4 scalefont
setfont
26.588913 0.421875 moveto
/space glyphshow


grestore
gsave
425.338125 765.19875 m
454.138125 765.19875 l
454.138125 775.27875 l
425.338125 775.27875 l
cl
gsave
0.969 0.996 0.180 setrgbcolor
fill
grestore
stroke
grestore
gsave
465.658125 765.198750 translate
0.000000 rotate
/Cmsy10 findfont
14.4 scalefont
setfont
0.000000 0.421875 moveto
/plusminus glyphshow

/Cmr10 findfont
14.4 scalefont
setfont
11.179428 0.421875 moveto
/two glyphshow

/Cmmi10 findfont
14.4 scalefont
setfont
18.374741 0.421875 moveto
/sigma glyphshow


grestore

end
showpage
