%!PS-Adobe-3.0 EPSF-3.0
%%Pages: (atend)
%%BoundingBox: 0 0 1008 432
%%HiResBoundingBox: 0.000000 0.000000 1007.999969 431.999987
%.......................................
%%Creator: GPL Ghostscript 870 (pswrite)
%%CreationDate: 2016/08/21 11:11:46
%%DocumentData: Clean7Bit
%%LanguageLevel: 2
%%EndComments
%%BeginProlog
save
countdictstack
mark
newpath
/showpage {} def
/setpagedevice {pop} def
%%EndProlog
%%Page 1 1
%%BeginProlog
% This copyright applies to everything between here and the %%EndProlog:
% Copyright (C) 2009 Artifex Software, Inc.  All rights reserved.
%%BeginResource: procset GS_pswrite_2_0_1001 1.001 0
/GS_pswrite_2_0_1001 80 dict dup begin
/PageSize 2 array def/setpagesize{ PageSize aload pop 3 index eq exch
4 index eq and{ pop pop pop}{ PageSize dup  1
5 -1 roll put 0 4 -1 roll put dup null eq {false} {dup where} ifelse{ exch get exec}
{ pop/setpagedevice where
{ pop 1 dict dup /PageSize PageSize put setpagedevice}
{ /setpage where{ pop PageSize aload pop pageparams 3 {exch pop} repeat
setpage}if}ifelse}ifelse}ifelse} bind def
/!{bind def}bind def/#{load def}!/N/counttomark #
/rG{3{3 -1 roll 255 div}repeat setrgbcolor}!/G{255 div setgray}!/K{0 G}!
/r6{dup 3 -1 roll rG}!/r5{dup 3 1 roll rG}!/r3{dup rG}!
/w/setlinewidth #/J/setlinecap #
/j/setlinejoin #/M/setmiterlimit #/d/setdash #/i/setflat #
/m/moveto #/l/lineto #/c/rcurveto #
/p{N 2 idiv{N -2 roll rlineto}repeat}!
/P{N 0 gt{N -2 roll moveto p}if}!
/h{p closepath}!/H{P closepath}!
/lx{0 rlineto}!/ly{0 exch rlineto}!/v{0 0 6 2 roll c}!/y{2 copy c}!
/re{4 -2 roll m exch dup lx exch ly neg lx h}!
/^{3 index neg 3 index neg}!
/f{P fill}!/f*{P eofill}!/s{H stroke}!/S{P stroke}!
/q/gsave #/Q/grestore #/rf{re fill}!
/Y{P clip newpath}!/Y*{P eoclip newpath}!/rY{re Y}!
/|={pop exch 4 1 roll 1 array astore cvx 3 array astore cvx exch 1 index def exec}!
/|{exch string readstring |=}!
/+{dup type/nametype eq{2 index 7 add -3 bitshift 2 index mul}if}!
/@/currentfile #/${+ @ |}!
/B{{2 copy string{readstring pop}aload pop 4 array astore cvx
3 1 roll}repeat pop pop true}!
/Ix{[1 0 0 1 11 -2 roll exch neg exch neg]exch}!
/,{true exch Ix imagemask}!/If{false exch Ix imagemask}!/I{exch Ix image}!
/Ic{exch Ix false 3 colorimage}!
/F{/Columns counttomark 3 add -2 roll/Rows exch/K -1/BlackIs1 true>>
/CCITTFaxDecode filter}!/FX{<</EndOfBlock false F}!
/X{/ASCII85Decode filter}!/@X{@ X}!/&2{2 index 2 index}!
/@F{@ &2<<F}!/@C{@X &2 FX}!
/$X{+ @X |}!/&4{4 index 4 index}!/$F{+ @ &4<<F |}!/$C{+ @X &4 FX |}!
/IC{3 1 roll 10 dict begin 1{/ImageType/Interpolate/Decode/DataSource
/ImageMatrix/BitsPerComponent/Height/Width}{exch def}forall
currentdict end image}!
/~{@ read {pop} if}!
end def
%%EndResource
/pagesave null def
%%EndProlog
%%Page: 1 1
%%BeginPageSetup
GS_pswrite_2_0_1001 begin
1008 432 null setpagesize
/pagesave save store 197 dict begin
0.012 0.012 scale
%%EndPageSetup
gsave mark
Q q
0 0 84000 0 0 36000 ^ Y
255 G
0 0 84000 36000 re
f
10500 3600 65100 28800 re
f
Q q
10500 3600 65100 28800 re
Y
255 0 r6
10548.1 3600 6324.3 2304 re
f
83.3333 w
100000 M
K
10548.1 3600 6324.3 2304 re
S
Q q
10500 3600 65100 28800 re
Y
255 0 r6
16872.4 3600 6324.3 8064 re
f
83.3333 w
100000 M
K
16872.4 3600 6324.3 8064 re
S
Q q
10500 3600 65100 28800 re
Y
255 0 r6
23196.7 3600 6324.3 17280 re
f
83.3333 w
100000 M
K
23196.7 3600 6324.3 17280 re
S
Q q
10500 3600 65100 28800 re
Y
255 0 r6
29521 3600 6324.3 27648 re
f
83.3333 w
100000 M
K
29521 3600 6324.3 27648 re
S
Q q
10500 3600 65100 28800 re
Y
255 0 r6
35845.3 3600 6324.3 14976 re
f
83.3333 w
100000 M
K
35845.3 3600 6324.3 14976 re
S
Q q
10500 3600 65100 28800 re
Y
255 0 r6
42169.6 3600 6324.3 13824 re
f
83.3333 w
100000 M
K
42169.6 3600 6324.3 13824 re
S
Q q
10500 3600 65100 28800 re
Y
255 0 r6
48493.9 3600 6324.3 10368 re
f
83.3333 w
100000 M
K
48493.9 3600 6324.3 10368 re
S
Q q
10500 3600 65100 28800 re
Y
255 0 r6
54818.2 3600 6324.3 10368 re
f
83.3333 w
100000 M
K
54818.2 3600 6324.3 10368 re
S
Q q
10500 3600 65100 28800 re
Y
255 0 r6
61142.5 3600 6324.3 6912 re
f
83.3333 w
100000 M
K
61142.5 3600 6324.3 6912 re
S
Q q
10500 3600 65100 28800 re
Y
255 0 r6
67466.8 3600 6324.3 3456 re
f
83.3333 w
100000 M
K
67466.8 3600 6324.3 3456 re
S
Q q
0 0 84000 0 0 36000 ^ Y
83.3333 w
100000 M
2 J
K
10500 32400 65100 0 S
75600 3600 0 28800 S
10500 3600 65100 0 S
10500 3600 0 28800 S
10500 3600 0 333.33 f
41.6667 w
0 J
1 j
10500 3600 0 333.33 S
10500 32400 0 -333.33 f
10500 32400 0 -333.33 S
19800 3600 0 333.33 f
19800 3600 0 333.33 S
19800 32400 0 -333.33 f
19800 32400 0 -333.33 S
29100 3600 0 333.33 f
29100 3600 0 333.33 S
29100 32400 0 -333.33 f
29100 32400 0 -333.33 S
38400 3600 0 333.33 f
38400 3600 0 333.33 S
38400 32400 0 -333.33 f
38400 32400 0 -333.33 S
47700 3600 0 333.33 f
47700 3600 0 333.33 S
47700 32400 0 -333.33 f
47700 32400 0 -333.33 S
57000 3600 0 333.33 f
57000 3600 0 333.33 S
57000 32400 0 -333.33 f
57000 32400 0 -333.33 S
66300 3600 0 333.33 f
66300 3600 0 333.33 S
66300 32400 0 -333.33 f
66300 32400 0 -333.33 S
75600 3600 0 333.33 f
75600 3600 0 333.33 S
75600 32400 0 -333.33 f
75600 32400 0 -333.33 S
10500 3600 333.33 0 f
10500 3600 333.33 0 S
75600 3600 -333.34 0 f
75600 3600 -333.34 0 S
10500 9360 333.33 0 f
10500 9360 333.33 0 S
75600 9360 -333.34 0 f
75600 9360 -333.34 0 S
10500 15120 333.33 0 f
10500 15120 333.33 0 S
75600 15120 -333.34 0 f
75600 15120 -333.34 0 S
10500 20880 333.33 0 f
10500 20880 333.33 0 S
75600 20880 -333.34 0 f
75600 20880 -333.34 0 S
10500 26640 333.33 0 f
10500 26640 333.33 0 S
75600 26640 -333.34 0 f
75600 26640 -333.34 0 S
10500 32400 333.33 0 f
10500 32400 333.33 0 S
75600 32400 -333.34 0 f
75600 32400 -333.34 0 S
Q q
Y
0.83022 i
K
-7784.11 17537 93.82 0 P
74.72 0 113.74 5.79 146.95 21.52 c
58.95 28.15 92.21 81.13 92.21 146.52 c
0 62.91 -29.11 110.93 -83.9 138.24 c
-32.38 16.55 -83.85 25.74 -141.14 25.74 c
-290.58 0 0 -38.96 14.96 0 p
67.31 0 74.8 -4.25 74.8 -39.09 c
0 -443.02 p
0 -34.84 -7.48 -38.99 -74.8 -38.99 c
-14.96 0 0 -38.96 278.95 0 ^ -21.59 0 p
-67.25 0 -74.72 4.16 -74.72 39.1 c
0 24.13 h
-7784.11 17575.9 0 211.86 P
0 38.07 4.98 42.25 50.7 42.25 c
53.2 0 p
86.45 0 127.18 -40.59 127.18 -128.32 c
0 -85.24 -42.4 -125.79 -130.51 -125.79 c
h
f
-6986.79 17874.5 -30.74 0 -33.23 -49.83 P
-39.05 37.37 -92.22 57.35 -151.21 57.35 c
-108.84 0 -181.95 -69.74 -181.95 -173.49 c
0 -90.47 44.86 -135.29 167 -166.83 c
78.93 -19.92 p
61.48 -15.77 67.29 -17.43 84.74 -30.71 c
24.93 -19.09 38.27 -46.48 38.27 -78.85 c
0 -33.2 -12.49 -60.59 -37.39 -83 c
-27.39 -24.07 -54.78 -33.2 -100.43 -33.2 c
-61.42 0 -105.41 19.07 -144.42 62.19 c
-34.86 38.97 -52.29 77.95 -64.74 141.81 c
-35.69 0 3.32 -236.16 32.39 0 37.37 56.34 p
55.64 -45.57 102.14 -62.14 174.39 -62.14 c
122.07 0 200.14 71.32 200.14 182.47 c
0 51.42 -17.5 95.38 -49.9 126.89 c
-22.44 21.57 -54.84 35.67 -121.3 52.26 c
-88.9 22.39 p
-73.95 19.08 -108.84 51.42 -108.84 102.02 c
0 58.06 47.35 97.97 117.95 97.97 c
58.14 0 105.49 -24.91 138.71 -72.23 c
24.09 -34.04 39.04 -68.91 49.84 -111.25 c
35.76 0 h
f
-6753.07 17657 0 47.38 P
0 41.56 2.49 68.99 9.14 85.62 c
13.3 36.57 42.39 59.03 75.64 59.03 c
17.46 0 28.29 -5 28.29 -14.17 c
0 -2.5 -0.85 -4.16 -5.07 -10.83 c
-5.07 -8.33 -7.59 -17.5 -7.59 -26.66 c
0 -25 20.01 -44.16 45.86 -44.16 c
27.52 0 46.71 20.77 46.71 50.68 c
0 48.19 -41.58 78.11 -108.87 78.11 c
-57.32 0 -98.87 -19.93 -128.78 -61.44 c
-24.93 -34.87 -33.23 -70.57 -33.23 -137.82 c
0 -25.74 -73.24 0 0 -35.96 ^ 0 -282.07 p
0 -33.19 -9.16 -38.99 -62.44 -38.99 c
-3.33 0 0 -29.96 221.67 0 ^ -14.94 0 p
-53.93 0 -63.05 5.8 -63.05 38.99 c
0 282.07 91.27 0 0 35.96 h
f
-6475.62 17657 -146.95 -9.03 0 -35.96 34.04 0 P
30.72 0 35.7 -5.84 35.7 -41.52 c
0 -231.52 p
0 -33.19 -9.13 -39 -63.09 -39 c
-3.32 0 0 -29.96 221.67 0 ^ -15.78 0 p
-53.13 0 -62.27 5.8 -62.27 38.97 c
0 41.46 p
0 62.2 11.63 125.21 32.38 172.48 c
19.93 46.44 48.15 72.14 83.02 76.29 c
-11.62 -13.27 -14.95 -21.55 -14.95 -37.31 c
0 -26.54 19.09 -45.61 45.66 -45.61 c
29.89 0 50.64 22.39 50.64 56.38 c
0 39.8 -28.23 66.4 -72.23 66.4 c
-52.3 0 -97.97 -42.24 -124.54 -115.09 c
h
f
-5895.03 17537 m
0 52.29 -9.17 78.85 -33.22 98.77 c
-27.36 21.58 -67.99 33.22 -121.06 33.22 c
-92.87 0 -161.7 -43.94 -161.7 -103.58 c
0 -31.48 19.08 -51.36 48.12 -51.36 c
25.72 0 44.82 17.34 44.82 42.13 c
0 10.74 -4.1 22.3 -12.29 33.87 c
-4.91 5.79 -5.73 8.26 -5.73 10.74 c
0 17.35 33.95 32.24 73.69 32.24 c
25.67 0 54.65 -8.34 67.89 -20.76 c
15.73 -13.24 21.57 -33.11 21.57 -70.36 c
0 -32.28 p
-87.26 -14.9 -113.86 -21.52 -154.57 -37.25 c
-71.47 -26.49 -106.37 -65.39 -106.37 -117.54 c
0 -58.77 47.45 -96.85 120.7 -96.85 c
57.44 0 109.05 23.07 144.85 65.12 c
13.32 -42.49 34.13 -59.15 73.31 -59.15 c
37.09 0 75.84 24.47 75.84 48.95 c
0 4.98 -4.18 9.13 -8.34 9.13 c
-3.33 0 -6.66 -0.83 -12.5 -3.32 c
-13.33 -4.98 -16.66 -5.81 -23.33 -5.81 c
-23.33 0 -31.66 15.77 -31.66 57.27 c
h
-5972.94 17436.1 m
0 -49.69 -2.53 -61.29 -16.66 -82.82 c
-20.77 -30.64 -59 -51.35 -94.74 -51.35 c
-37.39 0 -65.65 27.33 -65.65 64.6 c
0 34.79 17.45 59.63 54.02 77.02 c
25.76 11.6 58.17 19.88 123.03 30.65 c
h
f
-5647 17330.9 m
-45.65 0.83 -48.14 1.66 -58.1 7.48 c
-5.81 3.32 -9.96 12.46 -9.96 21.61 c
0 24.93 22.35 35.73 77.81 37.4 c
78.64 1.66 91.06 3.32 118.38 15.79 c
49.67 22.44 77.85 65.65 77.85 120.5 c
0 33.24 -7.36 54.02 -30.25 81.44 c
14.11 14.96 21.59 19.95 28.23 19.95 c
4.15 0 6.64 -2.48 8.3 -11.56 c
3.32 -19.81 16.61 -30.54 37.36 -30.54 c
20.76 0 37.36 17.44 37.36 39.87 c
0 28.24 -22.42 48.19 -54.8 48.19 c
-26.57 0 -41.51 -8.56 -79.7 -43.54 c
-34.87 23.25 -61.44 31.55 -102.95 31.55 c
-98.8 0 -163.55 -54.83 -163.55 -137.87 c
0 -49 26.57 -91.35 69.74 -111.28 c
-55.52 -12.45 -78.71 -37.37 -78.71 -83.04 c
0 -36.54 16.39 -58.13 54.94 -71.41 c
-51.13 -18.27 -75.86 -44.84 -75.86 -78.89 c
0 -54.81 63.96 -85.53 175.26 -85.53 c
138.71 0 208.57 43.98 208.57 131.11 c
0 41.49 -19.12 74.68 -49.84 87.13 c
-21.58 8.3 -48.14 11.67 -105.41 11.67 c
h
-5598.12 17633.1 m
52.19 0 81.19 -36.45 81.19 -100.19 c
0 -64.57 -31.48 -103.47 -84.5 -103.47 c
-51.36 0 -83.67 38.9 -83.67 100.99 c
0 65.39 31.48 102.68 86.98 102.68 c
h
-5605.57 17260 m
69.02 0 74.02 0 86.49 -1.67 c
33.27 -3.34 54.06 -21.67 54.06 -48.34 c
0 -47.51 -54.06 -75.01 -147.2 -75.01 c
-69.86 0 -109.77 20.84 -109.77 58.34 c
0 27.5 14.96 45.84 54.88 66.68 c
h
f
-4965.62 17657 -146.95 -9.03 0 -35.96 34.04 0 P
30.72 0 35.7 -5.84 35.7 -41.52 c
0 -231.52 p
0 -33.19 -9.13 -39 -63.09 -39 c
-3.32 0 0 -29.96 221.67 0 ^ -15.78 0 p
-53.13 0 -62.27 5.8 -62.27 38.97 c
0 41.46 p
0 62.2 11.63 125.21 32.38 172.48 c
19.93 46.44 48.15 72.14 83.02 76.29 c
-11.62 -13.27 -14.95 -21.55 -14.95 -37.31 c
0 -26.54 19.09 -45.61 45.66 -45.61 c
29.89 0 50.64 22.39 50.64 56.38 c
0 39.8 -28.23 66.4 -72.23 66.4 c
-52.3 0 -97.97 -42.24 -124.54 -115.09 c
h
f
-4373.95 17457 m
0.83 124.23 -69.74 212.02 -171.02 212.02 c
-106.27 0 -185.97 -92 -185.97 -216.29 c
0 -116 75.55 -194.72 187.63 -194.72 c
78.87 0 135.32 38.87 169.36 117.45 c
-29.05 15.74 p
-34.04 -63.51 -68.91 -88.25 -124.54 -88.25 c
-42.34 0 -73.06 18.22 -94.64 54.66 c
-14.95 24.85 -21.59 53.84 -20.75 99.39 c
h
-4642.11 17493 m
0 25.54 3.32 43.67 11.63 66.74 c
17.43 49.43 44 73.36 83.85 73.36 c
50.64 0 83.85 -43.7 83.85 -109.62 c
0 -23.89 -7.47 -30.48 -34.04 -30.48 c
h
f
-4173.07 17657 -143.68 -9.03 0 -35.96 29.96 0 P
30.8 0 35.8 -5.83 35.8 -41.54 c
0 -399.44 p
0 -33.21 -9.16 -39.02 -62.44 -39.02 c
-3.33 0 0 -29.97 215.86 0 ^ -9.13 0 p
-53.93 0 -63.05 5.81 -63.05 39.04 c
0 153.75 p
27.37 -47.82 58.89 -66.78 109.48 -66.78 c
96.21 0 167.59 88.66 167.59 207.15 c
0 114.34 -71.38 203.86 -162.62 203.86 c
-51.42 0 -85.43 -21.5 -114.46 -71.09 c
h
-4073.04 17624.1 m
57.05 0 90.13 -57.11 90.13 -153.94 c
0 -106.76 -33.91 -167.17 -92.61 -167.17 c
-58.7 0 -97.56 61.24 -97.56 156.41 c
0 102.62 37.2 164.7 100.04 164.7 c
h
f
-3691.02 17882 -153.2 -8.98 0 -35.96 40.53 0 P
29.78 0 34.76 -5.86 34.76 -41.55 c
0 -456.51 p
0 -33.2 -9.11 -39.01 -62.03 -39.01 c
-5.79 0 0 -29.96 215.03 0 ^ -5.85 0 p
-54.27 0 -63.45 5.81 -63.45 39.02 c
0 33.21 h
f
-3225.03 17537 m
0 52.29 -9.17 78.85 -33.22 98.77 c
-27.36 21.58 -67.99 33.22 -121.06 33.22 c
-92.87 0 -161.7 -43.94 -161.7 -103.58 c
0 -31.48 19.08 -51.36 48.12 -51.36 c
25.72 0 44.82 17.34 44.82 42.13 c
0 10.74 -4.1 22.3 -12.29 33.87 c
-4.91 5.79 -5.73 8.26 -5.73 10.74 c
0 17.35 33.95 32.24 73.69 32.24 c
25.67 0 54.65 -8.34 67.89 -20.76 c
15.73 -13.24 21.57 -33.11 21.57 -70.36 c
0 -32.28 p
-87.26 -14.9 -113.86 -21.52 -154.57 -37.25 c
-71.47 -26.49 -106.37 -65.39 -106.37 -117.54 c
0 -58.77 47.45 -96.85 120.7 -96.85 c
57.44 0 109.05 23.07 144.85 65.12 c
13.32 -42.49 34.13 -59.15 73.31 -59.15 c
37.09 0 75.84 24.47 75.84 48.95 c
0 4.98 -4.18 9.13 -8.34 9.13 c
-3.33 0 -6.66 -0.83 -12.5 -3.32 c
-13.33 -4.98 -16.66 -5.81 -23.33 -5.81 c
-23.33 0 -31.66 15.77 -31.66 57.27 c
h
-3302.94 17436.1 m
0 -49.69 -2.53 -61.29 -16.66 -82.82 c
-20.77 -30.64 -59 -51.35 -94.74 -51.35 c
-37.39 0 -65.65 27.33 -65.65 64.6 c
0 34.79 17.45 59.63 54.02 77.02 c
25.76 11.6 58.17 19.88 123.03 30.65 c
h
f
-2818.78 17392 m
-26.61 -59.23 -54.87 -83.09 -98.11 -83.09 c
-66.52 0 -108.09 60.35 -108.09 157.09 c
0 100.04 40.78 167.02 102.36 167.02 c
24.97 0 46.62 -11.58 46.62 -24.8 c
0 -2.48 -1.66 -4.96 -4.98 -9.91 c
-13.28 -15.7 -16.6 -23.96 -16.6 -38 c
0 -27.27 20.76 -46.27 49.82 -46.27 c
29.07 0 50.67 23.19 50.67 56.33 c
0 55.5 -55.7 98.61 -129.61 98.61 c
-107.95 0 -185.18 -88.69 -185.18 -212.14 c
0 -117.66 70.58 -198.86 173.56 -198.86 c
73.9 0 116.25 33.91 151.99 121.59 c
h
f
-2383.95 17457 m
0.83 124.23 -69.74 212.02 -171.02 212.02 c
-106.27 0 -185.97 -92 -185.97 -216.29 c
0 -116 75.55 -194.72 187.63 -194.72 c
78.87 0 135.32 38.87 169.36 117.45 c
-29.05 15.74 p
-34.04 -63.51 -68.91 -88.25 -124.54 -88.25 c
-42.34 0 -73.06 18.22 -94.64 54.66 c
-14.95 24.85 -21.59 53.84 -20.75 99.39 c
h
-2652.11 17493 m
0 25.54 3.32 43.67 11.63 66.74 c
17.43 49.43 44 73.36 83.85 73.36 c
50.64 0 83.85 -43.7 83.85 -109.62 c
0 -23.89 -7.47 -30.48 -34.04 -30.48 c
h
f
-2183.07 17657 -147.83 -9.03 0 -35.96 34.12 0 P
30.79 0 35.8 -5.84 35.8 -41.52 c
0 -230.69 p
0 -34.02 -9.16 -39.83 -62.44 -39.83 c
-3.33 0 0 -29.96 209.21 0 ^ -3.33 0 p
-53.08 0 -62.2 5.8 -62.2 39.77 c
0 149.94 p
0 73.73 40.68 128.41 94.64 128.41 c
21.59 0 44.83 -11.61 54.8 -27.35 c
11.62 -15.74 16.63 -39.76 16.63 -73.73 c
0 -178.11 p
0 -33.13 -9.16 -38.93 -63.17 -38.93 c
-3.32 0 0 -29.96 210.05 0 ^ -3.33 0 p
-53.17 0 -62.31 5.8 -62.31 38.93 c
0 143.31 p
0 82.84 37.39 135.87 95.54 135.87 c
27.42 0 49.85 -15.75 60.65 -41.43 c
7.48 -18.23 9.98 -36.45 9.98 -68.76 c
0 -168.99 p
0 -33.13 -9.16 -38.93 -63.17 -38.93 c
-3.32 0 0 -29.96 210.04 0 ^ -3.32 0 p
-53.18 0 -62.31 5.8 -62.31 39.8 c
0 184.91 p
0 51.41 -5 68.82 -26.58 97.02 c
-24.07 30.68 -58.1 47.33 -97.94 47.33 c
-53.95 0 -93.79 -25.65 -129.48 -82.71 c
-14.11 49.62 -58.93 82.71 -114.54 82.71 c
-49.8 0 -87.16 -23.98 -119.52 -76.07 c
h
f
-1223.95 17457 m
0.83 124.23 -69.74 212.02 -171.02 212.02 c
-106.27 0 -185.97 -92 -185.97 -216.29 c
0 -116 75.55 -194.72 187.63 -194.72 c
78.87 0 135.32 38.87 169.36 117.45 c
-29.05 15.74 p
-34.04 -63.51 -68.91 -88.25 -124.54 -88.25 c
-42.34 0 -73.06 18.22 -94.64 54.66 c
-14.95 24.85 -21.59 53.84 -20.75 99.39 c
h
-1492.11 17493 m
0 25.54 3.32 43.67 11.63 66.74 c
17.43 49.43 44 73.36 83.85 73.36 c
50.64 0 83.85 -43.7 83.85 -109.62 c
0 -23.89 -7.47 -30.48 -34.04 -30.48 c
h
f
-1024.01 17657 -143.58 -9.03 0 -35.96 29.92 0 P
30.75 0 35.75 -5.84 35.75 -41.52 c
0 -231.52 p
0 -33.19 -9.16 -39 -62.34 -39 c
-3.32 0 0 -29.96 210.05 0 ^ -3.33 0 p
-54 0 -63.14 5.8 -63.14 38.93 c
0 119.29 p
0 40.59 5.82 77.87 14.96 96.92 c
17.47 37.28 54.89 62.97 90.65 62.97 c
21.62 0 46.57 -12.44 59.05 -29.01 c
12.47 -17.4 18.32 -43.08 18.32 -82.84 c
0 -167.34 p
0 -33.13 -9.18 -38.93 -63.37 -38.93 c
-3.34 0 0 -29.96 210.05 0 ^ -3.32 0 p
-53 0 -62.12 5.8 -62.12 38.97 c
0 163.35 p
0 59.7 -2.51 74.63 -17.46 102.82 c
-20.77 39.8 -63.14 63.91 -112.16 63.91 c
-53.18 0 -94.71 -24.81 -131.27 -79.39 c
h
f
-518.99 17657 0 164.28 -34.04 0 P
-8.3 -108.02 -44.81 -162.85 -112.02 -167.84 c
0 -32.4 68.16 0 0 -211.38 p
0 -58 1.66 -78.71 9.95 -97.77 c
13.28 -34.8 46.47 -53.86 94.6 -53.86 c
32.36 0 60.57 9.93 79.66 28.14 c
27.39 26.49 43.19 70.36 43.19 115.89 c
0 4.97 0 10.76 -0.85 19.05 c
-34.88 0 p
-2.49 -74.22 -24.08 -112.14 -64.77 -112.14 c
-19.1 0 -35.71 9.93 -41.52 24 c
-4.98 11.59 -7.47 32.28 -7.47 62.07 c
0 226 122.09 0 0 35.96 h
f
-36.21 17666 -29.1 0 -24.09 -29.89 P
-29.89 23.02 -59.79 32.9 -101.31 32.9 c
-73.08 0 -121.24 -48.08 -121.24 -120.09 c
0 -32.28 10.79 -59.6 29.05 -76.16 c
19.1 -17.39 38.19 -25.66 88 -37.25 c
44 -9.93 p
65.59 -15.73 88.88 -32.28 88.88 -65.39 c
0 -38.91 -34.04 -66.22 -83.01 -66.22 c
-69.72 0 -119.52 44.57 -139.45 127.13 c
-33.2 0 0 -156.46 29.09 0 29.09 33.94 p
34.08 -27.32 72.32 -40.56 113.88 -40.56 c
81.46 0 135.54 50.46 135.54 127.41 c
0 36.4 -11.7 64.54 -35.01 83.56 c
-19.98 17.38 -36.63 24 -87.41 34.75 c
-41.62 9.1 p
-45.79 9.93 -45.79 9.93 -60.77 18.21 c
-18.32 8.27 -29.14 25.65 -29.14 43.85 c
0 33.09 31.59 57.17 77.3 57.17 c
31.59 0 57.36 -10.77 80.63 -33.1 c
18.29 -18.2 27.43 -34.74 40.73 -72.79 c
29.13 0 h
f
q[8000 0 0 -40 -7991 16969]concat
1 1 false[1 0 0 -1 0 0]@X
imagemask
!!~>
Q
Q q
0 0 84000 0 0 36000 ^ Y
0.996264 i
K
9904.12 2783.02 m
13.96 0 32.98 0 32.98 20 c
0 20 -19.02 20 -32.98 20 c
-543.23 0 p
-13.96 0 -32.89 0 -32.89 -20 c
0 -20 18.94 -20 32.89 -20 c
h
f
10461 2872.99 m
0 82.75 -5.04 163.51 -40.86 239.28 c
-40.8 82.75 -112.44 104.75 -161.2 104.75 c
-57.71 0 -128.36 -28.97 -165.18 -111.72 c
-27.86 -62.81 -37.81 -124.62 -37.81 -232.3 c
0 -96.71 6.96 -169.49 42.79 -240.28 c
38.8 -75.77 107.46 -99.7 159.21 -99.7 c
86.57 0 136.32 51.84 165.18 109.67 c
35.82 74.77 37.88 172.48 37.88 230.3 c
h
10258 2553.02 m
-31.75 0 -96.24 17.94 -115.09 126.58 c
-10.91 59.81 -10.91 135.56 -10.91 205.33 c
0 81.73 0 155.5 15.87 214.3 c
16.86 66.78 67.46 97.77 110.13 97.77 c
37.7 0 95.24 -23.02 114.09 -108.74 c
12.93 -56.81 12.93 -135.56 12.93 -203.34 c
0 -66.78 0 -142.54 -10.95 -203.34 c
-18.85 -109.64 -81.36 -128.58 -116.07 -128.58 c
h
f
10688 2602.01 m
0 29 -24 49.01 -48.01 49.01 c
-29 0 -49.01 -24 -49.01 -48.01 c
0 -29 24 -49.01 48.01 -49.01 c
29.01 0 49.01 24 49.01 48.01 c
h
f
11221 2872.99 m
0 82.75 -5.04 163.51 -40.86 239.28 c
-40.8 82.75 -112.44 104.75 -161.2 104.75 c
-57.71 0 -128.36 -28.97 -165.18 -111.72 c
-27.86 -62.81 -37.81 -124.62 -37.81 -232.3 c
0 -96.71 6.96 -169.49 42.79 -240.28 c
38.8 -75.77 107.46 -99.7 159.21 -99.7 c
86.57 0 136.32 51.84 165.18 109.67 c
35.82 74.77 37.88 172.48 37.88 230.3 c
h
11018 2553.02 m
-31.75 0 -96.24 17.94 -115.09 126.58 c
-10.91 59.81 -10.91 135.56 -10.91 205.33 c
0 81.73 0 155.5 15.87 214.3 c
16.86 66.78 67.46 97.77 110.13 97.77 c
37.7 0 95.24 -23.02 114.09 -108.74 c
12.93 -56.81 12.93 -135.56 12.93 -203.34 c
0 -66.78 0 -142.54 -10.95 -203.34 c
-18.85 -109.64 -81.36 -128.58 -116.07 -128.58 c
h
f
11704 2721.37 -21.97 0 P
-3 -16.89 -10.98 -71.53 -20.96 -87.42 c
-6.99 -8.94 -63.89 -8.94 -93.83 -8.94 c
-184.67 0 p
26.95 22.92 87.84 86.7 113.8 110.61 c
151.73 139.51 207.64 191.33 207.64 289.98 c
0 114.6 -90.82 191.41 -206.5 191.41 c
-115.68 0 -183.49 -99.02 -183.49 -185.04 c
0 -51.01 44.01 -51.01 47.01 -51.01 c
21 0 47.01 15 47.01 47.01 c
0 28 -19.11 47.01 -47.25 47.01 c
-9.05 0 -11.06 0 -14.07 0 c
18.94 67.41 72.8 113.02 137.61 113.02 c
84.77 0 136.67 -70.85 136.67 -162.55 c
0 -84.72 -48.88 -158.48 -105.68 -222.27 c
-201.29 -225.27 0 -23.92 363.99 0 h
f
19379 2875.99 m
0 82.75 -5.04 163.51 -40.86 239.28 c
-40.8 82.75 -112.44 104.75 -161.2 104.75 c
-57.71 0 -128.36 -28.97 -165.18 -111.72 c
-27.86 -62.81 -37.81 -124.62 -37.81 -232.3 c
0 -96.71 6.96 -169.49 42.79 -240.28 c
38.8 -75.77 107.46 -99.7 159.21 -99.7 c
86.57 0 136.32 51.84 165.18 109.67 c
35.82 74.77 37.88 172.48 37.88 230.3 c
h
19176 2556.02 m
-31.75 0 -96.24 17.94 -115.09 126.58 c
-10.91 59.81 -10.91 135.56 -10.91 205.33 c
0 81.73 0 155.5 15.87 214.3 c
16.86 66.78 67.46 97.77 110.13 97.77 c
37.7 0 95.24 -23.02 114.09 -108.74 c
12.93 -56.81 12.93 -135.56 12.93 -203.34 c
0 -66.78 0 -142.54 -10.95 -203.34 c
-18.85 -109.64 -81.36 -128.58 -116.07 -128.58 c
h
f
19606 2605.01 m
0 29 -24 49.01 -48.01 49.01 c
-29 0 -49.01 -24 -49.01 -48.01 c
0 -29 24 -49.01 48.01 -49.01 c
29.01 0 49.01 24 49.01 48.01 c
h
f
20139 2875.99 m
0 82.75 -5.04 163.51 -40.86 239.28 c
-40.8 82.75 -112.44 104.75 -161.2 104.75 c
-57.71 0 -128.36 -28.97 -165.18 -111.72 c
-27.86 -62.81 -37.81 -124.62 -37.81 -232.3 c
0 -96.71 6.96 -169.49 42.79 -240.28 c
38.8 -75.77 107.46 -99.7 159.21 -99.7 c
86.57 0 136.32 51.84 165.18 109.67 c
35.82 74.77 37.88 172.48 37.88 230.3 c
h
19936 2556.02 m
-31.75 0 -96.24 17.94 -115.09 126.58 c
-10.91 59.81 -10.91 135.56 -10.91 205.33 c
0 81.73 0 155.5 15.87 214.3 c
16.86 66.78 67.46 97.77 110.13 97.77 c
37.7 0 95.24 -23.02 114.09 -108.74 c
12.93 -56.81 12.93 -135.56 12.93 -203.34 c
0 -66.78 0 -142.54 -10.95 -203.34 c
-18.85 -109.64 -81.36 -128.58 -116.07 -128.58 c
h
f
20629 2875.99 m
0 82.75 -5.04 163.51 -40.86 239.28 c
-40.8 82.75 -112.44 104.75 -161.2 104.75 c
-57.71 0 -128.36 -28.97 -165.18 -111.72 c
-27.86 -62.81 -37.81 -124.62 -37.81 -232.3 c
0 -96.71 6.96 -169.49 42.79 -240.28 c
38.8 -75.77 107.46 -99.7 159.21 -99.7 c
86.57 0 136.32 51.84 165.18 109.67 c
35.82 74.77 37.88 172.48 37.88 230.3 c
h
20426 2556.02 m
-31.75 0 -96.24 17.94 -115.09 126.58 c
-10.91 59.81 -10.91 135.56 -10.91 205.33 c
0 81.73 0 155.5 15.87 214.3 c
16.86 66.78 67.46 97.77 110.13 97.77 c
37.7 0 95.24 -23.02 114.09 -108.74 c
12.93 -56.81 12.93 -135.56 12.93 -203.34 c
0 -66.78 0 -142.54 -10.95 -203.34 c
-18.85 -109.64 -81.36 -128.58 -116.07 -128.58 c
h
f
28679 2875.99 m
0 82.75 -5.04 163.51 -40.86 239.28 c
-40.8 82.75 -112.44 104.75 -161.2 104.75 c
-57.71 0 -128.36 -28.97 -165.18 -111.72 c
-27.86 -62.81 -37.81 -124.62 -37.81 -232.3 c
0 -96.71 6.96 -169.49 42.79 -240.28 c
38.8 -75.77 107.46 -99.7 159.21 -99.7 c
86.57 0 136.32 51.84 165.18 109.67 c
35.82 74.77 37.88 172.48 37.88 230.3 c
h
28476 2556.02 m
-31.75 0 -96.24 17.94 -115.09 126.58 c
-10.91 59.81 -10.91 135.56 -10.91 205.33 c
0 81.73 0 155.5 15.87 214.3 c
16.86 66.78 67.46 97.77 110.13 97.77 c
37.7 0 95.24 -23.02 114.09 -108.74 c
12.93 -56.81 12.93 -135.56 12.93 -203.34 c
0 -66.78 0 -142.54 -10.95 -203.34 c
-18.85 -109.64 -81.36 -128.58 -116.07 -128.58 c
h
f
28906 2605.01 m
0 29 -24 49.01 -48.01 49.01 c
-29 0 -49.01 -24 -49.01 -48.01 c
0 -29 24 -49.01 48.01 -49.01 c
29.01 0 49.01 24 49.01 48.01 c
h
f
29439 2875.99 m
0 82.75 -5.04 163.51 -40.86 239.28 c
-40.8 82.75 -112.44 104.75 -161.2 104.75 c
-57.71 0 -128.36 -28.97 -165.18 -111.72 c
-27.86 -62.81 -37.81 -124.62 -37.81 -232.3 c
0 -96.71 6.96 -169.49 42.79 -240.28 c
38.8 -75.77 107.46 -99.7 159.21 -99.7 c
86.57 0 136.32 51.84 165.18 109.67 c
35.82 74.77 37.88 172.48 37.88 230.3 c
h
29236 2556.02 m
-31.75 0 -96.24 17.94 -115.09 126.58 c
-10.91 59.81 -10.91 135.56 -10.91 205.33 c
0 81.73 0 155.5 15.87 214.3 c
16.86 66.78 67.46 97.77 110.13 97.77 c
37.7 0 95.24 -23.02 114.09 -108.74 c
12.93 -56.81 12.93 -135.56 12.93 -203.34 c
0 -66.78 0 -142.54 -10.95 -203.34 c
-18.85 -109.64 -81.36 -128.58 -116.07 -128.58 c
h
f
29922 2724.37 -21.97 0 P
-3 -16.89 -10.98 -71.53 -20.96 -87.42 c
-6.99 -8.94 -63.89 -8.94 -93.83 -8.94 c
-184.67 0 p
26.95 22.92 87.84 86.7 113.8 110.61 c
151.73 139.51 207.64 191.33 207.64 289.98 c
0 114.6 -90.82 191.41 -206.5 191.41 c
-115.68 0 -183.49 -99.02 -183.49 -185.04 c
0 -51.01 44.01 -51.01 47.01 -51.01 c
21 0 47.01 15 47.01 47.01 c
0 28 -19.11 47.01 -47.25 47.01 c
-9.05 0 -11.06 0 -14.07 0 c
18.94 67.41 72.8 113.02 137.61 113.02 c
84.77 0 136.67 -70.85 136.67 -162.55 c
0 -84.72 -48.88 -158.48 -105.68 -222.27 c
-201.29 -225.27 0 -23.92 363.99 0 h
f
37979 2875.99 m
0 82.75 -5.04 163.51 -40.86 239.28 c
-40.8 82.75 -112.44 104.75 -161.2 104.75 c
-57.71 0 -128.36 -28.97 -165.18 -111.72 c
-27.86 -62.81 -37.81 -124.62 -37.81 -232.3 c
0 -96.71 6.96 -169.49 42.79 -240.28 c
38.8 -75.77 107.46 -99.7 159.21 -99.7 c
86.57 0 136.32 51.84 165.18 109.67 c
35.82 74.77 37.88 172.48 37.88 230.3 c
h
37776 2556.02 m
-31.75 0 -96.24 17.94 -115.09 126.58 c
-10.91 59.81 -10.91 135.56 -10.91 205.33 c
0 81.73 0 155.5 15.87 214.3 c
16.86 66.78 67.46 97.77 110.13 97.77 c
37.7 0 95.24 -23.02 114.09 -108.74 c
12.93 -56.81 12.93 -135.56 12.93 -203.34 c
0 -66.78 0 -142.54 -10.95 -203.34 c
-18.85 -109.64 -81.36 -128.58 -116.07 -128.58 c
h
f
38206 2605.01 m
0 29 -24 49.01 -48.01 49.01 c
-29 0 -49.01 -24 -49.01 -48.01 c
0 -29 24 -49.01 48.01 -49.01 c
29.01 0 49.01 24 49.01 48.01 c
h
f
38739 2875.99 m
0 82.75 -5.04 163.51 -40.86 239.28 c
-40.8 82.75 -112.44 104.75 -161.2 104.75 c
-57.71 0 -128.36 -28.97 -165.18 -111.72 c
-27.86 -62.81 -37.81 -124.62 -37.81 -232.3 c
0 -96.71 6.96 -169.49 42.79 -240.28 c
38.8 -75.77 107.46 -99.7 159.21 -99.7 c
86.57 0 136.32 51.84 165.18 109.67 c
35.82 74.77 37.88 172.48 37.88 230.3 c
h
38536 2556.02 m
-31.75 0 -96.24 17.94 -115.09 126.58 c
-10.91 59.81 -10.91 135.56 -10.91 205.33 c
0 81.73 0 155.5 15.87 214.3 c
16.86 66.78 67.46 97.77 110.13 97.77 c
37.7 0 95.24 -23.02 114.09 -108.74 c
12.93 -56.81 12.93 -135.56 12.93 -203.34 c
0 -66.78 0 -142.54 -10.95 -203.34 c
-18.85 -109.64 -81.36 -128.58 -116.07 -128.58 c
h
f
39143 3204.97 m
0 18.92 0 24.01 -14.03 24.01 c
-7.98 0 -10.97 0 -18.95 -12.06 c
-300.09 -464.91 0 -29 262.02 0 0 -90.35 p
0 -36.72 -1.99 -46.65 -74.72 -46.65 c
-19.93 0 0 -29 p
22.91 1.99 101.62 1.99 129.52 1.99 c
27.89 0 107.6 0 130.51 -1.99 c
0 29 -19.86 0 p
-71.48 0 -74.46 9.93 -74.46 46.65 c
0 90.35 100.3 0 0 29 ^ h
39077 3127.86 0 -375.85 -242.16 0 H
f
47279 2875.99 m
0 82.75 -5.04 163.51 -40.86 239.28 c
-40.8 82.75 -112.44 104.75 -161.2 104.75 c
-57.71 0 -128.36 -28.97 -165.18 -111.72 c
-27.86 -62.81 -37.81 -124.62 -37.81 -232.3 c
0 -96.71 6.96 -169.49 42.79 -240.28 c
38.8 -75.77 107.46 -99.7 159.21 -99.7 c
86.57 0 136.32 51.84 165.18 109.67 c
35.82 74.77 37.88 172.48 37.88 230.3 c
h
47076 2556.02 m
-31.75 0 -96.24 17.94 -115.09 126.58 c
-10.91 59.81 -10.91 135.56 -10.91 205.33 c
0 81.73 0 155.5 15.87 214.3 c
16.86 66.78 67.46 97.77 110.13 97.77 c
37.7 0 95.24 -23.02 114.09 -108.74 c
12.93 -56.81 12.93 -135.56 12.93 -203.34 c
0 -66.78 0 -142.54 -10.95 -203.34 c
-18.85 -109.64 -81.36 -128.58 -116.07 -128.58 c
h
f
47506 2605.01 m
0 29 -24 49.01 -48.01 49.01 c
-29 0 -49.01 -24 -49.01 -48.01 c
0 -29 24 -49.01 48.01 -49.01 c
29.01 0 49.01 24 49.01 48.01 c
h
f
48039 2875.99 m
0 82.75 -5.04 163.51 -40.86 239.28 c
-40.8 82.75 -112.44 104.75 -161.2 104.75 c
-57.71 0 -128.36 -28.97 -165.18 -111.72 c
-27.86 -62.81 -37.81 -124.62 -37.81 -232.3 c
0 -96.71 6.96 -169.49 42.79 -240.28 c
38.8 -75.77 107.46 -99.7 159.21 -99.7 c
86.57 0 136.32 51.84 165.18 109.67 c
35.82 74.77 37.88 172.48 37.88 230.3 c
h
47836 2556.02 m
-31.75 0 -96.24 17.94 -115.09 126.58 c
-10.91 59.81 -10.91 135.56 -10.91 205.33 c
0 81.73 0 155.5 15.87 214.3 c
16.86 66.78 67.46 97.77 110.13 97.77 c
37.7 0 95.24 -23.02 114.09 -108.74 c
12.93 -56.81 12.93 -135.56 12.93 -203.34 c
0 -66.78 0 -142.54 -10.95 -203.34 c
-18.85 -109.64 -81.36 -128.58 -116.07 -128.58 c
h
f
48206 2903.73 m
0 252.36 122.33 292.28 176.04 292.28 c
35.8 0 71.61 -11 90.5 -41 c
-11.93 0 -49.73 0 -49.73 -41.01 c
0 -22 14.92 -41 40.78 -41 c
24.86 0 41.84 15 41.84 43.99 c
0 52 -37.9 103.02 -124.54 103.02 c
-125.47 0 -256.91 -128.67 -256.91 -348.01 c
0 -274.18 119.4 -335.99 203.98 -335.99 c
108.46 0 201.06 94.55 201.06 223.94 c
0 132.38 -92.46 221.02 -191.85 221.02 c
-88.45 0 -121.25 -76.4 -131.18 -104.17 c
h
48327.8 2563.02 m
-62.59 0 -92.4 55.71 -101.35 76.6 c
-8.94 25.86 -18.87 74.61 -18.87 144.24 c
0 78.59 35.77 177.11 125.19 177.11 c
54.65 0 83.46 -36.84 98.37 -70.66 c
15.91 -36.81 15.91 -86.55 15.91 -129.32 c
0 -50.73 0 -95.5 -18.89 -133.3 c
-24.84 -47.75 -60.61 -64.66 -100.36 -64.66 c
h
f
56579 2875.99 m
0 82.75 -5.04 163.51 -40.86 239.28 c
-40.8 82.75 -112.44 104.75 -161.2 104.75 c
-57.71 0 -128.36 -28.97 -165.18 -111.72 c
-27.86 -62.81 -37.81 -124.62 -37.81 -232.3 c
0 -96.71 6.96 -169.49 42.79 -240.28 c
38.8 -75.77 107.46 -99.7 159.21 -99.7 c
86.57 0 136.32 51.84 165.18 109.67 c
35.82 74.77 37.88 172.48 37.88 230.3 c
h
56376 2556.02 m
-31.75 0 -96.24 17.94 -115.09 126.58 c
-10.91 59.81 -10.91 135.56 -10.91 205.33 c
0 81.73 0 155.5 15.87 214.3 c
16.86 66.78 67.46 97.77 110.13 97.77 c
37.7 0 95.24 -23.02 114.09 -108.74 c
12.93 -56.81 12.93 -135.56 12.93 -203.34 c
0 -66.78 0 -142.54 -10.95 -203.34 c
-18.85 -109.64 -81.36 -128.58 -116.07 -128.58 c
h
f
56806 2605.01 m
0 29 -24 49.01 -48.01 49.01 c
-29 0 -49.01 -24 -49.01 -48.01 c
0 -29 24 -49.01 48.01 -49.01 c
29.01 0 49.01 24 49.01 48.01 c
h
f
57339 2875.99 m
0 82.75 -5.04 163.51 -40.86 239.28 c
-40.8 82.75 -112.44 104.75 -161.2 104.75 c
-57.71 0 -128.36 -28.97 -165.18 -111.72 c
-27.86 -62.81 -37.81 -124.62 -37.81 -232.3 c
0 -96.71 6.96 -169.49 42.79 -240.28 c
38.8 -75.77 107.46 -99.7 159.21 -99.7 c
86.57 0 136.32 51.84 165.18 109.67 c
35.82 74.77 37.88 172.48 37.88 230.3 c
h
57136 2556.02 m
-31.75 0 -96.24 17.94 -115.09 126.58 c
-10.91 59.81 -10.91 135.56 -10.91 205.33 c
0 81.73 0 155.5 15.87 214.3 c
16.86 66.78 67.46 97.77 110.13 97.77 c
37.7 0 95.24 -23.02 114.09 -108.74 c
12.93 -56.81 12.93 -135.56 12.93 -203.34 c
0 -66.78 0 -142.54 -10.95 -203.34 c
-18.85 -109.64 -81.36 -128.58 -116.07 -128.58 c
h
f
57679.9 2916.86 m
50.04 26.92 123.14 72.79 123.14 156.53 c
0 86.74 -83.8 146.62 -175.57 146.62 c
-98.75 0 -176.55 -72.84 -176.55 -163.57 c
0 -33.89 9.97 -67.79 37.9 -101.69 c
10.97 -12.96 11.97 -13.95 81.79 -62.81 c
-96.75 -44.86 -146.62 -111.66 -146.62 -184.44 c
0 -105.68 100.57 -171.48 202.14 -171.48 c
110.53 0 203.21 81.75 203.21 186.44 c
0 101.7 -71.73 146.55 -149.44 194.41 c
h
57544.5 3006.42 m
-12.97 8.98 -52.87 34.92 -52.87 83.81 c
0 64.85 67.84 105.77 134.69 105.77 c
71.84 0 135.73 -51.9 135.73 -123.73 c
0 -60.86 -43.94 -109.75 -101.81 -141.68 c
h
57591.4 2877.8 m
26.87 -17.96 93.56 -60.79 120.43 -78.72 c
25.88 -16.93 71.66 -47.81 71.66 -108.57 c
0 -75.7 -76.64 -127.49 -156.26 -127.49 c
-84.6 0 -157.26 61.75 -157.26 144.42 c
0 77.69 56.73 140.44 121.43 170.36 c
h
f
65879 2875.99 m
0 82.75 -5.04 163.51 -40.86 239.28 c
-40.8 82.75 -112.44 104.75 -161.2 104.75 c
-57.71 0 -128.36 -28.97 -165.18 -111.72 c
-27.86 -62.81 -37.81 -124.62 -37.81 -232.3 c
0 -96.71 6.96 -169.49 42.79 -240.28 c
38.8 -75.77 107.46 -99.7 159.21 -99.7 c
86.57 0 136.32 51.84 165.18 109.67 c
35.82 74.77 37.88 172.48 37.88 230.3 c
h
65676 2556.02 m
-31.75 0 -96.24 17.94 -115.09 126.58 c
-10.91 59.81 -10.91 135.56 -10.91 205.33 c
0 81.73 0 155.5 15.87 214.3 c
16.86 66.78 67.46 97.77 110.13 97.77 c
37.7 0 95.24 -23.02 114.09 -108.74 c
12.93 -56.81 12.93 -135.56 12.93 -203.34 c
0 -66.78 0 -142.54 -10.95 -203.34 c
-18.85 -109.64 -81.36 -128.58 -116.07 -128.58 c
h
f
66106 2605.01 m
0 29 -24 49.01 -48.01 49.01 c
-29 0 -49.01 -24 -49.01 -48.01 c
0 -29 24 -49.01 48.01 -49.01 c
29.01 0 49.01 24 49.01 48.01 c
h
f
66480 3196.02 m
0 22.93 0 24 -19.95 24 c
-23.92 -27 -73.74 -64.01 -176.38 -64.01 c
0 -29 p
22.87 0 72.6 0 127.32 25.77 c
0 -518.95 p
0 -35.86 -2.99 -47.81 -90.51 -47.81 c
-30.83 0 0 -29 p
26.9 1.99 123.54 1.99 156.41 1.99 c
32.88 0 128.52 0 155.42 -1.99 c
0 29 -30.89 0 p
-87.61 0 -90.59 11.96 -90.59 47.84 c
h
f
67129 2875.99 m
0 82.75 -5.04 163.51 -40.86 239.28 c
-40.8 82.75 -112.44 104.75 -161.2 104.75 c
-57.71 0 -128.36 -28.97 -165.18 -111.73 c
-27.86 -62.81 -37.81 -124.62 -37.81 -232.3 c
0 -96.71 6.96 -169.48 42.79 -240.28 c
38.8 -75.77 107.46 -99.7 159.21 -99.7 c
86.57 0 136.32 51.84 165.18 109.67 c
35.82 74.77 37.88 172.48 37.88 230.3 c
h
66926 2556.02 m
-31.75 0 -96.24 17.94 -115.09 126.58 c
-10.91 59.81 -10.91 135.56 -10.91 205.33 c
0 81.73 0 155.5 15.88 214.3 c
16.86 66.78 67.46 97.77 110.13 97.77 c
37.7 0 95.24 -23.02 114.09 -108.74 c
12.93 -56.81 12.93 -135.56 12.93 -203.34 c
0 -66.78 0 -142.54 -10.95 -203.33 c
-18.85 -109.64 -81.35 -128.58 -116.07 -128.58 c
h
f
75179 2875.99 m
0 82.75 -5.04 163.51 -40.86 239.28 c
-40.8 82.75 -112.44 104.75 -161.2 104.75 c
-57.71 0 -128.36 -28.97 -165.18 -111.73 c
-27.86 -62.81 -37.81 -124.62 -37.81 -232.3 c
0 -96.71 6.96 -169.48 42.79 -240.28 c
38.8 -75.77 107.46 -99.7 159.21 -99.7 c
86.57 0 136.32 51.84 165.18 109.67 c
35.82 74.77 37.88 172.48 37.88 230.3 c
h
74976 2556.02 m
-31.75 0 -96.24 17.94 -115.09 126.58 c
-10.91 59.81 -10.91 135.56 -10.91 205.33 c
0 81.73 0 155.5 15.88 214.3 c
16.86 66.78 67.46 97.77 110.13 97.77 c
37.7 0 95.24 -23.02 114.09 -108.74 c
12.93 -56.81 12.93 -135.56 12.93 -203.34 c
0 -66.78 0 -142.54 -10.95 -203.33 c
-18.85 -109.64 -81.35 -128.58 -116.07 -128.58 c
h
f
75406 2605.01 m
0 29 -24 49.01 -48.01 49.01 c
-29 0 -49.01 -24 -49.01 -48.01 c
0 -29 24 -49.01 48.01 -49.01 c
29.01 0 49.01 24 49.01 48.01 c
h
f
75780 3196.02 m
0 22.93 0 24 -19.95 24 c
-23.92 -27 -73.74 -64.01 -176.38 -64.01 c
0 -29 p
22.87 0 72.6 0 127.32 25.77 c
0 -518.95 p
0 -35.86 -2.99 -47.81 -90.51 -47.81 c
-30.83 0 0 -29 p
26.9 1.99 123.54 1.99 156.41 1.99 c
32.88 0 128.52 0 155.42 -1.99 c
0 29 -30.89 0 p
-87.61 0 -90.59 11.96 -90.59 47.84 c
h
f
76422 2724.37 -21.97 0 P
-3 -16.89 -10.98 -71.53 -20.96 -87.42 c
-6.98 -8.94 -63.89 -8.94 -93.83 -8.94 c
-184.67 0 p
26.95 22.92 87.84 86.7 113.8 110.61 c
151.73 139.51 207.64 191.33 207.64 289.98 c
0 114.6 -90.82 191.41 -206.5 191.41 c
-115.68 0 -183.49 -99.02 -183.49 -185.04 c
0 -51.01 44.01 -51.01 47.01 -51.01 c
21 0 47.01 15 47.01 47.01 c
0 28 -19.11 47.01 -47.25 47.01 c
-9.05 0 -11.06 0 -14.07 0 c
18.94 67.41 72.8 113.03 137.62 113.03 c
84.76 0 136.66 -70.85 136.66 -162.55 c
0 -84.73 -48.88 -158.48 -105.68 -222.28 c
-201.29 -225.27 0 -23.92 363.99 0 h
f
38511.2 1220 203.85 608.72 0 -608.72 88.01 0 0 726.03 -128.55 0 -211.05 -632.38 -215.04 632.38 
-128.42 0 0 -726.03 88.02 0 0 608.72 205.77 -608.72 H
f
39534.5 1721.12 m
-28.99 159.21 -120.6 236.86 -279.93 236.86 c
-97.59 0 -176.25 -31.05 -230.03 -90.8 c
-65.72 -71.7 -101.57 -175.26 -101.57 -292.76 c
0 -119.5 36.84 -222.06 105.55 -292.76 c
55.76 -57.76 127.46 -84.64 222.05 -84.64 c
177.25 0 276.83 95.64 298.86 287.98 c
-95.63 0 p
-7.96 -49.79 -17.91 -83.61 -32.84 -112.46 c
-29.85 -59.69 -91.54 -93.51 -169.16 -93.51 c
-144.28 0 -235.82 115.4 -235.82 296.45 c
0 186.03 87.56 300.48 227.86 300.48 c
58.71 0 113.43 -17.87 143.29 -45.66 c
26.87 -24.81 41.79 -55.59 52.74 -109.18 c
h
f
40581 1604 -303.05 0 0 -82.01 221.04 0 0 -19.96 P
0 -129.42 -95.43 -223 -227.61 -223 c
-73.54 0 -140.12 26.86 -182.86 73.62 c
-47.7 51.73 -76.52 138.28 -76.52 227.81 c
0 178.07 101.5 295.51 254.73 295.51 c
110.45 0 190.05 -56.58 209.95 -149.87 c
94.66 0 p
-26.02 147.27 -137.55 231.88 -303.84 231.88 c
-88.62 0 -160.32 -23.09 -217.08 -69.89 c
-83.64 -69.71 -131.44 -182.23 -131.44 -312.68 c
0 -223.05 136.29 -378.39 332.26 -378.39 c
98.48 0 177.08 36.91 247.74 115.71 c
23 -96.76 59.01 0 h
f
41166 1452.98 m
0 79.72 -6.05 127.55 -20.98 166.42 c
-33.86 85.7 -113.52 137.58 -211.11 137.58 c
-145.38 0 -238.98 -111.64 -238.98 -283 c
0 -171.36 90.64 -276.96 237.05 -276.96 c
119.52 0 202.19 67.76 223.13 181.38 c
-83.62 0 p
-22.88 -68.59 -69.63 -104.37 -136.29 -104.37 c
-52.72 0 -97.49 23.86 -125.35 67.59 c
-19.89 29.82 -26.86 59.65 -27.85 111.36 c
h
40783.5 1521 m
6.97 96.38 65.75 158.98 149.44 158.98 c
81.7 0 144.46 -67.57 144.46 -153.02 c
0 -1.98 0 -3.97 -1 -5.96 c
h
f
41275 1742.04 0 -522.04 84.01 0 0 287.71 P
0 106.52 55.55 176.27 140.85 176.27 c
65.46 0 107.13 -39.88 107.13 -102.6 c
0 -361.37 83.01 0 0 394.52 p
0 86.68 -64.62 142.46 -165.02 142.46 c
-77.54 0 -127.24 -29.89 -172.97 -102.61 c
0 87.67 h
f
42266 1452.98 m
0 79.72 -6.05 127.55 -20.98 166.42 c
-33.86 85.7 -113.52 137.58 -211.11 137.58 c
-145.38 0 -238.98 -111.64 -238.98 -283 c
0 -171.36 90.64 -276.96 237.05 -276.96 c
119.52 0 202.19 67.76 223.13 181.38 c
-83.62 0 p
-22.88 -68.59 -69.63 -104.37 -136.29 -104.37 c
-52.72 0 -97.49 23.86 -125.35 67.59 c
-19.89 29.82 -26.86 59.65 -27.85 111.36 c
h
41883.5 1521 m
6.97 96.38 65.75 158.98 149.44 158.98 c
81.7 0 144.46 -67.57 144.46 -153.02 c
0 -1.98 0 -3.97 -1 -5.96 c
h
f
42374 1742.04 0 -522.04 84.01 0 0 270.72 P
0 74.64 18.86 123.42 58.56 152.28 c
25.81 18.91 50.62 24.88 108.23 25.98 c
0 85.01 p
-13.91 2 -20.86 3 -31.79 3 c
-53.62 0 -94.34 -31.88 -142.01 -109.59 c
0 94.64 h
f
43158 1268.82 m
-9 -1.78 -13 -1.78 -18 -1.78 c
-29.01 0 -45.01 14.94 -45.01 40.82 c
0 306.7 p
0 92.61 -67.75 142.43 -196.17 142.43 c
-75.66 0 -138.38 -21.92 -173.22 -60.77 c
-23.89 -26.9 -33.85 -56.79 -35.84 -108.59 c
83.52 0 p
6.96 63.54 44.74 92.35 122.3 92.35 c
74.58 0 116.39 -27.99 116.39 -77.77 c
0 -21.9 p
0 -34.84 -20.94 -49.77 -86.55 -57.74 c
-117.3 -14.93 -135.2 -18.91 -167 -31.86 c
-60.64 -24.89 -91.45 -71.68 -91.45 -139.37 c
0 -94.57 65.72 -154.3 171.27 -154.3 c
65.72 0 118.5 22.93 177.25 76.77 c
5.97 -52.85 31.86 -76.77 85.64 -76.77 c
16.93 0 29.87 1.99 56.88 8.97 c
h
43012 1384.46 m
0 -27.86 -7.98 -44.78 -32.78 -67.66 c
-33.73 -30.84 -74.41 -46.77 -123.02 -46.77 c
-64.49 0 -102.19 30.84 -102.19 83.58 c
0 54.73 36.71 82.59 125.01 95.52 c
87.3 11.95 105.16 15.92 132.98 28.89 c
h
f
43428 1741.98 -84.98 0 0 143.52 -83.02 0 ^ -71.04 0 0 -68.01 ^ 
0 -394.32 P
0 -52.77 35.78 -82.63 100.38 -82.63 c
19.88 0 39.75 1.99 67.62 6.98 c
0 69.8 p
-10.88 -2.82 -23.72 -3.76 -39.53 -3.76 c
-35.57 0 -45.45 9.95 -45.45 46.75 c
0 357.18 84.98 0 h
f
43726 1756.98 m
-146.38 0 -235 -104.67 -235 -280.01 c
0 -175.34 87.63 -279.95 236 -279.95 c
146.38 0 236.04 104.61 236.04 275.96 c
0 180.32 -86.68 284 -237.04 284 c
h
43727 1679.97 m
93.38 0 149.02 -76.66 149.02 -205.98 c
0 -122.36 -57.63 -199.95 -149.02 -199.95 c
-92.38 0 -149 76.6 -149 202.94 c
0 125.35 56.62 203 149 203 c
h
f
44074 1742.04 0 -522.04 84.01 0 0 270.72 P
0 74.64 18.86 123.42 58.56 152.28 c
25.81 18.91 50.62 24.88 108.23 25.98 c
0 85.01 p
-13.91 2 -20.86 3 -31.79 3 c
-53.62 0 -94.34 -31.88 -142.01 -109.59 c
0 94.64 h
f
44807 1551.01 347.02 0 0 82.01 ^ 0 231 394.06 0 0 82.01 -487.07 0 
0 -726.03 93.01 0 H
f
45385 1741.98 -84.01 0 0 -521.98 ^ H
45385 1946.03 -84.01 0 0 -104.36 ^ H
f
45948 1946.03 -83.02 0 0 -269.74 P
-34.87 52.8 -90.58 80.7 -160.22 80.7 c
-135.29 0 -223.83 -108.65 -223.83 -275.03 c
0 -176.34 86.57 -284.93 226.87 -284.93 c
71.64 0 121.4 26.91 166.18 91.72 c
0 -68.74 74.01 0 h
45719 1678.97 m
89.4 0 146.04 -79.63 146.04 -203.98 c
0 -120.37 -57.64 -199.95 -145.05 -199.95 c
-91.39 0 -151.98 80.58 -151.98 201.94 c
0 121.37 60.59 202 150.99 202 c
h
f
46485 1219.94 0 522.04 -83.01 0 0 -295.74 P
0 -106.52 -55.57 -176.21 -141.86 -176.21 c
-65.46 0 -107.12 39.82 -107.12 102.54 c
0 369.41 -83.01 0 0 -402.49 p
0 -86.68 64.61 -142.46 166.01 -142.46 c
76.54 0 125.25 26.9 173.98 95.64 c
0 -72.73 h
f
47024.2 1566.7 m
-4.07 51.12 -15.03 84.2 -34.94 113.27 c
-35.85 48.38 -98.58 77.01 -171.28 77.01 c
-140.4 0 -232.01 -111.64 -232.01 -284.99 c
0 -168.37 89.62 -274.97 231.02 -274.97 c
124.47 0 203.14 74.73 213.19 202.3 c
-83.63 0 p
-13.93 -83.53 -56.7 -125.29 -127.34 -125.29 c
-91.52 0 -146.23 74.61 -146.23 197.96 c
0 130.32 53.71 207.97 144.24 207.97 c
69.64 0 113.41 -40.75 123.36 -113.27 c
h
f
47205 1741.98 -84.01 0 0 -521.98 ^ H
47205 1946.03 -84.01 0 0 -104.36 ^ H
f
47808 1268.82 m
-9 -1.78 -13 -1.78 -18 -1.78 c
-29.01 0 -45.01 14.94 -45.01 40.82 c
0 306.7 p
0 92.61 -67.75 142.43 -196.17 142.43 c
-75.66 0 -138.38 -21.92 -173.22 -60.77 c
-23.89 -26.9 -33.85 -56.79 -35.84 -108.59 c
83.52 0 p
6.96 63.54 44.74 92.35 122.3 92.35 c
74.58 0 116.39 -27.99 116.39 -77.77 c
0 -21.9 p
0 -34.84 -20.94 -49.77 -86.55 -57.74 c
-117.3 -14.93 -135.2 -18.91 -167 -31.86 c
-60.64 -24.89 -91.45 -71.68 -91.45 -139.37 c
0 -94.57 65.72 -154.3 171.27 -154.3 c
65.72 0 118.5 22.93 177.25 76.77 c
5.97 -52.85 31.86 -76.77 85.64 -76.77 c
16.93 0 29.87 1.99 56.88 8.97 c
h
47662 1384.46 m
0 -27.86 -7.98 -44.78 -32.78 -67.66 c
-33.73 -30.84 -74.41 -46.77 -123.02 -46.77 c
-64.49 0 -102.19 30.84 -102.19 83.58 c
0 54.73 36.71 82.59 125.01 95.52 c
87.3 11.95 105.16 15.92 132.98 28.89 c
h
f
47893 1220 84.0117 726.027 re
f
10125 3669.99 m
0 82.75 -5.04 163.51 -40.86 239.28 c
-40.8 82.75 -112.44 104.75 -161.2 104.75 c
-57.71 0 -128.36 -28.97 -165.18 -111.72 c
-27.86 -62.81 -37.81 -124.62 -37.81 -232.3 c
0 -96.71 6.96 -169.49 42.79 -240.28 c
38.8 -75.77 107.46 -99.7 159.21 -99.7 c
86.57 0 136.32 51.84 165.18 109.67 c
35.82 74.77 37.88 172.48 37.88 230.3 c
h
9921.98 3350.02 m
-31.75 0 -96.24 17.94 -115.09 126.58 c
-10.91 59.81 -10.91 135.56 -10.91 205.33 c
0 81.73 0 155.5 15.87 214.3 c
16.86 66.78 67.46 97.77 110.13 97.77 c
37.7 0 95.24 -23.02 114.09 -108.74 c
12.93 -56.81 12.93 -135.56 12.93 -203.34 c
0 -66.78 0 -142.54 -10.95 -203.34 c
-18.85 -109.64 -81.36 -128.58 -116.07 -128.58 c
h
f
9807 9681.86 m
42.75 -13.87 77.56 -14.86 88.49 -14.86 c
112.36 0 184 83.01 184 97.02 c
0 4 -2.06 9 -8.02 9 c
-1.99 0 -3.98 0 -12.93 -4 c
-55.71 -24 -103.46 -27 -129.33 -27 c
-65.66 0 -112.41 20 -131.31 28 c
-6.96 3 -8.96 3 -9.95 3 c
-7.96 0 -7.96 -6.07 -7.96 -22.02 c
0 -296.25 p
0 -17.96 0 -23.94 11.57 -23.94 c
4.82 0 5.79 0.99 15.43 12.86 c
27.99 40.57 74.97 64.33 124.96 64.33 c
52.98 0 78.97 -48.76 86.97 -65.68 c
16.99 -38.8 18.04 -87.54 18.04 -125.35 c
0 -37.8 0 -94.5 -27.93 -139.27 c
-21.94 -35.82 -60.83 -60.68 -104.71 -60.68 c
-65.82 0 -130.64 44.81 -148.59 117.52 c
4.99 -2.39 10.97 -3.58 15.96 -3.58 c
16.95 0 43.88 10 43.88 44.01 c
0 28 -18.95 44 -43.88 44 c
-17.95 0 -43.88 -9 -43.88 -47.81 c
0 -84.6 67.84 -181.14 178.59 -181.14 c
112.74 0 211.57 94.55 211.57 220.95 c
0 118.44 -79.8 217.03 -184.43 217.03 c
-56.8 0 -100.65 -24.71 -126.55 -52.37 c
h
f
9477.98 15510 m
0 22.93 0 24 -19.94 24 c
-23.92 -27 -73.75 -64.01 -176.38 -64.01 c
0 -29 p
22.87 0 72.6 0 127.32 25.77 c
0 -518.95 p
0 -35.86 -2.99 -47.81 -90.51 -47.81 c
-30.83 0 0 -29 p
26.9 1.99 123.54 1.99 156.41 1.99 c
32.88 0 128.52 0 155.42 -1.99 c
0 29 -30.89 0 p
-87.6 0 -90.59 11.96 -90.59 47.84 c
h
f
10127 15190 m
0 82.75 -5.04 163.51 -40.86 239.28 c
-40.8 82.75 -112.44 104.75 -161.2 104.75 c
-57.71 0 -128.36 -28.97 -165.18 -111.72 c
-27.86 -62.81 -37.81 -124.62 -37.81 -232.3 c
0 -96.71 6.96 -169.49 42.79 -240.28 c
38.8 -75.77 107.46 -99.7 159.21 -99.7 c
86.57 0 136.32 51.84 165.18 109.67 c
35.82 74.77 37.88 172.48 37.88 230.3 c
h
9923.98 14870 m
-31.75 0 -96.24 17.94 -115.09 126.58 c
-10.91 59.81 -10.91 135.56 -10.91 205.33 c
0 81.73 0 155.5 15.87 214.3 c
16.86 66.78 67.46 97.77 110.13 97.77 c
37.7 0 95.24 -23.02 114.09 -108.74 c
12.93 -56.81 12.93 -135.56 12.93 -203.34 c
0 -66.78 0 -142.54 -10.95 -203.34 c
-18.85 -109.64 -81.36 -128.58 -116.07 -128.58 c
h
f
9477.98 21270 m
0 22.93 0 24 -19.94 24 c
-23.92 -27 -73.75 -64.01 -176.38 -64.01 c
0 -29 p
22.87 0 72.6 0 127.32 25.77 c
0 -518.95 p
0 -35.86 -2.99 -47.81 -90.51 -47.81 c
-30.83 0 0 -29 p
26.9 1.99 123.54 1.99 156.41 1.99 c
32.88 0 128.52 0 155.42 -1.99 c
0 29 -30.89 0 p
-87.6 0 -90.59 11.96 -90.59 47.84 c
h
f
9809 21201.9 m
42.75 -13.87 77.56 -14.86 88.49 -14.86 c
112.36 0 184 83.01 184 97.02 c
0 4 -2.06 9 -8.02 9 c
-1.99 0 -3.98 0 -12.93 -4 c
-55.71 -24 -103.46 -27 -129.33 -27 c
-65.66 0 -112.41 20 -131.31 28 c
-6.96 3 -8.96 3 -9.95 3 c
-7.96 0 -7.96 -6.07 -7.96 -22.02 c
0 -296.25 p
0 -17.96 0 -23.94 11.57 -23.94 c
4.82 0 5.79 0.99 15.43 12.86 c
27.99 40.57 74.97 64.33 124.96 64.33 c
52.98 0 78.97 -48.76 86.97 -65.68 c
16.99 -38.8 18.04 -87.54 18.04 -125.35 c
0 -37.8 0 -94.5 -27.93 -139.27 c
-21.94 -35.82 -60.83 -60.68 -104.71 -60.68 c
-65.82 0 -130.64 44.81 -148.59 117.52 c
4.99 -2.39 10.97 -3.58 15.96 -3.58 c
16.95 0 43.88 10 43.88 44.01 c
0 28 -18.95 44 -43.88 44 c
-17.95 0 -43.88 -9 -43.88 -47.81 c
0 -84.6 67.84 -181.14 178.59 -181.14 c
112.74 0 211.57 94.55 211.57 220.95 c
0 118.44 -79.8 217.03 -184.43 217.03 c
-56.8 0 -100.65 -24.71 -126.55 -52.37 c
h
f
9629.99 26558.4 -21.97 0 P
-3 -16.89 -10.98 -71.53 -20.96 -87.42 c
-6.99 -8.94 -63.89 -8.94 -93.83 -8.94 c
-184.67 0 p
26.95 22.92 87.84 86.7 113.8 110.61 c
151.73 139.51 207.64 191.33 207.64 289.98 c
0 114.6 -90.82 191.41 -206.5 191.41 c
-115.68 0 -183.49 -99.02 -183.49 -185.04 c
0 -51.01 44.01 -51.01 47.01 -51.01 c
21 0 47.01 15 47.01 47.01 c
0 28 -19.11 47.01 -47.25 47.01 c
-9.05 0 -11.06 0 -14.07 0 c
18.94 67.41 72.8 113.02 137.61 113.02 c
84.77 0 136.67 -70.85 136.67 -162.55 c
0 -84.72 -48.88 -158.48 -105.68 -222.27 c
-201.29 -225.27 0 -23.92 363.99 0 h
f
10127 26710 m
0 82.75 -5.04 163.51 -40.86 239.28 c
-40.8 82.75 -112.44 104.75 -161.2 104.75 c
-57.71 0 -128.36 -28.97 -165.18 -111.72 c
-27.86 -62.81 -37.81 -124.62 -37.81 -232.3 c
0 -96.71 6.96 -169.49 42.79 -240.28 c
38.8 -75.77 107.46 -99.7 159.21 -99.7 c
86.57 0 136.32 51.84 165.18 109.67 c
35.82 74.77 37.88 172.48 37.88 230.3 c
h
9923.98 26390 m
-31.75 0 -96.24 17.94 -115.09 126.58 c
-10.91 59.81 -10.91 135.56 -10.91 205.33 c
0 81.73 0 155.5 15.87 214.3 c
16.86 66.78 67.46 97.77 110.13 97.77 c
37.7 0 95.24 -23.02 114.09 -108.74 c
12.93 -56.81 12.93 -135.56 12.93 -203.34 c
0 -66.78 0 -142.54 -10.95 -203.34 c
-18.85 -109.64 -81.36 -128.58 -116.07 -128.58 c
h
f
9629.99 32318.4 -21.97 0 P
-3 -16.89 -10.98 -71.53 -20.96 -87.42 c
-6.99 -8.94 -63.89 -8.94 -93.83 -8.94 c
-184.67 0 p
26.95 22.92 87.84 86.7 113.8 110.61 c
151.73 139.51 207.64 191.33 207.64 289.98 c
0 114.6 -90.82 191.41 -206.5 191.41 c
-115.68 0 -183.49 -99.02 -183.49 -185.04 c
0 -51.01 44.01 -51.01 47.01 -51.01 c
21 0 47.01 15 47.01 47.01 c
0 28 -19.11 47.01 -47.25 47.01 c
-9.05 0 -11.06 0 -14.07 0 c
18.94 67.41 72.8 113.02 137.61 113.02 c
84.77 0 136.67 -70.85 136.67 -162.55 c
0 -84.72 -48.88 -158.48 -105.68 -222.27 c
-201.29 -225.27 0 -23.92 363.99 0 h
f
9809 32721.9 m
42.75 -13.87 77.56 -14.86 88.49 -14.86 c
112.36 0 184 83.01 184 97.02 c
0 4 -2.06 9 -8.02 9 c
-1.99 0 -3.98 0 -12.93 -4 c
-55.71 -24 -103.46 -27 -129.33 -27 c
-65.66 0 -112.41 20 -131.31 28 c
-6.96 3 -8.96 3 -9.95 3 c
-7.96 0 -7.96 -6.07 -7.96 -22.02 c
0 -296.25 p
0 -17.96 0 -23.94 11.57 -23.94 c
4.82 0 5.79 0.99 15.43 12.86 c
27.99 40.57 74.97 64.33 124.96 64.33 c
52.98 0 78.97 -48.76 86.97 -65.68 c
16.99 -38.8 18.04 -87.54 18.04 -125.35 c
0 -37.8 0 -94.5 -27.93 -139.27 c
-21.94 -35.82 -60.83 -60.68 -104.71 -60.68 c
-65.82 0 -130.64 44.81 -148.59 117.52 c
4.99 -2.39 10.97 -3.58 15.96 -3.58 c
16.95 0 43.88 10 43.88 44.01 c
0 28 -18.95 44 -43.88 44 c
-17.95 0 -43.88 -9 -43.88 -47.81 c
0 -84.6 67.84 -181.14 178.59 -181.14 c
112.74 0 211.57 94.55 211.57 220.95 c
0 118.44 -79.8 217.03 -184.43 217.03 c
-56.8 0 -100.65 -24.71 -126.55 -52.37 c
h
f
8210.99 16655 0 394.84 -82.01 0 ^ -230.99 0 0 410.07 -82.02 0 0 -503.08 
726.03 0 0 521.08 -82.01 0 0 -428.07 H
f
8542 17415.9 -521.98 200.25 0 -93.65 423.35 -147.45 -423.35 -139.48 0 -93.65 521.98 183.31 H
f
8309.02 18123 m
-79.72 0 -127.55 -6.05 -166.41 -20.98 c
-85.7 -33.86 -137.59 -113.52 -137.59 -211.11 c
0 -145.38 111.64 -238.98 283 -238.98 c
171.36 0 276.96 90.64 276.96 237.05 c
0 119.52 -67.76 202.19 -181.38 223.13 c
0 -83.62 p
68.59 -22.88 104.37 -69.63 104.37 -136.29 c
0 -52.72 -23.86 -97.49 -67.59 -125.35 c
-29.82 -19.89 -59.65 -26.86 -111.36 -27.85 c
h
8241 17740.5 m
-96.37 6.97 -158.98 65.75 -158.98 149.44 c
0 81.7 67.57 144.46 153.02 144.46 c
1.98 0 3.97 0 5.96 -1 c
h
f
8019.96 18232 522.04 0 0 84.01 -287.71 0 P
-106.52 0 -176.27 55.55 -176.27 140.85 c
0 65.46 39.88 107.13 102.6 107.13 c
361.38 0 0 83.01 -394.52 0 p
-86.68 0 -142.46 -64.62 -142.46 -165.02 c
0 -77.54 29.89 -127.24 102.61 -172.97 c
-87.67 0 h
f
8020.02 18965 0 -84.98 -143.52 0 0 -83.02 ^ 0 -71.04 68.01 0 ^ 
394.32 0 P
52.77 0 82.63 35.78 82.63 100.38 c
0 19.88 -1.99 39.75 -6.98 67.62 c
-69.8 0 p
2.82 -10.88 3.76 -23.73 3.76 -39.54 c
0 -35.57 -9.95 -45.45 -46.75 -45.45 c
-357.18 0 0 84.98 h
f
8165.41 19428.4 m
-102.62 -1 -160.4 -68.71 -160.4 -189.2 c
0 -121.48 62.84 -200.15 159.4 -200.15 c
81.63 0 120.46 41.73 150.32 164.93 c
18.92 77.5 p
13.94 57.63 34.84 80.52 72.67 80.52 c
48.78 0 81.63 -48.73 81.63 -121.32 c
0 -44.75 -12.92 -82.53 -34.79 -103.41 c
-14.9 -12.93 -29.81 -18.89 -66.6 -23.87 c
0 -87.5 p
120.6 3.98 178.39 71.66 178.39 208.02 c
0 131.38 -64.71 215.09 -165.25 215.09 c
-77.66 0 -120.46 -43.75 -145.35 -147.09 c
-18.91 -79.48 p
-15.93 -67.56 -37.83 -96.38 -74.66 -96.38 c
-47.79 0 -78.77 42.75 -78.77 110.37 c
0 66.62 28.79 102.42 83.39 104.41 c
h
f
1 i
34549.8 32815 245.25 730.46 0 -730.46 104.93 0 0 871.98 -154.19 0 -253.39 -759.6 -258.17 759.6 
-154.18 0 0 -871.98 104.94 0 0 730.46 247.59 -730.46 H
f
35781.4 33416.3 m
-34.7 191.38 -144.75 284.68 -336.12 284.68 c
-117.21 0 -211.71 -37.12 -276.3 -108.81 c
-78.94 -86.04 -122 -210.31 -122 -351.31 c
0 -143.39 44.25 -266.47 126.79 -351.31 c
66.98 -69.31 153.1 -101.57 266.73 -101.57 c
212.91 0 332.52 114.57 358.84 344.98 c
-114.88 0 p
-9.57 -59.71 -21.54 -100.29 -39.5 -134.88 c
-35.89 -71.59 -110.09 -112.16 -203.43 -112.16 c
-173.52 0 -283.61 138.61 -283.61 356.09 c
0 223.46 105.31 361.04 274.04 361.04 c
70.61 0 136.42 -21.56 172.32 -55.08 c
32.31 -29.93 50.26 -67.03 63.42 -131.66 c
h
f
37027.8 33275 -363.77 0 0 -97.94 265.83 0 0 -23.92 P
0 -155.07 -114.86 -267.21 -273.87 -267.21 c
-88.47 0 -168.57 32.26 -219.97 88.42 c
-57.39 62.14 -92.06 166.1 -92.06 273.64 c
0 213.89 121.91 355.06 305.98 355.06 c
132.67 0 228.29 -68.25 252.19 -180.77 c
113.57 0 p
-31.23 177.02 -165.04 278.7 -364.54 278.7 c
-106.32 0 -192.34 -27.55 -260.43 -83.72 c
-100.35 -83.64 -157.69 -218.67 -157.69 -375.21 c
0 -267.66 163.75 -454.07 399.21 -454.07 c
118.32 0 212.75 44.15 297.62 138.44 c
27.47 -115.77 70.47 0 h
f
37723.6 33095 m
0 95.45 -7.2 152.73 -25.14 199.26 c
-40.66 102.61 -136.32 164.73 -253.51 164.73 c
-174.59 0 -287 -133.79 -287 -339.12 c
0 -205.33 108.74 -331.86 284.39 -331.86 c
143.39 0 242.57 81.09 267.79 217.06 c
-100.44 0 p
-27.48 -82.23 -83.66 -125.12 -163.74 -125.12 c
-63.35 0 -117.13 28.67 -150.6 81.23 c
-23.91 35.84 -32.27 71.68 -33.46 133.82 c
h
37264.2 33176 m
8.37 115.85 78.9 191.09 179.33 191.09 c
98.03 0 173.35 -81.21 173.35 -183.93 c
0 -2.39 0 -4.78 -1.2 -7.16 c
h
f
37854 33441 0 -625.99 99.94 0 0 345.42 P
0 127.89 67 211.65 169.89 211.65 c
78.96 0 129.25 -47.9 129.25 -123.2 c
0 -433.87 98.94 0 0 473.07 p
0 103.94 -77.71 170.94 -198.31 170.94 c
-93.13 0 -152.84 -35.94 -207.76 -123.15 c
0 105.13 h
f
39043.6 33095 m
0 95.45 -7.2 152.73 -25.14 199.26 c
-40.66 102.61 -136.32 164.73 -253.51 164.73 c
-174.59 0 -287 -133.79 -287 -339.12 c
0 -205.33 108.74 -331.86 284.39 -331.86 c
143.39 0 242.57 81.09 267.79 217.06 c
-100.44 0 p
-27.48 -82.23 -83.66 -125.12 -163.74 -125.12 c
-63.35 0 -117.13 28.67 -150.6 81.23 c
-23.91 35.84 -32.27 71.68 -33.46 133.82 c
h
38584.2 33176 m
8.37 115.85 78.9 191.09 179.33 191.09 c
98.03 0 173.35 -81.21 173.35 -183.93 c
0 -2.39 0 -4.78 -1.2 -7.16 c
h
f
39173.1 33441 0 -625.99 99.94 0 0 325.1 P
0 89.64 22.7 148.21 70.48 182.87 c
31.06 22.71 60.93 29.88 130.25 31.11 c
0 101.34 p
-16.72 2.39 -25.07 3.59 -38.19 3.59 c
-64.4 0 -113.29 -38.33 -170.54 -131.51 c
0 113.49 h
f
40119.6 32873.6 m
-10.82 -1.61 -15.62 -1.61 -21.61 -1.61 c
-34.79 0 -53.99 17.89 -53.99 48.91 c
0 367.41 p
0 110.94 -81.3 170.72 -235.41 170.72 c
-90.8 0 -166.06 -26.27 -207.87 -72.81 c
-28.68 -32.21 -40.62 -68.01 -43.01 -130.05 c
100.43 0 p
8.37 76.33 53.8 110.92 147.05 110.92 c
89.66 0 139.88 -33.49 139.88 -93.18 c
0 -26.26 p
0 -41.79 -25.16 -59.69 -104.09 -69.24 c
-141.11 -17.91 -162.63 -22.68 -200.9 -38.2 c
-72.95 -29.85 -110.01 -85.95 -110.01 -167.13 c
0 -113.41 78.92 -185.03 205.68 -185.03 c
78.92 0 142.3 27.33 212.86 91.53 c
7.18 -63.01 38.27 -91.53 102.84 -91.53 c
20.33 0 35.88 2.37 68.17 10.69 c
h
39945.1 33012.3 m
0 -33.44 -9.64 -53.75 -39.55 -81.21 c
-40.67 -37.02 -89.71 -56.13 -148.32 -56.13 c
-77.75 0 -123.2 37.02 -123.2 100.32 c
0 65.69 44.25 99.13 150.71 114.66 c
105.26 14.33 126.79 19.11 160.36 34.68 c
h
f
40443.8 33441 -102.89 0 0 172.6 -98.94 0 ^ -85 0 0 -80.95 ^ 
0 -472.92 P
0 -63.29 42.98 -99.11 120.6 -99.11 c
23.88 0 47.76 2.38 81.23 8.32 c
0 83.21 p
-13.18 -3.44 -28.73 -4.59 -47.87 -4.59 c
-43.05 0 -55.02 11.95 -55.02 56.15 c
0 428.93 102.89 0 h
f
40795.2 33459 m
-175.78 0 -282.21 -125.44 -282.21 -335.54 c
0 -210.11 105.23 -335.45 283.4 -335.45 c
175.79 0 283.5 125.34 283.5 330.67 c
0 216.07 -104.12 340.31 -284.69 340.31 c
h
40796.5 33367.1 m
112.49 0 179.53 -91.96 179.53 -247.15 c
0 -146.84 -69.43 -239.95 -179.53 -239.95 c
-111.29 0 -179.5 91.92 -179.5 243.53 c
0 150.41 68.21 243.57 179.5 243.57 c
h
f
41213.1 33441 0 -625.99 99.94 0 0 325.1 P
0 89.64 22.7 148.21 70.48 182.87 c
31.06 22.71 60.93 29.88 130.25 31.11 c
0 101.34 p
-16.72 2.39 -25.07 3.59 -38.19 3.59 c
-64.4 0 -113.29 -38.33 -170.54 -131.51 c
0 113.49 h
f
42098.9 33212 415.92 0 0 97.94 ^ 0 279.1 473.7 0 0 97.94 -584.64 0 
0 -871.98 110.93 0 H
f
42789 33441 -99.94 0 0 -626 ^ H
42789 33687 -99.94 0 0 -125.98 ^ H
f
43472 33687 -98.94 0 0 -324.43 P
-41.95 63.12 -108.96 96.46 -192.73 96.46 c
-162.75 0 -269.25 -130.21 -269.25 -329.57 c
0 -211.3 103.93 -341.41 272.38 -341.41 c
86.01 0 145.75 32.12 199.6 109.46 c
0 -82.49 88.94 0 h
43197 33366.1 m
107.75 0 176.06 -95.65 176.06 -244.98 c
0 -144.55 -69.51 -240.12 -174.87 -240.12 c
-110.15 0 -183.18 96.76 -183.18 242.51 c
0 145.75 73.03 242.59 181.98 242.59 c
h
f
44116 32815.5 0 625.53 -98.94 0 0 -354.69 P
0 -127.76 -67.02 -211.34 -171.02 -211.34 c
-78.91 0 -129.12 47.76 -129.12 122.98 c
0 443.05 -98.94 0 0 -482.31 p
0 -103.83 77.55 -170.66 199.26 -170.66 c
91.88 0 150.34 32.22 208.81 114.57 c
0 -87.13 h
f
44763.1 33231 m
-4.78 61.39 -17.93 101.11 -41.84 136.03 c
-43.04 57.75 -118.36 91.95 -205.63 91.95 c
-168.57 0 -278.55 -133.79 -278.55 -341.51 c
0 -201.75 107.59 -329.48 277.36 -329.48 c
149.44 0 243.89 89.46 255.84 242.17 c
-100.5 0 p
-16.74 -100.16 -68.14 -150.23 -153.03 -150.23 c
-109.99 0 -175.74 89.53 -175.74 237.56 c
0 156.38 64.56 249.54 173.35 249.54 c
83.68 0 136.29 -48.93 148.24 -136.03 c
h
f
44979 33441 -99.94 0 0 -626 ^ H
44979 33687 -99.94 0 0 -125.98 ^ H
f
45709.6 32873.6 m
-10.82 -1.61 -15.62 -1.61 -21.61 -1.61 c
-34.79 0 -53.99 17.89 -53.99 48.91 c
0 367.41 p
0 110.94 -81.3 170.72 -235.41 170.72 c
-90.8 0 -166.06 -26.27 -207.87 -72.81 c
-28.68 -32.21 -40.62 -68.01 -43.01 -130.05 c
100.43 0 p
8.37 76.33 53.8 110.92 147.05 110.92 c
89.66 0 139.88 -33.49 139.88 -93.18 c
0 -26.26 p
0 -41.79 -25.16 -59.69 -104.09 -69.24 c
-141.11 -17.91 -162.63 -22.68 -200.9 -38.2 c
-72.95 -29.85 -110.01 -85.95 -110.01 -167.13 c
0 -113.41 78.92 -185.03 205.68 -185.03 c
78.92 0 142.3 27.33 212.86 91.53 c
7.18 -63.01 38.27 -91.53 102.84 -91.53 c
20.33 0 35.88 2.37 68.17 10.69 c
h
45535.1 33012.3 m
0 -33.44 -9.64 -53.75 -39.55 -81.21 c
-40.67 -37.02 -89.71 -56.13 -148.32 -56.13 c
-77.75 0 -123.2 37.02 -123.2 100.32 c
0 65.69 44.25 99.13 150.71 114.66 c
105.26 14.33 126.79 19.11 160.36 34.68 c
h
f
45812.1 32815 99.9414 871.98 re
f
46932 33687 -98.94 0 0 -324.43 P
-41.95 63.12 -108.96 96.46 -192.73 96.46 c
-162.75 0 -269.25 -130.21 -269.25 -329.57 c
0 -211.3 103.93 -341.41 272.38 -341.41 c
86.01 0 145.75 32.12 199.6 109.46 c
0 -82.49 88.94 0 h
46657 33366.1 m
107.75 0 176.06 -95.65 176.06 -244.98 c
0 -144.55 -69.51 -240.12 -174.87 -240.12 c
-110.15 0 -183.18 96.76 -183.18 242.51 c
0 145.75 73.03 242.59 181.98 242.59 c
h
f
47179 33441 -99.94 0 0 -626 ^ H
47179 33687 -99.94 0 0 -125.98 ^ H
f
47793.6 33266.9 m
-1.23 122.89 -82.55 192.11 -227.24 192.11 c
-145.89 0 -240.36 -75.28 -240.36 -191.07 c
0 -97.89 50.26 -144.45 198.65 -180.26 c
93.34 -22.68 p
69.41 -16.71 97 -41.78 97 -87.14 c
0 -58.5 -58.62 -97.89 -145.96 -97.89 c
-53.84 0 -99.3 15.48 -124.42 41.7 c
-15.55 17.87 -22.73 35.74 -28.71 79.83 c
-105.28 0 p
4.78 -144.32 86.09 -213.47 249.92 -213.47 c
157.85 0 258.4 77.59 258.4 198.16 c
0 93.12 -52.73 144.45 -177.18 174.29 c
-95.74 22.68 p
-81.37 19.1 -116.07 45.36 -116.07 89.53 c
0 57.3 51.43 94.38 132.76 94.38 c
80.14 0 123.2 -34.59 125.59 -100.16 c
h
f
48173.8 33441 -102.89 0 0 172.6 -98.94 0 ^ -85 0 0 -80.95 ^ 
0 -472.92 P
0 -63.29 42.98 -99.11 120.6 -99.11 c
23.88 0 47.76 2.38 81.23 8.32 c
0 83.21 p
-13.18 -3.44 -28.73 -4.59 -47.87 -4.59 c
-43.05 0 -55.02 11.95 -55.02 56.15 c
0 428.93 102.89 0 h
f
48283.1 33441 0 -625.99 99.94 0 0 325.1 P
0 89.64 22.7 148.21 70.48 182.87 c
31.06 22.71 60.93 29.88 130.25 31.11 c
0 101.34 p
-16.72 2.39 -25.07 3.59 -38.19 3.59 c
-64.4 0 -113.29 -38.33 -170.54 -131.51 c
0 113.49 h
f
48799 33441 -99.94 0 0 -626 ^ H
48799 33687 -99.94 0 0 -125.98 ^ H
f
48955 33687 0 -871.98 89.94 0 0 80.1 P
47.71 -72.58 110.94 -107.07 198.02 -107.07 c
164.62 0 272.06 134.89 272.06 342.61 c
0 202.94 -102.78 328.38 -267.61 328.38 c
-85.99 0 -146.9 -32.17 -193.48 -102.44 c
0 330.41 h
49228.3 33366.1 m
111.08 0 182.78 -96.84 182.78 -246.18 c
0 -142.16 -74.09 -238.93 -182.78 -238.93 c
-105.1 0 -174.37 95.57 -174.37 242.51 c
0 146.94 69.27 242.59 174.37 242.59 c
h
f
50106 32815.5 0 625.53 -98.94 0 0 -354.69 P
0 -127.76 -67.02 -211.34 -171.02 -211.34 c
-78.91 0 -129.12 47.76 -129.12 122.98 c
0 443.05 -98.94 0 0 -482.31 p
0 -103.83 77.55 -170.66 199.26 -170.66 c
91.88 0 150.34 32.22 208.81 114.57 c
0 -87.13 h
f
50493.8 33441 -102.89 0 0 172.6 -98.94 0 ^ -85 0 0 -80.95 ^ 
0 -472.92 P
0 -63.29 42.98 -99.11 120.6 -99.11 c
23.88 0 47.76 2.38 81.23 8.32 c
0 83.21 p
-13.18 -3.44 -28.73 -4.59 -47.87 -4.59 c
-43.05 0 -55.02 11.95 -55.02 56.15 c
0 428.93 102.89 0 h
f
50699 33441 -99.94 0 0 -626 ^ H
50699 33687 -99.94 0 0 -125.98 ^ H
f
51115.2 33459 m
-175.78 0 -282.21 -125.44 -282.21 -335.54 c
0 -210.11 105.23 -335.45 283.4 -335.45 c
175.79 0 283.5 125.34 283.5 330.67 c
0 216.07 -104.12 340.31 -284.69 340.31 c
h
51116.5 33367.1 m
112.49 0 179.53 -91.96 179.53 -247.15 c
0 -146.84 -69.43 -239.95 -179.53 -239.95 c
-111.29 0 -179.5 91.92 -179.5 243.53 c
0 150.41 68.21 243.57 179.5 243.57 c
h
f
51534 33441 0 -625.99 99.94 0 0 345.42 P
0 127.89 67 211.65 169.89 211.65 c
78.96 0 129.25 -47.9 129.25 -123.2 c
0 -433.87 98.94 0 0 473.07 p
0 103.94 -77.71 170.94 -198.31 170.94 c
-93.13 0 -152.84 -35.94 -207.76 -123.15 c
0 105.13 h
f
cleartomark end end pagesave restore
 showpage
%%PageTrailer
%%Trailer
%%Pages: 1
cleartomark
countdictstack
exch sub { end } repeat
restore
showpage
%%EOF
